# BEGIN PLOT
LegendOnly=/zj_ps_nlo_mer_mur0.5_muf1_R8.yoda/PAPER_FIN_R4/lin_l05_pT_65_88
DrawOnly=/zj_ps_nlo_mer_mur0.5_muf1_R8.yoda/PAPER_FIN_R4/lin_l05_pT_65_88
Legend=1
LogY=1
# END PLOT

# BEGIN HISTO1D /zj_ps_nlo_mer_mur0.5_muf1_R8.yoda/PAPER_FIN_R4/lin_l05_pT_65_88
LineColor=red
LineStyle=solid
Path=/zj_ps_nlo_mer_mur0.5_muf1_R8.yoda/PAPER_FIN_R4/lin_l05_pT_65_88
Title=zj_ps_nlo_mer_mur0.5_muf1_R8
XLabel=~
YLabel=~
# xlow	 xhigh	 val	 errminus	 errplus
0.000000e+00	1.700000e-01	1.078364e+10	2.067406e+07	2.067406e+07
1.700000e-01	2.500000e-01	7.061013e+10	7.666944e+07	7.666944e+07
2.500000e-01	3.200000e-01	9.731624e+10	9.477969e+07	9.477969e+07
3.200000e-01	3.800000e-01	8.056935e+10	9.154011e+07	9.154011e+07
3.800000e-01	4.500000e-01	5.188864e+10	6.597761e+07	6.597761e+07
4.500000e-01	5.200000e-01	2.883503e+10	4.819596e+07	4.819596e+07
5.200000e-01	5.900000e-01	1.528363e+10	3.514275e+07	3.514275e+07
5.900000e-01	1.000000e+00	1.607678e+09	4.583166e+06	4.583166e+06
# END HISTO1D

