# BEGIN PLOT
LegendOnly=/zj_ps_nlo_mer_mur0.5_muf1_R8.yoda/PAPER_FIN_R4/ch_l05_pT_408_1500
DrawOnly=/zj_ps_nlo_mer_mur0.5_muf1_R8.yoda/PAPER_FIN_R4/ch_l05_pT_408_1500
Legend=1
LogY=1
# END PLOT

# BEGIN HISTO1D /zj_ps_nlo_mer_mur0.5_muf1_R8.yoda/PAPER_FIN_R4/ch_l05_pT_408_1500
LineColor=red
LineStyle=solid
Path=/zj_ps_nlo_mer_mur0.5_muf1_R8.yoda/PAPER_FIN_R4/ch_l05_pT_408_1500
Title=zj_ps_nlo_mer_mur0.5_muf1_R8
XLabel=~
YLabel=~
# xlow	 xhigh	 val	 errminus	 errplus
-7.000000e+00	-6.930000e+00	0.000000e+00	0.000000e+00	0.000000e+00
-6.930000e+00	-6.860000e+00	7.826329e+05	1.331225e+05	1.331225e+05
-6.860000e+00	-6.790000e+00	0.000000e+00	0.000000e+00	0.000000e+00
-6.790000e+00	-6.720000e+00	0.000000e+00	0.000000e+00	0.000000e+00
-6.720000e+00	-6.650000e+00	0.000000e+00	0.000000e+00	0.000000e+00
-6.650000e+00	-6.580000e+00	0.000000e+00	0.000000e+00	0.000000e+00
-6.580000e+00	-6.510000e+00	0.000000e+00	0.000000e+00	0.000000e+00
-6.510000e+00	-6.440000e+00	0.000000e+00	0.000000e+00	0.000000e+00
-6.440000e+00	-6.370000e+00	0.000000e+00	0.000000e+00	0.000000e+00
-6.370000e+00	-6.300000e+00	0.000000e+00	0.000000e+00	0.000000e+00
-6.300000e+00	-6.230000e+00	0.000000e+00	0.000000e+00	0.000000e+00
-6.230000e+00	-6.160000e+00	0.000000e+00	0.000000e+00	0.000000e+00
-6.160000e+00	-6.090000e+00	0.000000e+00	0.000000e+00	0.000000e+00
-6.090000e+00	-6.020000e+00	0.000000e+00	0.000000e+00	0.000000e+00
-6.020000e+00	-5.950000e+00	0.000000e+00	0.000000e+00	0.000000e+00
-5.950000e+00	-5.880000e+00	0.000000e+00	0.000000e+00	0.000000e+00
-5.880000e+00	-5.810000e+00	0.000000e+00	0.000000e+00	0.000000e+00
-5.810000e+00	-5.740000e+00	0.000000e+00	0.000000e+00	0.000000e+00
-5.740000e+00	-5.670000e+00	0.000000e+00	0.000000e+00	0.000000e+00
-5.670000e+00	-5.600000e+00	0.000000e+00	0.000000e+00	0.000000e+00
-5.600000e+00	-5.530000e+00	0.000000e+00	0.000000e+00	0.000000e+00
-5.530000e+00	-5.460000e+00	0.000000e+00	0.000000e+00	0.000000e+00
-5.460000e+00	-5.390000e+00	0.000000e+00	0.000000e+00	0.000000e+00
-5.390000e+00	-5.320000e+00	0.000000e+00	0.000000e+00	0.000000e+00
-5.320000e+00	-5.250000e+00	0.000000e+00	0.000000e+00	0.000000e+00
-5.250000e+00	-5.180000e+00	0.000000e+00	0.000000e+00	0.000000e+00
-5.180000e+00	-5.110000e+00	0.000000e+00	0.000000e+00	0.000000e+00
-5.110000e+00	-5.040000e+00	0.000000e+00	0.000000e+00	0.000000e+00
-5.040000e+00	-4.970000e+00	0.000000e+00	0.000000e+00	0.000000e+00
-4.970000e+00	-4.900000e+00	0.000000e+00	0.000000e+00	0.000000e+00
-4.900000e+00	-4.830000e+00	0.000000e+00	0.000000e+00	0.000000e+00
-4.830000e+00	-4.760000e+00	0.000000e+00	0.000000e+00	0.000000e+00
-4.760000e+00	-4.690000e+00	0.000000e+00	0.000000e+00	0.000000e+00
-4.690000e+00	-4.620000e+00	0.000000e+00	0.000000e+00	0.000000e+00
-4.620000e+00	-4.550000e+00	0.000000e+00	0.000000e+00	0.000000e+00
-4.550000e+00	-4.480000e+00	0.000000e+00	0.000000e+00	0.000000e+00
-4.480000e+00	-4.410000e+00	0.000000e+00	0.000000e+00	0.000000e+00
-4.410000e+00	-4.340000e+00	0.000000e+00	0.000000e+00	0.000000e+00
-4.340000e+00	-4.270000e+00	0.000000e+00	0.000000e+00	0.000000e+00
-4.270000e+00	-4.200000e+00	0.000000e+00	0.000000e+00	0.000000e+00
-4.200000e+00	-4.130000e+00	0.000000e+00	0.000000e+00	0.000000e+00
-4.130000e+00	-4.060000e+00	0.000000e+00	0.000000e+00	0.000000e+00
-4.060000e+00	-3.990000e+00	0.000000e+00	0.000000e+00	0.000000e+00
-3.990000e+00	-3.920000e+00	0.000000e+00	0.000000e+00	0.000000e+00
-3.920000e+00	-3.850000e+00	0.000000e+00	0.000000e+00	0.000000e+00
-3.850000e+00	-3.780000e+00	0.000000e+00	0.000000e+00	0.000000e+00
-3.780000e+00	-3.710000e+00	4.383629e+02	3.761235e+02	3.761235e+02
-3.710000e+00	-3.640000e+00	0.000000e+00	0.000000e+00	0.000000e+00
-3.640000e+00	-3.570000e+00	6.488244e+04	6.198428e+04	6.198428e+04
-3.570000e+00	-3.500000e+00	1.828916e+02	1.761114e+02	1.761114e+02
-3.500000e+00	-3.430000e+00	4.913449e+02	3.557258e+02	3.557258e+02
-3.430000e+00	-3.360000e+00	8.950927e+03	6.186039e+03	6.186039e+03
-3.360000e+00	-3.290000e+00	1.216540e+02	9.235282e+01	9.235282e+01
-3.290000e+00	-3.220000e+00	3.856970e+03	3.856971e+03	3.856971e+03
-3.220000e+00	-3.150000e+00	1.073020e+01	1.073031e+01	1.073031e+01
-3.150000e+00	-3.080000e+00	3.265549e+03	2.325831e+03	2.325831e+03
-3.080000e+00	-3.010000e+00	4.327810e+03	2.853242e+03	2.853242e+03
-3.010000e+00	-2.940000e+00	6.847011e+03	4.872157e+03	4.872157e+03
-2.940000e+00	-2.870000e+00	2.457143e+04	1.728184e+04	1.728184e+04
-2.870000e+00	-2.800000e+00	4.068379e+04	2.145730e+04	2.145730e+04
-2.800000e+00	-2.730000e+00	2.982774e+04	1.621689e+04	1.621689e+04
-2.730000e+00	-2.660000e+00	3.194076e+04	1.711381e+04	1.711381e+04
-2.660000e+00	-2.590000e+00	1.123611e+05	9.932917e+04	9.932917e+04
-2.590000e+00	-2.520000e+00	5.287424e+04	3.109924e+04	3.109924e+04
-2.520000e+00	-2.450000e+00	1.204887e+05	6.154723e+04	6.154723e+04
-2.450000e+00	-2.380000e+00	7.153130e+04	3.433650e+04	3.433650e+04
-2.380000e+00	-2.310000e+00	1.029415e+05	3.322808e+04	3.322808e+04
-2.310000e+00	-2.240000e+00	4.407143e+05	2.146001e+05	2.146001e+05
-2.240000e+00	-2.170000e+00	2.599891e+05	7.673320e+04	7.673320e+04
-2.170000e+00	-2.100000e+00	2.591741e+05	7.935732e+04	7.935732e+04
-2.100000e+00	-2.030000e+00	3.415543e+05	7.495182e+04	7.495182e+04
-2.030000e+00	-1.960000e+00	6.032819e+05	1.562761e+05	1.562761e+05
-1.960000e+00	-1.890000e+00	9.585773e+05	2.195005e+05	2.195005e+05
-1.890000e+00	-1.820000e+00	1.276863e+06	1.947573e+05	1.947573e+05
-1.820000e+00	-1.750000e+00	1.432680e+06	1.581401e+05	1.581401e+05
-1.750000e+00	-1.680000e+00	2.037906e+06	1.595586e+05	1.595586e+05
-1.680000e+00	-1.610000e+00	4.084720e+06	4.010867e+05	4.010867e+05
-1.610000e+00	-1.540000e+00	6.674586e+06	6.185840e+05	6.185840e+05
-1.540000e+00	-1.470000e+00	1.079195e+07	7.298882e+05	7.298882e+05
-1.470000e+00	-1.400000e+00	1.822513e+07	1.393130e+06	1.393130e+06
-1.400000e+00	-1.330000e+00	2.736334e+07	1.075998e+06	1.075998e+06
-1.330000e+00	-1.260000e+00	5.118461e+07	4.356084e+06	4.356084e+06
-1.260000e+00	-1.190000e+00	8.352600e+07	3.048573e+06	3.048573e+06
-1.190000e+00	-1.120000e+00	1.270824e+08	2.603811e+06	2.603811e+06
-1.120000e+00	-1.050000e+00	1.958776e+08	3.185612e+06	3.185612e+06
-1.050000e+00	-9.800000e-01	2.808750e+08	3.845174e+06	3.845174e+06
-9.800000e-01	-9.100000e-01	3.691853e+08	4.990217e+06	4.990217e+06
-9.100000e-01	-8.400000e-01	4.152640e+08	4.632741e+06	4.632741e+06
-8.400000e-01	-7.700000e-01	4.535906e+08	5.522270e+06	5.522270e+06
-7.700000e-01	-7.000000e-01	4.501553e+08	4.685355e+06	4.685355e+06
-7.000000e-01	-6.300000e-01	4.387416e+08	5.096680e+06	5.096680e+06
-6.300000e-01	-5.600000e-01	4.029644e+08	4.296525e+06	4.296525e+06
-5.600000e-01	-4.900000e-01	3.514313e+08	4.575083e+06	4.575083e+06
-4.900000e-01	-4.200000e-01	2.980546e+08	4.208936e+06	4.208936e+06
-4.200000e-01	-3.500000e-01	2.224143e+08	3.171733e+06	3.171733e+06
-3.500000e-01	-2.800000e-01	1.512261e+08	3.208132e+06	3.208132e+06
-2.800000e-01	-2.100000e-01	6.899641e+07	1.917349e+06	1.917349e+06
-2.100000e-01	-1.400000e-01	1.446997e+07	7.510886e+05	7.510886e+05
-1.400000e-01	-7.000000e-02	6.120286e+05	1.810157e+05	1.810157e+05
-7.000000e-02	0.000000e+00	2.951933e+01	2.951932e+01	2.951932e+01
# END HISTO1D

