# BEGIN PLOT
LegendOnly=/zj_ps_nlo_mer_mur0.5_muf1_R8.yoda/PAPER_FIN_R4_CH/lin_l05_pT_88_120
DrawOnly=/zj_ps_nlo_mer_mur0.5_muf1_R8.yoda/PAPER_FIN_R4_CH/lin_l05_pT_88_120
Legend=1
LogY=1
# END PLOT

# BEGIN HISTO1D /zj_ps_nlo_mer_mur0.5_muf1_R8.yoda/PAPER_FIN_R4_CH/lin_l05_pT_88_120
LineColor=red
LineStyle=solid
Path=/zj_ps_nlo_mer_mur0.5_muf1_R8.yoda/PAPER_FIN_R4_CH/lin_l05_pT_88_120
Title=zj_ps_nlo_mer_mur0.5_muf1_R8
XLabel=~
YLabel=~
# xlow	 xhigh	 val	 errminus	 errplus
0.000000e+00	6.000000e-02	4.101817e+08	6.497927e+06	6.497927e+06
6.000000e-02	1.100000e-01	5.075334e+09	2.659456e+07	2.659456e+07
1.100000e-01	1.500000e-01	1.802003e+10	5.449300e+07	5.449300e+07
1.500000e-01	1.900000e-01	3.843640e+10	8.041455e+07	8.041455e+07
1.900000e-01	2.300000e-01	5.814150e+10	9.824517e+07	9.824517e+07
2.300000e-01	2.700000e-01	6.599705e+10	1.036715e+08	1.036715e+08
2.700000e-01	3.100000e-01	6.016998e+10	9.698866e+07	9.698866e+07
3.100000e-01	3.500000e-01	4.794308e+10	8.556858e+07	8.556858e+07
3.500000e-01	3.900000e-01	3.574770e+10	7.195628e+07	7.195628e+07
3.900000e-01	4.400000e-01	2.512326e+10	5.335007e+07	5.335007e+07
4.400000e-01	4.900000e-01	1.681339e+10	4.303183e+07	4.303183e+07
4.900000e-01	5.400000e-01	1.119553e+10	3.503381e+07	3.503381e+07
5.400000e-01	6.000000e-01	6.750015e+09	2.513007e+07	2.513007e+07
6.000000e-01	1.000000e+00	6.917465e+08	3.022276e+06	3.022276e+06
# END HISTO1D

