# BEGIN PLOT
LegendOnly=/zj_ps_nlo_mer_mur0.5_muf1_R8.yoda/PAPER_FIN_R4/ch_SD_l20_pT_150_186
DrawOnly=/zj_ps_nlo_mer_mur0.5_muf1_R8.yoda/PAPER_FIN_R4/ch_SD_l20_pT_150_186
Legend=1
LogY=1
# END PLOT

# BEGIN HISTO1D /zj_ps_nlo_mer_mur0.5_muf1_R8.yoda/PAPER_FIN_R4/ch_SD_l20_pT_150_186
LineColor=red
LineStyle=solid
Path=/zj_ps_nlo_mer_mur0.5_muf1_R8.yoda/PAPER_FIN_R4/ch_SD_l20_pT_150_186
Title=zj_ps_nlo_mer_mur0.5_muf1_R8
XLabel=~
YLabel=~
# xlow	 xhigh	 val	 errminus	 errplus
-7.000000e+00	-6.930000e+00	1.804579e+05	6.633762e+04	6.633762e+04
-6.930000e+00	-6.860000e+00	1.224281e+09	1.025143e+07	1.025143e+07
-6.860000e+00	-6.790000e+00	3.646019e+05	1.326438e+05	1.326438e+05
-6.790000e+00	-6.720000e+00	5.951411e+05	3.741748e+05	3.741748e+05
-6.720000e+00	-6.650000e+00	3.285737e+05	1.274396e+05	1.274396e+05
-6.650000e+00	-6.580000e+00	3.752160e+05	9.914890e+04	9.914890e+04
-6.580000e+00	-6.510000e+00	7.463606e+05	2.202263e+05	2.202263e+05
-6.510000e+00	-6.440000e+00	1.002625e+06	2.743843e+05	2.743843e+05
-6.440000e+00	-6.370000e+00	1.312778e+06	4.825919e+05	4.825919e+05
-6.370000e+00	-6.300000e+00	1.294513e+06	3.036928e+05	3.036928e+05
-6.300000e+00	-6.230000e+00	1.267734e+06	3.635794e+05	3.635794e+05
-6.230000e+00	-6.160000e+00	1.592511e+06	4.463130e+05	4.463130e+05
-6.160000e+00	-6.090000e+00	1.798234e+06	4.546346e+05	4.546346e+05
-6.090000e+00	-6.020000e+00	2.047594e+06	3.787507e+05	3.787507e+05
-6.020000e+00	-5.950000e+00	2.707623e+06	5.683846e+05	5.683846e+05
-5.950000e+00	-5.880000e+00	1.969903e+06	3.348875e+05	3.348875e+05
-5.880000e+00	-5.810000e+00	3.056847e+06	3.849674e+05	3.849674e+05
-5.810000e+00	-5.740000e+00	3.579120e+06	5.714512e+05	5.714512e+05
-5.740000e+00	-5.670000e+00	3.562897e+06	5.643184e+05	5.643184e+05
-5.670000e+00	-5.600000e+00	5.521509e+06	7.296007e+05	7.296007e+05
-5.600000e+00	-5.530000e+00	6.891704e+06	9.235215e+05	9.235215e+05
-5.530000e+00	-5.460000e+00	6.318384e+06	6.294337e+05	6.294337e+05
-5.460000e+00	-5.390000e+00	7.378391e+06	6.837232e+05	6.837232e+05
-5.390000e+00	-5.320000e+00	1.287152e+07	3.265200e+06	3.265200e+06
-5.320000e+00	-5.250000e+00	1.089776e+07	1.111559e+06	1.111559e+06
-5.250000e+00	-5.180000e+00	1.163510e+07	8.663078e+05	8.663078e+05
-5.180000e+00	-5.110000e+00	1.521100e+07	1.198100e+06	1.198100e+06
-5.110000e+00	-5.040000e+00	1.885164e+07	1.259612e+06	1.259612e+06
-5.040000e+00	-4.970000e+00	2.137966e+07	1.568761e+06	1.568761e+06
-4.970000e+00	-4.900000e+00	2.410120e+07	1.320136e+06	1.320136e+06
-4.900000e+00	-4.830000e+00	2.621404e+07	1.595286e+06	1.595286e+06
-4.830000e+00	-4.760000e+00	3.359569e+07	1.780649e+06	1.780649e+06
-4.760000e+00	-4.690000e+00	3.539626e+07	1.663605e+06	1.663605e+06
-4.690000e+00	-4.620000e+00	4.573774e+07	1.919668e+06	1.919668e+06
-4.620000e+00	-4.550000e+00	5.173254e+07	2.102493e+06	2.102493e+06
-4.550000e+00	-4.480000e+00	6.479306e+07	2.508371e+06	2.508371e+06
-4.480000e+00	-4.410000e+00	7.429821e+07	3.135532e+06	3.135532e+06
-4.410000e+00	-4.340000e+00	8.813253e+07	2.997625e+06	2.997625e+06
-4.340000e+00	-4.270000e+00	9.784423e+07	2.755744e+06	2.755744e+06
-4.270000e+00	-4.200000e+00	1.240689e+08	3.446184e+06	3.446184e+06
-4.200000e+00	-4.130000e+00	1.441896e+08	3.502047e+06	3.502047e+06
-4.130000e+00	-4.060000e+00	1.758041e+08	3.906690e+06	3.906690e+06
-4.060000e+00	-3.990000e+00	2.011180e+08	4.049279e+06	4.049279e+06
-3.990000e+00	-3.920000e+00	2.424460e+08	4.604711e+06	4.604711e+06
-3.920000e+00	-3.850000e+00	2.790739e+08	4.810789e+06	4.810789e+06
-3.850000e+00	-3.780000e+00	3.252599e+08	5.261846e+06	5.261846e+06
-3.780000e+00	-3.710000e+00	3.771954e+08	5.692193e+06	5.692193e+06
-3.710000e+00	-3.640000e+00	4.388709e+08	7.440870e+06	7.440870e+06
-3.640000e+00	-3.570000e+00	4.889463e+08	8.822678e+06	8.822678e+06
-3.570000e+00	-3.500000e+00	5.495253e+08	6.867694e+06	6.867694e+06
-3.500000e+00	-3.430000e+00	6.421114e+08	7.752532e+06	7.752532e+06
-3.430000e+00	-3.360000e+00	7.057187e+08	8.132546e+06	8.132546e+06
-3.360000e+00	-3.290000e+00	7.765530e+08	9.206184e+06	9.206184e+06
-3.290000e+00	-3.220000e+00	8.860993e+08	9.269383e+06	9.269383e+06
-3.220000e+00	-3.150000e+00	9.397670e+08	8.789992e+06	8.789992e+06
-3.150000e+00	-3.080000e+00	1.044125e+09	9.526437e+06	9.526437e+06
-3.080000e+00	-3.010000e+00	1.149347e+09	1.069707e+07	1.069707e+07
-3.010000e+00	-2.940000e+00	1.253866e+09	1.147545e+07	1.147545e+07
-2.940000e+00	-2.870000e+00	1.294633e+09	1.060622e+07	1.060622e+07
-2.870000e+00	-2.800000e+00	1.366896e+09	1.092839e+07	1.092839e+07
-2.800000e+00	-2.730000e+00	1.424613e+09	1.106151e+07	1.106151e+07
-2.730000e+00	-2.660000e+00	1.494589e+09	1.174019e+07	1.174019e+07
-2.660000e+00	-2.590000e+00	1.564016e+09	1.183104e+07	1.183104e+07
-2.590000e+00	-2.520000e+00	1.569634e+09	1.160901e+07	1.160901e+07
-2.520000e+00	-2.450000e+00	1.619301e+09	1.169693e+07	1.169693e+07
-2.450000e+00	-2.380000e+00	1.644336e+09	1.165749e+07	1.165749e+07
-2.380000e+00	-2.310000e+00	1.648789e+09	1.137850e+07	1.137850e+07
-2.310000e+00	-2.240000e+00	1.669587e+09	1.173595e+07	1.173595e+07
-2.240000e+00	-2.170000e+00	1.644220e+09	1.150359e+07	1.150359e+07
-2.170000e+00	-2.100000e+00	1.615173e+09	1.169396e+07	1.169396e+07
-2.100000e+00	-2.030000e+00	1.552949e+09	1.103110e+07	1.103110e+07
-2.030000e+00	-1.960000e+00	1.511576e+09	1.127700e+07	1.127700e+07
-1.960000e+00	-1.890000e+00	1.439999e+09	1.046943e+07	1.046943e+07
-1.890000e+00	-1.820000e+00	1.390374e+09	1.023646e+07	1.023646e+07
-1.820000e+00	-1.750000e+00	1.368185e+09	1.002863e+07	1.002863e+07
-1.750000e+00	-1.680000e+00	1.364145e+09	1.077257e+07	1.077257e+07
-1.680000e+00	-1.610000e+00	1.338308e+09	1.006412e+07	1.006412e+07
-1.610000e+00	-1.540000e+00	1.309355e+09	9.998366e+06	9.998366e+06
-1.540000e+00	-1.470000e+00	1.315958e+09	1.038357e+07	1.038357e+07
-1.470000e+00	-1.400000e+00	1.328476e+09	1.055046e+07	1.055046e+07
-1.400000e+00	-1.330000e+00	1.339961e+09	9.988944e+06	9.988944e+06
-1.330000e+00	-1.260000e+00	1.359792e+09	1.044261e+07	1.044261e+07
-1.260000e+00	-1.190000e+00	1.428797e+09	1.067770e+07	1.067770e+07
-1.190000e+00	-1.120000e+00	1.453639e+09	1.045864e+07	1.045864e+07
-1.120000e+00	-1.050000e+00	1.507249e+09	1.065613e+07	1.065613e+07
-1.050000e+00	-9.800000e-01	1.537543e+09	1.234863e+07	1.234863e+07
-9.800000e-01	-9.100000e-01	1.507594e+09	1.085872e+07	1.085872e+07
-9.100000e-01	-8.400000e-01	1.398478e+09	1.049343e+07	1.049343e+07
-8.400000e-01	-7.700000e-01	1.235800e+09	9.557728e+06	9.557728e+06
-7.700000e-01	-7.000000e-01	1.036968e+09	8.780549e+06	8.780549e+06
-7.000000e-01	-6.300000e-01	8.042503e+08	9.017881e+06	9.017881e+06
-6.300000e-01	-5.600000e-01	5.223679e+08	6.539684e+06	6.539684e+06
-5.600000e-01	-4.900000e-01	1.850576e+08	3.465360e+06	3.465360e+06
-4.900000e-01	-4.200000e-01	3.684439e+07	1.514097e+06	1.514097e+06
-4.200000e-01	-3.500000e-01	3.943404e+06	5.236608e+05	5.236608e+05
-3.500000e-01	-2.800000e-01	3.775556e+04	1.756078e+04	1.756078e+04
-2.800000e-01	-2.100000e-01	0.000000e+00	0.000000e+00	0.000000e+00
-2.100000e-01	-1.400000e-01	0.000000e+00	0.000000e+00	0.000000e+00
-1.400000e-01	-7.000000e-02	0.000000e+00	0.000000e+00	0.000000e+00
-7.000000e-02	0.000000e+00	0.000000e+00	0.000000e+00	0.000000e+00
# END HISTO1D

