# BEGIN PLOT
LegendOnly=/zj_ps_nlo_mer_mur0.5_muf1_R8.yoda/PAPER_FIN_R4/ch_lin_SD_l05_pT_186_254
DrawOnly=/zj_ps_nlo_mer_mur0.5_muf1_R8.yoda/PAPER_FIN_R4/ch_lin_SD_l05_pT_186_254
Legend=1
LogY=1
# END PLOT

# BEGIN HISTO1D /zj_ps_nlo_mer_mur0.5_muf1_R8.yoda/PAPER_FIN_R4/ch_lin_SD_l05_pT_186_254
LineColor=red
LineStyle=solid
Path=/zj_ps_nlo_mer_mur0.5_muf1_R8.yoda/PAPER_FIN_R4/ch_lin_SD_l05_pT_186_254
Title=zj_ps_nlo_mer_mur0.5_muf1_R8
XLabel=~
YLabel=~
# xlow	 xhigh	 val	 errminus	 errplus
0.000000e+00	6.000000e-02	4.860002e+09	2.270346e+07	2.270346e+07
6.000000e-02	9.000000e-02	9.831913e+09	4.347270e+07	4.347270e+07
9.000000e-02	1.200000e-01	1.194144e+10	4.744049e+07	4.744049e+07
1.200000e-01	1.500000e-01	1.192327e+10	4.667140e+07	4.667140e+07
1.500000e-01	1.900000e-01	1.023115e+10	3.682183e+07	3.682183e+07
1.900000e-01	2.300000e-01	8.124797e+09	3.241442e+07	3.241442e+07
2.300000e-01	2.700000e-01	6.432575e+09	2.905488e+07	2.905488e+07
2.700000e-01	3.200000e-01	5.100630e+09	2.293956e+07	2.293956e+07
3.200000e-01	3.700000e-01	3.944904e+09	1.945048e+07	1.945048e+07
3.700000e-01	4.200000e-01	2.969492e+09	1.704404e+07	1.704404e+07
4.200000e-01	4.800000e-01	2.080110e+09	1.288445e+07	1.288445e+07
4.800000e-01	5.400000e-01	1.346811e+09	1.054161e+07	1.054161e+07
5.400000e-01	6.000000e-01	7.220275e+08	7.896263e+06	7.896263e+06
6.000000e-01	1.000000e+00	5.685898e+07	7.929234e+05	7.929234e+05
# END HISTO1D

