# BEGIN PLOT
LegendOnly=/herwig_ps_lo_r8_pt50_s1_1e3.yoda/PAPER_FIN_R8/XS_CUTS_pT_408_1500
DrawOnly=/herwig_ps_lo_r8_pt50_s1_1e3.yoda/PAPER_FIN_R8/XS_CUTS_pT_408_1500
Legend=1
LogY=1
# END PLOT

# BEGIN HISTO1D /herwig_ps_lo_r8_pt50_s1_1e3.yoda/PAPER_FIN_R8/XS_CUTS_pT_408_1500
LineColor=red
LineStyle=solid
Path=/herwig_ps_lo_r8_pt50_s1_1e3.yoda/PAPER_FIN_R8/XS_CUTS_pT_408_1500
Title=herwig_ps_lo_r8_pt50_s1_1e3
XLabel=~
YLabel=~
# xlow	 xhigh	 val	 errminus	 errplus
-5.000000e-01	5.000000e-01	7.015604e+01	2.223436e+00	2.223436e+00
# END HISTO1D

