# BEGIN PLOT
LegendOnly=/herwig_ps_lo_r8_pt50_s1_1e3.yoda/PAPER_FIN_R8/ch_l20_pT_150_186
DrawOnly=/herwig_ps_lo_r8_pt50_s1_1e3.yoda/PAPER_FIN_R8/ch_l20_pT_150_186
Legend=1
LogY=1
# END PLOT

# BEGIN HISTO1D /herwig_ps_lo_r8_pt50_s1_1e3.yoda/PAPER_FIN_R8/ch_l20_pT_150_186
LineColor=red
LineStyle=solid
Path=/herwig_ps_lo_r8_pt50_s1_1e3.yoda/PAPER_FIN_R8/ch_l20_pT_150_186
Title=herwig_ps_lo_r8_pt50_s1_1e3
XLabel=~
YLabel=~
# xlow	 xhigh	 val	 errminus	 errplus
-7.000000e+00	-6.930000e+00	0.000000e+00	0.000000e+00	0.000000e+00
-6.930000e+00	-6.860000e+00	4.015710e+07	2.395385e+04	2.395385e+04
-6.860000e+00	-6.790000e+00	0.000000e+00	0.000000e+00	0.000000e+00
-6.790000e+00	-6.720000e+00	0.000000e+00	0.000000e+00	0.000000e+00
-6.720000e+00	-6.650000e+00	0.000000e+00	0.000000e+00	0.000000e+00
-6.650000e+00	-6.580000e+00	0.000000e+00	0.000000e+00	0.000000e+00
-6.580000e+00	-6.510000e+00	0.000000e+00	0.000000e+00	0.000000e+00
-6.510000e+00	-6.440000e+00	0.000000e+00	0.000000e+00	0.000000e+00
-6.440000e+00	-6.370000e+00	0.000000e+00	0.000000e+00	0.000000e+00
-6.370000e+00	-6.300000e+00	0.000000e+00	0.000000e+00	0.000000e+00
-6.300000e+00	-6.230000e+00	0.000000e+00	0.000000e+00	0.000000e+00
-6.230000e+00	-6.160000e+00	0.000000e+00	0.000000e+00	0.000000e+00
-6.160000e+00	-6.090000e+00	0.000000e+00	0.000000e+00	0.000000e+00
-6.090000e+00	-6.020000e+00	0.000000e+00	0.000000e+00	0.000000e+00
-6.020000e+00	-5.950000e+00	0.000000e+00	0.000000e+00	0.000000e+00
-5.950000e+00	-5.880000e+00	0.000000e+00	0.000000e+00	0.000000e+00
-5.880000e+00	-5.810000e+00	0.000000e+00	0.000000e+00	0.000000e+00
-5.810000e+00	-5.740000e+00	0.000000e+00	0.000000e+00	0.000000e+00
-5.740000e+00	-5.670000e+00	0.000000e+00	0.000000e+00	0.000000e+00
-5.670000e+00	-5.600000e+00	0.000000e+00	0.000000e+00	0.000000e+00
-5.600000e+00	-5.530000e+00	1.428571e+01	1.428571e+01	1.428571e+01
-5.530000e+00	-5.460000e+00	0.000000e+00	0.000000e+00	0.000000e+00
-5.460000e+00	-5.390000e+00	0.000000e+00	0.000000e+00	0.000000e+00
-5.390000e+00	-5.320000e+00	0.000000e+00	0.000000e+00	0.000000e+00
-5.320000e+00	-5.250000e+00	0.000000e+00	0.000000e+00	0.000000e+00
-5.250000e+00	-5.180000e+00	0.000000e+00	0.000000e+00	0.000000e+00
-5.180000e+00	-5.110000e+00	0.000000e+00	0.000000e+00	0.000000e+00
-5.110000e+00	-5.040000e+00	2.857143e+01	2.020305e+01	2.020305e+01
-5.040000e+00	-4.970000e+00	4.285714e+01	2.474358e+01	2.474358e+01
-4.970000e+00	-4.900000e+00	5.714286e+01	2.857143e+01	2.857143e+01
-4.900000e+00	-4.830000e+00	2.857143e+01	2.020305e+01	2.020305e+01
-4.830000e+00	-4.760000e+00	4.285714e+01	2.474358e+01	2.474358e+01
-4.760000e+00	-4.690000e+00	7.142857e+01	3.194383e+01	3.194383e+01
-4.690000e+00	-4.620000e+00	2.983694e+01	2.111688e+01	2.111688e+01
-4.620000e+00	-4.550000e+00	5.750781e+01	2.875565e+01	2.875565e+01
-4.550000e+00	-4.480000e+00	2.857143e+01	2.020305e+01	2.020305e+01
-4.480000e+00	-4.410000e+00	2.857143e+01	2.020305e+01	2.020305e+01
-4.410000e+00	-4.340000e+00	8.571429e+01	3.499271e+01	3.499271e+01
-4.340000e+00	-4.270000e+00	1.298369e+02	4.329543e+01	4.329543e+01
-4.270000e+00	-4.200000e+00	8.571429e+01	3.499271e+01	3.499271e+01
-4.200000e+00	-4.130000e+00	8.571429e+01	3.499271e+01	3.499271e+01
-4.130000e+00	-4.060000e+00	1.571429e+02	4.738035e+01	4.738035e+01
-4.060000e+00	-3.990000e+00	1.714286e+02	4.948717e+01	4.948717e+01
-3.990000e+00	-3.920000e+00	2.717936e+02	6.235473e+01	6.235473e+01
-3.920000e+00	-3.850000e+00	3.003650e+02	6.554598e+01	6.554598e+01
-3.850000e+00	-3.780000e+00	3.285714e+02	6.851188e+01	6.851188e+01
-3.780000e+00	-3.710000e+00	3.857143e+02	7.423075e+01	7.423075e+01
-3.710000e+00	-3.640000e+00	8.582377e+02	1.107997e+02	1.107997e+02
-3.640000e+00	-3.570000e+00	1.802190e+03	1.605542e+02	1.605542e+02
-3.570000e+00	-3.500000e+00	3.375971e+03	2.197653e+02	2.197653e+02
-3.500000e+00	-3.430000e+00	5.336966e+03	2.763428e+02	2.763428e+02
-3.430000e+00	-3.360000e+00	7.810949e+03	3.342834e+02	3.342834e+02
-3.360000e+00	-3.290000e+00	1.201131e+04	4.144345e+02	4.144345e+02
-3.290000e+00	-3.220000e+00	1.454754e+04	4.561800e+02	4.561800e+02
-3.220000e+00	-3.150000e+00	1.909516e+04	5.226237e+02	5.226237e+02
-3.150000e+00	-3.080000e+00	2.354436e+04	5.806327e+02	5.806327e+02
-3.080000e+00	-3.010000e+00	2.894850e+04	6.434694e+02	6.434694e+02
-3.010000e+00	-2.940000e+00	3.405809e+04	6.979869e+02	6.979869e+02
-2.940000e+00	-2.870000e+00	4.151777e+04	7.705778e+02	7.705778e+02
-2.870000e+00	-2.800000e+00	4.656013e+04	8.161476e+02	8.161476e+02
-2.800000e+00	-2.730000e+00	5.260709e+04	8.674508e+02	8.674508e+02
-2.730000e+00	-2.660000e+00	5.778933e+04	9.090946e+02	9.090946e+02
-2.660000e+00	-2.590000e+00	6.456550e+04	9.608980e+02	9.608980e+02
-2.590000e+00	-2.520000e+00	7.104187e+04	1.007926e+03	1.007926e+03
-2.520000e+00	-2.450000e+00	7.659417e+04	1.046828e+03	1.046828e+03
-2.450000e+00	-2.380000e+00	8.518746e+04	1.103757e+03	1.103757e+03
-2.380000e+00	-2.310000e+00	9.075146e+04	1.139249e+03	1.139249e+03
-2.310000e+00	-2.240000e+00	9.650459e+04	1.174722e+03	1.174722e+03
-2.240000e+00	-2.170000e+00	1.029142e+05	1.213197e+03	1.213197e+03
-2.170000e+00	-2.100000e+00	1.138961e+05	1.276308e+03	1.276308e+03
-2.100000e+00	-2.030000e+00	1.205203e+05	1.312656e+03	1.312656e+03
-2.030000e+00	-1.960000e+00	1.313226e+05	1.370281e+03	1.370281e+03
-1.960000e+00	-1.890000e+00	1.431846e+05	1.430813e+03	1.430813e+03
-1.890000e+00	-1.820000e+00	1.506113e+05	1.467395e+03	1.467395e+03
-1.820000e+00	-1.750000e+00	1.610994e+05	1.517677e+03	1.517677e+03
-1.750000e+00	-1.680000e+00	1.703239e+05	1.560399e+03	1.560399e+03
-1.680000e+00	-1.610000e+00	1.802729e+05	1.605761e+03	1.605761e+03
-1.610000e+00	-1.540000e+00	1.910369e+05	1.652484e+03	1.652484e+03
-1.540000e+00	-1.470000e+00	1.995703e+05	1.688927e+03	1.688927e+03
-1.470000e+00	-1.400000e+00	2.042377e+05	1.708719e+03	1.708719e+03
-1.400000e+00	-1.330000e+00	2.152239e+05	1.754193e+03	1.754193e+03
-1.330000e+00	-1.260000e+00	2.161569e+05	1.757678e+03	1.757678e+03
-1.260000e+00	-1.190000e+00	2.230876e+05	1.785636e+03	1.785636e+03
-1.190000e+00	-1.120000e+00	2.201760e+05	1.773900e+03	1.773900e+03
-1.120000e+00	-1.050000e+00	2.183306e+05	1.766504e+03	1.766504e+03
-1.050000e+00	-9.800000e-01	2.085111e+05	1.726260e+03	1.726260e+03
-9.800000e-01	-9.100000e-01	1.988199e+05	1.685654e+03	1.685654e+03
-9.100000e-01	-8.400000e-01	1.849960e+05	1.625978e+03	1.625978e+03
-8.400000e-01	-7.700000e-01	1.632116e+05	1.527292e+03	1.527292e+03
-7.700000e-01	-7.000000e-01	1.330138e+05	1.378706e+03	1.378706e+03
-7.000000e-01	-6.300000e-01	9.138067e+04	1.142807e+03	1.142807e+03
-6.300000e-01	-5.600000e-01	2.779589e+04	6.302680e+02	6.302680e+02
-5.600000e-01	-4.900000e-01	3.201094e+03	2.138831e+02	2.138831e+02
-4.900000e-01	-4.200000e-01	2.571429e+02	6.060915e+01	6.060915e+01
-4.200000e-01	-3.500000e-01	0.000000e+00	0.000000e+00	0.000000e+00
-3.500000e-01	-2.800000e-01	0.000000e+00	0.000000e+00	0.000000e+00
-2.800000e-01	-2.100000e-01	0.000000e+00	0.000000e+00	0.000000e+00
-2.100000e-01	-1.400000e-01	0.000000e+00	0.000000e+00	0.000000e+00
-1.400000e-01	-7.000000e-02	0.000000e+00	0.000000e+00	0.000000e+00
-7.000000e-02	0.000000e+00	0.000000e+00	0.000000e+00	0.000000e+00
# END HISTO1D

