# BEGIN PLOT
LegendOnly=/herwig_ps_lo_r8_pt50_s1_1e3.yoda/PAPER_FIN_R8/ch_lin_l10_pT_408_1500
DrawOnly=/herwig_ps_lo_r8_pt50_s1_1e3.yoda/PAPER_FIN_R8/ch_lin_l10_pT_408_1500
Legend=1
LogY=1
# END PLOT

# BEGIN HISTO1D /herwig_ps_lo_r8_pt50_s1_1e3.yoda/PAPER_FIN_R8/ch_lin_l10_pT_408_1500
LineColor=red
LineStyle=solid
Path=/herwig_ps_lo_r8_pt50_s1_1e3.yoda/PAPER_FIN_R8/ch_lin_l10_pT_408_1500
Title=herwig_ps_lo_r8_pt50_s1_1e3
XLabel=~
YLabel=~
# xlow	 xhigh	 val	 errminus	 errplus
0.000000e+00	2.250000e-02	8.023356e+06	1.888489e+04	1.888489e+04
2.250000e-02	4.000000e-02	3.568006e+05	4.516499e+03	4.516499e+03
4.000000e-02	5.750000e-02	2.635034e+05	3.881382e+03	3.881382e+03
5.750000e-02	7.750000e-02	1.984279e+05	3.150462e+03	3.150462e+03
7.750000e-02	1.000000e-01	1.458767e+05	2.546745e+03	2.546745e+03
1.000000e-01	1.250000e-01	1.114485e+05	2.111857e+03	2.111857e+03
1.250000e-01	1.520000e-01	8.826189e+04	1.808447e+03	1.808447e+03
1.520000e-01	1.850000e-01	6.805115e+04	1.436250e+03	1.436250e+03
1.850000e-01	2.200000e-01	4.885329e+04	1.181758e+03	1.181758e+03
2.200000e-01	2.600000e-01	3.598935e+04	9.487386e+02	9.487386e+02
2.600000e-01	3.070000e-01	2.683819e+04	7.557853e+02	7.557853e+02
3.070000e-01	3.620000e-01	1.688084e+04	5.541458e+02	5.541458e+02
3.620000e-01	4.250000e-01	9.765149e+03	3.937705e+02	3.937705e+02
4.250000e-01	4.970000e-01	4.419671e+03	2.478471e+02	2.478471e+02
4.970000e-01	1.000000e+00	1.192843e+02	1.539954e+01	1.539954e+01
# END HISTO1D

