# BEGIN PLOT
LegendOnly=/herwig_ps_lo_r8_pt50_s1_1e3.yoda/PAPER_FIN_R8/ch_l05_pT_326_408
DrawOnly=/herwig_ps_lo_r8_pt50_s1_1e3.yoda/PAPER_FIN_R8/ch_l05_pT_326_408
Legend=1
LogY=1
# END PLOT

# BEGIN HISTO1D /herwig_ps_lo_r8_pt50_s1_1e3.yoda/PAPER_FIN_R8/ch_l05_pT_326_408
LineColor=red
LineStyle=solid
Path=/herwig_ps_lo_r8_pt50_s1_1e3.yoda/PAPER_FIN_R8/ch_l05_pT_326_408
Title=herwig_ps_lo_r8_pt50_s1_1e3
XLabel=~
YLabel=~
# xlow	 xhigh	 val	 errminus	 errplus
-7.000000e+00	-6.930000e+00	0.000000e+00	0.000000e+00	0.000000e+00
-6.930000e+00	-6.860000e+00	3.746834e+06	7.316573e+03	7.316573e+03
-6.860000e+00	-6.790000e+00	0.000000e+00	0.000000e+00	0.000000e+00
-6.790000e+00	-6.720000e+00	0.000000e+00	0.000000e+00	0.000000e+00
-6.720000e+00	-6.650000e+00	0.000000e+00	0.000000e+00	0.000000e+00
-6.650000e+00	-6.580000e+00	0.000000e+00	0.000000e+00	0.000000e+00
-6.580000e+00	-6.510000e+00	0.000000e+00	0.000000e+00	0.000000e+00
-6.510000e+00	-6.440000e+00	0.000000e+00	0.000000e+00	0.000000e+00
-6.440000e+00	-6.370000e+00	0.000000e+00	0.000000e+00	0.000000e+00
-6.370000e+00	-6.300000e+00	0.000000e+00	0.000000e+00	0.000000e+00
-6.300000e+00	-6.230000e+00	0.000000e+00	0.000000e+00	0.000000e+00
-6.230000e+00	-6.160000e+00	0.000000e+00	0.000000e+00	0.000000e+00
-6.160000e+00	-6.090000e+00	0.000000e+00	0.000000e+00	0.000000e+00
-6.090000e+00	-6.020000e+00	0.000000e+00	0.000000e+00	0.000000e+00
-6.020000e+00	-5.950000e+00	0.000000e+00	0.000000e+00	0.000000e+00
-5.950000e+00	-5.880000e+00	0.000000e+00	0.000000e+00	0.000000e+00
-5.880000e+00	-5.810000e+00	0.000000e+00	0.000000e+00	0.000000e+00
-5.810000e+00	-5.740000e+00	0.000000e+00	0.000000e+00	0.000000e+00
-5.740000e+00	-5.670000e+00	0.000000e+00	0.000000e+00	0.000000e+00
-5.670000e+00	-5.600000e+00	0.000000e+00	0.000000e+00	0.000000e+00
-5.600000e+00	-5.530000e+00	0.000000e+00	0.000000e+00	0.000000e+00
-5.530000e+00	-5.460000e+00	0.000000e+00	0.000000e+00	0.000000e+00
-5.460000e+00	-5.390000e+00	0.000000e+00	0.000000e+00	0.000000e+00
-5.390000e+00	-5.320000e+00	0.000000e+00	0.000000e+00	0.000000e+00
-5.320000e+00	-5.250000e+00	0.000000e+00	0.000000e+00	0.000000e+00
-5.250000e+00	-5.180000e+00	0.000000e+00	0.000000e+00	0.000000e+00
-5.180000e+00	-5.110000e+00	0.000000e+00	0.000000e+00	0.000000e+00
-5.110000e+00	-5.040000e+00	0.000000e+00	0.000000e+00	0.000000e+00
-5.040000e+00	-4.970000e+00	0.000000e+00	0.000000e+00	0.000000e+00
-4.970000e+00	-4.900000e+00	0.000000e+00	0.000000e+00	0.000000e+00
-4.900000e+00	-4.830000e+00	0.000000e+00	0.000000e+00	0.000000e+00
-4.830000e+00	-4.760000e+00	0.000000e+00	0.000000e+00	0.000000e+00
-4.760000e+00	-4.690000e+00	0.000000e+00	0.000000e+00	0.000000e+00
-4.690000e+00	-4.620000e+00	0.000000e+00	0.000000e+00	0.000000e+00
-4.620000e+00	-4.550000e+00	0.000000e+00	0.000000e+00	0.000000e+00
-4.550000e+00	-4.480000e+00	0.000000e+00	0.000000e+00	0.000000e+00
-4.480000e+00	-4.410000e+00	0.000000e+00	0.000000e+00	0.000000e+00
-4.410000e+00	-4.340000e+00	0.000000e+00	0.000000e+00	0.000000e+00
-4.340000e+00	-4.270000e+00	0.000000e+00	0.000000e+00	0.000000e+00
-4.270000e+00	-4.200000e+00	0.000000e+00	0.000000e+00	0.000000e+00
-4.200000e+00	-4.130000e+00	0.000000e+00	0.000000e+00	0.000000e+00
-4.130000e+00	-4.060000e+00	0.000000e+00	0.000000e+00	0.000000e+00
-4.060000e+00	-3.990000e+00	0.000000e+00	0.000000e+00	0.000000e+00
-3.990000e+00	-3.920000e+00	0.000000e+00	0.000000e+00	0.000000e+00
-3.920000e+00	-3.850000e+00	0.000000e+00	0.000000e+00	0.000000e+00
-3.850000e+00	-3.780000e+00	0.000000e+00	0.000000e+00	0.000000e+00
-3.780000e+00	-3.710000e+00	0.000000e+00	0.000000e+00	0.000000e+00
-3.710000e+00	-3.640000e+00	0.000000e+00	0.000000e+00	0.000000e+00
-3.640000e+00	-3.570000e+00	0.000000e+00	0.000000e+00	0.000000e+00
-3.570000e+00	-3.500000e+00	0.000000e+00	0.000000e+00	0.000000e+00
-3.500000e+00	-3.430000e+00	0.000000e+00	0.000000e+00	0.000000e+00
-3.430000e+00	-3.360000e+00	0.000000e+00	0.000000e+00	0.000000e+00
-3.360000e+00	-3.290000e+00	1.428571e+01	1.428571e+01	1.428571e+01
-3.290000e+00	-3.220000e+00	0.000000e+00	0.000000e+00	0.000000e+00
-3.220000e+00	-3.150000e+00	0.000000e+00	0.000000e+00	0.000000e+00
-3.150000e+00	-3.080000e+00	0.000000e+00	0.000000e+00	0.000000e+00
-3.080000e+00	-3.010000e+00	0.000000e+00	0.000000e+00	0.000000e+00
-3.010000e+00	-2.940000e+00	1.428571e+01	1.428571e+01	1.428571e+01
-2.940000e+00	-2.870000e+00	1.428571e+01	1.428571e+01	1.428571e+01
-2.870000e+00	-2.800000e+00	4.285714e+01	2.474358e+01	2.474358e+01
-2.800000e+00	-2.730000e+00	4.285714e+01	2.474358e+01	2.474358e+01
-2.730000e+00	-2.660000e+00	8.571429e+01	3.499271e+01	3.499271e+01
-2.660000e+00	-2.590000e+00	2.428571e+02	5.890151e+01	5.890151e+01
-2.590000e+00	-2.520000e+00	3.714286e+02	7.284314e+01	7.284314e+01
-2.520000e+00	-2.450000e+00	3.142857e+02	6.700594e+01	6.700594e+01
-2.450000e+00	-2.380000e+00	5.428571e+02	8.806306e+01	8.806306e+01
-2.380000e+00	-2.310000e+00	7.003650e+02	1.000528e+02	1.000528e+02
-2.310000e+00	-2.240000e+00	1.029837e+03	1.213740e+02	1.213740e+02
-2.240000e+00	-2.170000e+00	1.528936e+03	1.478083e+02	1.478083e+02
-2.170000e+00	-2.100000e+00	1.728571e+03	1.571429e+02	1.571429e+02
-2.100000e+00	-2.030000e+00	2.329666e+03	1.824746e+02	1.824746e+02
-2.030000e+00	-1.960000e+00	3.214286e+03	2.142857e+02	2.142857e+02
-1.960000e+00	-1.890000e+00	4.386809e+03	2.503692e+02	2.503692e+02
-1.890000e+00	-1.820000e+00	4.172889e+03	2.442009e+02	2.442009e+02
-1.820000e+00	-1.750000e+00	5.762617e+03	2.870598e+02	2.870598e+02
-1.750000e+00	-1.680000e+00	6.260427e+03	2.991368e+02	2.991368e+02
-1.680000e+00	-1.610000e+00	8.332221e+03	3.450872e+02	3.450872e+02
-1.610000e+00	-1.540000e+00	1.075342e+04	3.921444e+02	3.921444e+02
-1.540000e+00	-1.470000e+00	1.309574e+04	4.327008e+02	4.327008e+02
-1.470000e+00	-1.400000e+00	1.608056e+04	4.794329e+02	4.794329e+02
-1.400000e+00	-1.330000e+00	2.037354e+04	5.397157e+02	5.397157e+02
-1.330000e+00	-1.260000e+00	2.437756e+04	5.903831e+02	5.903831e+02
-1.260000e+00	-1.190000e+00	2.903051e+04	6.441744e+02	6.441744e+02
-1.190000e+00	-1.120000e+00	3.579097e+04	7.154562e+02	7.154562e+02
-1.120000e+00	-1.050000e+00	4.058396e+04	7.616854e+02	7.616854e+02
-1.050000e+00	-9.800000e-01	4.683661e+04	8.183133e+02	8.183133e+02
-9.800000e-01	-9.100000e-01	5.144769e+04	8.575925e+02	8.575925e+02
-9.100000e-01	-8.400000e-01	5.234531e+04	8.650253e+02	8.650253e+02
-8.400000e-01	-7.700000e-01	5.281654e+04	8.688929e+02	8.688929e+02
-7.700000e-01	-7.000000e-01	5.527210e+04	8.888538e+02	8.888538e+02
-7.000000e-01	-6.300000e-01	5.173689e+04	8.599022e+02	8.599022e+02
-6.300000e-01	-5.600000e-01	4.763251e+04	8.250659e+02	8.250659e+02
-5.600000e-01	-4.900000e-01	4.204680e+04	7.752018e+02	7.752018e+02
-4.900000e-01	-4.200000e-01	3.442813e+04	7.014524e+02	7.014524e+02
-4.200000e-01	-3.500000e-01	2.358090e+04	5.805263e+02	5.805263e+02
-3.500000e-01	-2.800000e-01	1.026242e+04	3.829942e+02	3.829942e+02
-2.800000e-01	-2.100000e-01	2.186444e+03	1.767643e+02	1.767643e+02
-2.100000e-01	-1.400000e-01	2.285714e+02	5.714286e+01	5.714286e+01
-1.400000e-01	-7.000000e-02	0.000000e+00	0.000000e+00	0.000000e+00
-7.000000e-02	0.000000e+00	0.000000e+00	0.000000e+00	0.000000e+00
# END HISTO1D

