# BEGIN PLOT
LegendOnly=/herwig_ps_lo_r8_pt50_s1_1e3.yoda/PAPER_FIN_R8_CH/lin_l20_pT_88_120
DrawOnly=/herwig_ps_lo_r8_pt50_s1_1e3.yoda/PAPER_FIN_R8_CH/lin_l20_pT_88_120
Legend=1
LogY=1
# END PLOT

# BEGIN HISTO1D /herwig_ps_lo_r8_pt50_s1_1e3.yoda/PAPER_FIN_R8_CH/lin_l20_pT_88_120
LineColor=red
LineStyle=solid
Path=/herwig_ps_lo_r8_pt50_s1_1e3.yoda/PAPER_FIN_R8_CH/lin_l20_pT_88_120
Title=herwig_ps_lo_r8_pt50_s1_1e3
XLabel=~
YLabel=~
# xlow	 xhigh	 val	 errminus	 errplus
0.000000e+00	5.000000e-03	6.358696e+08	3.567734e+05	3.567734e+05
5.000000e-03	1.250000e-02	2.336961e+08	1.766320e+05	1.766320e+05
1.250000e-02	2.250000e-02	1.765203e+08	1.329425e+05	1.329425e+05
2.250000e-02	3.500000e-02	1.267024e+08	1.007444e+05	1.007444e+05
3.500000e-02	5.000000e-02	9.004513e+07	7.752918e+04	7.752918e+04
5.000000e-02	7.000000e-02	6.291435e+07	5.612954e+04	5.612954e+04
7.000000e-02	9.250000e-02	4.319470e+07	4.385730e+04	4.385730e+04
9.250000e-02	1.200000e-01	2.967982e+07	3.288233e+04	3.288233e+04
1.200000e-01	1.520000e-01	1.987034e+07	2.494126e+04	2.494126e+04
1.520000e-01	1.880000e-01	1.279774e+07	1.887248e+04	1.887248e+04
1.880000e-01	2.280000e-01	7.687637e+06	1.387849e+04	1.387849e+04
2.280000e-01	1.000000e+00	3.082508e+05	6.327668e+02	6.327668e+02
# END HISTO1D

