# BEGIN PLOT
LegendOnly=/herwig_ps_lo_r8_pt50_s1_1e3.yoda/PAPER_FIN_R8/lin_l20_pT_150_186
DrawOnly=/herwig_ps_lo_r8_pt50_s1_1e3.yoda/PAPER_FIN_R8/lin_l20_pT_150_186
Legend=1
LogY=1
# END PLOT

# BEGIN HISTO1D /herwig_ps_lo_r8_pt50_s1_1e3.yoda/PAPER_FIN_R8/lin_l20_pT_150_186
LineColor=red
LineStyle=solid
Path=/herwig_ps_lo_r8_pt50_s1_1e3.yoda/PAPER_FIN_R8/lin_l20_pT_150_186
Title=herwig_ps_lo_r8_pt50_s1_1e3
XLabel=~
YLabel=~
# xlow	 xhigh	 val	 errminus	 errplus
0.000000e+00	5.000000e-02	4.906858e+07	3.133209e+04	3.133209e+04
5.000000e-02	9.000000e-02	1.184166e+07	1.720974e+04	1.720974e+04
9.000000e-02	1.500000e-01	5.358200e+06	9.452245e+03	9.452245e+03
1.500000e-01	2.050000e-01	2.487353e+06	6.726747e+03	6.726747e+03
2.050000e-01	1.000000e+00	1.030649e+05	3.601401e+02	3.601401e+02
# END HISTO1D

