# BEGIN PLOT
LegendOnly=/zj_ps_nlo_mer_mur1_muf2_R4.yoda/MC_XS/pmN
DrawOnly=/zj_ps_nlo_mer_mur1_muf2_R4.yoda/MC_XS/pmN
Title=Number of positive and negative weighted events
XMajorTickMarks=20
LogY=0
XLabel=$\pm$
ShowZero=0
XMax=1
YLabel=$N_\pm$
XMin=-1
XMinorTickMarks=0
Legend=1
# END PLOT

# BEGIN HISTO1D /zj_ps_nlo_mer_mur1_muf2_R4.yoda/MC_XS/pmN
LineColor=red
LineStyle=solid
Path=/zj_ps_nlo_mer_mur1_muf2_R4.yoda/MC_XS/pmN
Title=zj_ps_nlo_mer_mur1_muf2_R4
XLabel=~
YLabel=~
# xlow	 xhigh	 val	 errminus	 errplus
-1.000000e+00	0.000000e+00	4.220460e+08	2.054376e+04	2.054376e+04
0.000000e+00	1.000000e+00	5.779540e+08	2.404067e+04	2.404067e+04
# END HISTO1D

