# BEGIN PLOT
LegendOnly=/zj_ps_nlo_mer_mur1_muf2_R4.yoda/PAPER_FIN_R4/ch_lin_SD_l05_pT_65_88
DrawOnly=/zj_ps_nlo_mer_mur1_muf2_R4.yoda/PAPER_FIN_R4/ch_lin_SD_l05_pT_65_88
Legend=1
LogY=1
# END PLOT

# BEGIN HISTO1D /zj_ps_nlo_mer_mur1_muf2_R4.yoda/PAPER_FIN_R4/ch_lin_SD_l05_pT_65_88
LineColor=red
LineStyle=solid
Path=/zj_ps_nlo_mer_mur1_muf2_R4.yoda/PAPER_FIN_R4/ch_lin_SD_l05_pT_65_88
Title=zj_ps_nlo_mer_mur1_muf2_R4
XLabel=~
YLabel=~
# xlow	 xhigh	 val	 errminus	 errplus
0.000000e+00	6.000000e-02	-1.103290e+07	5.161512e+06	5.161512e+06
6.000000e-02	9.000000e-02	-8.188860e+05	4.076166e+05	4.076166e+05
9.000000e-02	1.200000e-01	-1.095860e+06	7.017705e+05	7.017705e+05
1.200000e-01	1.500000e-01	-3.478033e+05	3.046834e+05	3.046834e+05
1.500000e-01	1.900000e-01	-6.417775e+05	3.679759e+05	3.679759e+05
1.900000e-01	2.300000e-01	-4.059832e+05	3.896805e+05	3.896805e+05
2.300000e-01	2.700000e-01	-4.372630e+05	5.483173e+05	5.483173e+05
2.700000e-01	3.200000e-01	-5.576164e+05	4.303899e+05	4.303899e+05
3.200000e-01	3.700000e-01	-5.376318e+05	2.443469e+05	2.443469e+05
3.700000e-01	4.200000e-01	-1.743093e+05	9.204727e+04	9.204727e+04
4.200000e-01	4.800000e-01	1.045145e+04	6.760221e+04	6.760221e+04
4.800000e-01	5.400000e-01	1.003709e+05	5.432185e+04	5.432185e+04
5.400000e-01	6.000000e-01	-2.989595e+04	2.497002e+04	2.497002e+04
6.000000e-01	1.000000e+00	-2.325686e+03	1.830668e+03	1.830668e+03
# END HISTO1D

