# BEGIN PLOT
LegendOnly=/zj_ps_nlo_mer_mur1_muf2_R4.yoda/PAPER_FIN_R4/l10_pT_254_326
DrawOnly=/zj_ps_nlo_mer_mur1_muf2_R4.yoda/PAPER_FIN_R4/l10_pT_254_326
Legend=1
LogY=1
# END PLOT

# BEGIN HISTO1D /zj_ps_nlo_mer_mur1_muf2_R4.yoda/PAPER_FIN_R4/l10_pT_254_326
LineColor=red
LineStyle=solid
Path=/zj_ps_nlo_mer_mur1_muf2_R4.yoda/PAPER_FIN_R4/l10_pT_254_326
Title=zj_ps_nlo_mer_mur1_muf2_R4
XLabel=~
YLabel=~
# xlow	 xhigh	 val	 errminus	 errplus
-7.000000e+00	-6.930000e+00	-4.953507e-02	4.544515e-02	4.544515e-02
-6.930000e+00	-6.860000e+00	1.444033e+09	3.109291e+07	3.109291e+07
-6.860000e+00	-6.790000e+00	-7.679677e+04	7.679674e+04	7.679674e+04
-6.790000e+00	-6.720000e+00	3.616204e+03	3.607892e+03	3.607892e+03
-6.720000e+00	-6.650000e+00	-9.924844e+01	3.477350e+02	3.477350e+02
-6.650000e+00	-6.580000e+00	-1.284222e+04	1.154528e+04	1.154528e+04
-6.580000e+00	-6.510000e+00	-1.359658e-01	2.050443e-01	2.050443e-01
-6.510000e+00	-6.440000e+00	-6.628127e+04	5.791422e+04	5.791422e+04
-6.440000e+00	-6.370000e+00	5.727397e+02	8.234742e+02	8.234742e+02
-6.370000e+00	-6.300000e+00	2.853319e+04	3.380622e+04	3.380622e+04
-6.300000e+00	-6.230000e+00	2.177080e+04	1.894489e+04	1.894489e+04
-6.230000e+00	-6.160000e+00	1.256617e+02	7.968632e+02	7.968632e+02
-6.160000e+00	-6.090000e+00	4.020941e+02	1.148189e+03	1.148189e+03
-6.090000e+00	-6.020000e+00	-4.368931e+03	4.049018e+03	4.049018e+03
-6.020000e+00	-5.950000e+00	-8.044071e+03	1.787134e+04	1.787134e+04
-5.950000e+00	-5.880000e+00	8.347383e+03	8.761817e+03	8.761817e+03
-5.880000e+00	-5.810000e+00	-7.188310e+04	7.344080e+04	7.344080e+04
-5.810000e+00	-5.740000e+00	-1.151066e+05	1.123872e+05	1.123872e+05
-5.740000e+00	-5.670000e+00	-6.595673e+02	1.245764e+03	1.245764e+03
-5.670000e+00	-5.600000e+00	-2.704179e+03	1.759262e+03	1.759262e+03
-5.600000e+00	-5.530000e+00	-7.466809e+04	5.237826e+04	5.237826e+04
-5.530000e+00	-5.460000e+00	-7.669580e+03	6.873728e+03	6.873728e+03
-5.460000e+00	-5.390000e+00	-1.536216e+04	8.285415e+03	8.285415e+03
-5.390000e+00	-5.320000e+00	-2.292780e+05	2.287269e+05	2.287269e+05
-5.320000e+00	-5.250000e+00	1.575639e+04	1.458017e+04	1.458017e+04
-5.250000e+00	-5.180000e+00	6.109443e+03	7.628206e+03	7.628206e+03
-5.180000e+00	-5.110000e+00	6.607297e+03	2.966472e+04	2.966472e+04
-5.110000e+00	-5.040000e+00	-3.511283e+04	2.969172e+04	2.969172e+04
-5.040000e+00	-4.970000e+00	-2.583470e+04	2.409798e+04	2.409798e+04
-4.970000e+00	-4.900000e+00	4.175003e+04	3.261149e+04	3.261149e+04
-4.900000e+00	-4.830000e+00	3.290421e+04	2.446558e+04	2.446558e+04
-4.830000e+00	-4.760000e+00	5.227593e+03	1.012911e+04	1.012911e+04
-4.760000e+00	-4.690000e+00	-2.633531e+04	3.826905e+04	3.826905e+04
-4.690000e+00	-4.620000e+00	8.046900e+04	3.931851e+04	3.931851e+04
-4.620000e+00	-4.550000e+00	5.511846e+04	3.908615e+04	3.908615e+04
-4.550000e+00	-4.480000e+00	-1.594894e+05	2.043555e+05	2.043555e+05
-4.480000e+00	-4.410000e+00	2.731286e+04	7.594345e+04	7.594345e+04
-4.410000e+00	-4.340000e+00	-2.023443e+05	2.823066e+05	2.823066e+05
-4.340000e+00	-4.270000e+00	1.390081e+05	5.019608e+04	5.019608e+04
-4.270000e+00	-4.200000e+00	2.512861e+05	1.177547e+05	1.177547e+05
-4.200000e+00	-4.130000e+00	1.606527e+05	8.411308e+04	8.411308e+04
-4.130000e+00	-4.060000e+00	3.015704e+05	1.117866e+05	1.117866e+05
-4.060000e+00	-3.990000e+00	1.971897e+05	1.415895e+05	1.415895e+05
-3.990000e+00	-3.920000e+00	3.134609e+05	2.712445e+05	2.712445e+05
-3.920000e+00	-3.850000e+00	5.185823e+05	1.457621e+05	1.457621e+05
-3.850000e+00	-3.780000e+00	2.383240e+05	1.076602e+05	1.076602e+05
-3.780000e+00	-3.710000e+00	3.824603e+05	1.427710e+05	1.427710e+05
-3.710000e+00	-3.640000e+00	2.332006e+05	1.705998e+05	1.705998e+05
-3.640000e+00	-3.570000e+00	5.433503e+05	1.512462e+05	1.512462e+05
-3.570000e+00	-3.500000e+00	5.495216e+06	4.876824e+06	4.876824e+06
-3.500000e+00	-3.430000e+00	9.500556e+05	4.671634e+05	4.671634e+05
-3.430000e+00	-3.360000e+00	1.203526e+06	3.496692e+05	3.496692e+05
-3.360000e+00	-3.290000e+00	1.176372e+06	8.535080e+05	8.535080e+05
-3.290000e+00	-3.220000e+00	2.647653e+06	3.972438e+05	3.972438e+05
-3.220000e+00	-3.150000e+00	2.926716e+06	3.641625e+05	3.641625e+05
-3.150000e+00	-3.080000e+00	3.724966e+06	4.665691e+05	4.665691e+05
-3.080000e+00	-3.010000e+00	4.049459e+06	4.391949e+05	4.391949e+05
-3.010000e+00	-2.940000e+00	6.934144e+06	7.604153e+05	7.604153e+05
-2.940000e+00	-2.870000e+00	6.482604e+06	6.875517e+05	6.875517e+05
-2.870000e+00	-2.800000e+00	8.066770e+06	7.223054e+05	7.223054e+05
-2.800000e+00	-2.730000e+00	1.068699e+07	8.153544e+05	8.153544e+05
-2.730000e+00	-2.660000e+00	1.432537e+07	1.118212e+06	1.118212e+06
-2.660000e+00	-2.590000e+00	1.837904e+07	2.850146e+06	2.850146e+06
-2.590000e+00	-2.520000e+00	1.894769e+07	9.716548e+05	9.716548e+05
-2.520000e+00	-2.450000e+00	2.583559e+07	1.141934e+06	1.141934e+06
-2.450000e+00	-2.380000e+00	2.404771e+07	4.172779e+06	4.172779e+06
-2.380000e+00	-2.310000e+00	3.682959e+07	1.658647e+06	1.658647e+06
-2.310000e+00	-2.240000e+00	3.969186e+07	2.045406e+06	2.045406e+06
-2.240000e+00	-2.170000e+00	4.957851e+07	1.692864e+06	1.692864e+06
-2.170000e+00	-2.100000e+00	6.584957e+07	2.353133e+06	2.353133e+06
-2.100000e+00	-2.030000e+00	1.178721e+08	9.691107e+06	9.691107e+06
-2.030000e+00	-1.960000e+00	3.045810e+08	6.401556e+06	6.401556e+06
-1.960000e+00	-1.890000e+00	4.213989e+08	6.474332e+06	6.474332e+06
-1.890000e+00	-1.820000e+00	4.429080e+08	1.085144e+07	1.085144e+07
-1.820000e+00	-1.750000e+00	4.536006e+08	8.689025e+06	8.689025e+06
-1.750000e+00	-1.680000e+00	4.973507e+08	8.599410e+06	8.599410e+06
-1.680000e+00	-1.610000e+00	5.997521e+08	9.183812e+06	9.183812e+06
-1.610000e+00	-1.540000e+00	7.177581e+08	1.362893e+07	1.362893e+07
-1.540000e+00	-1.470000e+00	8.061559e+08	1.008613e+07	1.008613e+07
-1.470000e+00	-1.400000e+00	8.556201e+08	1.288027e+07	1.288027e+07
-1.400000e+00	-1.330000e+00	9.591071e+08	1.520095e+07	1.520095e+07
-1.330000e+00	-1.260000e+00	1.033257e+09	1.198062e+07	1.198062e+07
-1.260000e+00	-1.190000e+00	1.075392e+09	1.422151e+07	1.422151e+07
-1.190000e+00	-1.120000e+00	1.112717e+09	2.207709e+07	2.207709e+07
-1.120000e+00	-1.050000e+00	1.060418e+09	1.871456e+07	1.871456e+07
-1.050000e+00	-9.800000e-01	1.052373e+09	1.261118e+07	1.261118e+07
-9.800000e-01	-9.100000e-01	1.023236e+09	9.969408e+06	9.969408e+06
-9.100000e-01	-8.400000e-01	9.483554e+08	1.585790e+07	1.585790e+07
-8.400000e-01	-7.700000e-01	8.468203e+08	3.924309e+07	3.924309e+07
-7.700000e-01	-7.000000e-01	7.879186e+08	1.112489e+07	1.112489e+07
-7.000000e-01	-6.300000e-01	7.070694e+08	8.099166e+06	8.099166e+06
-6.300000e-01	-5.600000e-01	5.973007e+08	8.117306e+06	8.117306e+06
-5.600000e-01	-4.900000e-01	4.806307e+08	8.478449e+06	8.478449e+06
-4.900000e-01	-4.200000e-01	3.731516e+08	1.041635e+07	1.041635e+07
-4.200000e-01	-3.500000e-01	2.390623e+08	1.005340e+07	1.005340e+07
-3.500000e-01	-2.800000e-01	1.242876e+08	5.221592e+06	5.221592e+06
-2.800000e-01	-2.100000e-01	3.392439e+07	5.086081e+06	5.086081e+06
-2.100000e-01	-1.400000e-01	4.374254e+06	6.802192e+05	6.802192e+05
-1.400000e-01	-7.000000e-02	5.806713e+05	2.910991e+05	2.910991e+05
-7.000000e-02	0.000000e+00	1.067683e+03	1.890311e+03	1.890311e+03
# END HISTO1D

