# BEGIN PLOT
LegendOnly=/zj_ps_nlo_mer_mur1_muf2_R4.yoda/PAPER_FIN_R4/lin_SD_l05_pT_120_150
DrawOnly=/zj_ps_nlo_mer_mur1_muf2_R4.yoda/PAPER_FIN_R4/lin_SD_l05_pT_120_150
Legend=1
LogY=1
# END PLOT

# BEGIN HISTO1D /zj_ps_nlo_mer_mur1_muf2_R4.yoda/PAPER_FIN_R4/lin_SD_l05_pT_120_150
LineColor=red
LineStyle=solid
Path=/zj_ps_nlo_mer_mur1_muf2_R4.yoda/PAPER_FIN_R4/lin_SD_l05_pT_120_150
Title=zj_ps_nlo_mer_mur1_muf2_R4
XLabel=~
YLabel=~
# xlow	 xhigh	 val	 errminus	 errplus
0.000000e+00	1.000000e-01	9.942865e+07	1.045866e+07	1.045866e+07
1.000000e-01	1.800000e-01	5.907713e+07	2.080757e+07	2.080757e+07
1.800000e-01	2.600000e-01	5.984905e+07	7.134683e+06	7.134683e+06
2.600000e-01	3.400000e-01	4.684851e+07	6.918560e+06	6.918560e+06
3.400000e-01	4.200000e-01	2.404284e+07	6.382644e+06	6.382644e+06
4.200000e-01	5.000000e-01	2.034675e+07	6.021427e+06	6.021427e+06
5.000000e-01	5.700000e-01	6.875747e+06	2.544574e+06	2.544574e+06
5.700000e-01	6.400000e-01	6.415720e+05	2.133679e+06	2.133679e+06
6.400000e-01	1.000000e+00	-1.236019e+05	2.128447e+05	2.128447e+05
# END HISTO1D

