# BEGIN PLOT
LegendOnly=/zj_ps_nlo_mer_mur1_muf2_R4.yoda/PAPER_FIN_R4_CH/lin_SD_l05_pT_120_150
DrawOnly=/zj_ps_nlo_mer_mur1_muf2_R4.yoda/PAPER_FIN_R4_CH/lin_SD_l05_pT_120_150
Legend=1
LogY=1
# END PLOT

# BEGIN HISTO1D /zj_ps_nlo_mer_mur1_muf2_R4.yoda/PAPER_FIN_R4_CH/lin_SD_l05_pT_120_150
LineColor=red
LineStyle=solid
Path=/zj_ps_nlo_mer_mur1_muf2_R4.yoda/PAPER_FIN_R4_CH/lin_SD_l05_pT_120_150
Title=zj_ps_nlo_mer_mur1_muf2_R4
XLabel=~
YLabel=~
# xlow	 xhigh	 val	 errminus	 errplus
0.000000e+00	6.000000e-02	1.214118e+08	1.571871e+07	1.571871e+07
6.000000e-02	9.000000e-02	6.713037e+07	1.193849e+07	1.193849e+07
9.000000e-02	1.200000e-01	7.877600e+07	1.613426e+07	1.613426e+07
1.200000e-01	1.500000e-01	1.781752e+07	5.268655e+07	5.268655e+07
1.500000e-01	1.900000e-01	7.541830e+07	1.008097e+07	1.008097e+07
1.900000e-01	2.300000e-01	6.769075e+07	9.667623e+06	9.667623e+06
2.300000e-01	2.700000e-01	5.566247e+07	1.071753e+07	1.071753e+07
2.700000e-01	3.200000e-01	3.948348e+07	7.338986e+06	7.338986e+06
3.200000e-01	3.700000e-01	3.619632e+07	1.089747e+07	1.089747e+07
3.700000e-01	4.200000e-01	2.393974e+07	5.650162e+06	5.650162e+06
4.200000e-01	4.800000e-01	2.219860e+07	7.838775e+06	7.838775e+06
4.800000e-01	5.400000e-01	9.065497e+06	2.987586e+06	2.987586e+06
5.400000e-01	6.000000e-01	4.021445e+06	1.993831e+06	1.993831e+06
6.000000e-01	1.000000e+00	-1.919189e+04	3.897397e+05	3.897397e+05
# END HISTO1D

