# BEGIN PLOT
LegendOnly=/zj_ps_nlo_mer_mur1_muf2_R4.yoda/PAPER_FIN_R4/lin_l10_pT_120_150
DrawOnly=/zj_ps_nlo_mer_mur1_muf2_R4.yoda/PAPER_FIN_R4/lin_l10_pT_120_150
Legend=1
LogY=1
# END PLOT

# BEGIN HISTO1D /zj_ps_nlo_mer_mur1_muf2_R4.yoda/PAPER_FIN_R4/lin_l10_pT_120_150
LineColor=red
LineStyle=solid
Path=/zj_ps_nlo_mer_mur1_muf2_R4.yoda/PAPER_FIN_R4/lin_l10_pT_120_150
Title=zj_ps_nlo_mer_mur1_muf2_R4
XLabel=~
YLabel=~
# xlow	 xhigh	 val	 errminus	 errplus
0.000000e+00	1.050000e-01	1.235421e+08	1.828606e+07	1.828606e+07
1.050000e-01	1.650000e-01	9.816800e+07	1.039388e+07	1.039388e+07
1.650000e-01	2.300000e-01	4.418208e+07	9.612295e+06	9.612295e+06
2.300000e-01	3.050000e-01	3.638589e+07	7.063628e+06	7.063628e+06
3.050000e-01	3.800000e-01	2.176615e+07	3.454024e+06	3.454024e+06
3.800000e-01	4.600000e-01	1.204186e+07	5.585930e+06	5.585930e+06
4.600000e-01	5.500000e-01	2.968921e+06	1.862081e+06	1.862081e+06
5.500000e-01	1.000000e+00	-1.957168e+05	2.009175e+05	2.009175e+05
# END HISTO1D

