# BEGIN PLOT
LegendOnly=/zj_ps_nlo_mer_mur0.5_muf1_R8.yoda/PAPER_FIN_R8/ch_l10_pT_88_120
DrawOnly=/zj_ps_nlo_mer_mur0.5_muf1_R8.yoda/PAPER_FIN_R8/ch_l10_pT_88_120
Legend=1
LogY=1
# END PLOT

# BEGIN HISTO1D /zj_ps_nlo_mer_mur0.5_muf1_R8.yoda/PAPER_FIN_R8/ch_l10_pT_88_120
LineColor=red
LineStyle=solid
Path=/zj_ps_nlo_mer_mur0.5_muf1_R8.yoda/PAPER_FIN_R8/ch_l10_pT_88_120
Title=zj_ps_nlo_mer_mur0.5_muf1_R8
XLabel=~
YLabel=~
# xlow	 xhigh	 val	 errminus	 errplus
-7.000000e+00	-6.930000e+00	0.000000e+00	0.000000e+00	0.000000e+00
-6.930000e+00	-6.860000e+00	1.929600e+08	3.489358e+07	3.489358e+07
-6.860000e+00	-6.790000e+00	0.000000e+00	0.000000e+00	0.000000e+00
-6.790000e+00	-6.720000e+00	0.000000e+00	0.000000e+00	0.000000e+00
-6.720000e+00	-6.650000e+00	0.000000e+00	0.000000e+00	0.000000e+00
-6.650000e+00	-6.580000e+00	0.000000e+00	0.000000e+00	0.000000e+00
-6.580000e+00	-6.510000e+00	0.000000e+00	0.000000e+00	0.000000e+00
-6.510000e+00	-6.440000e+00	0.000000e+00	0.000000e+00	0.000000e+00
-6.440000e+00	-6.370000e+00	0.000000e+00	0.000000e+00	0.000000e+00
-6.370000e+00	-6.300000e+00	0.000000e+00	0.000000e+00	0.000000e+00
-6.300000e+00	-6.230000e+00	0.000000e+00	0.000000e+00	0.000000e+00
-6.230000e+00	-6.160000e+00	0.000000e+00	0.000000e+00	0.000000e+00
-6.160000e+00	-6.090000e+00	0.000000e+00	0.000000e+00	0.000000e+00
-6.090000e+00	-6.020000e+00	0.000000e+00	0.000000e+00	0.000000e+00
-6.020000e+00	-5.950000e+00	0.000000e+00	0.000000e+00	0.000000e+00
-5.950000e+00	-5.880000e+00	0.000000e+00	0.000000e+00	0.000000e+00
-5.880000e+00	-5.810000e+00	0.000000e+00	0.000000e+00	0.000000e+00
-5.810000e+00	-5.740000e+00	-6.126423e+03	6.126423e+03	6.126423e+03
-5.740000e+00	-5.670000e+00	0.000000e+00	0.000000e+00	0.000000e+00
-5.670000e+00	-5.600000e+00	0.000000e+00	0.000000e+00	0.000000e+00
-5.600000e+00	-5.530000e+00	0.000000e+00	0.000000e+00	0.000000e+00
-5.530000e+00	-5.460000e+00	0.000000e+00	0.000000e+00	0.000000e+00
-5.460000e+00	-5.390000e+00	0.000000e+00	0.000000e+00	0.000000e+00
-5.390000e+00	-5.320000e+00	0.000000e+00	0.000000e+00	0.000000e+00
-5.320000e+00	-5.250000e+00	0.000000e+00	0.000000e+00	0.000000e+00
-5.250000e+00	-5.180000e+00	0.000000e+00	0.000000e+00	0.000000e+00
-5.180000e+00	-5.110000e+00	0.000000e+00	0.000000e+00	0.000000e+00
-5.110000e+00	-5.040000e+00	0.000000e+00	0.000000e+00	0.000000e+00
-5.040000e+00	-4.970000e+00	0.000000e+00	0.000000e+00	0.000000e+00
-4.970000e+00	-4.900000e+00	0.000000e+00	0.000000e+00	0.000000e+00
-4.900000e+00	-4.830000e+00	0.000000e+00	0.000000e+00	0.000000e+00
-4.830000e+00	-4.760000e+00	0.000000e+00	0.000000e+00	0.000000e+00
-4.760000e+00	-4.690000e+00	0.000000e+00	0.000000e+00	0.000000e+00
-4.690000e+00	-4.620000e+00	0.000000e+00	0.000000e+00	0.000000e+00
-4.620000e+00	-4.550000e+00	0.000000e+00	0.000000e+00	0.000000e+00
-4.550000e+00	-4.480000e+00	0.000000e+00	0.000000e+00	0.000000e+00
-4.480000e+00	-4.410000e+00	0.000000e+00	0.000000e+00	0.000000e+00
-4.410000e+00	-4.340000e+00	0.000000e+00	0.000000e+00	0.000000e+00
-4.340000e+00	-4.270000e+00	0.000000e+00	0.000000e+00	0.000000e+00
-4.270000e+00	-4.200000e+00	0.000000e+00	0.000000e+00	0.000000e+00
-4.200000e+00	-4.130000e+00	0.000000e+00	0.000000e+00	0.000000e+00
-4.130000e+00	-4.060000e+00	4.834184e+03	4.833974e+03	4.833974e+03
-4.060000e+00	-3.990000e+00	1.209872e-11	1.209872e-11	1.209872e-11
-3.990000e+00	-3.920000e+00	-6.604254e+02	5.678827e+02	5.678827e+02
-3.920000e+00	-3.850000e+00	4.926727e+04	4.624315e+04	4.624315e+04
-3.850000e+00	-3.780000e+00	7.131303e+05	7.034214e+05	7.034214e+05
-3.780000e+00	-3.710000e+00	-1.709327e+04	5.221603e+04	5.221603e+04
-3.710000e+00	-3.640000e+00	-3.036706e+05	5.578393e+05	5.578393e+05
-3.640000e+00	-3.570000e+00	-1.491079e+03	1.827870e+03	1.827870e+03
-3.570000e+00	-3.500000e+00	3.266477e+05	2.837493e+05	2.837493e+05
-3.500000e+00	-3.430000e+00	1.370096e+06	1.482601e+06	1.482601e+06
-3.430000e+00	-3.360000e+00	4.897087e+05	6.666569e+05	6.666569e+05
-3.360000e+00	-3.290000e+00	2.592601e+06	2.402023e+06	2.402023e+06
-3.290000e+00	-3.220000e+00	4.554714e+06	3.678627e+06	3.678627e+06
-3.220000e+00	-3.150000e+00	-1.530593e+05	8.769081e+05	8.769081e+05
-3.150000e+00	-3.080000e+00	3.412993e+06	1.827459e+06	1.827459e+06
-3.080000e+00	-3.010000e+00	4.015714e+06	1.525556e+06	1.525556e+06
-3.010000e+00	-2.940000e+00	1.614199e+07	1.630805e+07	1.630805e+07
-2.940000e+00	-2.870000e+00	1.488547e+06	1.650940e+06	1.650940e+06
-2.870000e+00	-2.800000e+00	9.714069e+06	4.022130e+06	4.022130e+06
-2.800000e+00	-2.730000e+00	4.490264e+06	1.662195e+06	1.662195e+06
-2.730000e+00	-2.660000e+00	1.064869e+07	5.667735e+06	5.667735e+06
-2.660000e+00	-2.590000e+00	1.170356e+07	5.097540e+06	5.097540e+06
-2.590000e+00	-2.520000e+00	2.184573e+07	7.365251e+06	7.365251e+06
-2.520000e+00	-2.450000e+00	1.746923e+07	7.236909e+06	7.236909e+06
-2.450000e+00	-2.380000e+00	2.702106e+07	7.947744e+06	7.947744e+06
-2.380000e+00	-2.310000e+00	4.260364e+07	7.712758e+06	7.712758e+06
-2.310000e+00	-2.240000e+00	7.361053e+07	1.461576e+07	1.461576e+07
-2.240000e+00	-2.170000e+00	7.997924e+07	2.235794e+07	2.235794e+07
-2.170000e+00	-2.100000e+00	1.106200e+08	1.915687e+07	1.915687e+07
-2.100000e+00	-2.030000e+00	1.262904e+08	1.983521e+07	1.983521e+07
-2.030000e+00	-1.960000e+00	2.158129e+08	2.484075e+07	2.484075e+07
-1.960000e+00	-1.890000e+00	3.177389e+08	3.293853e+07	3.293853e+07
-1.890000e+00	-1.820000e+00	4.397704e+08	4.567699e+07	4.567699e+07
-1.820000e+00	-1.750000e+00	5.238651e+08	1.042273e+08	1.042273e+08
-1.750000e+00	-1.680000e+00	1.007593e+09	6.777026e+07	6.777026e+07
-1.680000e+00	-1.610000e+00	1.995419e+09	8.386145e+07	8.386145e+07
-1.610000e+00	-1.540000e+00	2.845053e+09	1.992771e+08	1.992771e+08
-1.540000e+00	-1.470000e+00	4.172366e+09	1.392795e+08	1.392795e+08
-1.470000e+00	-1.400000e+00	6.387230e+09	2.134838e+08	2.134838e+08
-1.400000e+00	-1.330000e+00	9.231444e+09	2.321460e+08	2.321460e+08
-1.330000e+00	-1.260000e+00	1.349213e+10	2.793372e+08	2.793372e+08
-1.260000e+00	-1.190000e+00	1.696870e+10	3.905464e+08	3.905464e+08
-1.190000e+00	-1.120000e+00	2.084821e+10	4.059427e+08	4.059427e+08
-1.120000e+00	-1.050000e+00	2.474306e+10	3.405612e+08	3.405612e+08
-1.050000e+00	-9.800000e-01	2.776200e+10	4.202206e+08	4.202206e+08
-9.800000e-01	-9.100000e-01	2.956889e+10	4.129282e+08	4.129282e+08
-9.100000e-01	-8.400000e-01	2.946709e+10	6.451572e+08	6.451572e+08
-8.400000e-01	-7.700000e-01	2.952539e+10	4.740888e+08	4.740888e+08
-7.700000e-01	-7.000000e-01	2.722807e+10	3.719546e+08	3.719546e+08
-7.000000e-01	-6.300000e-01	2.530749e+10	3.833821e+08	3.833821e+08
-6.300000e-01	-5.600000e-01	2.283031e+10	4.488622e+08	4.488622e+08
-5.600000e-01	-4.900000e-01	1.953284e+10	2.536696e+08	2.536696e+08
-4.900000e-01	-4.200000e-01	1.519416e+10	3.209857e+08	3.209857e+08
-4.200000e-01	-3.500000e-01	1.102438e+10	2.250560e+08	2.250560e+08
-3.500000e-01	-2.800000e-01	6.630147e+09	1.928264e+08	1.928264e+08
-2.800000e-01	-2.100000e-01	2.394033e+09	1.403003e+08	1.403003e+08
-2.100000e-01	-1.400000e-01	4.622360e+08	3.448557e+07	3.448557e+07
-1.400000e-01	-7.000000e-02	4.446440e+07	9.233260e+06	9.233260e+06
-7.000000e-02	0.000000e+00	2.667174e+06	1.667181e+06	1.667181e+06
# END HISTO1D

