# BEGIN PLOT
LegendOnly=/zj_ps_nlo_mer_mur0.5_muf1_R8.yoda/PAPER_FIN_R8/ch_SD_l10_pT_326_408
DrawOnly=/zj_ps_nlo_mer_mur0.5_muf1_R8.yoda/PAPER_FIN_R8/ch_SD_l10_pT_326_408
Legend=1
LogY=1
# END PLOT

# BEGIN HISTO1D /zj_ps_nlo_mer_mur0.5_muf1_R8.yoda/PAPER_FIN_R8/ch_SD_l10_pT_326_408
LineColor=red
LineStyle=solid
Path=/zj_ps_nlo_mer_mur0.5_muf1_R8.yoda/PAPER_FIN_R8/ch_SD_l10_pT_326_408
Title=zj_ps_nlo_mer_mur0.5_muf1_R8
XLabel=~
YLabel=~
# xlow	 xhigh	 val	 errminus	 errplus
-7.000000e+00	-6.930000e+00	0.000000e+00	0.000000e+00	0.000000e+00
-6.930000e+00	-6.860000e+00	1.132895e+08	1.212932e+07	1.212932e+07
-6.860000e+00	-6.790000e+00	0.000000e+00	0.000000e+00	0.000000e+00
-6.790000e+00	-6.720000e+00	0.000000e+00	0.000000e+00	0.000000e+00
-6.720000e+00	-6.650000e+00	0.000000e+00	0.000000e+00	0.000000e+00
-6.650000e+00	-6.580000e+00	0.000000e+00	0.000000e+00	0.000000e+00
-6.580000e+00	-6.510000e+00	0.000000e+00	0.000000e+00	0.000000e+00
-6.510000e+00	-6.440000e+00	0.000000e+00	0.000000e+00	0.000000e+00
-6.440000e+00	-6.370000e+00	0.000000e+00	0.000000e+00	0.000000e+00
-6.370000e+00	-6.300000e+00	0.000000e+00	0.000000e+00	0.000000e+00
-6.300000e+00	-6.230000e+00	0.000000e+00	0.000000e+00	0.000000e+00
-6.230000e+00	-6.160000e+00	0.000000e+00	0.000000e+00	0.000000e+00
-6.160000e+00	-6.090000e+00	0.000000e+00	0.000000e+00	0.000000e+00
-6.090000e+00	-6.020000e+00	0.000000e+00	0.000000e+00	0.000000e+00
-6.020000e+00	-5.950000e+00	0.000000e+00	0.000000e+00	0.000000e+00
-5.950000e+00	-5.880000e+00	0.000000e+00	0.000000e+00	0.000000e+00
-5.880000e+00	-5.810000e+00	0.000000e+00	0.000000e+00	0.000000e+00
-5.810000e+00	-5.740000e+00	0.000000e+00	0.000000e+00	0.000000e+00
-5.740000e+00	-5.670000e+00	1.915140e+03	1.915140e+03	1.915140e+03
-5.670000e+00	-5.600000e+00	0.000000e+00	0.000000e+00	0.000000e+00
-5.600000e+00	-5.530000e+00	0.000000e+00	0.000000e+00	0.000000e+00
-5.530000e+00	-5.460000e+00	-3.913837e-03	3.913837e-03	3.913837e-03
-5.460000e+00	-5.390000e+00	0.000000e+00	0.000000e+00	0.000000e+00
-5.390000e+00	-5.320000e+00	0.000000e+00	0.000000e+00	0.000000e+00
-5.320000e+00	-5.250000e+00	0.000000e+00	0.000000e+00	0.000000e+00
-5.250000e+00	-5.180000e+00	-2.049140e-01	2.049140e-01	2.049140e-01
-5.180000e+00	-5.110000e+00	0.000000e+00	0.000000e+00	0.000000e+00
-5.110000e+00	-5.040000e+00	5.496433e+02	4.273317e+02	4.273317e+02
-5.040000e+00	-4.970000e+00	-1.202339e+03	1.202339e+03	1.202339e+03
-4.970000e+00	-4.900000e+00	-5.613200e+01	5.613201e+01	5.613201e+01
-4.900000e+00	-4.830000e+00	1.983216e+04	1.985069e+04	1.985069e+04
-4.830000e+00	-4.760000e+00	-4.915084e+03	5.228140e+03	5.228140e+03
-4.760000e+00	-4.690000e+00	8.278504e+03	8.327742e+03	8.327742e+03
-4.690000e+00	-4.620000e+00	1.987661e+05	1.986218e+05	1.986218e+05
-4.620000e+00	-4.550000e+00	6.192303e+04	6.048302e+04	6.048302e+04
-4.550000e+00	-4.480000e+00	5.851459e+04	4.636730e+04	4.636730e+04
-4.480000e+00	-4.410000e+00	-9.041657e+03	9.080880e+03	9.080880e+03
-4.410000e+00	-4.340000e+00	3.707317e+05	2.499017e+05	2.499017e+05
-4.340000e+00	-4.270000e+00	9.004130e+03	5.419715e+03	5.419715e+03
-4.270000e+00	-4.200000e+00	6.306319e+04	4.089438e+04	4.089438e+04
-4.200000e+00	-4.130000e+00	2.665724e+04	2.626449e+04	2.626449e+04
-4.130000e+00	-4.060000e+00	4.286787e+05	2.851086e+05	2.851086e+05
-4.060000e+00	-3.990000e+00	-4.111503e+04	7.796864e+04	7.796864e+04
-3.990000e+00	-3.920000e+00	-1.620437e+05	3.129611e+05	3.129611e+05
-3.920000e+00	-3.850000e+00	4.597460e+05	5.641662e+05	5.641662e+05
-3.850000e+00	-3.780000e+00	7.119570e+05	3.606869e+05	3.606869e+05
-3.780000e+00	-3.710000e+00	2.926503e+05	2.444292e+05	2.444292e+05
-3.710000e+00	-3.640000e+00	1.767411e+06	8.188603e+05	8.188603e+05
-3.640000e+00	-3.570000e+00	1.167867e+06	6.842684e+05	6.842684e+05
-3.570000e+00	-3.500000e+00	1.114489e+06	7.175102e+05	7.175102e+05
-3.500000e+00	-3.430000e+00	4.187557e+06	2.254982e+06	2.254982e+06
-3.430000e+00	-3.360000e+00	2.445953e+06	1.367196e+06	1.367196e+06
-3.360000e+00	-3.290000e+00	2.143630e+06	1.443416e+06	1.443416e+06
-3.290000e+00	-3.220000e+00	5.238753e+06	1.780587e+06	1.780587e+06
-3.220000e+00	-3.150000e+00	9.846680e+06	3.206566e+06	3.206566e+06
-3.150000e+00	-3.080000e+00	1.984951e+07	5.661092e+06	5.661092e+06
-3.080000e+00	-3.010000e+00	1.808777e+07	3.619389e+06	3.619389e+06
-3.010000e+00	-2.940000e+00	2.280640e+07	5.437515e+06	5.437515e+06
-2.940000e+00	-2.870000e+00	3.009540e+07	6.842049e+06	6.842049e+06
-2.870000e+00	-2.800000e+00	3.535114e+07	5.339432e+06	5.339432e+06
-2.800000e+00	-2.730000e+00	4.880946e+07	8.408608e+06	8.408608e+06
-2.730000e+00	-2.660000e+00	7.515929e+07	7.496603e+06	7.496603e+06
-2.660000e+00	-2.590000e+00	1.138113e+08	1.287401e+07	1.287401e+07
-2.590000e+00	-2.520000e+00	1.145407e+08	1.358026e+07	1.358026e+07
-2.520000e+00	-2.450000e+00	1.428861e+08	1.340915e+07	1.340915e+07
-2.450000e+00	-2.380000e+00	1.688567e+08	1.688050e+07	1.688050e+07
-2.380000e+00	-2.310000e+00	1.684894e+08	3.348445e+07	3.348445e+07
-2.310000e+00	-2.240000e+00	2.610849e+08	1.652263e+07	1.652263e+07
-2.240000e+00	-2.170000e+00	3.540101e+08	2.972444e+07	2.972444e+07
-2.170000e+00	-2.100000e+00	3.127529e+08	2.557826e+07	2.557826e+07
-2.100000e+00	-2.030000e+00	3.744380e+08	2.311480e+07	2.311480e+07
-2.030000e+00	-1.960000e+00	3.920833e+08	2.066715e+07	2.066715e+07
-1.960000e+00	-1.890000e+00	4.080104e+08	2.644766e+07	2.644766e+07
-1.890000e+00	-1.820000e+00	3.550336e+08	1.888062e+07	1.888062e+07
-1.820000e+00	-1.750000e+00	4.086914e+08	3.511003e+07	3.511003e+07
-1.750000e+00	-1.680000e+00	3.184039e+08	1.938326e+07	1.938326e+07
-1.680000e+00	-1.610000e+00	4.149017e+08	7.052946e+07	7.052946e+07
-1.610000e+00	-1.540000e+00	3.092651e+08	2.178311e+07	2.178311e+07
-1.540000e+00	-1.470000e+00	2.970367e+08	2.129079e+07	2.129079e+07
-1.470000e+00	-1.400000e+00	3.140533e+08	1.772845e+07	1.772845e+07
-1.400000e+00	-1.330000e+00	3.227073e+08	2.251967e+07	2.251967e+07
-1.330000e+00	-1.260000e+00	3.093214e+08	1.955466e+07	1.955466e+07
-1.260000e+00	-1.190000e+00	3.302731e+08	2.280187e+07	2.280187e+07
-1.190000e+00	-1.120000e+00	2.978099e+08	1.978464e+07	1.978464e+07
-1.120000e+00	-1.050000e+00	3.700476e+08	3.112205e+07	3.112205e+07
-1.050000e+00	-9.800000e-01	3.813831e+08	2.339406e+07	2.339406e+07
-9.800000e-01	-9.100000e-01	3.562956e+08	3.543935e+07	3.543935e+07
-9.100000e-01	-8.400000e-01	4.954047e+08	6.510662e+07	6.510662e+07
-8.400000e-01	-7.700000e-01	4.270147e+08	2.738077e+07	2.738077e+07
-7.700000e-01	-7.000000e-01	4.233849e+08	2.225419e+07	2.225419e+07
-7.000000e-01	-6.300000e-01	3.756706e+08	4.851675e+07	4.851675e+07
-6.300000e-01	-5.600000e-01	4.100374e+08	2.819210e+07	2.819210e+07
-5.600000e-01	-4.900000e-01	3.590521e+08	2.355707e+07	2.355707e+07
-4.900000e-01	-4.200000e-01	2.959380e+08	2.395564e+07	2.395564e+07
-4.200000e-01	-3.500000e-01	1.889827e+08	1.358093e+07	1.358093e+07
-3.500000e-01	-2.800000e-01	1.345168e+08	4.030351e+07	4.030351e+07
-2.800000e-01	-2.100000e-01	4.096426e+07	6.044492e+06	6.044492e+06
-2.100000e-01	-1.400000e-01	8.066419e+06	3.104949e+06	3.104949e+06
-1.400000e-01	-7.000000e-02	3.429741e+05	2.461889e+05	2.461889e+05
-7.000000e-02	0.000000e+00	1.517679e+02	1.603470e+02	1.603470e+02
# END HISTO1D

