# BEGIN PLOT
LegendOnly=/zj_ps_nlo_mer_mur0.5_muf1_R8.yoda/PAPER_FIN_R8_CH/lin_l20_pT_120_150
DrawOnly=/zj_ps_nlo_mer_mur0.5_muf1_R8.yoda/PAPER_FIN_R8_CH/lin_l20_pT_120_150
Legend=1
LogY=1
# END PLOT

# BEGIN HISTO1D /zj_ps_nlo_mer_mur0.5_muf1_R8.yoda/PAPER_FIN_R8_CH/lin_l20_pT_120_150
LineColor=red
LineStyle=solid
Path=/zj_ps_nlo_mer_mur0.5_muf1_R8.yoda/PAPER_FIN_R8_CH/lin_l20_pT_120_150
Title=zj_ps_nlo_mer_mur0.5_muf1_R8
XLabel=~
YLabel=~
# xlow	 xhigh	 val	 errminus	 errplus
0.000000e+00	5.000000e-03	1.969703e+10	1.120906e+09	1.120906e+09
5.000000e-03	1.250000e-02	8.727340e+10	2.194972e+09	2.194972e+09
1.250000e-02	2.250000e-02	1.272208e+11	1.046055e+10	1.046055e+10
2.250000e-02	3.500000e-02	1.402946e+11	1.993717e+09	1.993717e+09
3.500000e-02	5.000000e-02	1.137251e+11	2.097452e+09	2.097452e+09
5.000000e-02	7.000000e-02	7.634105e+10	1.067083e+09	1.067083e+09
7.000000e-02	9.250000e-02	5.117893e+10	7.473695e+08	7.473695e+08
9.250000e-02	1.200000e-01	3.217304e+10	5.763312e+08	5.763312e+08
1.200000e-01	1.520000e-01	1.939789e+10	4.760965e+08	4.760965e+08
1.520000e-01	1.880000e-01	1.328448e+10	2.892885e+08	2.892885e+08
1.880000e-01	2.280000e-01	7.877962e+09	5.871498e+08	5.871498e+08
2.280000e-01	1.000000e+00	4.686053e+08	2.235859e+07	2.235859e+07
# END HISTO1D

