# BEGIN PLOT
LegendOnly=/zj_ps_nlo_mer_mur0.5_muf1_R8.yoda/PAPER_FIN_R8/ch_lin_SD_l20_pT_65_88
DrawOnly=/zj_ps_nlo_mer_mur0.5_muf1_R8.yoda/PAPER_FIN_R8/ch_lin_SD_l20_pT_65_88
Legend=1
LogY=1
# END PLOT

# BEGIN HISTO1D /zj_ps_nlo_mer_mur0.5_muf1_R8.yoda/PAPER_FIN_R8/ch_lin_SD_l20_pT_65_88
LineColor=red
LineStyle=solid
Path=/zj_ps_nlo_mer_mur0.5_muf1_R8.yoda/PAPER_FIN_R8/ch_lin_SD_l20_pT_65_88
Title=zj_ps_nlo_mer_mur0.5_muf1_R8
XLabel=~
YLabel=~
# xlow	 xhigh	 val	 errminus	 errplus
0.000000e+00	2.500000e-03	3.524923e+12	4.389887e+10	4.389887e+10
2.500000e-03	5.000000e-03	1.396652e+12	2.170884e+10	2.170884e+10
5.000000e-03	7.500000e-03	8.802740e+11	1.218285e+10	1.218285e+10
7.500000e-03	1.250000e-02	5.373102e+11	6.422451e+09	6.422451e+09
1.250000e-02	2.000000e-02	2.974791e+11	4.441479e+09	4.441479e+09
2.000000e-02	3.250000e-02	1.888737e+11	2.335301e+09	2.335301e+09
3.250000e-02	5.000000e-02	1.303639e+11	2.271172e+09	2.271172e+09
5.000000e-02	7.750000e-02	1.040460e+11	1.602581e+09	1.602581e+09
7.750000e-02	1.150000e-01	9.139107e+10	9.815261e+08	9.815261e+08
1.150000e-01	1.600000e-01	6.831000e+10	8.703293e+08	8.703293e+08
1.600000e-01	2.100000e-01	4.716628e+10	2.566081e+09	2.566081e+09
2.100000e-01	1.000000e+00	2.522708e+09	4.079649e+07	4.079649e+07
# END HISTO1D

