# BEGIN PLOT
LegendOnly=/herwig_ps_lo_r4_pt50_s1_1e3.yoda/PAPER_FIN_R4/ch_l20_pT_186_254
DrawOnly=/herwig_ps_lo_r4_pt50_s1_1e3.yoda/PAPER_FIN_R4/ch_l20_pT_186_254
Legend=1
LogY=1
# END PLOT

# BEGIN HISTO1D /herwig_ps_lo_r4_pt50_s1_1e3.yoda/PAPER_FIN_R4/ch_l20_pT_186_254
LineColor=red
LineStyle=solid
Path=/herwig_ps_lo_r4_pt50_s1_1e3.yoda/PAPER_FIN_R4/ch_l20_pT_186_254
Title=herwig_ps_lo_r4_pt50_s1_1e3
XLabel=~
YLabel=~
# xlow	 xhigh	 val	 errminus	 errplus
-7.000000e+00	-6.930000e+00	0.000000e+00	0.000000e+00	0.000000e+00
-6.930000e+00	-6.860000e+00	2.401390e+07	1.852187e+04	1.852187e+04
-6.860000e+00	-6.790000e+00	0.000000e+00	0.000000e+00	0.000000e+00
-6.790000e+00	-6.720000e+00	0.000000e+00	0.000000e+00	0.000000e+00
-6.720000e+00	-6.650000e+00	0.000000e+00	0.000000e+00	0.000000e+00
-6.650000e+00	-6.580000e+00	0.000000e+00	0.000000e+00	0.000000e+00
-6.580000e+00	-6.510000e+00	0.000000e+00	0.000000e+00	0.000000e+00
-6.510000e+00	-6.440000e+00	0.000000e+00	0.000000e+00	0.000000e+00
-6.440000e+00	-6.370000e+00	0.000000e+00	0.000000e+00	0.000000e+00
-6.370000e+00	-6.300000e+00	0.000000e+00	0.000000e+00	0.000000e+00
-6.300000e+00	-6.230000e+00	0.000000e+00	0.000000e+00	0.000000e+00
-6.230000e+00	-6.160000e+00	0.000000e+00	0.000000e+00	0.000000e+00
-6.160000e+00	-6.090000e+00	0.000000e+00	0.000000e+00	0.000000e+00
-6.090000e+00	-6.020000e+00	0.000000e+00	0.000000e+00	0.000000e+00
-6.020000e+00	-5.950000e+00	0.000000e+00	0.000000e+00	0.000000e+00
-5.950000e+00	-5.880000e+00	0.000000e+00	0.000000e+00	0.000000e+00
-5.880000e+00	-5.810000e+00	0.000000e+00	0.000000e+00	0.000000e+00
-5.810000e+00	-5.740000e+00	0.000000e+00	0.000000e+00	0.000000e+00
-5.740000e+00	-5.670000e+00	0.000000e+00	0.000000e+00	0.000000e+00
-5.670000e+00	-5.600000e+00	0.000000e+00	0.000000e+00	0.000000e+00
-5.600000e+00	-5.530000e+00	0.000000e+00	0.000000e+00	0.000000e+00
-5.530000e+00	-5.460000e+00	0.000000e+00	0.000000e+00	0.000000e+00
-5.460000e+00	-5.390000e+00	0.000000e+00	0.000000e+00	0.000000e+00
-5.390000e+00	-5.320000e+00	0.000000e+00	0.000000e+00	0.000000e+00
-5.320000e+00	-5.250000e+00	1.428571e+01	1.428571e+01	1.428571e+01
-5.250000e+00	-5.180000e+00	0.000000e+00	0.000000e+00	0.000000e+00
-5.180000e+00	-5.110000e+00	0.000000e+00	0.000000e+00	0.000000e+00
-5.110000e+00	-5.040000e+00	1.428571e+01	1.428571e+01	1.428571e+01
-5.040000e+00	-4.970000e+00	0.000000e+00	0.000000e+00	0.000000e+00
-4.970000e+00	-4.900000e+00	1.428571e+01	1.428571e+01	1.428571e+01
-4.900000e+00	-4.830000e+00	1.428571e+01	1.428571e+01	1.428571e+01
-4.830000e+00	-4.760000e+00	0.000000e+00	0.000000e+00	0.000000e+00
-4.760000e+00	-4.690000e+00	0.000000e+00	0.000000e+00	0.000000e+00
-4.690000e+00	-4.620000e+00	1.428571e+01	1.428571e+01	1.428571e+01
-4.620000e+00	-4.550000e+00	2.857143e+01	2.020305e+01	2.020305e+01
-4.550000e+00	-4.480000e+00	4.285714e+01	2.474358e+01	2.474358e+01
-4.480000e+00	-4.410000e+00	2.857143e+01	2.020305e+01	2.020305e+01
-4.410000e+00	-4.340000e+00	4.285714e+01	2.474358e+01	2.474358e+01
-4.340000e+00	-4.270000e+00	0.000000e+00	0.000000e+00	0.000000e+00
-4.270000e+00	-4.200000e+00	2.857143e+01	2.020305e+01	2.020305e+01
-4.200000e+00	-4.130000e+00	1.428571e+01	1.428571e+01	1.428571e+01
-4.130000e+00	-4.060000e+00	4.285714e+01	2.474358e+01	2.474358e+01
-4.060000e+00	-3.990000e+00	1.571429e+02	4.738035e+01	4.738035e+01
-3.990000e+00	-3.920000e+00	7.142857e+01	3.194383e+01	3.194383e+01
-3.920000e+00	-3.850000e+00	7.142857e+01	3.194383e+01	3.194383e+01
-3.850000e+00	-3.780000e+00	1.142857e+02	4.040610e+01	4.040610e+01
-3.780000e+00	-3.710000e+00	1.142857e+02	4.040610e+01	4.040610e+01
-3.710000e+00	-3.640000e+00	7.142857e+01	3.194383e+01	3.194383e+01
-3.640000e+00	-3.570000e+00	1.285714e+02	4.285714e+01	4.285714e+01
-3.570000e+00	-3.500000e+00	2.857143e+02	6.388766e+01	6.388766e+01
-3.500000e+00	-3.430000e+00	1.857143e+02	5.150788e+01	5.150788e+01
-3.430000e+00	-3.360000e+00	2.571429e+02	6.060915e+01	6.060915e+01
-3.360000e+00	-3.290000e+00	5.857143e+02	9.147320e+01	9.147320e+01
-3.290000e+00	-3.220000e+00	1.042857e+03	1.220572e+02	1.220572e+02
-3.220000e+00	-3.150000e+00	1.842857e+03	1.622545e+02	1.622545e+02
-3.150000e+00	-3.080000e+00	3.314286e+03	2.175935e+02	2.175935e+02
-3.080000e+00	-3.010000e+00	5.300000e+03	2.751623e+02	2.751623e+02
-3.010000e+00	-2.940000e+00	7.700000e+03	3.316625e+02	3.316625e+02
-2.940000e+00	-2.870000e+00	9.428571e+03	3.670066e+02	3.670066e+02
-2.870000e+00	-2.800000e+00	1.237143e+04	4.203983e+02	4.203983e+02
-2.800000e+00	-2.730000e+00	1.474286e+04	4.589251e+02	4.589251e+02
-2.730000e+00	-2.660000e+00	1.855714e+04	5.148806e+02	5.148806e+02
-2.660000e+00	-2.590000e+00	2.164330e+04	5.560544e+02	5.560544e+02
-2.590000e+00	-2.520000e+00	2.472857e+04	5.943613e+02	5.943613e+02
-2.520000e+00	-2.450000e+00	3.001617e+04	6.548533e+02	6.548533e+02
-2.450000e+00	-2.380000e+00	3.218571e+04	6.780825e+02	6.780825e+02
-2.380000e+00	-2.310000e+00	3.405714e+04	6.975175e+02	6.975175e+02
-2.310000e+00	-2.240000e+00	3.958571e+04	7.520041e+02	7.520041e+02
-2.240000e+00	-2.170000e+00	4.365714e+04	7.897300e+02	7.897300e+02
-2.170000e+00	-2.100000e+00	4.654286e+04	8.154128e+02	8.154128e+02
-2.100000e+00	-2.030000e+00	4.895714e+04	8.362941e+02	8.362941e+02
-2.030000e+00	-1.960000e+00	5.345714e+04	8.738841e+02	8.738841e+02
-1.960000e+00	-1.890000e+00	5.761567e+04	9.072502e+02	9.072502e+02
-1.890000e+00	-1.820000e+00	5.942857e+04	9.214009e+02	9.214009e+02
-1.820000e+00	-1.750000e+00	6.388571e+04	9.553288e+02	9.553288e+02
-1.750000e+00	-1.680000e+00	7.107143e+04	1.007624e+03	1.007624e+03
-1.680000e+00	-1.610000e+00	7.285714e+04	1.020204e+03	1.020204e+03
-1.610000e+00	-1.540000e+00	7.598571e+04	1.041878e+03	1.041878e+03
-1.540000e+00	-1.470000e+00	7.910000e+04	1.063015e+03	1.063015e+03
-1.470000e+00	-1.400000e+00	8.318571e+04	1.090123e+03	1.090123e+03
-1.400000e+00	-1.330000e+00	8.575714e+04	1.106843e+03	1.106843e+03
-1.330000e+00	-1.260000e+00	8.702857e+04	1.115018e+03	1.115018e+03
-1.260000e+00	-1.190000e+00	8.780070e+04	1.119958e+03	1.119958e+03
-1.190000e+00	-1.120000e+00	8.786733e+04	1.120490e+03	1.120490e+03
-1.120000e+00	-1.050000e+00	8.801429e+04	1.121315e+03	1.121315e+03
-1.050000e+00	-9.800000e-01	8.110514e+04	1.076443e+03	1.076443e+03
-9.800000e-01	-9.100000e-01	7.765714e+04	1.053275e+03	1.053275e+03
-9.100000e-01	-8.400000e-01	6.847143e+04	9.890214e+02	9.890214e+02
-8.400000e-01	-7.700000e-01	6.041429e+04	9.290109e+02	9.290109e+02
-7.700000e-01	-7.000000e-01	4.958571e+04	8.416456e+02	8.416456e+02
-7.000000e-01	-6.300000e-01	3.465714e+04	7.036349e+02	7.036349e+02
-6.300000e-01	-5.600000e-01	1.124286e+04	4.007646e+02	4.007646e+02
-5.600000e-01	-4.900000e-01	1.742857e+03	1.577909e+02	1.577909e+02
-4.900000e-01	-4.200000e-01	1.000000e+02	3.779645e+01	3.779645e+01
-4.200000e-01	-3.500000e-01	0.000000e+00	0.000000e+00	0.000000e+00
-3.500000e-01	-2.800000e-01	0.000000e+00	0.000000e+00	0.000000e+00
-2.800000e-01	-2.100000e-01	0.000000e+00	0.000000e+00	0.000000e+00
-2.100000e-01	-1.400000e-01	0.000000e+00	0.000000e+00	0.000000e+00
-1.400000e-01	-7.000000e-02	0.000000e+00	0.000000e+00	0.000000e+00
-7.000000e-02	0.000000e+00	0.000000e+00	0.000000e+00	0.000000e+00
# END HISTO1D

