# BEGIN PLOT
LegendOnly=/herwig_ps_lo_r4_pt50_s1_1e3.yoda/PAPER_FIN_R4/lin_SD_l10_pT_65_88
DrawOnly=/herwig_ps_lo_r4_pt50_s1_1e3.yoda/PAPER_FIN_R4/lin_SD_l10_pT_65_88
Legend=1
LogY=1
# END PLOT

# BEGIN HISTO1D /herwig_ps_lo_r4_pt50_s1_1e3.yoda/PAPER_FIN_R4/lin_SD_l10_pT_65_88
LineColor=red
LineStyle=solid
Path=/herwig_ps_lo_r4_pt50_s1_1e3.yoda/PAPER_FIN_R4/lin_SD_l10_pT_65_88
Title=herwig_ps_lo_r4_pt50_s1_1e3
XLabel=~
YLabel=~
# xlow	 xhigh	 val	 errminus	 errplus
0.000000e+00	2.000000e-02	4.098660e+08	1.431837e+05	1.431837e+05
2.000000e-02	5.000000e-02	3.017885e+07	3.172912e+04	3.172912e+04
5.000000e-02	9.500000e-02	6.524647e+07	3.808112e+04	3.808112e+04
9.500000e-02	1.470000e-01	4.330440e+07	2.885993e+04	2.885993e+04
1.470000e-01	2.250000e-01	2.775204e+07	1.886504e+04	1.886504e+04
2.250000e-01	3.070000e-01	1.605362e+07	1.399333e+04	1.399333e+04
3.070000e-01	3.880000e-01	8.880701e+06	1.047181e+04	1.047181e+04
3.880000e-01	4.680000e-01	4.436474e+06	7.448886e+03	7.448886e+03
4.680000e-01	1.000000e+00	3.433626e+05	8.035696e+02	8.035696e+02
# END HISTO1D

