# BEGIN PLOT
LegendOnly=/zj_ps_nlo_mer_mur1_muf0.5_R8.yoda/PAPER_FIN_R8/SD_l10_pT_120_150
DrawOnly=/zj_ps_nlo_mer_mur1_muf0.5_R8.yoda/PAPER_FIN_R8/SD_l10_pT_120_150
Legend=1
LogY=1
# END PLOT

# BEGIN HISTO1D /zj_ps_nlo_mer_mur1_muf0.5_R8.yoda/PAPER_FIN_R8/SD_l10_pT_120_150
LineColor=red
LineStyle=solid
Path=/zj_ps_nlo_mer_mur1_muf0.5_R8.yoda/PAPER_FIN_R8/SD_l10_pT_120_150
Title=zj_ps_nlo_mer_mur1_muf0.5_R8
XLabel=~
YLabel=~
# xlow	 xhigh	 val	 errminus	 errplus
-7.000000e+00	-6.930000e+00	0.000000e+00	0.000000e+00	0.000000e+00
-6.930000e+00	-6.860000e+00	2.136434e+08	1.167552e+07	1.167552e+07
-6.860000e+00	-6.790000e+00	0.000000e+00	0.000000e+00	0.000000e+00
-6.790000e+00	-6.720000e+00	0.000000e+00	0.000000e+00	0.000000e+00
-6.720000e+00	-6.650000e+00	0.000000e+00	0.000000e+00	0.000000e+00
-6.650000e+00	-6.580000e+00	0.000000e+00	0.000000e+00	0.000000e+00
-6.580000e+00	-6.510000e+00	0.000000e+00	0.000000e+00	0.000000e+00
-6.510000e+00	-6.440000e+00	0.000000e+00	0.000000e+00	0.000000e+00
-6.440000e+00	-6.370000e+00	0.000000e+00	0.000000e+00	0.000000e+00
-6.370000e+00	-6.300000e+00	0.000000e+00	0.000000e+00	0.000000e+00
-6.300000e+00	-6.230000e+00	0.000000e+00	0.000000e+00	0.000000e+00
-6.230000e+00	-6.160000e+00	0.000000e+00	0.000000e+00	0.000000e+00
-6.160000e+00	-6.090000e+00	0.000000e+00	0.000000e+00	0.000000e+00
-6.090000e+00	-6.020000e+00	0.000000e+00	0.000000e+00	0.000000e+00
-6.020000e+00	-5.950000e+00	0.000000e+00	0.000000e+00	0.000000e+00
-5.950000e+00	-5.880000e+00	0.000000e+00	0.000000e+00	0.000000e+00
-5.880000e+00	-5.810000e+00	0.000000e+00	0.000000e+00	0.000000e+00
-5.810000e+00	-5.740000e+00	0.000000e+00	0.000000e+00	0.000000e+00
-5.740000e+00	-5.670000e+00	-2.362144e-01	2.362144e-01	2.362144e-01
-5.670000e+00	-5.600000e+00	0.000000e+00	0.000000e+00	0.000000e+00
-5.600000e+00	-5.530000e+00	0.000000e+00	0.000000e+00	0.000000e+00
-5.530000e+00	-5.460000e+00	0.000000e+00	0.000000e+00	0.000000e+00
-5.460000e+00	-5.390000e+00	0.000000e+00	0.000000e+00	0.000000e+00
-5.390000e+00	-5.320000e+00	0.000000e+00	0.000000e+00	0.000000e+00
-5.320000e+00	-5.250000e+00	0.000000e+00	0.000000e+00	0.000000e+00
-5.250000e+00	-5.180000e+00	6.697869e+03	6.697867e+03	6.697867e+03
-5.180000e+00	-5.110000e+00	0.000000e+00	0.000000e+00	0.000000e+00
-5.110000e+00	-5.040000e+00	-2.078637e+01	2.078637e+01	2.078637e+01
-5.040000e+00	-4.970000e+00	0.000000e+00	0.000000e+00	0.000000e+00
-4.970000e+00	-4.900000e+00	-1.651726e+01	1.654722e+01	1.654722e+01
-4.900000e+00	-4.830000e+00	0.000000e+00	0.000000e+00	0.000000e+00
-4.830000e+00	-4.760000e+00	1.591834e+03	1.544595e+03	1.544595e+03
-4.760000e+00	-4.690000e+00	-3.687463e+03	3.526957e+03	3.526957e+03
-4.690000e+00	-4.620000e+00	9.820720e+04	9.686601e+04	9.686601e+04
-4.620000e+00	-4.550000e+00	7.053310e+04	9.375545e+04	9.375545e+04
-4.550000e+00	-4.480000e+00	6.960450e+04	6.927829e+04	6.927829e+04
-4.480000e+00	-4.410000e+00	4.061707e+01	1.675267e+02	1.675267e+02
-4.410000e+00	-4.340000e+00	2.238524e+05	1.434581e+05	1.434581e+05
-4.340000e+00	-4.270000e+00	2.180941e+04	1.983458e+04	1.983458e+04
-4.270000e+00	-4.200000e+00	2.248191e+05	1.920235e+05	1.920235e+05
-4.200000e+00	-4.130000e+00	-1.352373e+06	8.814865e+05	8.814865e+05
-4.130000e+00	-4.060000e+00	4.620323e+05	2.298858e+05	2.298858e+05
-4.060000e+00	-3.990000e+00	9.323699e+04	1.120228e+05	1.120228e+05
-3.990000e+00	-3.920000e+00	6.695829e+05	2.832393e+05	2.832393e+05
-3.920000e+00	-3.850000e+00	4.761306e+05	6.611511e+05	6.611511e+05
-3.850000e+00	-3.780000e+00	4.272153e+05	3.307994e+05	3.307994e+05
-3.780000e+00	-3.710000e+00	1.851154e+06	5.301151e+05	5.301151e+05
-3.710000e+00	-3.640000e+00	1.848246e+06	7.221092e+05	7.221092e+05
-3.640000e+00	-3.570000e+00	1.268223e+06	1.621110e+06	1.621110e+06
-3.570000e+00	-3.500000e+00	2.947996e+06	8.483942e+05	8.483942e+05
-3.500000e+00	-3.430000e+00	5.142656e+06	1.079514e+06	1.079514e+06
-3.430000e+00	-3.360000e+00	5.995080e+06	1.358260e+06	1.358260e+06
-3.360000e+00	-3.290000e+00	7.900166e+06	1.331144e+06	1.331144e+06
-3.290000e+00	-3.220000e+00	5.536650e+06	2.713732e+06	2.713732e+06
-3.220000e+00	-3.150000e+00	1.308774e+07	2.593348e+06	2.593348e+06
-3.150000e+00	-3.080000e+00	2.646841e+07	3.775627e+06	3.775627e+06
-3.080000e+00	-3.010000e+00	2.947214e+07	3.764207e+06	3.764207e+06
-3.010000e+00	-2.940000e+00	4.021897e+07	5.062808e+06	5.062808e+06
-2.940000e+00	-2.870000e+00	5.631329e+07	9.061153e+06	9.061153e+06
-2.870000e+00	-2.800000e+00	5.776210e+07	6.259468e+06	6.259468e+06
-2.800000e+00	-2.730000e+00	7.356054e+07	6.416012e+06	6.416012e+06
-2.730000e+00	-2.660000e+00	1.098273e+08	8.598406e+06	8.598406e+06
-2.660000e+00	-2.590000e+00	1.668620e+08	9.395111e+06	9.395111e+06
-2.590000e+00	-2.520000e+00	2.052966e+08	1.641684e+07	1.641684e+07
-2.520000e+00	-2.450000e+00	2.887441e+08	1.540929e+07	1.540929e+07
-2.450000e+00	-2.380000e+00	4.324627e+08	2.104974e+07	2.104974e+07
-2.380000e+00	-2.310000e+00	5.813471e+08	3.638791e+07	3.638791e+07
-2.310000e+00	-2.240000e+00	7.774110e+08	2.228822e+07	2.228822e+07
-2.240000e+00	-2.170000e+00	1.102390e+09	2.792154e+07	2.792154e+07
-2.170000e+00	-2.100000e+00	1.400777e+09	3.678078e+07	3.678078e+07
-2.100000e+00	-2.030000e+00	1.767067e+09	7.670732e+07	7.670732e+07
-2.030000e+00	-1.960000e+00	2.427449e+09	7.343759e+07	7.343759e+07
-1.960000e+00	-1.890000e+00	2.915323e+09	1.548629e+08	1.548629e+08
-1.890000e+00	-1.820000e+00	3.373769e+09	2.481211e+08	2.481211e+08
-1.820000e+00	-1.750000e+00	4.552214e+09	1.271124e+08	1.271124e+08
-1.750000e+00	-1.680000e+00	5.179303e+09	7.896018e+07	7.896018e+07
-1.680000e+00	-1.610000e+00	5.822853e+09	8.479133e+07	8.479133e+07
-1.610000e+00	-1.540000e+00	5.921444e+09	9.607550e+07	9.607550e+07
-1.540000e+00	-1.470000e+00	6.224013e+09	1.045318e+08	1.045318e+08
-1.470000e+00	-1.400000e+00	5.921439e+09	1.118044e+08	1.118044e+08
-1.400000e+00	-1.330000e+00	5.631410e+09	8.292027e+07	8.292027e+07
-1.330000e+00	-1.260000e+00	4.942904e+09	1.691880e+08	1.691880e+08
-1.260000e+00	-1.190000e+00	4.716657e+09	1.005501e+08	1.005501e+08
-1.190000e+00	-1.120000e+00	4.542480e+09	7.257298e+07	7.257298e+07
-1.120000e+00	-1.050000e+00	4.276521e+09	7.619094e+07	7.619094e+07
-1.050000e+00	-9.800000e-01	4.480821e+09	7.275462e+07	7.275462e+07
-9.800000e-01	-9.100000e-01	5.095037e+09	2.834314e+08	2.834314e+08
-9.100000e-01	-8.400000e-01	5.228906e+09	8.332252e+07	8.332252e+07
-8.400000e-01	-7.700000e-01	5.459503e+09	9.467082e+07	9.467082e+07
-7.700000e-01	-7.000000e-01	5.585293e+09	7.210430e+07	7.210430e+07
-7.000000e-01	-6.300000e-01	5.680760e+09	8.518266e+07	8.518266e+07
-6.300000e-01	-5.600000e-01	5.177184e+09	5.886174e+07	5.886174e+07
-5.600000e-01	-4.900000e-01	4.672279e+09	1.038445e+08	1.038445e+08
-4.900000e-01	-4.200000e-01	3.988954e+09	1.030626e+08	1.030626e+08
-4.200000e-01	-3.500000e-01	3.041421e+09	4.800971e+07	4.800971e+07
-3.500000e-01	-2.800000e-01	1.777107e+09	5.125379e+07	5.125379e+07
-2.800000e-01	-2.100000e-01	6.546941e+08	2.692742e+07	2.692742e+07
-2.100000e-01	-1.400000e-01	8.208391e+07	3.613731e+07	3.613731e+07
-1.400000e-01	-7.000000e-02	1.057152e+07	1.481877e+06	1.481877e+06
-7.000000e-02	0.000000e+00	-4.750846e+05	6.665724e+05	6.665724e+05
# END HISTO1D

