# BEGIN PLOT
LegendOnly=/zj_ps_nlo_mer_mur1_muf0.5_R8.yoda/PAPER_FIN_R8/lin_SD_l20_pT_150_186
DrawOnly=/zj_ps_nlo_mer_mur1_muf0.5_R8.yoda/PAPER_FIN_R8/lin_SD_l20_pT_150_186
Legend=1
LogY=1
# END PLOT

# BEGIN HISTO1D /zj_ps_nlo_mer_mur1_muf0.5_R8.yoda/PAPER_FIN_R8/lin_SD_l20_pT_150_186
LineColor=red
LineStyle=solid
Path=/zj_ps_nlo_mer_mur1_muf0.5_R8.yoda/PAPER_FIN_R8/lin_SD_l20_pT_150_186
Title=zj_ps_nlo_mer_mur1_muf0.5_R8
XLabel=~
YLabel=~
# xlow	 xhigh	 val	 errminus	 errplus
0.000000e+00	2.500000e-03	9.420968e+11	5.433612e+09	5.433612e+09
2.500000e-03	1.000000e-02	9.712415e+10	9.511519e+08	9.511519e+08
1.000000e-02	2.500000e-02	3.150697e+10	3.119097e+08	3.119097e+08
2.500000e-02	6.000000e-02	1.502721e+10	1.560583e+08	1.560583e+08
6.000000e-02	1.200000e-01	9.759658e+09	1.087145e+08	1.087145e+08
1.200000e-01	1.770000e-01	6.156275e+09	1.115686e+08	1.115686e+08
1.770000e-01	2.300000e-01	3.598196e+09	5.246060e+07	5.246060e+07
2.300000e-01	1.000000e+00	1.632365e+08	3.206033e+06	3.206033e+06
# END HISTO1D

