# BEGIN PLOT
LegendOnly=/zj_ps_nlo_mer_mur0.5_muf1_R8.yoda/PAPER_FIN_R8/ch_l05_pT_50_65
DrawOnly=/zj_ps_nlo_mer_mur0.5_muf1_R8.yoda/PAPER_FIN_R8/ch_l05_pT_50_65
Legend=1
LogY=1
# END PLOT

# BEGIN HISTO1D /zj_ps_nlo_mer_mur0.5_muf1_R8.yoda/PAPER_FIN_R8/ch_l05_pT_50_65
LineColor=red
LineStyle=solid
Path=/zj_ps_nlo_mer_mur0.5_muf1_R8.yoda/PAPER_FIN_R8/ch_l05_pT_50_65
Title=zj_ps_nlo_mer_mur0.5_muf1_R8
XLabel=~
YLabel=~
# xlow	 xhigh	 val	 errminus	 errplus
-7.000000e+00	-6.930000e+00	0.000000e+00	0.000000e+00	0.000000e+00
-6.930000e+00	-6.860000e+00	3.632674e+11	1.979261e+09	1.979261e+09
-6.860000e+00	-6.790000e+00	0.000000e+00	0.000000e+00	0.000000e+00
-6.790000e+00	-6.720000e+00	-6.284354e-02	6.284354e-02	6.284354e-02
-6.720000e+00	-6.650000e+00	0.000000e+00	0.000000e+00	0.000000e+00
-6.650000e+00	-6.580000e+00	-3.235561e+00	3.052561e+00	3.052561e+00
-6.580000e+00	-6.510000e+00	-1.429559e+02	1.430128e+02	1.430128e+02
-6.510000e+00	-6.440000e+00	-2.552566e-01	2.552566e-01	2.552566e-01
-6.440000e+00	-6.370000e+00	0.000000e+00	0.000000e+00	0.000000e+00
-6.370000e+00	-6.300000e+00	-3.716923e+01	3.275764e+01	3.275764e+01
-6.300000e+00	-6.230000e+00	-8.777991e+01	8.777991e+01	8.777991e+01
-6.230000e+00	-6.160000e+00	-3.907854e+01	3.804271e+01	3.804271e+01
-6.160000e+00	-6.090000e+00	2.015901e+00	2.015901e+00	2.015901e+00
-6.090000e+00	-6.020000e+00	-2.213026e+04	2.213025e+04	2.213025e+04
-6.020000e+00	-5.950000e+00	-4.266531e+03	3.043038e+03	3.043038e+03
-5.950000e+00	-5.880000e+00	-1.933106e+02	1.208774e+02	1.208774e+02
-5.880000e+00	-5.810000e+00	-5.574397e+03	5.191571e+03	5.191571e+03
-5.810000e+00	-5.740000e+00	-7.718161e+01	7.718294e+01	7.718294e+01
-5.740000e+00	-5.670000e+00	-1.096764e+01	1.106193e+01	1.106193e+01
-5.670000e+00	-5.600000e+00	-1.971796e+02	1.923538e+02	1.923538e+02
-5.600000e+00	-5.530000e+00	3.601630e+01	2.617163e+01	2.617163e+01
-5.530000e+00	-5.460000e+00	-3.738347e+00	3.514742e+00	3.514742e+00
-5.460000e+00	-5.390000e+00	-2.799644e+04	2.348636e+04	2.348636e+04
-5.390000e+00	-5.320000e+00	-3.652641e+01	2.712990e+01	2.712990e+01
-5.320000e+00	-5.250000e+00	-2.101799e+02	1.896781e+02	1.896781e+02
-5.250000e+00	-5.180000e+00	-9.044736e+02	5.702286e+02	5.702286e+02
-5.180000e+00	-5.110000e+00	-2.868477e+02	2.500426e+02	2.500426e+02
-5.110000e+00	-5.040000e+00	-1.171981e+04	8.610439e+03	8.610439e+03
-5.040000e+00	-4.970000e+00	-3.212731e+03	1.992733e+03	1.992733e+03
-4.970000e+00	-4.900000e+00	-2.600247e+03	1.737080e+03	1.737080e+03
-4.900000e+00	-4.830000e+00	1.963289e+03	2.923740e+03	2.923740e+03
-4.830000e+00	-4.760000e+00	-9.695169e+03	5.429994e+03	5.429994e+03
-4.760000e+00	-4.690000e+00	-2.017601e+03	1.335582e+03	1.335582e+03
-4.690000e+00	-4.620000e+00	-3.920921e+02	5.253054e+02	5.253054e+02
-4.620000e+00	-4.550000e+00	4.839649e+02	8.198859e+02	8.198859e+02
-4.550000e+00	-4.480000e+00	-4.235597e+03	3.203344e+03	3.203344e+03
-4.480000e+00	-4.410000e+00	4.225470e+04	4.281132e+04	4.281132e+04
-4.410000e+00	-4.340000e+00	7.432977e+05	7.515834e+05	7.515834e+05
-4.340000e+00	-4.270000e+00	-5.904574e+03	4.452156e+03	4.452156e+03
-4.270000e+00	-4.200000e+00	-2.065230e+04	1.061736e+04	1.061736e+04
-4.200000e+00	-4.130000e+00	-7.725586e+04	7.667904e+04	7.667904e+04
-4.130000e+00	-4.060000e+00	-9.443986e+05	3.025014e+06	3.025014e+06
-4.060000e+00	-3.990000e+00	-1.000627e+07	1.056347e+07	1.056347e+07
-3.990000e+00	-3.920000e+00	3.653676e+05	1.234372e+06	1.234372e+06
-3.920000e+00	-3.850000e+00	-2.203620e+06	1.933203e+06	1.933203e+06
-3.850000e+00	-3.780000e+00	3.772220e+06	3.653200e+06	3.653200e+06
-3.780000e+00	-3.710000e+00	4.498243e+06	4.420584e+06	4.420584e+06
-3.710000e+00	-3.640000e+00	-7.911570e+06	1.911826e+07	1.911826e+07
-3.640000e+00	-3.570000e+00	1.259891e+07	9.356177e+06	9.356177e+06
-3.570000e+00	-3.500000e+00	4.692053e+07	8.449704e+06	8.449704e+06
-3.500000e+00	-3.430000e+00	2.959474e+07	1.537651e+07	1.537651e+07
-3.430000e+00	-3.360000e+00	4.450733e+07	1.316901e+07	1.316901e+07
-3.360000e+00	-3.290000e+00	9.912751e+07	1.739224e+07	1.739224e+07
-3.290000e+00	-3.220000e+00	9.276676e+07	2.230886e+07	2.230886e+07
-3.220000e+00	-3.150000e+00	3.828896e+07	3.577073e+07	3.577073e+07
-3.150000e+00	-3.080000e+00	1.141099e+08	2.196694e+07	2.196694e+07
-3.080000e+00	-3.010000e+00	2.320917e+08	1.511393e+08	1.511393e+08
-3.010000e+00	-2.940000e+00	7.106384e+07	1.420758e+07	1.420758e+07
-2.940000e+00	-2.870000e+00	2.566691e+07	2.426886e+07	2.426886e+07
-2.870000e+00	-2.800000e+00	8.917676e+07	3.119755e+07	3.119755e+07
-2.800000e+00	-2.730000e+00	6.700341e+07	2.986382e+07	2.986382e+07
-2.730000e+00	-2.660000e+00	9.813321e+07	1.931664e+07	1.931664e+07
-2.660000e+00	-2.590000e+00	1.517441e+08	2.643192e+07	2.643192e+07
-2.590000e+00	-2.520000e+00	1.821831e+08	3.223774e+07	3.223774e+07
-2.520000e+00	-2.450000e+00	1.975771e+08	2.955845e+07	2.955845e+07
-2.450000e+00	-2.380000e+00	2.306794e+08	3.549952e+07	3.549952e+07
-2.380000e+00	-2.310000e+00	3.650353e+08	5.066339e+07	5.066339e+07
-2.310000e+00	-2.240000e+00	4.903784e+08	4.168988e+07	4.168988e+07
-2.240000e+00	-2.170000e+00	6.089631e+08	5.484589e+07	5.484589e+07
-2.170000e+00	-2.100000e+00	6.924001e+08	7.328084e+07	7.328084e+07
-2.100000e+00	-2.030000e+00	1.008016e+09	7.957646e+07	7.957646e+07
-2.030000e+00	-1.960000e+00	1.103638e+09	8.446495e+07	8.446495e+07
-1.960000e+00	-1.890000e+00	1.094619e+09	9.685226e+07	9.685226e+07
-1.890000e+00	-1.820000e+00	6.475707e+08	6.263635e+08	6.263635e+08
-1.820000e+00	-1.750000e+00	1.461509e+09	1.214302e+08	1.214302e+08
-1.750000e+00	-1.680000e+00	1.777194e+09	1.028740e+08	1.028740e+08
-1.680000e+00	-1.610000e+00	2.179133e+09	1.277668e+08	1.277668e+08
-1.610000e+00	-1.540000e+00	2.407219e+09	1.429190e+08	1.429190e+08
-1.540000e+00	-1.470000e+00	2.852854e+09	1.276611e+08	1.276611e+08
-1.470000e+00	-1.400000e+00	2.685177e+09	1.481059e+08	1.481059e+08
-1.400000e+00	-1.330000e+00	3.610266e+09	1.552957e+08	1.552957e+08
-1.330000e+00	-1.260000e+00	4.277139e+09	1.333402e+08	1.333402e+08
-1.260000e+00	-1.190000e+00	4.842831e+09	1.558247e+08	1.558247e+08
-1.190000e+00	-1.120000e+00	5.983079e+09	2.747320e+08	2.747320e+08
-1.120000e+00	-1.050000e+00	6.984126e+09	1.847079e+08	1.847079e+08
-1.050000e+00	-9.800000e-01	7.651443e+09	1.740436e+08	1.740436e+08
-9.800000e-01	-9.100000e-01	8.620169e+09	2.254900e+08	2.254900e+08
-9.100000e-01	-8.400000e-01	9.361797e+09	2.376520e+08	2.376520e+08
-8.400000e-01	-7.700000e-01	1.029886e+10	2.267474e+08	2.267474e+08
-7.700000e-01	-7.000000e-01	1.018996e+10	2.402692e+08	2.402692e+08
-7.000000e-01	-6.300000e-01	9.892191e+09	4.368684e+08	4.368684e+08
-6.300000e-01	-5.600000e-01	9.789363e+09	2.499224e+08	2.499224e+08
-5.600000e-01	-4.900000e-01	9.220829e+09	2.125054e+08	2.125054e+08
-4.900000e-01	-4.200000e-01	6.819653e+09	2.907704e+08	2.907704e+08
-4.200000e-01	-3.500000e-01	4.856529e+09	1.507657e+08	1.507657e+08
-3.500000e-01	-2.800000e-01	2.050934e+09	1.273559e+08	1.273559e+08
-2.800000e-01	-2.100000e-01	4.229570e+08	5.036471e+07	5.036471e+07
-2.100000e-01	-1.400000e-01	2.672309e+07	2.579963e+07	2.579963e+07
-1.400000e-01	-7.000000e-02	1.340412e+06	8.422906e+05	8.422906e+05
-7.000000e-02	0.000000e+00	0.000000e+00	0.000000e+00	0.000000e+00
# END HISTO1D

