# BEGIN PLOT
LegendOnly=/zj_ps_nlo_mer_mur0.5_muf1_R8.yoda/PAPER_FIN_R8_CH/lin_SD_l05_pT_150_186
DrawOnly=/zj_ps_nlo_mer_mur0.5_muf1_R8.yoda/PAPER_FIN_R8_CH/lin_SD_l05_pT_150_186
Legend=1
LogY=1
# END PLOT

# BEGIN HISTO1D /zj_ps_nlo_mer_mur0.5_muf1_R8.yoda/PAPER_FIN_R8_CH/lin_SD_l05_pT_150_186
LineColor=red
LineStyle=solid
Path=/zj_ps_nlo_mer_mur0.5_muf1_R8.yoda/PAPER_FIN_R8_CH/lin_SD_l05_pT_150_186
Title=zj_ps_nlo_mer_mur0.5_muf1_R8
XLabel=~
YLabel=~
# xlow	 xhigh	 val	 errminus	 errplus
0.000000e+00	6.000000e-02	3.555157e+10	4.819834e+08	4.819834e+08
6.000000e-02	9.000000e-02	2.063402e+10	5.789482e+08	5.789482e+08
9.000000e-02	1.200000e-01	1.725318e+10	3.226359e+08	3.226359e+08
1.200000e-01	1.500000e-01	1.540830e+10	3.362691e+08	3.362691e+08
1.500000e-01	1.900000e-01	1.234441e+10	2.532985e+08	2.532985e+08
1.900000e-01	2.300000e-01	1.127570e+10	2.509846e+08	2.509846e+08
2.300000e-01	2.700000e-01	9.257737e+09	2.173709e+08	2.173709e+08
2.700000e-01	3.200000e-01	7.586522e+09	1.741098e+08	1.741098e+08
3.200000e-01	3.700000e-01	5.707252e+09	3.154920e+08	3.154920e+08
3.700000e-01	4.200000e-01	4.489992e+09	1.525161e+08	1.525161e+08
4.200000e-01	4.800000e-01	3.138397e+09	1.208455e+08	1.208455e+08
4.800000e-01	5.400000e-01	1.966123e+09	1.316965e+08	1.316965e+08
5.400000e-01	6.000000e-01	9.988588e+08	5.294208e+07	5.294208e+07
6.000000e-01	1.000000e+00	7.423128e+07	6.506542e+06	6.506542e+06
# END HISTO1D

