# BEGIN PLOT
LegendOnly=/zj_ps_nlo_mer_mur0.5_muf1_R8.yoda/PAPER_FIN_R8/ch_SD_l20_pT_254_326
DrawOnly=/zj_ps_nlo_mer_mur0.5_muf1_R8.yoda/PAPER_FIN_R8/ch_SD_l20_pT_254_326
Legend=1
LogY=1
# END PLOT

# BEGIN HISTO1D /zj_ps_nlo_mer_mur0.5_muf1_R8.yoda/PAPER_FIN_R8/ch_SD_l20_pT_254_326
LineColor=red
LineStyle=solid
Path=/zj_ps_nlo_mer_mur0.5_muf1_R8.yoda/PAPER_FIN_R8/ch_SD_l20_pT_254_326
Title=zj_ps_nlo_mer_mur0.5_muf1_R8
XLabel=~
YLabel=~
# xlow	 xhigh	 val	 errminus	 errplus
-7.000000e+00	-6.930000e+00	4.564860e+05	4.747203e+05	4.747203e+05
-6.930000e+00	-6.860000e+00	1.632511e+10	4.780876e+08	4.780876e+08
-6.860000e+00	-6.790000e+00	-1.144617e+04	1.260872e+04	1.260872e+04
-6.790000e+00	-6.720000e+00	1.001791e+05	8.736532e+04	8.736532e+04
-6.720000e+00	-6.650000e+00	4.032549e+05	2.155458e+05	2.155458e+05
-6.650000e+00	-6.580000e+00	2.373336e+05	1.305546e+05	1.305546e+05
-6.580000e+00	-6.510000e+00	4.483496e+06	4.305444e+06	4.305444e+06
-6.510000e+00	-6.440000e+00	1.849930e+06	1.699951e+06	1.699951e+06
-6.440000e+00	-6.370000e+00	9.637014e+05	4.339445e+05	4.339445e+05
-6.370000e+00	-6.300000e+00	1.890409e+06	1.763883e+06	1.763883e+06
-6.300000e+00	-6.230000e+00	1.042094e+06	5.218431e+05	5.218431e+05
-6.230000e+00	-6.160000e+00	1.479029e+06	1.179594e+06	1.179594e+06
-6.160000e+00	-6.090000e+00	1.389023e+06	1.818928e+06	1.818928e+06
-6.090000e+00	-6.020000e+00	-4.752324e+03	4.612720e+05	4.612720e+05
-6.020000e+00	-5.950000e+00	3.777753e+05	1.709241e+05	1.709241e+05
-5.950000e+00	-5.880000e+00	2.291560e+06	2.156926e+06	2.156926e+06
-5.880000e+00	-5.810000e+00	-8.785579e+05	1.705619e+06	1.705619e+06
-5.810000e+00	-5.740000e+00	2.797843e+05	1.669684e+05	1.669684e+05
-5.740000e+00	-5.670000e+00	6.983110e+05	4.738091e+05	4.738091e+05
-5.670000e+00	-5.600000e+00	4.469589e+05	2.682428e+05	2.682428e+05
-5.600000e+00	-5.530000e+00	1.435066e+06	9.875230e+05	9.875230e+05
-5.530000e+00	-5.460000e+00	9.290007e+05	3.791960e+05	3.791960e+05
-5.460000e+00	-5.390000e+00	1.043167e+06	7.946067e+05	7.946067e+05
-5.390000e+00	-5.320000e+00	1.227924e+06	4.606541e+05	4.606541e+05
-5.320000e+00	-5.250000e+00	2.196503e+06	5.947251e+05	5.947251e+05
-5.250000e+00	-5.180000e+00	3.024784e+05	3.848708e+05	3.848708e+05
-5.180000e+00	-5.110000e+00	1.175864e+06	4.941536e+05	4.941536e+05
-5.110000e+00	-5.040000e+00	2.380771e+06	9.813424e+05	9.813424e+05
-5.040000e+00	-4.970000e+00	5.541790e+06	2.841333e+06	2.841333e+06
-4.970000e+00	-4.900000e+00	1.733161e+06	1.171122e+06	1.171122e+06
-4.900000e+00	-4.830000e+00	5.182607e+06	1.794194e+06	1.794194e+06
-4.830000e+00	-4.760000e+00	1.860664e+06	1.388864e+06	1.388864e+06
-4.760000e+00	-4.690000e+00	4.805027e+06	1.282020e+06	1.282020e+06
-4.690000e+00	-4.620000e+00	5.140917e+06	1.344991e+06	1.344991e+06
-4.620000e+00	-4.550000e+00	9.186197e+06	2.101609e+06	2.101609e+06
-4.550000e+00	-4.480000e+00	8.546684e+06	2.007491e+06	2.007491e+06
-4.480000e+00	-4.410000e+00	1.013031e+07	6.530740e+06	6.530740e+06
-4.410000e+00	-4.340000e+00	1.356859e+07	2.166942e+06	2.166942e+06
-4.340000e+00	-4.270000e+00	1.226995e+07	5.086862e+06	5.086862e+06
-4.270000e+00	-4.200000e+00	2.271166e+07	3.981381e+06	3.981381e+06
-4.200000e+00	-4.130000e+00	3.479031e+07	7.238346e+06	7.238346e+06
-4.130000e+00	-4.060000e+00	3.207676e+07	6.008064e+06	6.008064e+06
-4.060000e+00	-3.990000e+00	6.935016e+07	3.454612e+07	3.454612e+07
-3.990000e+00	-3.920000e+00	4.223676e+07	1.235662e+07	1.235662e+07
-3.920000e+00	-3.850000e+00	7.504179e+07	2.854328e+07	2.854328e+07
-3.850000e+00	-3.780000e+00	5.147243e+07	6.552035e+06	6.552035e+06
-3.780000e+00	-3.710000e+00	4.621756e+07	7.486621e+06	7.486621e+06
-3.710000e+00	-3.640000e+00	7.496851e+07	1.302082e+07	1.302082e+07
-3.640000e+00	-3.570000e+00	5.171994e+07	8.802176e+06	8.802176e+06
-3.570000e+00	-3.500000e+00	6.681050e+07	9.042046e+06	9.042046e+06
-3.500000e+00	-3.430000e+00	6.143314e+07	7.829843e+06	7.829843e+06
-3.430000e+00	-3.360000e+00	7.478626e+07	8.735473e+06	8.735473e+06
-3.360000e+00	-3.290000e+00	9.435066e+07	8.987457e+06	8.987457e+06
-3.290000e+00	-3.220000e+00	1.072504e+08	1.565757e+07	1.565757e+07
-3.220000e+00	-3.150000e+00	1.002943e+08	1.013218e+07	1.013218e+07
-3.150000e+00	-3.080000e+00	9.181407e+07	1.177993e+07	1.177993e+07
-3.080000e+00	-3.010000e+00	1.007543e+08	1.126993e+07	1.126993e+07
-3.010000e+00	-2.940000e+00	1.001279e+08	9.833689e+06	9.833689e+06
-2.940000e+00	-2.870000e+00	1.147338e+08	9.458530e+06	9.458530e+06
-2.870000e+00	-2.800000e+00	1.045233e+08	1.563990e+07	1.563990e+07
-2.800000e+00	-2.730000e+00	1.247083e+08	9.504482e+06	9.504482e+06
-2.730000e+00	-2.660000e+00	1.022251e+08	1.009860e+07	1.009860e+07
-2.660000e+00	-2.590000e+00	1.405289e+08	1.432100e+07	1.432100e+07
-2.590000e+00	-2.520000e+00	1.398431e+08	1.095972e+07	1.095972e+07
-2.520000e+00	-2.450000e+00	1.545716e+08	2.275180e+07	2.275180e+07
-2.450000e+00	-2.380000e+00	1.262912e+08	1.626582e+07	1.626582e+07
-2.380000e+00	-2.310000e+00	1.675263e+08	1.331767e+07	1.331767e+07
-2.310000e+00	-2.240000e+00	1.470971e+08	1.415432e+07	1.415432e+07
-2.240000e+00	-2.170000e+00	1.543233e+08	1.386802e+07	1.386802e+07
-2.170000e+00	-2.100000e+00	1.607593e+08	1.309330e+07	1.309330e+07
-2.100000e+00	-2.030000e+00	1.388910e+08	3.113356e+07	3.113356e+07
-2.030000e+00	-1.960000e+00	1.613983e+08	1.317373e+07	1.317373e+07
-1.960000e+00	-1.890000e+00	1.679063e+08	1.260858e+07	1.260858e+07
-1.890000e+00	-1.820000e+00	1.879476e+08	2.249912e+07	2.249912e+07
-1.820000e+00	-1.750000e+00	1.980017e+08	1.633699e+07	1.633699e+07
-1.750000e+00	-1.680000e+00	2.060176e+08	1.885941e+07	1.885941e+07
-1.680000e+00	-1.610000e+00	2.091143e+08	1.861657e+07	1.861657e+07
-1.610000e+00	-1.540000e+00	2.355556e+08	1.923240e+07	1.923240e+07
-1.540000e+00	-1.470000e+00	2.278721e+08	1.582517e+07	1.582517e+07
-1.470000e+00	-1.400000e+00	2.506666e+08	1.692218e+07	1.692218e+07
-1.400000e+00	-1.330000e+00	1.933621e+08	2.086338e+07	2.086338e+07
-1.330000e+00	-1.260000e+00	2.396594e+08	1.814363e+07	1.814363e+07
-1.260000e+00	-1.190000e+00	2.546730e+08	2.155132e+07	2.155132e+07
-1.190000e+00	-1.120000e+00	2.952503e+08	2.454558e+07	2.454558e+07
-1.120000e+00	-1.050000e+00	2.988460e+08	2.426839e+07	2.426839e+07
-1.050000e+00	-9.800000e-01	2.989461e+08	2.221201e+07	2.221201e+07
-9.800000e-01	-9.100000e-01	2.409066e+08	4.828721e+07	4.828721e+07
-9.100000e-01	-8.400000e-01	3.098444e+08	1.953117e+07	1.953117e+07
-8.400000e-01	-7.700000e-01	2.542656e+08	3.336161e+07	3.336161e+07
-7.700000e-01	-7.000000e-01	2.244367e+08	1.927328e+07	1.927328e+07
-7.000000e-01	-6.300000e-01	1.374826e+08	1.074772e+07	1.074772e+07
-6.300000e-01	-5.600000e-01	4.843809e+07	8.321522e+06	8.321522e+06
-5.600000e-01	-4.900000e-01	-3.181207e+05	5.741140e+06	5.741140e+06
-4.900000e-01	-4.200000e-01	6.398281e+05	5.076605e+05	5.076605e+05
-4.200000e-01	-3.500000e-01	-1.469449e+03	1.401089e+03	1.401089e+03
-3.500000e-01	-2.800000e-01	0.000000e+00	0.000000e+00	0.000000e+00
-2.800000e-01	-2.100000e-01	0.000000e+00	0.000000e+00	0.000000e+00
-2.100000e-01	-1.400000e-01	0.000000e+00	0.000000e+00	0.000000e+00
-1.400000e-01	-7.000000e-02	0.000000e+00	0.000000e+00	0.000000e+00
-7.000000e-02	0.000000e+00	0.000000e+00	0.000000e+00	0.000000e+00
# END HISTO1D

