pt, eta, phi
0.939362,0.655485,4.97059
3.46372,0.586147,4.82277
0.876327,0.386737,4.81083
2.47911,0.627109,4.6834
0.781782,-0.135269,4.06211
2.08408,0.23075,4.36311
32.6522,0.199778,4.17927
5.48527,0.259216,4.13666
20.8301,0.33486,4.16803
55.1394,0.32599,4.24821
87.163,0.258657,4.24842
