# BEGIN PLOT
LegendOnly=/scale_6.yoda/PAPER_FIN_R8/XS_CUTS_pT_120_150
DrawOnly=/scale_6.yoda/PAPER_FIN_R8/XS_CUTS_pT_120_150
Legend=1
LogY=1
# END PLOT

# BEGIN HISTO1D /scale_6.yoda/PAPER_FIN_R8/XS_CUTS_pT_120_150
LineColor=red
LineStyle=solid
Path=/scale_6.yoda/PAPER_FIN_R8/XS_CUTS_pT_120_150
Title=scale_6
XLabel=~
YLabel=~
# xlow	 xhigh	 val	 errminus	 errplus
-5.000000e-01	5.000000e-01	2.912572e+01	8.876240e-01	8.876240e-01
# END HISTO1D

