# BEGIN PLOT
LegendOnly=/zj_ps_nlo_mer_cent_R8.yoda/PAPER_FIN_R4/SD_l10_pT_408_1500
DrawOnly=/zj_ps_nlo_mer_cent_R8.yoda/PAPER_FIN_R4/SD_l10_pT_408_1500
Legend=1
LogY=1
# END PLOT

# BEGIN HISTO1D /zj_ps_nlo_mer_cent_R8.yoda/PAPER_FIN_R4/SD_l10_pT_408_1500
LineColor=red
LineStyle=solid
Path=/zj_ps_nlo_mer_cent_R8.yoda/PAPER_FIN_R4/SD_l10_pT_408_1500
Title=zj_ps_nlo_mer_cent_R8
XLabel=~
YLabel=~
# xlow	 xhigh	 val	 errminus	 errplus
-7.000000e+00	-6.930000e+00	0.000000e+00	0.000000e+00	0.000000e+00
-6.930000e+00	-6.860000e+00	6.726057e+06	4.873795e+05	4.873795e+05
-6.860000e+00	-6.790000e+00	0.000000e+00	0.000000e+00	0.000000e+00
-6.790000e+00	-6.720000e+00	0.000000e+00	0.000000e+00	0.000000e+00
-6.720000e+00	-6.650000e+00	0.000000e+00	0.000000e+00	0.000000e+00
-6.650000e+00	-6.580000e+00	0.000000e+00	0.000000e+00	0.000000e+00
-6.580000e+00	-6.510000e+00	0.000000e+00	0.000000e+00	0.000000e+00
-6.510000e+00	-6.440000e+00	0.000000e+00	0.000000e+00	0.000000e+00
-6.440000e+00	-6.370000e+00	0.000000e+00	0.000000e+00	0.000000e+00
-6.370000e+00	-6.300000e+00	0.000000e+00	0.000000e+00	0.000000e+00
-6.300000e+00	-6.230000e+00	0.000000e+00	0.000000e+00	0.000000e+00
-6.230000e+00	-6.160000e+00	0.000000e+00	0.000000e+00	0.000000e+00
-6.160000e+00	-6.090000e+00	0.000000e+00	0.000000e+00	0.000000e+00
-6.090000e+00	-6.020000e+00	0.000000e+00	0.000000e+00	0.000000e+00
-6.020000e+00	-5.950000e+00	0.000000e+00	0.000000e+00	0.000000e+00
-5.950000e+00	-5.880000e+00	0.000000e+00	0.000000e+00	0.000000e+00
-5.880000e+00	-5.810000e+00	0.000000e+00	0.000000e+00	0.000000e+00
-5.810000e+00	-5.740000e+00	0.000000e+00	0.000000e+00	0.000000e+00
-5.740000e+00	-5.670000e+00	0.000000e+00	0.000000e+00	0.000000e+00
-5.670000e+00	-5.600000e+00	0.000000e+00	0.000000e+00	0.000000e+00
-5.600000e+00	-5.530000e+00	0.000000e+00	0.000000e+00	0.000000e+00
-5.530000e+00	-5.460000e+00	6.283839e+03	6.283839e+03	6.283839e+03
-5.460000e+00	-5.390000e+00	0.000000e+00	0.000000e+00	0.000000e+00
-5.390000e+00	-5.320000e+00	0.000000e+00	0.000000e+00	0.000000e+00
-5.320000e+00	-5.250000e+00	0.000000e+00	0.000000e+00	0.000000e+00
-5.250000e+00	-5.180000e+00	0.000000e+00	0.000000e+00	0.000000e+00
-5.180000e+00	-5.110000e+00	0.000000e+00	0.000000e+00	0.000000e+00
-5.110000e+00	-5.040000e+00	0.000000e+00	0.000000e+00	0.000000e+00
-5.040000e+00	-4.970000e+00	1.608494e-02	1.300239e-02	1.300239e-02
-4.970000e+00	-4.900000e+00	0.000000e+00	0.000000e+00	0.000000e+00
-4.900000e+00	-4.830000e+00	2.084496e-01	2.084495e-01	2.084495e-01
-4.830000e+00	-4.760000e+00	3.028417e+02	2.514859e+02	2.514859e+02
-4.760000e+00	-4.690000e+00	1.694663e+00	1.304821e+00	1.304821e+00
-4.690000e+00	-4.620000e+00	2.079617e+03	1.164274e+03	1.164274e+03
-4.620000e+00	-4.550000e+00	1.854647e+03	1.853473e+03	1.853473e+03
-4.550000e+00	-4.480000e+00	5.021311e+02	3.585921e+02	3.585921e+02
-4.480000e+00	-4.410000e+00	3.468963e+03	3.312812e+03	3.312812e+03
-4.410000e+00	-4.340000e+00	1.259322e+04	7.748234e+03	7.748234e+03
-4.340000e+00	-4.270000e+00	4.840264e+03	3.614137e+03	3.614137e+03
-4.270000e+00	-4.200000e+00	1.069771e+04	4.898032e+03	4.898032e+03
-4.200000e+00	-4.130000e+00	2.680170e+02	1.754047e+02	1.754047e+02
-4.130000e+00	-4.060000e+00	2.215561e+04	7.377948e+03	7.377948e+03
-4.060000e+00	-3.990000e+00	2.051314e+04	6.968279e+03	6.968279e+03
-3.990000e+00	-3.920000e+00	8.998107e+04	4.074040e+04	4.074040e+04
-3.920000e+00	-3.850000e+00	5.660860e+04	2.044768e+04	2.044768e+04
-3.850000e+00	-3.780000e+00	3.932507e+04	1.498787e+04	1.498787e+04
-3.780000e+00	-3.710000e+00	1.160705e+05	5.021281e+04	5.021281e+04
-3.710000e+00	-3.640000e+00	2.235870e+05	7.006558e+04	7.006558e+04
-3.640000e+00	-3.570000e+00	1.785266e+05	4.379725e+04	4.379725e+04
-3.570000e+00	-3.500000e+00	3.153490e+05	6.538197e+04	6.538197e+04
-3.500000e+00	-3.430000e+00	4.555424e+05	7.597290e+04	7.597290e+04
-3.430000e+00	-3.360000e+00	6.618299e+05	1.051258e+05	1.051258e+05
-3.360000e+00	-3.290000e+00	7.540487e+05	9.871571e+04	9.871571e+04
-3.290000e+00	-3.220000e+00	9.767730e+05	1.188847e+05	1.188847e+05
-3.220000e+00	-3.150000e+00	1.243021e+06	1.120823e+05	1.120823e+05
-3.150000e+00	-3.080000e+00	2.066663e+06	2.857112e+05	2.857112e+05
-3.080000e+00	-3.010000e+00	2.909681e+06	2.983379e+05	2.983379e+05
-3.010000e+00	-2.940000e+00	3.226554e+06	2.052525e+05	2.052525e+05
-2.940000e+00	-2.870000e+00	5.358550e+06	4.385246e+05	4.385246e+05
-2.870000e+00	-2.800000e+00	7.311700e+06	4.867772e+05	4.867772e+05
-2.800000e+00	-2.730000e+00	9.833410e+06	4.889723e+05	4.889723e+05
-2.730000e+00	-2.660000e+00	1.420197e+07	6.044287e+05	6.044287e+05
-2.660000e+00	-2.590000e+00	1.777226e+07	7.614389e+05	7.614389e+05
-2.590000e+00	-2.520000e+00	2.521384e+07	9.065450e+05	9.065450e+05
-2.520000e+00	-2.450000e+00	3.630496e+07	1.564800e+06	1.564800e+06
-2.450000e+00	-2.380000e+00	4.569881e+07	1.670742e+06	1.670742e+06
-2.380000e+00	-2.310000e+00	5.649267e+07	1.573353e+06	1.573353e+06
-2.310000e+00	-2.240000e+00	7.119691e+07	1.858442e+06	1.858442e+06
-2.240000e+00	-2.170000e+00	9.071767e+07	2.492924e+06	2.492924e+06
-2.170000e+00	-2.100000e+00	1.018749e+08	1.804100e+06	1.804100e+06
-2.100000e+00	-2.030000e+00	1.182290e+08	1.898641e+06	1.898641e+06
-2.030000e+00	-1.960000e+00	1.405998e+08	2.110847e+06	2.110847e+06
-1.960000e+00	-1.890000e+00	1.501719e+08	1.965968e+06	1.965968e+06
-1.890000e+00	-1.820000e+00	1.616144e+08	2.254144e+06	2.254144e+06
-1.820000e+00	-1.750000e+00	1.643761e+08	2.437944e+06	2.437944e+06
-1.750000e+00	-1.680000e+00	1.570286e+08	2.494782e+06	2.494782e+06
-1.680000e+00	-1.610000e+00	1.504137e+08	1.952437e+06	1.952437e+06
-1.610000e+00	-1.540000e+00	1.397795e+08	1.791004e+06	1.791004e+06
-1.540000e+00	-1.470000e+00	1.309839e+08	1.787250e+06	1.787250e+06
-1.470000e+00	-1.400000e+00	1.216289e+08	1.716462e+06	1.716462e+06
-1.400000e+00	-1.330000e+00	1.196792e+08	2.126049e+06	2.126049e+06
-1.330000e+00	-1.260000e+00	1.174223e+08	1.803828e+06	1.803828e+06
-1.260000e+00	-1.190000e+00	1.165841e+08	1.660602e+06	1.660602e+06
-1.190000e+00	-1.120000e+00	1.169628e+08	1.653485e+06	1.653485e+06
-1.120000e+00	-1.050000e+00	1.211529e+08	1.978628e+06	1.978628e+06
-1.050000e+00	-9.800000e-01	1.227420e+08	1.805550e+06	1.805550e+06
-9.800000e-01	-9.100000e-01	1.311483e+08	2.299368e+06	2.299368e+06
-9.100000e-01	-8.400000e-01	1.323737e+08	1.892618e+06	1.892618e+06
-8.400000e-01	-7.700000e-01	1.314421e+08	2.138065e+06	2.138065e+06
-7.700000e-01	-7.000000e-01	1.212124e+08	1.640187e+06	1.640187e+06
-7.000000e-01	-6.300000e-01	1.149046e+08	1.910592e+06	1.910592e+06
-6.300000e-01	-5.600000e-01	1.039325e+08	2.204377e+06	2.204377e+06
-5.600000e-01	-4.900000e-01	8.362266e+07	1.498561e+06	1.498561e+06
-4.900000e-01	-4.200000e-01	6.776993e+07	1.329301e+06	1.329301e+06
-4.200000e-01	-3.500000e-01	4.752064e+07	1.030419e+06	1.030419e+06
-3.500000e-01	-2.800000e-01	2.865179e+07	1.045315e+06	1.045315e+06
-2.800000e-01	-2.100000e-01	8.635330e+06	4.230737e+05	4.230737e+05
-2.100000e-01	-1.400000e-01	1.628341e+06	2.177024e+05	2.177024e+05
-1.400000e-01	-7.000000e-02	7.567451e+04	2.640402e+04	2.640402e+04
-7.000000e-02	0.000000e+00	4.512759e+02	4.346069e+02	4.346069e+02
# END HISTO1D

