# BEGIN PLOT
LegendOnly=/zj_ps_nlo_mer_cent_R8.yoda/PAPER_FIN_R4_CH/lin_l05_pT_254_326
DrawOnly=/zj_ps_nlo_mer_cent_R8.yoda/PAPER_FIN_R4_CH/lin_l05_pT_254_326
Legend=1
LogY=1
# END PLOT

# BEGIN HISTO1D /zj_ps_nlo_mer_cent_R8.yoda/PAPER_FIN_R4_CH/lin_l05_pT_254_326
LineColor=red
LineStyle=solid
Path=/zj_ps_nlo_mer_cent_R8.yoda/PAPER_FIN_R4_CH/lin_l05_pT_254_326
Title=zj_ps_nlo_mer_cent_R8
XLabel=~
YLabel=~
# xlow	 xhigh	 val	 errminus	 errplus
0.000000e+00	6.000000e-02	5.677542e+07	1.622887e+06	1.622887e+06
6.000000e-02	1.100000e-01	1.004899e+09	7.378707e+06	7.378707e+06
1.100000e-01	1.500000e-01	3.197780e+09	1.455471e+07	1.455471e+07
1.500000e-01	1.900000e-01	4.142580e+09	1.752829e+07	1.752829e+07
1.900000e-01	2.300000e-01	3.482815e+09	1.513425e+07	1.513425e+07
2.300000e-01	2.700000e-01	2.671040e+09	1.265984e+07	1.265984e+07
2.700000e-01	3.100000e-01	2.036113e+09	1.193662e+07	1.193662e+07
3.100000e-01	3.500000e-01	1.564364e+09	1.015228e+07	1.015228e+07
3.500000e-01	3.900000e-01	1.166872e+09	1.042048e+07	1.042048e+07
3.900000e-01	4.400000e-01	8.452638e+08	6.263303e+06	6.263303e+06
4.400000e-01	4.900000e-01	5.785234e+08	4.999369e+06	4.999369e+06
4.900000e-01	5.400000e-01	3.819200e+08	4.265974e+06	4.265974e+06
5.400000e-01	6.000000e-01	2.181497e+08	2.843583e+06	2.843583e+06
6.000000e-01	1.000000e+00	1.847055e+07	3.443137e+05	3.443137e+05
# END HISTO1D

