# BEGIN PLOT
LegendOnly=/zj_ps_nlo_mer_cent_R8.yoda/PAPER_FIN_R4/l10_pT_88_120
DrawOnly=/zj_ps_nlo_mer_cent_R8.yoda/PAPER_FIN_R4/l10_pT_88_120
Legend=1
LogY=1
# END PLOT

# BEGIN HISTO1D /zj_ps_nlo_mer_cent_R8.yoda/PAPER_FIN_R4/l10_pT_88_120
LineColor=red
LineStyle=solid
Path=/zj_ps_nlo_mer_cent_R8.yoda/PAPER_FIN_R4/l10_pT_88_120
Title=zj_ps_nlo_mer_cent_R8
XLabel=~
YLabel=~
# xlow	 xhigh	 val	 errminus	 errplus
-7.000000e+00	-6.930000e+00	0.000000e+00	0.000000e+00	0.000000e+00
-6.930000e+00	-6.860000e+00	0.000000e+00	0.000000e+00	0.000000e+00
-6.860000e+00	-6.790000e+00	0.000000e+00	0.000000e+00	0.000000e+00
-6.790000e+00	-6.720000e+00	0.000000e+00	0.000000e+00	0.000000e+00
-6.720000e+00	-6.650000e+00	0.000000e+00	0.000000e+00	0.000000e+00
-6.650000e+00	-6.580000e+00	0.000000e+00	0.000000e+00	0.000000e+00
-6.580000e+00	-6.510000e+00	0.000000e+00	0.000000e+00	0.000000e+00
-6.510000e+00	-6.440000e+00	0.000000e+00	0.000000e+00	0.000000e+00
-6.440000e+00	-6.370000e+00	0.000000e+00	0.000000e+00	0.000000e+00
-6.370000e+00	-6.300000e+00	0.000000e+00	0.000000e+00	0.000000e+00
-6.300000e+00	-6.230000e+00	0.000000e+00	0.000000e+00	0.000000e+00
-6.230000e+00	-6.160000e+00	0.000000e+00	0.000000e+00	0.000000e+00
-6.160000e+00	-6.090000e+00	0.000000e+00	0.000000e+00	0.000000e+00
-6.090000e+00	-6.020000e+00	0.000000e+00	0.000000e+00	0.000000e+00
-6.020000e+00	-5.950000e+00	0.000000e+00	0.000000e+00	0.000000e+00
-5.950000e+00	-5.880000e+00	0.000000e+00	0.000000e+00	0.000000e+00
-5.880000e+00	-5.810000e+00	0.000000e+00	0.000000e+00	0.000000e+00
-5.810000e+00	-5.740000e+00	0.000000e+00	0.000000e+00	0.000000e+00
-5.740000e+00	-5.670000e+00	0.000000e+00	0.000000e+00	0.000000e+00
-5.670000e+00	-5.600000e+00	0.000000e+00	0.000000e+00	0.000000e+00
-5.600000e+00	-5.530000e+00	0.000000e+00	0.000000e+00	0.000000e+00
-5.530000e+00	-5.460000e+00	0.000000e+00	0.000000e+00	0.000000e+00
-5.460000e+00	-5.390000e+00	0.000000e+00	0.000000e+00	0.000000e+00
-5.390000e+00	-5.320000e+00	0.000000e+00	0.000000e+00	0.000000e+00
-5.320000e+00	-5.250000e+00	0.000000e+00	0.000000e+00	0.000000e+00
-5.250000e+00	-5.180000e+00	0.000000e+00	0.000000e+00	0.000000e+00
-5.180000e+00	-5.110000e+00	0.000000e+00	0.000000e+00	0.000000e+00
-5.110000e+00	-5.040000e+00	0.000000e+00	0.000000e+00	0.000000e+00
-5.040000e+00	-4.970000e+00	0.000000e+00	0.000000e+00	0.000000e+00
-4.970000e+00	-4.900000e+00	0.000000e+00	0.000000e+00	0.000000e+00
-4.900000e+00	-4.830000e+00	0.000000e+00	0.000000e+00	0.000000e+00
-4.830000e+00	-4.760000e+00	0.000000e+00	0.000000e+00	0.000000e+00
-4.760000e+00	-4.690000e+00	0.000000e+00	0.000000e+00	0.000000e+00
-4.690000e+00	-4.620000e+00	0.000000e+00	0.000000e+00	0.000000e+00
-4.620000e+00	-4.550000e+00	0.000000e+00	0.000000e+00	0.000000e+00
-4.550000e+00	-4.480000e+00	0.000000e+00	0.000000e+00	0.000000e+00
-4.480000e+00	-4.410000e+00	0.000000e+00	0.000000e+00	0.000000e+00
-4.410000e+00	-4.340000e+00	0.000000e+00	0.000000e+00	0.000000e+00
-4.340000e+00	-4.270000e+00	0.000000e+00	0.000000e+00	0.000000e+00
-4.270000e+00	-4.200000e+00	0.000000e+00	0.000000e+00	0.000000e+00
-4.200000e+00	-4.130000e+00	0.000000e+00	0.000000e+00	0.000000e+00
-4.130000e+00	-4.060000e+00	0.000000e+00	0.000000e+00	0.000000e+00
-4.060000e+00	-3.990000e+00	0.000000e+00	0.000000e+00	0.000000e+00
-3.990000e+00	-3.920000e+00	0.000000e+00	0.000000e+00	0.000000e+00
-3.920000e+00	-3.850000e+00	0.000000e+00	0.000000e+00	0.000000e+00
-3.850000e+00	-3.780000e+00	0.000000e+00	0.000000e+00	0.000000e+00
-3.780000e+00	-3.710000e+00	9.673354e+02	9.673354e+02	9.673354e+02
-3.710000e+00	-3.640000e+00	0.000000e+00	0.000000e+00	0.000000e+00
-3.640000e+00	-3.570000e+00	0.000000e+00	0.000000e+00	0.000000e+00
-3.570000e+00	-3.500000e+00	1.159667e+04	1.159667e+04	1.159667e+04
-3.500000e+00	-3.430000e+00	0.000000e+00	0.000000e+00	0.000000e+00
-3.430000e+00	-3.360000e+00	1.025039e+04	7.752747e+03	7.752747e+03
-3.360000e+00	-3.290000e+00	5.005266e+03	3.799068e+03	3.799068e+03
-3.290000e+00	-3.220000e+00	1.044642e+04	1.044642e+04	1.044642e+04
-3.220000e+00	-3.150000e+00	4.069927e+04	3.954509e+04	3.954509e+04
-3.150000e+00	-3.080000e+00	0.000000e+00	0.000000e+00	0.000000e+00
-3.080000e+00	-3.010000e+00	1.935000e+04	1.313836e+04	1.313836e+04
-3.010000e+00	-2.940000e+00	8.559044e+03	8.058370e+03	8.058370e+03
-2.940000e+00	-2.870000e+00	1.121559e+05	5.240990e+04	5.240990e+04
-2.870000e+00	-2.800000e+00	7.442086e+04	3.075092e+04	3.075092e+04
-2.800000e+00	-2.730000e+00	3.044153e+05	1.182574e+05	1.182574e+05
-2.730000e+00	-2.660000e+00	4.556344e+05	1.760951e+05	1.760951e+05
-2.660000e+00	-2.590000e+00	2.201626e+05	6.551041e+04	6.551041e+04
-2.590000e+00	-2.520000e+00	6.940937e+05	2.192034e+05	2.192034e+05
-2.520000e+00	-2.450000e+00	1.106600e+06	1.875882e+05	1.875882e+05
-2.450000e+00	-2.380000e+00	1.702230e+06	3.437758e+05	3.437758e+05
-2.380000e+00	-2.310000e+00	2.450320e+06	3.353720e+05	3.353720e+05
-2.310000e+00	-2.240000e+00	4.205229e+06	4.611649e+05	4.611649e+05
-2.240000e+00	-2.170000e+00	5.167713e+06	4.079484e+05	4.079484e+05
-2.170000e+00	-2.100000e+00	9.685359e+06	6.457002e+05	6.457002e+05
-2.100000e+00	-2.030000e+00	1.543106e+07	8.814752e+05	8.814752e+05
-2.030000e+00	-1.960000e+00	2.686644e+07	1.127128e+06	1.127128e+06
-1.960000e+00	-1.890000e+00	4.518117e+07	1.404848e+06	1.404848e+06
-1.890000e+00	-1.820000e+00	7.302059e+07	1.780776e+06	1.780776e+06
-1.820000e+00	-1.750000e+00	1.318828e+08	2.554704e+06	2.554704e+06
-1.750000e+00	-1.680000e+00	2.050814e+08	3.201156e+06	3.201156e+06
-1.680000e+00	-1.610000e+00	3.493703e+08	4.225006e+06	4.225006e+06
-1.610000e+00	-1.540000e+00	5.648801e+08	5.293857e+06	5.293857e+06
-1.540000e+00	-1.470000e+00	9.479217e+08	7.287119e+06	7.287119e+06
-1.470000e+00	-1.400000e+00	1.565504e+09	8.634394e+06	8.634394e+06
-1.400000e+00	-1.330000e+00	2.630917e+09	1.145832e+07	1.145832e+07
-1.330000e+00	-1.260000e+00	4.294439e+09	1.457709e+07	1.457709e+07
-1.260000e+00	-1.190000e+00	6.881954e+09	1.834740e+07	1.834740e+07
-1.190000e+00	-1.120000e+00	1.043025e+10	2.266832e+07	2.266832e+07
-1.120000e+00	-1.050000e+00	1.473187e+10	2.705863e+07	2.705863e+07
-1.050000e+00	-9.800000e-01	1.881416e+10	3.059793e+07	3.059793e+07
-9.800000e-01	-9.100000e-01	2.136276e+10	3.235951e+07	3.235951e+07
-9.100000e-01	-8.400000e-01	2.162874e+10	3.220649e+07	3.220649e+07
-8.400000e-01	-7.700000e-01	2.010441e+10	3.073104e+07	3.073104e+07
-7.700000e-01	-7.000000e-01	1.752796e+10	2.834513e+07	2.834513e+07
-7.000000e-01	-6.300000e-01	1.468597e+10	2.577310e+07	2.577310e+07
-6.300000e-01	-5.600000e-01	1.182606e+10	2.285510e+07	2.285510e+07
-5.600000e-01	-4.900000e-01	9.278251e+09	2.019886e+07	2.019886e+07
-4.900000e-01	-4.200000e-01	6.981770e+09	1.739943e+07	1.739943e+07
-4.200000e-01	-3.500000e-01	4.952116e+09	1.462530e+07	1.462530e+07
-3.500000e-01	-2.800000e-01	3.033221e+09	1.142710e+07	1.142710e+07
-2.800000e-01	-2.100000e-01	1.331930e+09	7.593769e+06	7.593769e+06
-2.100000e-01	-1.400000e-01	3.235310e+08	3.723312e+06	3.723312e+06
-1.400000e-01	-7.000000e-02	3.870723e+07	1.304970e+06	1.304970e+06
-7.000000e-02	0.000000e+00	2.117903e+06	2.683280e+05	2.683280e+05
# END HISTO1D

