# BEGIN PLOT
LegendOnly=/zj_ps_nlo_mer_cent_R8.yoda/PAPER_FIN_R4/lin_SD_l05_pT_88_120
DrawOnly=/zj_ps_nlo_mer_cent_R8.yoda/PAPER_FIN_R4/lin_SD_l05_pT_88_120
Legend=1
LogY=1
# END PLOT

# BEGIN HISTO1D /zj_ps_nlo_mer_cent_R8.yoda/PAPER_FIN_R4/lin_SD_l05_pT_88_120
LineColor=red
LineStyle=solid
Path=/zj_ps_nlo_mer_cent_R8.yoda/PAPER_FIN_R4/lin_SD_l05_pT_88_120
Title=zj_ps_nlo_mer_cent_R8
XLabel=~
YLabel=~
# xlow	 xhigh	 val	 errminus	 errplus
0.000000e+00	1.000000e-01	9.864743e+09	1.841874e+07	1.841874e+07
1.000000e-01	1.800000e-01	3.877768e+10	4.080962e+07	4.080962e+07
1.800000e-01	2.600000e-01	4.521449e+10	4.371295e+07	4.371295e+07
2.600000e-01	3.400000e-01	3.218407e+10	3.631458e+07	3.631458e+07
3.400000e-01	4.200000e-01	1.959500e+10	2.780909e+07	2.780909e+07
4.200000e-01	5.000000e-01	1.185910e+10	2.132758e+07	2.132758e+07
5.000000e-01	5.700000e-01	6.918667e+09	1.734440e+07	1.734440e+07
5.700000e-01	6.400000e-01	3.556243e+09	1.233772e+07	1.233772e+07
6.400000e-01	1.000000e+00	2.964808e+08	1.575345e+06	1.575345e+06
# END HISTO1D

