# BEGIN PLOT
LegendOnly=/zj_ps_nlo_mer_cent_R8.yoda/PAPER_FIN_R4/SD_l10_pT_254_326
DrawOnly=/zj_ps_nlo_mer_cent_R8.yoda/PAPER_FIN_R4/SD_l10_pT_254_326
Legend=1
LogY=1
# END PLOT

# BEGIN HISTO1D /zj_ps_nlo_mer_cent_R8.yoda/PAPER_FIN_R4/SD_l10_pT_254_326
LineColor=red
LineStyle=solid
Path=/zj_ps_nlo_mer_cent_R8.yoda/PAPER_FIN_R4/SD_l10_pT_254_326
Title=zj_ps_nlo_mer_cent_R8
XLabel=~
YLabel=~
# xlow	 xhigh	 val	 errminus	 errplus
-7.000000e+00	-6.930000e+00	0.000000e+00	0.000000e+00	0.000000e+00
-6.930000e+00	-6.860000e+00	2.493161e+07	8.200982e+05	8.200982e+05
-6.860000e+00	-6.790000e+00	0.000000e+00	0.000000e+00	0.000000e+00
-6.790000e+00	-6.720000e+00	0.000000e+00	0.000000e+00	0.000000e+00
-6.720000e+00	-6.650000e+00	0.000000e+00	0.000000e+00	0.000000e+00
-6.650000e+00	-6.580000e+00	0.000000e+00	0.000000e+00	0.000000e+00
-6.580000e+00	-6.510000e+00	0.000000e+00	0.000000e+00	0.000000e+00
-6.510000e+00	-6.440000e+00	0.000000e+00	0.000000e+00	0.000000e+00
-6.440000e+00	-6.370000e+00	0.000000e+00	0.000000e+00	0.000000e+00
-6.370000e+00	-6.300000e+00	0.000000e+00	0.000000e+00	0.000000e+00
-6.300000e+00	-6.230000e+00	0.000000e+00	0.000000e+00	0.000000e+00
-6.230000e+00	-6.160000e+00	0.000000e+00	0.000000e+00	0.000000e+00
-6.160000e+00	-6.090000e+00	0.000000e+00	0.000000e+00	0.000000e+00
-6.090000e+00	-6.020000e+00	0.000000e+00	0.000000e+00	0.000000e+00
-6.020000e+00	-5.950000e+00	0.000000e+00	0.000000e+00	0.000000e+00
-5.950000e+00	-5.880000e+00	0.000000e+00	0.000000e+00	0.000000e+00
-5.880000e+00	-5.810000e+00	0.000000e+00	0.000000e+00	0.000000e+00
-5.810000e+00	-5.740000e+00	0.000000e+00	0.000000e+00	0.000000e+00
-5.740000e+00	-5.670000e+00	0.000000e+00	0.000000e+00	0.000000e+00
-5.670000e+00	-5.600000e+00	0.000000e+00	0.000000e+00	0.000000e+00
-5.600000e+00	-5.530000e+00	0.000000e+00	0.000000e+00	0.000000e+00
-5.530000e+00	-5.460000e+00	0.000000e+00	0.000000e+00	0.000000e+00
-5.460000e+00	-5.390000e+00	0.000000e+00	0.000000e+00	0.000000e+00
-5.390000e+00	-5.320000e+00	0.000000e+00	0.000000e+00	0.000000e+00
-5.320000e+00	-5.250000e+00	0.000000e+00	0.000000e+00	0.000000e+00
-5.250000e+00	-5.180000e+00	0.000000e+00	0.000000e+00	0.000000e+00
-5.180000e+00	-5.110000e+00	0.000000e+00	0.000000e+00	0.000000e+00
-5.110000e+00	-5.040000e+00	0.000000e+00	0.000000e+00	0.000000e+00
-5.040000e+00	-4.970000e+00	0.000000e+00	0.000000e+00	0.000000e+00
-4.970000e+00	-4.900000e+00	9.917760e+03	9.917760e+03	9.917760e+03
-4.900000e+00	-4.830000e+00	0.000000e+00	0.000000e+00	0.000000e+00
-4.830000e+00	-4.760000e+00	0.000000e+00	0.000000e+00	0.000000e+00
-4.760000e+00	-4.690000e+00	0.000000e+00	0.000000e+00	0.000000e+00
-4.690000e+00	-4.620000e+00	3.695824e+02	3.695824e+02	3.695824e+02
-4.620000e+00	-4.550000e+00	1.582846e+03	1.582846e+03	1.582846e+03
-4.550000e+00	-4.480000e+00	2.638686e+00	2.638685e+00	2.638685e+00
-4.480000e+00	-4.410000e+00	6.244894e+01	6.244895e+01	6.244895e+01
-4.410000e+00	-4.340000e+00	1.659920e+03	1.659921e+03	1.659921e+03
-4.340000e+00	-4.270000e+00	1.750564e+03	1.338254e+03	1.338254e+03
-4.270000e+00	-4.200000e+00	1.876493e+04	1.605037e+04	1.605037e+04
-4.200000e+00	-4.130000e+00	4.813867e+03	3.488814e+03	3.488814e+03
-4.130000e+00	-4.060000e+00	6.426989e+03	3.535297e+03	3.535297e+03
-4.060000e+00	-3.990000e+00	6.352279e+03	4.180245e+03	4.180245e+03
-3.990000e+00	-3.920000e+00	5.092723e+04	2.990417e+04	2.990417e+04
-3.920000e+00	-3.850000e+00	2.887757e+04	1.043006e+04	1.043006e+04
-3.850000e+00	-3.780000e+00	9.217937e+04	3.542356e+04	3.542356e+04
-3.780000e+00	-3.710000e+00	3.749147e+04	1.059945e+04	1.059945e+04
-3.710000e+00	-3.640000e+00	1.962583e+05	7.589357e+04	7.589357e+04
-3.640000e+00	-3.570000e+00	1.990703e+05	6.889414e+04	6.889414e+04
-3.570000e+00	-3.500000e+00	4.064956e+05	8.525698e+04	8.525698e+04
-3.500000e+00	-3.430000e+00	4.638217e+05	1.276687e+05	1.276687e+05
-3.430000e+00	-3.360000e+00	5.753811e+05	1.260280e+05	1.260280e+05
-3.360000e+00	-3.290000e+00	8.916084e+05	1.350416e+05	1.350416e+05
-3.290000e+00	-3.220000e+00	1.265873e+06	1.722439e+05	1.722439e+05
-3.220000e+00	-3.150000e+00	2.142046e+06	3.810549e+05	3.810549e+05
-3.150000e+00	-3.080000e+00	2.306936e+06	2.109853e+05	2.109853e+05
-3.080000e+00	-3.010000e+00	4.155111e+06	4.402637e+05	4.402637e+05
-3.010000e+00	-2.940000e+00	4.863403e+06	3.563237e+05	3.563237e+05
-2.940000e+00	-2.870000e+00	6.114630e+06	3.977586e+05	3.977586e+05
-2.870000e+00	-2.800000e+00	8.267676e+06	5.239748e+05	5.239748e+05
-2.800000e+00	-2.730000e+00	1.065851e+07	5.847993e+05	5.847993e+05
-2.730000e+00	-2.660000e+00	1.421018e+07	7.133417e+05	7.133417e+05
-2.660000e+00	-2.590000e+00	2.095691e+07	1.024358e+06	1.024358e+06
-2.590000e+00	-2.520000e+00	2.867133e+07	1.035252e+06	1.035252e+06
-2.520000e+00	-2.450000e+00	4.032714e+07	1.165712e+06	1.165712e+06
-2.450000e+00	-2.380000e+00	5.644373e+07	1.441967e+06	1.441967e+06
-2.380000e+00	-2.310000e+00	7.731591e+07	1.611027e+06	1.611027e+06
-2.310000e+00	-2.240000e+00	1.056944e+08	1.814648e+06	1.814648e+06
-2.240000e+00	-2.170000e+00	1.382845e+08	2.175180e+06	2.175180e+06
-2.170000e+00	-2.100000e+00	1.874029e+08	2.985900e+06	2.985900e+06
-2.100000e+00	-2.030000e+00	2.421833e+08	3.131705e+06	3.131705e+06
-2.030000e+00	-1.960000e+00	3.072337e+08	3.557201e+06	3.557201e+06
-1.960000e+00	-1.890000e+00	3.857930e+08	4.082037e+06	4.082037e+06
-1.890000e+00	-1.820000e+00	4.501464e+08	3.939348e+06	3.939348e+06
-1.820000e+00	-1.750000e+00	5.249419e+08	4.486595e+06	4.486595e+06
-1.750000e+00	-1.680000e+00	6.119820e+08	4.909152e+06	4.909152e+06
-1.680000e+00	-1.610000e+00	6.526039e+08	5.061447e+06	5.061447e+06
-1.610000e+00	-1.540000e+00	6.684973e+08	4.957223e+06	4.957223e+06
-1.540000e+00	-1.470000e+00	6.589110e+08	5.611853e+06	5.611853e+06
-1.470000e+00	-1.400000e+00	6.258619e+08	4.604135e+06	4.604135e+06
-1.400000e+00	-1.330000e+00	5.979994e+08	4.762346e+06	4.762346e+06
-1.330000e+00	-1.260000e+00	5.550369e+08	4.426818e+06	4.426818e+06
-1.260000e+00	-1.190000e+00	5.123069e+08	4.440670e+06	4.440670e+06
-1.190000e+00	-1.120000e+00	4.845117e+08	4.073374e+06	4.073374e+06
-1.120000e+00	-1.050000e+00	4.754651e+08	4.203765e+06	4.203765e+06
-1.050000e+00	-9.800000e-01	4.764769e+08	4.227709e+06	4.227709e+06
-9.800000e-01	-9.100000e-01	4.902223e+08	4.171309e+06	4.171309e+06
-9.100000e-01	-8.400000e-01	5.025280e+08	5.248065e+06	5.248065e+06
-8.400000e-01	-7.700000e-01	5.017124e+08	4.359866e+06	4.359866e+06
-7.700000e-01	-7.000000e-01	4.841886e+08	4.704208e+06	4.704208e+06
-7.000000e-01	-6.300000e-01	4.505076e+08	4.025569e+06	4.025569e+06
-6.300000e-01	-5.600000e-01	4.003673e+08	3.793996e+06	3.793996e+06
-5.600000e-01	-4.900000e-01	3.416324e+08	3.444854e+06	3.444854e+06
-4.900000e-01	-4.200000e-01	2.739417e+08	2.950020e+06	2.950020e+06
-4.200000e-01	-3.500000e-01	2.017340e+08	2.682244e+06	2.682244e+06
-3.500000e-01	-2.800000e-01	1.198903e+08	2.067018e+06	2.067018e+06
-2.800000e-01	-2.100000e-01	4.149730e+07	1.116799e+06	1.116799e+06
-2.100000e-01	-1.400000e-01	7.816060e+06	4.885171e+05	4.885171e+05
-1.400000e-01	-7.000000e-02	9.288950e+05	2.827371e+05	2.827371e+05
-7.000000e-02	0.000000e+00	2.660276e+04	1.379444e+04	1.379444e+04
# END HISTO1D

