# BEGIN PLOT
LegendOnly=/zj_ps_nlo_mer_cent_R8.yoda/PAPER_FIN_R4/lin_l20_pT_254_326
DrawOnly=/zj_ps_nlo_mer_cent_R8.yoda/PAPER_FIN_R4/lin_l20_pT_254_326
Legend=1
LogY=1
# END PLOT

# BEGIN HISTO1D /zj_ps_nlo_mer_cent_R8.yoda/PAPER_FIN_R4/lin_l20_pT_254_326
LineColor=red
LineStyle=solid
Path=/zj_ps_nlo_mer_cent_R8.yoda/PAPER_FIN_R4/lin_l20_pT_254_326
Title=zj_ps_nlo_mer_cent_R8
XLabel=~
YLabel=~
# xlow	 xhigh	 val	 errminus	 errplus
0.000000e+00	5.000000e-02	1.273976e+10	2.617845e+07	2.617845e+07
5.000000e-02	9.000000e-02	3.302033e+09	1.547570e+07	1.547570e+07
9.000000e-02	1.500000e-01	1.266050e+09	7.524311e+06	7.524311e+06
1.500000e-01	2.050000e-01	5.401460e+08	4.904752e+06	4.904752e+06
2.050000e-01	1.000000e+00	2.532883e+07	2.718932e+05	2.718932e+05
# END HISTO1D

