# BEGIN PLOT
LegendOnly=/zj_ps_nlo_mer_cent_R8.yoda/PAPER_FIN_R4_CH/lin_SD_l10_pT_50_65
DrawOnly=/zj_ps_nlo_mer_cent_R8.yoda/PAPER_FIN_R4_CH/lin_SD_l10_pT_50_65
Legend=1
LogY=1
# END PLOT

# BEGIN HISTO1D /zj_ps_nlo_mer_cent_R8.yoda/PAPER_FIN_R4_CH/lin_SD_l10_pT_50_65
LineColor=red
LineStyle=solid
Path=/zj_ps_nlo_mer_cent_R8.yoda/PAPER_FIN_R4_CH/lin_SD_l10_pT_50_65
Title=zj_ps_nlo_mer_cent_R8
XLabel=~
YLabel=~
# xlow	 xhigh	 val	 errminus	 errplus
0.000000e+00	1.250000e-02	2.348238e+10	7.877719e+07	7.877719e+07
1.250000e-02	2.250000e-02	4.994727e+10	1.288784e+08	1.288784e+08
2.250000e-02	3.500000e-02	7.871198e+10	1.452440e+08	1.452440e+08
3.500000e-02	5.000000e-02	1.017641e+11	1.514344e+08	1.514344e+08
5.000000e-02	7.000000e-02	1.198672e+11	1.429066e+08	1.429066e+08
7.000000e-02	9.500000e-02	1.251850e+11	1.306282e+08	1.306282e+08
9.500000e-02	1.280000e-01	1.141163e+11	1.075384e+08	1.075384e+08
1.280000e-01	1.700000e-01	9.410152e+10	8.592748e+07	8.592748e+07
1.700000e-01	2.250000e-01	7.141196e+10	6.503632e+07	6.503632e+07
2.250000e-01	2.900000e-01	4.674389e+10	4.762057e+07	4.762057e+07
2.900000e-01	3.650000e-01	2.725255e+10	3.342822e+07	3.342822e+07
3.650000e-01	4.500000e-01	1.473052e+10	2.300340e+07	2.300340e+07
4.500000e-01	1.000000e+00	1.694678e+09	3.070228e+06	3.070228e+06
# END HISTO1D

