# BEGIN PLOT
LegendOnly=/merge.yoda/PAPER_FIN_R4/ch_lin_l20_pT_186_254
DrawOnly=/merge.yoda/PAPER_FIN_R4/ch_lin_l20_pT_186_254
Legend=1
LogY=1
# END PLOT

# BEGIN HISTO1D /merge.yoda/PAPER_FIN_R4/ch_lin_l20_pT_186_254
LineColor=red
LineStyle=solid
Path=/merge.yoda/PAPER_FIN_R4/ch_lin_l20_pT_186_254
Title=merge
XLabel=~
YLabel=~
# xlow	 xhigh	 val	 errminus	 errplus
0.000000e+00	5.000000e-03	1.029254e+08	1.434750e+05	1.434750e+05
5.000000e-03	1.250000e-02	2.574397e+08	1.852709e+05	1.852709e+05
1.250000e-02	2.250000e-02	3.165182e+08	1.779096e+05	1.779096e+05
2.250000e-02	3.500000e-02	2.984273e+08	1.545127e+05	1.545127e+05
3.500000e-02	5.000000e-02	2.388582e+08	1.261899e+05	1.261899e+05
5.000000e-02	7.000000e-02	1.679149e+08	9.162831e+04	9.162831e+04
7.000000e-02	9.250000e-02	1.097026e+08	6.982600e+04	6.982600e+04
9.250000e-02	1.200000e-01	6.965971e+07	5.032972e+04	5.032972e+04
1.200000e-01	1.520000e-01	4.297300e+07	3.664569e+04	3.664569e+04
1.520000e-01	1.880000e-01	2.589225e+07	2.681845e+04	2.681845e+04
1.880000e-01	2.280000e-01	1.480562e+07	1.923904e+04	1.923904e+04
2.280000e-01	1.000000e+00	6.304158e+05	9.036597e+02	9.036597e+02
# END HISTO1D

