# BEGIN PLOT
LegendOnly=/merge.yoda/PAPER_FIN_R4/SD_l05_pT_408_1500
DrawOnly=/merge.yoda/PAPER_FIN_R4/SD_l05_pT_408_1500
Legend=1
LogY=1
# END PLOT

# BEGIN HISTO1D /merge.yoda/PAPER_FIN_R4/SD_l05_pT_408_1500
LineColor=red
LineStyle=solid
Path=/merge.yoda/PAPER_FIN_R4/SD_l05_pT_408_1500
Title=merge
XLabel=~
YLabel=~
# xlow	 xhigh	 val	 errminus	 errplus
-7.000000e+00	-6.930000e+00	0.000000e+00	0.000000e+00	0.000000e+00
-6.930000e+00	-6.860000e+00	1.175571e+05	1.295912e+03	1.295912e+03
-6.860000e+00	-6.790000e+00	0.000000e+00	0.000000e+00	0.000000e+00
-6.790000e+00	-6.720000e+00	0.000000e+00	0.000000e+00	0.000000e+00
-6.720000e+00	-6.650000e+00	0.000000e+00	0.000000e+00	0.000000e+00
-6.650000e+00	-6.580000e+00	0.000000e+00	0.000000e+00	0.000000e+00
-6.580000e+00	-6.510000e+00	0.000000e+00	0.000000e+00	0.000000e+00
-6.510000e+00	-6.440000e+00	0.000000e+00	0.000000e+00	0.000000e+00
-6.440000e+00	-6.370000e+00	0.000000e+00	0.000000e+00	0.000000e+00
-6.370000e+00	-6.300000e+00	0.000000e+00	0.000000e+00	0.000000e+00
-6.300000e+00	-6.230000e+00	0.000000e+00	0.000000e+00	0.000000e+00
-6.230000e+00	-6.160000e+00	0.000000e+00	0.000000e+00	0.000000e+00
-6.160000e+00	-6.090000e+00	0.000000e+00	0.000000e+00	0.000000e+00
-6.090000e+00	-6.020000e+00	0.000000e+00	0.000000e+00	0.000000e+00
-6.020000e+00	-5.950000e+00	0.000000e+00	0.000000e+00	0.000000e+00
-5.950000e+00	-5.880000e+00	0.000000e+00	0.000000e+00	0.000000e+00
-5.880000e+00	-5.810000e+00	0.000000e+00	0.000000e+00	0.000000e+00
-5.810000e+00	-5.740000e+00	0.000000e+00	0.000000e+00	0.000000e+00
-5.740000e+00	-5.670000e+00	0.000000e+00	0.000000e+00	0.000000e+00
-5.670000e+00	-5.600000e+00	0.000000e+00	0.000000e+00	0.000000e+00
-5.600000e+00	-5.530000e+00	0.000000e+00	0.000000e+00	0.000000e+00
-5.530000e+00	-5.460000e+00	0.000000e+00	0.000000e+00	0.000000e+00
-5.460000e+00	-5.390000e+00	0.000000e+00	0.000000e+00	0.000000e+00
-5.390000e+00	-5.320000e+00	0.000000e+00	0.000000e+00	0.000000e+00
-5.320000e+00	-5.250000e+00	0.000000e+00	0.000000e+00	0.000000e+00
-5.250000e+00	-5.180000e+00	0.000000e+00	0.000000e+00	0.000000e+00
-5.180000e+00	-5.110000e+00	0.000000e+00	0.000000e+00	0.000000e+00
-5.110000e+00	-5.040000e+00	0.000000e+00	0.000000e+00	0.000000e+00
-5.040000e+00	-4.970000e+00	0.000000e+00	0.000000e+00	0.000000e+00
-4.970000e+00	-4.900000e+00	0.000000e+00	0.000000e+00	0.000000e+00
-4.900000e+00	-4.830000e+00	0.000000e+00	0.000000e+00	0.000000e+00
-4.830000e+00	-4.760000e+00	0.000000e+00	0.000000e+00	0.000000e+00
-4.760000e+00	-4.690000e+00	0.000000e+00	0.000000e+00	0.000000e+00
-4.690000e+00	-4.620000e+00	0.000000e+00	0.000000e+00	0.000000e+00
-4.620000e+00	-4.550000e+00	0.000000e+00	0.000000e+00	0.000000e+00
-4.550000e+00	-4.480000e+00	0.000000e+00	0.000000e+00	0.000000e+00
-4.480000e+00	-4.410000e+00	0.000000e+00	0.000000e+00	0.000000e+00
-4.410000e+00	-4.340000e+00	0.000000e+00	0.000000e+00	0.000000e+00
-4.340000e+00	-4.270000e+00	0.000000e+00	0.000000e+00	0.000000e+00
-4.270000e+00	-4.200000e+00	0.000000e+00	0.000000e+00	0.000000e+00
-4.200000e+00	-4.130000e+00	0.000000e+00	0.000000e+00	0.000000e+00
-4.130000e+00	-4.060000e+00	0.000000e+00	0.000000e+00	0.000000e+00
-4.060000e+00	-3.990000e+00	0.000000e+00	0.000000e+00	0.000000e+00
-3.990000e+00	-3.920000e+00	0.000000e+00	0.000000e+00	0.000000e+00
-3.920000e+00	-3.850000e+00	0.000000e+00	0.000000e+00	0.000000e+00
-3.850000e+00	-3.780000e+00	0.000000e+00	0.000000e+00	0.000000e+00
-3.780000e+00	-3.710000e+00	0.000000e+00	0.000000e+00	0.000000e+00
-3.710000e+00	-3.640000e+00	0.000000e+00	0.000000e+00	0.000000e+00
-3.640000e+00	-3.570000e+00	0.000000e+00	0.000000e+00	0.000000e+00
-3.570000e+00	-3.500000e+00	0.000000e+00	0.000000e+00	0.000000e+00
-3.500000e+00	-3.430000e+00	0.000000e+00	0.000000e+00	0.000000e+00
-3.430000e+00	-3.360000e+00	0.000000e+00	0.000000e+00	0.000000e+00
-3.360000e+00	-3.290000e+00	0.000000e+00	0.000000e+00	0.000000e+00
-3.290000e+00	-3.220000e+00	0.000000e+00	0.000000e+00	0.000000e+00
-3.220000e+00	-3.150000e+00	0.000000e+00	0.000000e+00	0.000000e+00
-3.150000e+00	-3.080000e+00	0.000000e+00	0.000000e+00	0.000000e+00
-3.080000e+00	-3.010000e+00	1.428571e+01	1.428571e+01	1.428571e+01
-3.010000e+00	-2.940000e+00	0.000000e+00	0.000000e+00	0.000000e+00
-2.940000e+00	-2.870000e+00	1.428571e+01	1.428571e+01	1.428571e+01
-2.870000e+00	-2.800000e+00	0.000000e+00	0.000000e+00	0.000000e+00
-2.800000e+00	-2.730000e+00	1.428571e+01	1.428571e+01	1.428571e+01
-2.730000e+00	-2.660000e+00	0.000000e+00	0.000000e+00	0.000000e+00
-2.660000e+00	-2.590000e+00	4.285714e+01	2.474358e+01	2.474358e+01
-2.590000e+00	-2.520000e+00	4.285714e+01	2.474358e+01	2.474358e+01
-2.520000e+00	-2.450000e+00	1.428571e+02	4.517540e+01	4.517540e+01
-2.450000e+00	-2.380000e+00	2.857143e+02	6.388766e+01	6.388766e+01
-2.380000e+00	-2.310000e+00	5.285714e+02	8.689661e+01	8.689661e+01
-2.310000e+00	-2.240000e+00	1.342857e+03	1.385051e+02	1.385051e+02
-2.240000e+00	-2.170000e+00	2.685714e+03	1.958758e+02	1.958758e+02
-2.170000e+00	-2.100000e+00	4.342857e+03	2.490799e+02	2.490799e+02
-2.100000e+00	-2.030000e+00	6.942857e+03	3.149344e+02	3.149344e+02
-2.030000e+00	-1.960000e+00	1.150000e+04	4.053217e+02	4.053217e+02
-1.960000e+00	-1.890000e+00	1.875714e+04	5.176477e+02	5.176477e+02
-1.890000e+00	-1.820000e+00	2.714286e+04	6.226998e+02	6.226998e+02
-1.820000e+00	-1.750000e+00	4.030000e+04	7.587584e+02	7.587584e+02
-1.750000e+00	-1.680000e+00	5.767143e+04	9.076770e+02	9.076770e+02
-1.680000e+00	-1.610000e+00	8.324286e+04	1.090497e+03	1.090497e+03
-1.610000e+00	-1.540000e+00	1.273143e+05	1.348620e+03	1.348620e+03
-1.540000e+00	-1.470000e+00	1.889286e+05	1.642857e+03	1.642857e+03
-1.470000e+00	-1.400000e+00	2.922571e+05	2.043307e+03	2.043307e+03
-1.400000e+00	-1.330000e+00	4.516143e+05	2.540006e+03	2.540006e+03
-1.330000e+00	-1.260000e+00	7.018714e+05	3.166502e+03	3.166502e+03
-1.260000e+00	-1.190000e+00	1.059471e+06	3.890412e+03	3.890412e+03
-1.190000e+00	-1.120000e+00	1.544957e+06	4.697959e+03	4.697959e+03
-1.120000e+00	-1.050000e+00	2.031486e+06	5.387135e+03	5.387135e+03
-1.050000e+00	-9.800000e-01	2.416429e+06	5.875407e+03	5.875407e+03
-9.800000e-01	-9.100000e-01	2.694514e+06	6.204278e+03	6.204278e+03
-9.100000e-01	-8.400000e-01	2.900757e+06	6.437343e+03	6.437343e+03
-8.400000e-01	-7.700000e-01	3.035514e+06	6.585172e+03	6.585172e+03
-7.700000e-01	-7.000000e-01	3.082343e+06	6.635772e+03	6.635772e+03
-7.000000e-01	-6.300000e-01	3.194957e+06	6.755904e+03	6.755904e+03
-6.300000e-01	-5.600000e-01	3.334686e+06	6.902055e+03	6.902055e+03
-5.600000e-01	-4.900000e-01	3.338714e+06	6.906223e+03	6.906223e+03
-4.900000e-01	-4.200000e-01	3.066929e+06	6.619159e+03	6.619159e+03
-4.200000e-01	-3.500000e-01	2.527614e+06	6.009058e+03	6.009058e+03
-3.500000e-01	-2.800000e-01	1.803500e+06	5.075853e+03	5.075853e+03
-2.800000e-01	-2.100000e-01	9.567857e+05	3.697076e+03	3.697076e+03
-2.100000e-01	-1.400000e-01	2.426429e+05	1.861807e+03	1.861807e+03
-1.400000e-01	-7.000000e-02	1.341429e+04	4.377587e+02	4.377587e+02
-7.000000e-02	0.000000e+00	4.285714e+01	2.474358e+01	2.474358e+01
# END HISTO1D

