# BEGIN PLOT
LegendOnly=/merge.yoda/PAPER_FIN_R4/SD_l10_pT_150_186
DrawOnly=/merge.yoda/PAPER_FIN_R4/SD_l10_pT_150_186
Legend=1
LogY=1
# END PLOT

# BEGIN HISTO1D /merge.yoda/PAPER_FIN_R4/SD_l10_pT_150_186
LineColor=red
LineStyle=solid
Path=/merge.yoda/PAPER_FIN_R4/SD_l10_pT_150_186
Title=merge
XLabel=~
YLabel=~
# xlow	 xhigh	 val	 errminus	 errplus
-7.000000e+00	-6.930000e+00	0.000000e+00	0.000000e+00	0.000000e+00
-6.930000e+00	-6.860000e+00	8.541429e+04	1.104628e+03	1.104628e+03
-6.860000e+00	-6.790000e+00	0.000000e+00	0.000000e+00	0.000000e+00
-6.790000e+00	-6.720000e+00	0.000000e+00	0.000000e+00	0.000000e+00
-6.720000e+00	-6.650000e+00	0.000000e+00	0.000000e+00	0.000000e+00
-6.650000e+00	-6.580000e+00	0.000000e+00	0.000000e+00	0.000000e+00
-6.580000e+00	-6.510000e+00	0.000000e+00	0.000000e+00	0.000000e+00
-6.510000e+00	-6.440000e+00	0.000000e+00	0.000000e+00	0.000000e+00
-6.440000e+00	-6.370000e+00	0.000000e+00	0.000000e+00	0.000000e+00
-6.370000e+00	-6.300000e+00	0.000000e+00	0.000000e+00	0.000000e+00
-6.300000e+00	-6.230000e+00	0.000000e+00	0.000000e+00	0.000000e+00
-6.230000e+00	-6.160000e+00	0.000000e+00	0.000000e+00	0.000000e+00
-6.160000e+00	-6.090000e+00	0.000000e+00	0.000000e+00	0.000000e+00
-6.090000e+00	-6.020000e+00	0.000000e+00	0.000000e+00	0.000000e+00
-6.020000e+00	-5.950000e+00	0.000000e+00	0.000000e+00	0.000000e+00
-5.950000e+00	-5.880000e+00	0.000000e+00	0.000000e+00	0.000000e+00
-5.880000e+00	-5.810000e+00	0.000000e+00	0.000000e+00	0.000000e+00
-5.810000e+00	-5.740000e+00	0.000000e+00	0.000000e+00	0.000000e+00
-5.740000e+00	-5.670000e+00	0.000000e+00	0.000000e+00	0.000000e+00
-5.670000e+00	-5.600000e+00	0.000000e+00	0.000000e+00	0.000000e+00
-5.600000e+00	-5.530000e+00	0.000000e+00	0.000000e+00	0.000000e+00
-5.530000e+00	-5.460000e+00	0.000000e+00	0.000000e+00	0.000000e+00
-5.460000e+00	-5.390000e+00	0.000000e+00	0.000000e+00	0.000000e+00
-5.390000e+00	-5.320000e+00	0.000000e+00	0.000000e+00	0.000000e+00
-5.320000e+00	-5.250000e+00	0.000000e+00	0.000000e+00	0.000000e+00
-5.250000e+00	-5.180000e+00	0.000000e+00	0.000000e+00	0.000000e+00
-5.180000e+00	-5.110000e+00	0.000000e+00	0.000000e+00	0.000000e+00
-5.110000e+00	-5.040000e+00	0.000000e+00	0.000000e+00	0.000000e+00
-5.040000e+00	-4.970000e+00	0.000000e+00	0.000000e+00	0.000000e+00
-4.970000e+00	-4.900000e+00	0.000000e+00	0.000000e+00	0.000000e+00
-4.900000e+00	-4.830000e+00	0.000000e+00	0.000000e+00	0.000000e+00
-4.830000e+00	-4.760000e+00	0.000000e+00	0.000000e+00	0.000000e+00
-4.760000e+00	-4.690000e+00	0.000000e+00	0.000000e+00	0.000000e+00
-4.690000e+00	-4.620000e+00	0.000000e+00	0.000000e+00	0.000000e+00
-4.620000e+00	-4.550000e+00	0.000000e+00	0.000000e+00	0.000000e+00
-4.550000e+00	-4.480000e+00	0.000000e+00	0.000000e+00	0.000000e+00
-4.480000e+00	-4.410000e+00	1.428571e+01	1.428571e+01	1.428571e+01
-4.410000e+00	-4.340000e+00	0.000000e+00	0.000000e+00	0.000000e+00
-4.340000e+00	-4.270000e+00	0.000000e+00	0.000000e+00	0.000000e+00
-4.270000e+00	-4.200000e+00	0.000000e+00	0.000000e+00	0.000000e+00
-4.200000e+00	-4.130000e+00	0.000000e+00	0.000000e+00	0.000000e+00
-4.130000e+00	-4.060000e+00	1.428571e+01	1.428571e+01	1.428571e+01
-4.060000e+00	-3.990000e+00	1.428571e+01	1.428571e+01	1.428571e+01
-3.990000e+00	-3.920000e+00	0.000000e+00	0.000000e+00	0.000000e+00
-3.920000e+00	-3.850000e+00	1.428571e+01	1.428571e+01	1.428571e+01
-3.850000e+00	-3.780000e+00	1.428571e+01	1.428571e+01	1.428571e+01
-3.780000e+00	-3.710000e+00	1.428571e+01	1.428571e+01	1.428571e+01
-3.710000e+00	-3.640000e+00	4.285714e+01	2.474358e+01	2.474358e+01
-3.640000e+00	-3.570000e+00	4.285714e+01	2.474358e+01	2.474358e+01
-3.570000e+00	-3.500000e+00	1.571429e+02	4.738035e+01	4.738035e+01
-3.500000e+00	-3.430000e+00	1.857143e+02	5.150788e+01	5.150788e+01
-3.430000e+00	-3.360000e+00	2.142857e+02	5.532833e+01	5.532833e+01
-3.360000e+00	-3.290000e+00	2.142857e+02	5.532833e+01	5.532833e+01
-3.290000e+00	-3.220000e+00	3.285714e+02	6.851188e+01	6.851188e+01
-3.220000e+00	-3.150000e+00	4.857143e+02	8.329931e+01	8.329931e+01
-3.150000e+00	-3.080000e+00	9.571429e+02	1.169336e+02	1.169336e+02
-3.080000e+00	-3.010000e+00	1.428571e+03	1.428571e+02	1.428571e+02
-3.010000e+00	-2.940000e+00	2.228571e+03	1.784285e+02	1.784285e+02
-2.940000e+00	-2.870000e+00	3.185714e+03	2.133312e+02	2.133312e+02
-2.870000e+00	-2.800000e+00	4.257143e+03	2.466097e+02	2.466097e+02
-2.800000e+00	-2.730000e+00	5.514286e+03	2.806698e+02	2.806698e+02
-2.730000e+00	-2.660000e+00	7.128571e+03	3.191187e+02	3.191187e+02
-2.660000e+00	-2.590000e+00	7.685714e+03	3.313547e+02	3.313547e+02
-2.590000e+00	-2.520000e+00	8.485714e+03	3.481731e+02	3.481731e+02
-2.520000e+00	-2.450000e+00	1.284286e+04	4.283333e+02	4.283333e+02
-2.450000e+00	-2.380000e+00	1.695714e+04	4.921838e+02	4.921838e+02
-2.380000e+00	-2.310000e+00	2.388571e+04	5.841442e+02	5.841442e+02
-2.310000e+00	-2.240000e+00	3.408571e+04	6.978100e+02	6.978100e+02
-2.240000e+00	-2.170000e+00	4.534286e+04	8.048323e+02	8.048323e+02
-2.170000e+00	-2.100000e+00	6.428571e+04	9.583148e+02	9.583148e+02
-2.100000e+00	-2.030000e+00	9.230000e+04	1.148291e+03	1.148291e+03
-2.030000e+00	-1.960000e+00	1.239143e+05	1.330490e+03	1.330490e+03
-1.960000e+00	-1.890000e+00	1.737143e+05	1.575320e+03	1.575320e+03
-1.890000e+00	-1.820000e+00	2.367571e+05	1.839088e+03	1.839088e+03
-1.820000e+00	-1.750000e+00	3.386143e+05	2.199397e+03	2.199397e+03
-1.750000e+00	-1.680000e+00	4.637143e+05	2.573808e+03	2.573808e+03
-1.680000e+00	-1.610000e+00	6.239714e+05	2.985612e+03	2.985612e+03
-1.610000e+00	-1.540000e+00	8.075714e+05	3.396577e+03	3.396577e+03
-1.540000e+00	-1.470000e+00	1.015214e+06	3.808288e+03	3.808288e+03
-1.470000e+00	-1.400000e+00	1.223386e+06	4.180543e+03	4.180543e+03
-1.400000e+00	-1.330000e+00	1.447357e+06	4.547145e+03	4.547145e+03
-1.330000e+00	-1.260000e+00	1.682929e+06	4.903248e+03	4.903248e+03
-1.260000e+00	-1.190000e+00	1.944757e+06	5.270887e+03	5.270887e+03
-1.190000e+00	-1.120000e+00	2.158371e+06	5.552826e+03	5.552826e+03
-1.120000e+00	-1.050000e+00	2.253114e+06	5.673389e+03	5.673389e+03
-1.050000e+00	-9.800000e-01	2.225143e+06	5.638063e+03	5.638063e+03
-9.800000e-01	-9.100000e-01	2.169929e+06	5.567673e+03	5.567673e+03
-9.100000e-01	-8.400000e-01	2.162314e+06	5.557896e+03	5.557896e+03
-8.400000e-01	-7.700000e-01	2.243771e+06	5.661614e+03	5.661614e+03
-7.700000e-01	-7.000000e-01	2.381100e+06	5.832299e+03	5.832299e+03
-7.000000e-01	-6.300000e-01	2.466729e+06	5.936243e+03	5.936243e+03
-6.300000e-01	-5.600000e-01	2.418343e+06	5.877734e+03	5.877734e+03
-5.600000e-01	-4.900000e-01	2.205343e+06	5.612922e+03	5.612922e+03
-4.900000e-01	-4.200000e-01	1.899543e+06	5.209254e+03	5.209254e+03
-4.200000e-01	-3.500000e-01	1.477386e+06	4.594073e+03	4.594073e+03
-3.500000e-01	-2.800000e-01	9.622571e+05	3.707631e+03	3.707631e+03
-2.800000e-01	-2.100000e-01	4.328571e+05	2.486699e+03	2.486699e+03
-2.100000e-01	-1.400000e-01	1.154429e+05	1.284205e+03	1.284205e+03
-1.400000e-01	-7.000000e-02	1.681429e+04	4.901062e+02	4.901062e+02
-7.000000e-02	0.000000e+00	9.571429e+02	1.169336e+02	1.169336e+02
# END HISTO1D

