# BEGIN PLOT
LegendOnly=/merge.yoda/PAPER_FIN_R4/ch_lin_l20_pT_408_1500
DrawOnly=/merge.yoda/PAPER_FIN_R4/ch_lin_l20_pT_408_1500
Legend=1
LogY=1
# END PLOT

# BEGIN HISTO1D /merge.yoda/PAPER_FIN_R4/ch_lin_l20_pT_408_1500
LineColor=red
LineStyle=solid
Path=/merge.yoda/PAPER_FIN_R4/ch_lin_l20_pT_408_1500
Title=merge
XLabel=~
YLabel=~
# xlow	 xhigh	 val	 errminus	 errplus
0.000000e+00	5.000000e-03	4.013140e+07	8.958951e+04	8.958951e+04
5.000000e-03	1.250000e-02	6.334387e+07	9.190130e+04	9.190130e+04
1.250000e-02	2.250000e-02	4.958560e+07	7.041704e+04	7.041704e+04
2.250000e-02	3.500000e-02	3.321488e+07	5.154794e+04	5.154794e+04
3.500000e-02	5.000000e-02	2.124687e+07	3.763586e+04	3.763586e+04
5.000000e-02	7.000000e-02	1.318295e+07	2.567387e+04	2.567387e+04
7.000000e-02	9.250000e-02	8.229378e+06	1.912459e+04	1.912459e+04
9.250000e-02	1.200000e-01	5.221964e+06	1.378004e+04	1.378004e+04
1.200000e-01	1.520000e-01	3.266812e+06	1.010386e+04	1.010386e+04
1.520000e-01	1.880000e-01	2.017444e+06	7.485995e+03	7.485995e+03
1.880000e-01	2.280000e-01	1.175650e+06	5.421370e+03	5.421370e+03
2.280000e-01	1.000000e+00	4.447798e+04	2.400291e+02	2.400291e+02
# END HISTO1D

