# BEGIN PLOT
LegendOnly=/zj_ps_nlo_mer_mur1_muf2_R4.yoda/PAPER_FIN_R4/ch_lin_l10_pT_150_186
DrawOnly=/zj_ps_nlo_mer_mur1_muf2_R4.yoda/PAPER_FIN_R4/ch_lin_l10_pT_150_186
Legend=1
LogY=1
# END PLOT

# BEGIN HISTO1D /zj_ps_nlo_mer_mur1_muf2_R4.yoda/PAPER_FIN_R4/ch_lin_l10_pT_150_186
LineColor=red
LineStyle=solid
Path=/zj_ps_nlo_mer_mur1_muf2_R4.yoda/PAPER_FIN_R4/ch_lin_l10_pT_150_186
Title=zj_ps_nlo_mer_mur1_muf2_R4
XLabel=~
YLabel=~
# xlow	 xhigh	 val	 errminus	 errplus
0.000000e+00	2.250000e-02	4.597996e+09	1.279398e+08	1.279398e+08
2.250000e-02	4.000000e-02	1.580374e+10	4.705450e+08	4.705450e+08
4.000000e-02	5.750000e-02	2.660002e+10	3.438867e+08	3.438867e+08
5.750000e-02	7.750000e-02	2.883825e+10	4.239512e+08	4.239512e+08
7.750000e-02	1.000000e-01	2.278209e+10	1.600162e+09	1.600162e+09
1.000000e-01	1.250000e-01	1.888744e+10	2.791766e+08	2.791766e+08
1.250000e-01	1.520000e-01	1.509655e+10	1.954930e+08	1.954930e+08
1.520000e-01	1.850000e-01	1.104448e+10	1.908401e+08	1.908401e+08
1.850000e-01	2.200000e-01	7.646634e+09	1.366432e+08	1.366432e+08
2.200000e-01	2.600000e-01	5.617050e+09	8.749864e+07	8.749864e+07
2.600000e-01	3.070000e-01	3.748379e+09	7.341323e+07	7.341323e+07
3.070000e-01	3.620000e-01	2.526342e+09	4.682013e+07	4.682013e+07
3.620000e-01	4.250000e-01	1.452684e+09	4.250621e+07	4.250621e+07
4.250000e-01	4.970000e-01	8.004837e+08	2.868442e+07	2.868442e+07
4.970000e-01	1.000000e+00	6.500402e+07	2.846861e+06	2.846861e+06
# END HISTO1D

