# BEGIN PLOT
LegendOnly=/zj_ps_nlo_mer_mur1_muf2_R4.yoda/PAPER_FIN_R4/lin_SD_l20_pT_186_254
DrawOnly=/zj_ps_nlo_mer_mur1_muf2_R4.yoda/PAPER_FIN_R4/lin_SD_l20_pT_186_254
Legend=1
LogY=1
# END PLOT

# BEGIN HISTO1D /zj_ps_nlo_mer_mur1_muf2_R4.yoda/PAPER_FIN_R4/lin_SD_l20_pT_186_254
LineColor=red
LineStyle=solid
Path=/zj_ps_nlo_mer_mur1_muf2_R4.yoda/PAPER_FIN_R4/lin_SD_l20_pT_186_254
Title=zj_ps_nlo_mer_mur1_muf2_R4
XLabel=~
YLabel=~
# xlow	 xhigh	 val	 errminus	 errplus
0.000000e+00	2.500000e-03	5.219068e+11	3.593895e+09	3.593895e+09
2.500000e-03	1.000000e-02	8.911647e+10	2.346339e+09	2.346339e+09
1.000000e-02	2.500000e-02	2.272133e+10	4.397812e+08	4.397812e+08
2.500000e-02	6.000000e-02	9.140683e+09	3.170179e+08	3.170179e+08
6.000000e-02	1.200000e-01	4.750957e+09	1.414315e+08	1.414315e+08
1.200000e-01	1.770000e-01	2.517449e+09	4.206735e+07	4.206735e+07
1.770000e-01	2.300000e-01	1.392220e+09	4.068191e+07	4.068191e+07
2.300000e-01	1.000000e+00	6.535734e+07	1.939903e+06	1.939903e+06
# END HISTO1D

