# BEGIN PLOT
LegendOnly=/zj_ps_nlo_mer_mur1_muf2_R4.yoda/PAPER_FIN_R4/l20_pT_88_120
DrawOnly=/zj_ps_nlo_mer_mur1_muf2_R4.yoda/PAPER_FIN_R4/l20_pT_88_120
Legend=1
LogY=1
# END PLOT

# BEGIN HISTO1D /zj_ps_nlo_mer_mur1_muf2_R4.yoda/PAPER_FIN_R4/l20_pT_88_120
LineColor=red
LineStyle=solid
Path=/zj_ps_nlo_mer_mur1_muf2_R4.yoda/PAPER_FIN_R4/l20_pT_88_120
Title=zj_ps_nlo_mer_mur1_muf2_R4
XLabel=~
YLabel=~
# xlow	 xhigh	 val	 errminus	 errplus
-7.000000e+00	-6.930000e+00	0.000000e+00	0.000000e+00	0.000000e+00
-6.930000e+00	-6.860000e+00	-5.457947e+03	5.825085e+03	5.825085e+03
-6.860000e+00	-6.790000e+00	0.000000e+00	0.000000e+00	0.000000e+00
-6.790000e+00	-6.720000e+00	1.890151e+02	1.890148e+02	1.890148e+02
-6.720000e+00	-6.650000e+00	0.000000e+00	0.000000e+00	0.000000e+00
-6.650000e+00	-6.580000e+00	0.000000e+00	0.000000e+00	0.000000e+00
-6.580000e+00	-6.510000e+00	5.172893e+03	5.179887e+03	5.179887e+03
-6.510000e+00	-6.440000e+00	0.000000e+00	0.000000e+00	0.000000e+00
-6.440000e+00	-6.370000e+00	-9.959069e+04	9.959069e+04	9.959069e+04
-6.370000e+00	-6.300000e+00	2.193921e+03	2.193922e+03	2.193922e+03
-6.300000e+00	-6.230000e+00	3.625216e+02	3.625216e+02	3.625216e+02
-6.230000e+00	-6.160000e+00	-1.318226e+01	1.318226e+01	1.318226e+01
-6.160000e+00	-6.090000e+00	-6.607011e+02	6.607011e+02	6.607011e+02
-6.090000e+00	-6.020000e+00	-8.880274e-07	8.880275e-07	8.880275e-07
-6.020000e+00	-5.950000e+00	-3.875047e-12	3.875048e-12	3.875048e-12
-5.950000e+00	-5.880000e+00	1.885531e+03	1.802864e+03	1.802864e+03
-5.880000e+00	-5.810000e+00	-8.531460e+03	8.523839e+03	8.523839e+03
-5.810000e+00	-5.740000e+00	1.955004e+03	1.955002e+03	1.955002e+03
-5.740000e+00	-5.670000e+00	3.390946e+02	3.390945e+02	3.390945e+02
-5.670000e+00	-5.600000e+00	6.853329e+03	6.281283e+03	6.281283e+03
-5.600000e+00	-5.530000e+00	-8.771893e+00	8.771893e+00	8.771893e+00
-5.530000e+00	-5.460000e+00	1.179312e+01	1.985162e+01	1.985162e+01
-5.460000e+00	-5.390000e+00	-1.544824e+02	1.647362e+02	1.647362e+02
-5.390000e+00	-5.320000e+00	1.762394e+02	1.785975e+02	1.785975e+02
-5.320000e+00	-5.250000e+00	2.108874e+05	2.109321e+05	2.109321e+05
-5.250000e+00	-5.180000e+00	-1.983290e+03	1.034579e+04	1.034579e+04
-5.180000e+00	-5.110000e+00	3.230479e+04	3.853743e+04	3.853743e+04
-5.110000e+00	-5.040000e+00	2.410970e+04	2.198454e+04	2.198454e+04
-5.040000e+00	-4.970000e+00	1.379810e+05	8.528004e+04	8.528004e+04
-4.970000e+00	-4.900000e+00	1.570559e+05	1.572069e+05	1.572069e+05
-4.900000e+00	-4.830000e+00	3.052567e+05	3.152453e+05	3.152453e+05
-4.830000e+00	-4.760000e+00	2.650066e+05	2.697957e+05	2.697957e+05
-4.760000e+00	-4.690000e+00	6.808057e+05	5.559151e+05	5.559151e+05
-4.690000e+00	-4.620000e+00	1.219953e+05	9.467950e+04	9.467950e+04
-4.620000e+00	-4.550000e+00	-2.902549e+05	8.274057e+05	8.274057e+05
-4.550000e+00	-4.480000e+00	-1.565713e+05	2.780064e+05	2.780064e+05
-4.480000e+00	-4.410000e+00	1.338090e+05	1.412620e+05	1.412620e+05
-4.410000e+00	-4.340000e+00	2.479539e+05	1.334217e+05	1.334217e+05
-4.340000e+00	-4.270000e+00	-3.264256e+05	6.221134e+05	6.221134e+05
-4.270000e+00	-4.200000e+00	3.084280e+05	1.636669e+05	1.636669e+05
-4.200000e+00	-4.130000e+00	5.595853e+05	4.306907e+05	4.306907e+05
-4.130000e+00	-4.060000e+00	1.737114e+06	8.875003e+05	8.875003e+05
-4.060000e+00	-3.990000e+00	-1.230396e+06	1.298705e+06	1.298705e+06
-3.990000e+00	-3.920000e+00	2.823714e+06	1.137611e+06	1.137611e+06
-3.920000e+00	-3.850000e+00	1.115622e+06	1.201901e+06	1.201901e+06
-3.850000e+00	-3.780000e+00	5.703257e+05	2.880321e+06	2.880321e+06
-3.780000e+00	-3.710000e+00	-1.013969e+07	1.421463e+07	1.421463e+07
-3.710000e+00	-3.640000e+00	5.585817e+06	2.421810e+06	2.421810e+06
-3.640000e+00	-3.570000e+00	7.994849e+06	1.785393e+06	1.785393e+06
-3.570000e+00	-3.500000e+00	3.533560e+05	3.845485e+06	3.845485e+06
-3.500000e+00	-3.430000e+00	9.901581e+06	2.997297e+06	2.997297e+06
-3.430000e+00	-3.360000e+00	1.505450e+07	3.604705e+06	3.604705e+06
-3.360000e+00	-3.290000e+00	8.569881e+06	4.371398e+06	4.371398e+06
-3.290000e+00	-3.220000e+00	2.218130e+07	4.132600e+06	4.132600e+06
-3.220000e+00	-3.150000e+00	2.359213e+07	5.461249e+06	5.461249e+06
-3.150000e+00	-3.080000e+00	2.787860e+07	5.342366e+06	5.342366e+06
-3.080000e+00	-3.010000e+00	3.836404e+07	6.833125e+06	6.833125e+06
-3.010000e+00	-2.940000e+00	5.111567e+07	5.571502e+06	5.571502e+06
-2.940000e+00	-2.870000e+00	3.287054e+07	9.612565e+06	9.612565e+06
-2.870000e+00	-2.800000e+00	9.371946e+07	9.955928e+06	9.955928e+06
-2.800000e+00	-2.730000e+00	1.003737e+08	1.950309e+07	1.950309e+07
-2.730000e+00	-2.660000e+00	1.664784e+08	3.101980e+07	3.101980e+07
-2.660000e+00	-2.590000e+00	1.926026e+08	3.227267e+07	3.227267e+07
-2.590000e+00	-2.520000e+00	2.523411e+08	1.734207e+07	1.734207e+07
-2.520000e+00	-2.450000e+00	3.027299e+08	3.185436e+07	3.185436e+07
-2.450000e+00	-2.380000e+00	4.574567e+08	2.283774e+07	2.283774e+07
-2.380000e+00	-2.310000e+00	5.515827e+08	3.756240e+07	3.756240e+07
-2.310000e+00	-2.240000e+00	7.669514e+08	3.354628e+07	3.354628e+07
-2.240000e+00	-2.170000e+00	1.172448e+09	1.107069e+08	1.107069e+08
-2.170000e+00	-2.100000e+00	1.485516e+09	6.169310e+07	6.169310e+07
-2.100000e+00	-2.030000e+00	1.973753e+09	5.458612e+07	5.458612e+07
-2.030000e+00	-1.960000e+00	2.736596e+09	6.512708e+07	6.512708e+07
-1.960000e+00	-1.890000e+00	3.694674e+09	1.019361e+08	1.019361e+08
-1.890000e+00	-1.820000e+00	5.153874e+09	1.178805e+08	1.178805e+08
-1.820000e+00	-1.750000e+00	6.795173e+09	1.355992e+08	1.355992e+08
-1.750000e+00	-1.680000e+00	9.005384e+09	2.708355e+08	2.708355e+08
-1.680000e+00	-1.610000e+00	1.167314e+10	2.481186e+08	2.481186e+08
-1.610000e+00	-1.540000e+00	1.331603e+10	5.150542e+08	5.150542e+08
-1.540000e+00	-1.470000e+00	1.597300e+10	1.972820e+08	1.972820e+08
-1.470000e+00	-1.400000e+00	1.733377e+10	2.588273e+08	2.588273e+08
-1.400000e+00	-1.330000e+00	1.747093e+10	2.436640e+08	2.436640e+08
-1.330000e+00	-1.260000e+00	1.780344e+10	3.012197e+08	3.012197e+08
-1.260000e+00	-1.190000e+00	1.629036e+10	2.147689e+08	2.147689e+08
-1.190000e+00	-1.120000e+00	1.512647e+10	3.247643e+08	3.247643e+08
-1.120000e+00	-1.050000e+00	1.368200e+10	1.565362e+08	1.565362e+08
-1.050000e+00	-9.800000e-01	1.170395e+10	1.422489e+08	1.422489e+08
-9.800000e-01	-9.100000e-01	9.807917e+09	1.556400e+08	1.556400e+08
-9.100000e-01	-8.400000e-01	8.065017e+09	1.225472e+08	1.225472e+08
-8.400000e-01	-7.700000e-01	6.212343e+09	1.133579e+08	1.133579e+08
-7.700000e-01	-7.000000e-01	4.683043e+09	9.296191e+07	9.296191e+07
-7.000000e-01	-6.300000e-01	3.292349e+09	8.608984e+07	8.608984e+07
-6.300000e-01	-5.600000e-01	2.067853e+09	7.636521e+07	7.636521e+07
-5.600000e-01	-4.900000e-01	1.034592e+09	5.152398e+07	5.152398e+07
-4.900000e-01	-4.200000e-01	3.220426e+08	2.249691e+07	2.249691e+07
-4.200000e-01	-3.500000e-01	4.489729e+07	9.637724e+06	9.637724e+06
-3.500000e-01	-2.800000e-01	-3.137450e+06	4.969636e+06	4.969636e+06
-2.800000e-01	-2.100000e-01	-4.041304e+04	9.494451e+04	9.494451e+04
-2.100000e-01	-1.400000e-01	0.000000e+00	0.000000e+00	0.000000e+00
-1.400000e-01	-7.000000e-02	0.000000e+00	0.000000e+00	0.000000e+00
-7.000000e-02	0.000000e+00	0.000000e+00	0.000000e+00	0.000000e+00
# END HISTO1D

