# BEGIN PLOT
# END PLOT

# BEGIN HISTO1D
LineColor=red
LineStyle=solid
Title=Z+Jet RES+NP
# Sigma = 1.493863e+01 pb
# xlow	xhigh	val	errminus	errplus
0.000000e+00	2.000000e-02	8.431867e+00	4.936470e+00	5.130575e+00
2.000000e-02	5.000000e-02	5.942635e+02	5.362696e+02	5.361402e+02
5.000000e-02	9.500000e-02	7.511795e+01	8.334874e+00	8.776663e+00
9.500000e-02	1.470000e-01	8.012638e+01	1.462503e+01	1.520425e+01
1.470000e-01	2.250000e-01	4.714565e+01	8.386781e+00	1.070659e+01
2.250000e-01	3.070000e-01	2.302485e+01	4.520861e+00	6.993023e+00
3.070000e-01	3.880000e-01	1.155941e+01	2.406322e+00	4.249657e+00
3.880000e-01	4.680000e-01	6.134915e+00	1.423168e+00	2.701635e+00
4.680000e-01	1.000000e+00	5.360726e-01	2.258850e-01	4.615144e-01
# END HISTO1D