# BEGIN PLOT
LegendOnly=/zj_ps_nlo_mer_mur1_muf2_R8.yoda/PAPER_FIN_R8/ch_SD_l05_pT_65_88
DrawOnly=/zj_ps_nlo_mer_mur1_muf2_R8.yoda/PAPER_FIN_R8/ch_SD_l05_pT_65_88
Legend=1
LogY=1
# END PLOT

# BEGIN HISTO1D /zj_ps_nlo_mer_mur1_muf2_R8.yoda/PAPER_FIN_R8/ch_SD_l05_pT_65_88
LineColor=red
LineStyle=solid
Path=/zj_ps_nlo_mer_mur1_muf2_R8.yoda/PAPER_FIN_R8/ch_SD_l05_pT_65_88
Title=zj_ps_nlo_mer_mur1_muf2_R8
XLabel=~
YLabel=~
# xlow	 xhigh	 val	 errminus	 errplus
-7.000000e+00	-6.930000e+00	0.000000e+00	0.000000e+00	0.000000e+00
-6.930000e+00	-6.860000e+00	3.247023e+11	1.619647e+09	1.619647e+09
-6.860000e+00	-6.790000e+00	0.000000e+00	0.000000e+00	0.000000e+00
-6.790000e+00	-6.720000e+00	0.000000e+00	0.000000e+00	0.000000e+00
-6.720000e+00	-6.650000e+00	0.000000e+00	0.000000e+00	0.000000e+00
-6.650000e+00	-6.580000e+00	0.000000e+00	0.000000e+00	0.000000e+00
-6.580000e+00	-6.510000e+00	0.000000e+00	0.000000e+00	0.000000e+00
-6.510000e+00	-6.440000e+00	0.000000e+00	0.000000e+00	0.000000e+00
-6.440000e+00	-6.370000e+00	0.000000e+00	0.000000e+00	0.000000e+00
-6.370000e+00	-6.300000e+00	0.000000e+00	0.000000e+00	0.000000e+00
-6.300000e+00	-6.230000e+00	0.000000e+00	0.000000e+00	0.000000e+00
-6.230000e+00	-6.160000e+00	0.000000e+00	0.000000e+00	0.000000e+00
-6.160000e+00	-6.090000e+00	0.000000e+00	0.000000e+00	0.000000e+00
-6.090000e+00	-6.020000e+00	0.000000e+00	0.000000e+00	0.000000e+00
-6.020000e+00	-5.950000e+00	0.000000e+00	0.000000e+00	0.000000e+00
-5.950000e+00	-5.880000e+00	0.000000e+00	0.000000e+00	0.000000e+00
-5.880000e+00	-5.810000e+00	0.000000e+00	0.000000e+00	0.000000e+00
-5.810000e+00	-5.740000e+00	0.000000e+00	0.000000e+00	0.000000e+00
-5.740000e+00	-5.670000e+00	0.000000e+00	0.000000e+00	0.000000e+00
-5.670000e+00	-5.600000e+00	0.000000e+00	0.000000e+00	0.000000e+00
-5.600000e+00	-5.530000e+00	0.000000e+00	0.000000e+00	0.000000e+00
-5.530000e+00	-5.460000e+00	0.000000e+00	0.000000e+00	0.000000e+00
-5.460000e+00	-5.390000e+00	0.000000e+00	0.000000e+00	0.000000e+00
-5.390000e+00	-5.320000e+00	0.000000e+00	0.000000e+00	0.000000e+00
-5.320000e+00	-5.250000e+00	0.000000e+00	0.000000e+00	0.000000e+00
-5.250000e+00	-5.180000e+00	0.000000e+00	0.000000e+00	0.000000e+00
-5.180000e+00	-5.110000e+00	0.000000e+00	0.000000e+00	0.000000e+00
-5.110000e+00	-5.040000e+00	0.000000e+00	0.000000e+00	0.000000e+00
-5.040000e+00	-4.970000e+00	0.000000e+00	0.000000e+00	0.000000e+00
-4.970000e+00	-4.900000e+00	0.000000e+00	0.000000e+00	0.000000e+00
-4.900000e+00	-4.830000e+00	0.000000e+00	0.000000e+00	0.000000e+00
-4.830000e+00	-4.760000e+00	0.000000e+00	0.000000e+00	0.000000e+00
-4.760000e+00	-4.690000e+00	0.000000e+00	0.000000e+00	0.000000e+00
-4.690000e+00	-4.620000e+00	0.000000e+00	0.000000e+00	0.000000e+00
-4.620000e+00	-4.550000e+00	0.000000e+00	0.000000e+00	0.000000e+00
-4.550000e+00	-4.480000e+00	0.000000e+00	0.000000e+00	0.000000e+00
-4.480000e+00	-4.410000e+00	0.000000e+00	0.000000e+00	0.000000e+00
-4.410000e+00	-4.340000e+00	0.000000e+00	0.000000e+00	0.000000e+00
-4.340000e+00	-4.270000e+00	0.000000e+00	0.000000e+00	0.000000e+00
-4.270000e+00	-4.200000e+00	0.000000e+00	0.000000e+00	0.000000e+00
-4.200000e+00	-4.130000e+00	0.000000e+00	0.000000e+00	0.000000e+00
-4.130000e+00	-4.060000e+00	0.000000e+00	0.000000e+00	0.000000e+00
-4.060000e+00	-3.990000e+00	0.000000e+00	0.000000e+00	0.000000e+00
-3.990000e+00	-3.920000e+00	0.000000e+00	0.000000e+00	0.000000e+00
-3.920000e+00	-3.850000e+00	0.000000e+00	0.000000e+00	0.000000e+00
-3.850000e+00	-3.780000e+00	0.000000e+00	0.000000e+00	0.000000e+00
-3.780000e+00	-3.710000e+00	0.000000e+00	0.000000e+00	0.000000e+00
-3.710000e+00	-3.640000e+00	0.000000e+00	0.000000e+00	0.000000e+00
-3.640000e+00	-3.570000e+00	0.000000e+00	0.000000e+00	0.000000e+00
-3.570000e+00	-3.500000e+00	0.000000e+00	0.000000e+00	0.000000e+00
-3.500000e+00	-3.430000e+00	0.000000e+00	0.000000e+00	0.000000e+00
-3.430000e+00	-3.360000e+00	0.000000e+00	0.000000e+00	0.000000e+00
-3.360000e+00	-3.290000e+00	0.000000e+00	0.000000e+00	0.000000e+00
-3.290000e+00	-3.220000e+00	0.000000e+00	0.000000e+00	0.000000e+00
-3.220000e+00	-3.150000e+00	0.000000e+00	0.000000e+00	0.000000e+00
-3.150000e+00	-3.080000e+00	0.000000e+00	0.000000e+00	0.000000e+00
-3.080000e+00	-3.010000e+00	0.000000e+00	0.000000e+00	0.000000e+00
-3.010000e+00	-2.940000e+00	0.000000e+00	0.000000e+00	0.000000e+00
-2.940000e+00	-2.870000e+00	0.000000e+00	0.000000e+00	0.000000e+00
-2.870000e+00	-2.800000e+00	0.000000e+00	0.000000e+00	0.000000e+00
-2.800000e+00	-2.730000e+00	0.000000e+00	0.000000e+00	0.000000e+00
-2.730000e+00	-2.660000e+00	0.000000e+00	0.000000e+00	0.000000e+00
-2.660000e+00	-2.590000e+00	0.000000e+00	0.000000e+00	0.000000e+00
-2.590000e+00	-2.520000e+00	0.000000e+00	0.000000e+00	0.000000e+00
-2.520000e+00	-2.450000e+00	-6.931943e+06	6.355359e+06	6.355359e+06
-2.450000e+00	-2.380000e+00	-1.819034e+06	1.456882e+06	1.456882e+06
-2.380000e+00	-2.310000e+00	-7.785280e+05	7.747680e+05	7.747680e+05
-2.310000e+00	-2.240000e+00	-9.812253e+06	6.599442e+06	6.599442e+06
-2.240000e+00	-2.170000e+00	2.638474e+04	5.771734e+05	5.771734e+05
-2.170000e+00	-2.100000e+00	1.414552e+07	1.532825e+07	1.532825e+07
-2.100000e+00	-2.030000e+00	2.022550e+06	5.117756e+06	5.117756e+06
-2.030000e+00	-1.960000e+00	1.996027e+07	1.898434e+07	1.898434e+07
-1.960000e+00	-1.890000e+00	2.601077e+07	2.219166e+07	2.219166e+07
-1.890000e+00	-1.820000e+00	1.056391e+07	4.840965e+06	4.840965e+06
-1.820000e+00	-1.750000e+00	2.099690e+07	1.115798e+07	1.115798e+07
-1.750000e+00	-1.680000e+00	-6.757793e+06	2.006733e+07	2.006733e+07
-1.680000e+00	-1.610000e+00	5.193347e+07	1.685272e+07	1.685272e+07
-1.610000e+00	-1.540000e+00	7.824523e+07	1.903630e+07	1.903630e+07
-1.540000e+00	-1.470000e+00	2.633767e+08	3.148662e+07	3.148662e+07
-1.470000e+00	-1.400000e+00	5.551983e+08	3.205604e+07	3.205604e+07
-1.400000e+00	-1.330000e+00	8.480434e+08	7.210011e+07	7.210011e+07
-1.330000e+00	-1.260000e+00	1.660190e+09	7.987548e+07	7.987548e+07
-1.260000e+00	-1.190000e+00	2.442776e+09	1.036433e+08	1.036433e+08
-1.190000e+00	-1.120000e+00	3.393243e+09	1.081523e+08	1.081523e+08
-1.120000e+00	-1.050000e+00	4.963619e+09	1.368464e+08	1.368464e+08
-1.050000e+00	-9.800000e-01	6.394181e+09	2.341219e+08	2.341219e+08
-9.800000e-01	-9.100000e-01	8.021063e+09	2.136736e+08	2.136736e+08
-9.100000e-01	-8.400000e-01	8.720381e+09	1.911561e+08	1.911561e+08
-8.400000e-01	-7.700000e-01	8.935236e+09	3.677257e+08	3.677257e+08
-7.700000e-01	-7.000000e-01	9.139516e+09	2.340068e+08	2.340068e+08
-7.000000e-01	-6.300000e-01	8.980873e+09	1.627218e+08	1.627218e+08
-6.300000e-01	-5.600000e-01	8.684360e+09	4.672123e+08	4.672123e+08
-5.600000e-01	-4.900000e-01	7.545529e+09	1.745345e+08	1.745345e+08
-4.900000e-01	-4.200000e-01	6.366699e+09	2.238636e+08	2.238636e+08
-4.200000e-01	-3.500000e-01	4.423689e+09	1.113984e+08	1.113984e+08
-3.500000e-01	-2.800000e-01	2.070790e+09	7.799524e+07	7.799524e+07
-2.800000e-01	-2.100000e-01	5.668970e+08	3.842435e+07	3.842435e+07
-2.100000e-01	-1.400000e-01	4.494616e+07	1.033776e+07	1.033776e+07
-1.400000e-01	-7.000000e-02	2.605737e+05	2.277658e+05	2.277658e+05
-7.000000e-02	0.000000e+00	0.000000e+00	0.000000e+00	0.000000e+00
# END HISTO1D

