# BEGIN PLOT
LegendOnly=/zj_ps_nlo_mer_mur1_muf2_R8.yoda/PAPER_FIN_R8/ch_lin_l05_pT_326_408
DrawOnly=/zj_ps_nlo_mer_mur1_muf2_R8.yoda/PAPER_FIN_R8/ch_lin_l05_pT_326_408
Legend=1
LogY=1
# END PLOT

# BEGIN HISTO1D /zj_ps_nlo_mer_mur1_muf2_R8.yoda/PAPER_FIN_R8/ch_lin_l05_pT_326_408
LineColor=red
LineStyle=solid
Path=/zj_ps_nlo_mer_mur1_muf2_R8.yoda/PAPER_FIN_R8/ch_lin_l05_pT_326_408
Title=zj_ps_nlo_mer_mur1_muf2_R8
XLabel=~
YLabel=~
# xlow	 xhigh	 val	 errminus	 errplus
0.000000e+00	6.000000e-02	7.103932e+09	9.535459e+07	9.535459e+07
6.000000e-02	1.100000e-01	1.391011e+09	4.368085e+07	4.368085e+07
1.100000e-01	1.500000e-01	9.325445e+08	4.344612e+07	4.344612e+07
1.500000e-01	1.900000e-01	7.800310e+08	5.014345e+07	5.014345e+07
1.900000e-01	2.300000e-01	5.524210e+08	5.340231e+07	5.340231e+07
2.300000e-01	2.700000e-01	4.192465e+08	2.479528e+07	2.479528e+07
2.700000e-01	3.100000e-01	3.852535e+08	2.258428e+07	2.258428e+07
3.100000e-01	3.500000e-01	2.291978e+08	3.688139e+07	3.688139e+07
3.500000e-01	3.900000e-01	2.321954e+08	1.742121e+07	1.742121e+07
3.900000e-01	4.400000e-01	1.514423e+08	1.051590e+07	1.051590e+07
4.400000e-01	4.900000e-01	7.213746e+07	7.297937e+06	7.297937e+06
4.900000e-01	5.400000e-01	3.470676e+07	3.958863e+06	3.958863e+06
5.400000e-01	6.000000e-01	9.626673e+06	1.572326e+06	1.572326e+06
6.000000e-01	1.000000e+00	4.644288e+05	2.386658e+05	2.386658e+05
# END HISTO1D

