# BEGIN PLOT
LegendOnly=/zj_ps_nlo_mer_mur1_muf2_R8.yoda/PAPER_FIN_R8/ch_lin_SD_l05_pT_186_254
DrawOnly=/zj_ps_nlo_mer_mur1_muf2_R8.yoda/PAPER_FIN_R8/ch_lin_SD_l05_pT_186_254
Legend=1
LogY=1
# END PLOT

# BEGIN HISTO1D /zj_ps_nlo_mer_mur1_muf2_R8.yoda/PAPER_FIN_R8/ch_lin_SD_l05_pT_186_254
LineColor=red
LineStyle=solid
Path=/zj_ps_nlo_mer_mur1_muf2_R8.yoda/PAPER_FIN_R8/ch_lin_SD_l05_pT_186_254
Title=zj_ps_nlo_mer_mur1_muf2_R8
XLabel=~
YLabel=~
# xlow	 xhigh	 val	 errminus	 errplus
0.000000e+00	6.000000e-02	5.170238e+10	3.608050e+08	3.608050e+08
6.000000e-02	9.000000e-02	5.924767e+09	2.176795e+08	2.176795e+08
9.000000e-02	1.200000e-01	6.356060e+09	1.376291e+08	1.376291e+08
1.200000e-01	1.500000e-01	5.136010e+09	1.572737e+08	1.572737e+08
1.500000e-01	1.900000e-01	3.899195e+09	9.506636e+07	9.506636e+07
1.900000e-01	2.300000e-01	3.151215e+09	9.626730e+07	9.626730e+07
2.300000e-01	2.700000e-01	2.505997e+09	9.752500e+07	9.752500e+07
2.700000e-01	3.200000e-01	1.982474e+09	5.756460e+07	5.756460e+07
3.200000e-01	3.700000e-01	1.421472e+09	4.654162e+07	4.654162e+07
3.700000e-01	4.200000e-01	8.331866e+08	8.658526e+07	8.658526e+07
4.200000e-01	4.800000e-01	6.275445e+08	2.635652e+07	2.635652e+07
4.800000e-01	5.400000e-01	2.156133e+08	1.358747e+07	1.358747e+07
5.400000e-01	6.000000e-01	6.612927e+07	7.112194e+06	7.112194e+06
6.000000e-01	1.000000e+00	2.651690e+06	1.073840e+06	1.073840e+06
# END HISTO1D

