# BEGIN PLOT
LegendOnly=/Resum_mult_NLO.yoda/CMS_2018_PAS_SMP_18_QGX_ZPJ/d23-x04-y01
DrawOnly=/Resum_mult_NLO.yoda/CMS_2018_PAS_SMP_18_QGX_ZPJ/d23-x04-y01
Legend=1
LogY=1
# END PLOT

# BEGIN HISTO1D /Resum_mult_NLO.yoda/CMS_2018_PAS_SMP_18_QGX_ZPJ/d23-x04-y01
LineColor=red
LineStyle=solid
Path=/Resum_mult_NLO.yoda/CMS_2018_PAS_SMP_18_QGX_ZPJ/d23-x04-y01
Title=Resum_mult_NLO
# xlow	 xhigh	 val	 errminus	 errplus
0.000000e+00	2.000000e-02	9.840223e+01	5.529328e+01	6.153987e+01
2.000000e-02	5.000000e-02	1.253087e+02	1.396242e+01	8.587729e+00
5.000000e-02	9.500000e-02	7.284802e+01	7.749404e+00	8.676116e+00
9.500000e-02	1.470000e-01	5.053266e+01	7.676728e+00	9.064850e+00
1.470000e-01	2.250000e-01	2.801125e+01	4.470411e+00	5.583118e+00
2.250000e-01	3.070000e-01	1.462164e+01	2.497890e+00	3.665983e+00
3.070000e-01	3.880000e-01	7.686639e+00	1.370517e+00	2.265996e+00
3.880000e-01	4.680000e-01	3.702473e+00	7.376435e-01	1.343304e+00
4.680000e-01	1.000000e+00	2.411141e-01	8.455776e-02	1.664870e-01
# END HISTO1D

