# BEGIN PLOT
LegendOnly=/Resum_mult_NLO.yoda/CMS_2018_PAS_SMP_18_QGX_ZPJ/d23-x10-y03
DrawOnly=/Resum_mult_NLO.yoda/CMS_2018_PAS_SMP_18_QGX_ZPJ/d23-x10-y03
Legend=1
LogY=1
# END PLOT

# BEGIN HISTO1D /Resum_mult_NLO.yoda/CMS_2018_PAS_SMP_18_QGX_ZPJ/d23-x10-y03
LineColor=red
LineStyle=solid
Path=/Resum_mult_NLO.yoda/CMS_2018_PAS_SMP_18_QGX_ZPJ/d23-x10-y03
Title=Resum_mult_NLO
# xlow	 xhigh	 val	 errminus	 errplus
0.000000e+00	2.500000e-03	5.439973e+02	1.591579e+02	1.573025e+02
2.500000e-03	5.000000e-03	3.128816e+02	2.608479e+01	3.396233e+01
5.000000e-03	7.500000e-03	1.983104e+02	1.839452e+01	2.254534e+01
7.500000e-03	1.250000e-02	1.333481e+02	1.322900e+01	1.555721e+01
1.250000e-02	2.000000e-02	8.454069e+01	8.651331e+00	9.780893e+00
2.000000e-02	3.250000e-02	5.339557e+01	5.615687e+00	6.193248e+00
3.250000e-02	5.000000e-02	3.404682e+01	3.632830e+00	3.927053e+00
5.000000e-02	7.750000e-02	2.196646e+01	2.361668e+00	2.513501e+00
7.750000e-02	1.150000e-01	1.683747e+01	2.768335e+00	3.364612e+00
1.150000e-01	1.600000e-01	1.020063e+01	1.735830e+00	2.312219e+00
1.600000e-01	2.100000e-01	5.587862e+00	1.062094e+00	1.595028e+00
2.100000e-01	1.000000e+00	2.233950e-01	6.889893e-02	1.295814e-01
# END HISTO1D

