# BEGIN PLOT
LegendOnly=/zj_ps_nlo_mer_mur1_muf1_R4.yoda/PAPER_FIN_R4/lin_SD_l20_pT_186_254
DrawOnly=/zj_ps_nlo_mer_mur1_muf1_R4.yoda/PAPER_FIN_R4/lin_SD_l20_pT_186_254
Legend=1
LogY=1
# END PLOT

# BEGIN HISTO1D /zj_ps_nlo_mer_mur1_muf1_R4.yoda/PAPER_FIN_R4/lin_SD_l20_pT_186_254
LineColor=red
LineStyle=solid
Path=/zj_ps_nlo_mer_mur1_muf1_R4.yoda/PAPER_FIN_R4/lin_SD_l20_pT_186_254
Title=zj_ps_nlo_mer_mur1_muf1_R4
XLabel=~
YLabel=~
# xlow	 xhigh	 val	 errminus	 errplus
0.000000e+00	2.500000e-03	5.139988e+11	3.501232e+09	3.501232e+09
2.500000e-03	1.000000e-02	8.786652e+10	2.173250e+09	2.173250e+09
1.000000e-02	2.500000e-02	2.279407e+10	3.707673e+08	3.707673e+08
2.500000e-02	6.000000e-02	9.312160e+09	1.732843e+08	1.732843e+08
6.000000e-02	1.200000e-01	4.762562e+09	1.563675e+08	1.563675e+08
1.200000e-01	1.770000e-01	2.508942e+09	4.262793e+07	4.262793e+07
1.770000e-01	2.300000e-01	1.418250e+09	4.645444e+07	4.645444e+07
2.300000e-01	1.000000e+00	6.622710e+07	2.082405e+06	2.082405e+06
# END HISTO1D

