# BEGIN PLOT
LegendOnly=/zj_ps_nlo_mer_mur1_muf1_R4.yoda/PAPER_FIN_R4/SD_l20_pT_326_408
DrawOnly=/zj_ps_nlo_mer_mur1_muf1_R4.yoda/PAPER_FIN_R4/SD_l20_pT_326_408
Legend=1
LogY=1
# END PLOT

# BEGIN HISTO1D /zj_ps_nlo_mer_mur1_muf1_R4.yoda/PAPER_FIN_R4/SD_l20_pT_326_408
LineColor=red
LineStyle=solid
Path=/zj_ps_nlo_mer_mur1_muf1_R4.yoda/PAPER_FIN_R4/SD_l20_pT_326_408
Title=zj_ps_nlo_mer_mur1_muf1_R4
XLabel=~
YLabel=~
# xlow	 xhigh	 val	 errminus	 errplus
-7.000000e+00	-6.930000e+00	-7.006959e+04	3.846480e+04	3.846480e+04
-6.930000e+00	-6.860000e+00	1.335793e+07	1.687834e+06	1.687834e+06
-6.860000e+00	-6.790000e+00	1.297617e+05	1.017189e+05	1.017189e+05
-6.790000e+00	-6.720000e+00	2.740879e+05	1.288880e+05	1.288880e+05
-6.720000e+00	-6.650000e+00	2.374959e+05	1.309058e+05	1.309058e+05
-6.650000e+00	-6.580000e+00	1.574353e+05	8.891699e+04	8.891699e+04
-6.580000e+00	-6.510000e+00	3.517804e+05	1.569115e+05	1.569115e+05
-6.510000e+00	-6.440000e+00	-2.897217e+05	4.160391e+05	4.160391e+05
-6.440000e+00	-6.370000e+00	1.609044e+05	9.244349e+04	9.244349e+04
-6.370000e+00	-6.300000e+00	2.277680e+05	9.661935e+04	9.661935e+04
-6.300000e+00	-6.230000e+00	2.843859e+05	1.193143e+05	1.193143e+05
-6.230000e+00	-6.160000e+00	4.000337e+05	1.941069e+05	1.941069e+05
-6.160000e+00	-6.090000e+00	3.121966e+04	1.414334e+05	1.414334e+05
-6.090000e+00	-6.020000e+00	7.215714e+05	3.001075e+05	3.001075e+05
-6.020000e+00	-5.950000e+00	-1.396823e+04	6.002552e+05	6.002552e+05
-5.950000e+00	-5.880000e+00	1.150883e+06	2.841700e+05	2.841700e+05
-5.880000e+00	-5.810000e+00	1.648581e+06	6.458510e+05	6.458510e+05
-5.810000e+00	-5.740000e+00	2.047023e+06	5.917804e+05	5.917804e+05
-5.740000e+00	-5.670000e+00	9.740176e+05	6.014055e+05	6.014055e+05
-5.670000e+00	-5.600000e+00	2.691510e+06	7.270669e+05	7.270669e+05
-5.600000e+00	-5.530000e+00	1.431133e+06	5.299655e+05	5.299655e+05
-5.530000e+00	-5.460000e+00	1.553229e+06	4.965423e+05	4.965423e+05
-5.460000e+00	-5.390000e+00	2.936246e+06	6.625233e+05	6.625233e+05
-5.390000e+00	-5.320000e+00	3.969543e+06	7.784227e+05	7.784227e+05
-5.320000e+00	-5.250000e+00	3.385024e+06	1.111207e+06	1.111207e+06
-5.250000e+00	-5.180000e+00	3.646094e+06	7.837038e+05	7.837038e+05
-5.180000e+00	-5.110000e+00	4.936531e+06	8.124076e+05	8.124076e+05
-5.110000e+00	-5.040000e+00	5.824794e+06	8.860598e+05	8.860598e+05
-5.040000e+00	-4.970000e+00	8.249631e+06	1.216357e+06	1.216357e+06
-4.970000e+00	-4.900000e+00	9.428401e+06	1.489704e+06	1.489704e+06
-4.900000e+00	-4.830000e+00	7.541659e+06	1.546161e+06	1.546161e+06
-4.830000e+00	-4.760000e+00	9.332879e+06	2.122482e+06	2.122482e+06
-4.760000e+00	-4.690000e+00	3.365054e+07	1.094796e+07	1.094796e+07
-4.690000e+00	-4.620000e+00	2.130947e+07	2.081835e+06	2.081835e+06
-4.620000e+00	-4.550000e+00	2.830286e+07	2.496090e+06	2.496090e+06
-4.550000e+00	-4.480000e+00	3.147177e+07	2.628778e+06	2.628778e+06
-4.480000e+00	-4.410000e+00	3.810986e+07	3.148794e+06	3.148794e+06
-4.410000e+00	-4.340000e+00	3.497763e+07	2.934528e+06	2.934528e+06
-4.340000e+00	-4.270000e+00	3.439843e+07	1.137465e+07	1.137465e+07
-4.270000e+00	-4.200000e+00	5.206536e+07	3.749506e+06	3.749506e+06
-4.200000e+00	-4.130000e+00	6.820046e+07	7.538102e+06	7.538102e+06
-4.130000e+00	-4.060000e+00	7.098426e+07	4.910183e+06	4.910183e+06
-4.060000e+00	-3.990000e+00	8.613320e+07	6.179358e+06	6.179358e+06
-3.990000e+00	-3.920000e+00	8.741756e+07	6.507667e+06	6.507667e+06
-3.920000e+00	-3.850000e+00	9.761479e+07	5.459917e+06	5.459917e+06
-3.850000e+00	-3.780000e+00	9.589423e+07	7.057527e+06	7.057527e+06
-3.780000e+00	-3.710000e+00	1.245468e+08	6.867583e+06	6.867583e+06
-3.710000e+00	-3.640000e+00	1.390892e+08	8.845437e+06	8.845437e+06
-3.640000e+00	-3.570000e+00	1.356580e+08	6.178318e+06	6.178318e+06
-3.570000e+00	-3.500000e+00	1.541321e+08	6.392711e+06	6.392711e+06
-3.500000e+00	-3.430000e+00	1.486123e+08	7.950218e+06	7.950218e+06
-3.430000e+00	-3.360000e+00	1.661030e+08	6.541389e+06	6.541389e+06
-3.360000e+00	-3.290000e+00	1.635381e+08	8.498729e+06	8.498729e+06
-3.290000e+00	-3.220000e+00	1.718679e+08	7.315566e+06	7.315566e+06
-3.220000e+00	-3.150000e+00	1.756446e+08	1.678343e+07	1.678343e+07
-3.150000e+00	-3.080000e+00	1.689364e+08	7.234795e+06	7.234795e+06
-3.080000e+00	-3.010000e+00	1.664581e+08	6.613912e+06	6.613912e+06
-3.010000e+00	-2.940000e+00	1.532707e+08	7.858741e+06	7.858741e+06
-2.940000e+00	-2.870000e+00	1.724043e+08	7.341744e+06	7.341744e+06
-2.870000e+00	-2.800000e+00	1.499937e+08	1.773518e+07	1.773518e+07
-2.800000e+00	-2.730000e+00	1.397004e+08	7.544041e+06	7.544041e+06
-2.730000e+00	-2.660000e+00	1.379815e+08	6.526799e+06	6.526799e+06
-2.660000e+00	-2.590000e+00	1.367507e+08	6.282569e+06	6.282569e+06
-2.590000e+00	-2.520000e+00	1.273956e+08	8.752565e+06	8.752565e+06
-2.520000e+00	-2.450000e+00	1.229437e+08	5.481849e+06	5.481849e+06
-2.450000e+00	-2.380000e+00	1.039593e+08	5.236163e+06	5.236163e+06
-2.380000e+00	-2.310000e+00	1.142784e+08	6.068251e+06	6.068251e+06
-2.310000e+00	-2.240000e+00	1.147607e+08	5.010383e+06	5.010383e+06
-2.240000e+00	-2.170000e+00	1.144137e+08	4.700280e+06	4.700280e+06
-2.170000e+00	-2.100000e+00	1.015034e+08	5.319005e+06	5.319005e+06
-2.100000e+00	-2.030000e+00	1.036244e+08	4.545608e+06	4.545608e+06
-2.030000e+00	-1.960000e+00	1.026335e+08	4.952270e+06	4.952270e+06
-1.960000e+00	-1.890000e+00	1.046463e+08	6.606586e+06	6.606586e+06
-1.890000e+00	-1.820000e+00	1.126376e+08	4.869811e+06	4.869811e+06
-1.820000e+00	-1.750000e+00	1.019974e+08	7.289871e+06	7.289871e+06
-1.750000e+00	-1.680000e+00	1.131228e+08	4.975364e+06	4.975364e+06
-1.680000e+00	-1.610000e+00	1.208937e+08	6.205014e+06	6.205014e+06
-1.610000e+00	-1.540000e+00	1.102142e+08	6.670520e+06	6.670520e+06
-1.540000e+00	-1.470000e+00	1.224771e+08	5.066801e+06	5.066801e+06
-1.470000e+00	-1.400000e+00	1.169762e+08	1.208870e+07	1.208870e+07
-1.400000e+00	-1.330000e+00	1.205085e+08	1.352556e+07	1.352556e+07
-1.330000e+00	-1.260000e+00	1.256177e+08	7.447997e+06	7.447997e+06
-1.260000e+00	-1.190000e+00	1.231345e+08	7.382834e+06	7.382834e+06
-1.190000e+00	-1.120000e+00	1.436553e+08	1.151352e+07	1.151352e+07
-1.120000e+00	-1.050000e+00	1.456286e+08	8.743937e+06	8.743937e+06
-1.050000e+00	-9.800000e-01	1.398218e+08	7.920727e+06	7.920727e+06
-9.800000e-01	-9.100000e-01	1.328524e+08	7.188623e+06	7.188623e+06
-9.100000e-01	-8.400000e-01	1.385650e+08	7.869288e+06	7.869288e+06
-8.400000e-01	-7.700000e-01	1.262424e+08	6.277943e+06	6.277943e+06
-7.700000e-01	-7.000000e-01	1.126722e+08	1.526536e+07	1.526536e+07
-7.000000e-01	-6.300000e-01	8.431034e+07	5.156680e+06	5.156680e+06
-6.300000e-01	-5.600000e-01	6.068383e+07	4.465707e+06	4.465707e+06
-5.600000e-01	-4.900000e-01	2.055561e+07	2.193830e+06	2.193830e+06
-4.900000e-01	-4.200000e-01	4.303923e+06	7.651889e+05	7.651889e+05
-4.200000e-01	-3.500000e-01	3.557071e+05	1.310680e+05	1.310680e+05
-3.500000e-01	-2.800000e-01	1.180124e+03	1.142511e+04	1.142511e+04
-2.800000e-01	-2.100000e-01	0.000000e+00	0.000000e+00	0.000000e+00
-2.100000e-01	-1.400000e-01	0.000000e+00	0.000000e+00	0.000000e+00
-1.400000e-01	-7.000000e-02	0.000000e+00	0.000000e+00	0.000000e+00
-7.000000e-02	0.000000e+00	0.000000e+00	0.000000e+00	0.000000e+00
# END HISTO1D

