# BEGIN PLOT
LegendOnly=/zj_ps_nlo_mer_mur1_muf1_R4.yoda/PAPER_FIN_R4/SD_l05_pT_254_326
DrawOnly=/zj_ps_nlo_mer_mur1_muf1_R4.yoda/PAPER_FIN_R4/SD_l05_pT_254_326
Legend=1
LogY=1
# END PLOT

# BEGIN HISTO1D /zj_ps_nlo_mer_mur1_muf1_R4.yoda/PAPER_FIN_R4/SD_l05_pT_254_326
LineColor=red
LineStyle=solid
Path=/zj_ps_nlo_mer_mur1_muf1_R4.yoda/PAPER_FIN_R4/SD_l05_pT_254_326
Title=zj_ps_nlo_mer_mur1_muf1_R4
XLabel=~
YLabel=~
# xlow	 xhigh	 val	 errminus	 errplus
-7.000000e+00	-6.930000e+00	0.000000e+00	0.000000e+00	0.000000e+00
-6.930000e+00	-6.860000e+00	3.275986e+07	3.384113e+06	3.384113e+06
-6.860000e+00	-6.790000e+00	0.000000e+00	0.000000e+00	0.000000e+00
-6.790000e+00	-6.720000e+00	0.000000e+00	0.000000e+00	0.000000e+00
-6.720000e+00	-6.650000e+00	0.000000e+00	0.000000e+00	0.000000e+00
-6.650000e+00	-6.580000e+00	0.000000e+00	0.000000e+00	0.000000e+00
-6.580000e+00	-6.510000e+00	0.000000e+00	0.000000e+00	0.000000e+00
-6.510000e+00	-6.440000e+00	0.000000e+00	0.000000e+00	0.000000e+00
-6.440000e+00	-6.370000e+00	0.000000e+00	0.000000e+00	0.000000e+00
-6.370000e+00	-6.300000e+00	0.000000e+00	0.000000e+00	0.000000e+00
-6.300000e+00	-6.230000e+00	0.000000e+00	0.000000e+00	0.000000e+00
-6.230000e+00	-6.160000e+00	0.000000e+00	0.000000e+00	0.000000e+00
-6.160000e+00	-6.090000e+00	0.000000e+00	0.000000e+00	0.000000e+00
-6.090000e+00	-6.020000e+00	0.000000e+00	0.000000e+00	0.000000e+00
-6.020000e+00	-5.950000e+00	0.000000e+00	0.000000e+00	0.000000e+00
-5.950000e+00	-5.880000e+00	0.000000e+00	0.000000e+00	0.000000e+00
-5.880000e+00	-5.810000e+00	0.000000e+00	0.000000e+00	0.000000e+00
-5.810000e+00	-5.740000e+00	0.000000e+00	0.000000e+00	0.000000e+00
-5.740000e+00	-5.670000e+00	0.000000e+00	0.000000e+00	0.000000e+00
-5.670000e+00	-5.600000e+00	0.000000e+00	0.000000e+00	0.000000e+00
-5.600000e+00	-5.530000e+00	0.000000e+00	0.000000e+00	0.000000e+00
-5.530000e+00	-5.460000e+00	0.000000e+00	0.000000e+00	0.000000e+00
-5.460000e+00	-5.390000e+00	0.000000e+00	0.000000e+00	0.000000e+00
-5.390000e+00	-5.320000e+00	0.000000e+00	0.000000e+00	0.000000e+00
-5.320000e+00	-5.250000e+00	0.000000e+00	0.000000e+00	0.000000e+00
-5.250000e+00	-5.180000e+00	0.000000e+00	0.000000e+00	0.000000e+00
-5.180000e+00	-5.110000e+00	0.000000e+00	0.000000e+00	0.000000e+00
-5.110000e+00	-5.040000e+00	0.000000e+00	0.000000e+00	0.000000e+00
-5.040000e+00	-4.970000e+00	0.000000e+00	0.000000e+00	0.000000e+00
-4.970000e+00	-4.900000e+00	0.000000e+00	0.000000e+00	0.000000e+00
-4.900000e+00	-4.830000e+00	0.000000e+00	0.000000e+00	0.000000e+00
-4.830000e+00	-4.760000e+00	0.000000e+00	0.000000e+00	0.000000e+00
-4.760000e+00	-4.690000e+00	0.000000e+00	0.000000e+00	0.000000e+00
-4.690000e+00	-4.620000e+00	0.000000e+00	0.000000e+00	0.000000e+00
-4.620000e+00	-4.550000e+00	0.000000e+00	0.000000e+00	0.000000e+00
-4.550000e+00	-4.480000e+00	0.000000e+00	0.000000e+00	0.000000e+00
-4.480000e+00	-4.410000e+00	0.000000e+00	0.000000e+00	0.000000e+00
-4.410000e+00	-4.340000e+00	0.000000e+00	0.000000e+00	0.000000e+00
-4.340000e+00	-4.270000e+00	0.000000e+00	0.000000e+00	0.000000e+00
-4.270000e+00	-4.200000e+00	0.000000e+00	0.000000e+00	0.000000e+00
-4.200000e+00	-4.130000e+00	0.000000e+00	0.000000e+00	0.000000e+00
-4.130000e+00	-4.060000e+00	0.000000e+00	0.000000e+00	0.000000e+00
-4.060000e+00	-3.990000e+00	0.000000e+00	0.000000e+00	0.000000e+00
-3.990000e+00	-3.920000e+00	0.000000e+00	0.000000e+00	0.000000e+00
-3.920000e+00	-3.850000e+00	0.000000e+00	0.000000e+00	0.000000e+00
-3.850000e+00	-3.780000e+00	0.000000e+00	0.000000e+00	0.000000e+00
-3.780000e+00	-3.710000e+00	0.000000e+00	0.000000e+00	0.000000e+00
-3.710000e+00	-3.640000e+00	0.000000e+00	0.000000e+00	0.000000e+00
-3.640000e+00	-3.570000e+00	0.000000e+00	0.000000e+00	0.000000e+00
-3.570000e+00	-3.500000e+00	-1.797343e+03	1.797342e+03	1.797342e+03
-3.500000e+00	-3.430000e+00	0.000000e+00	0.000000e+00	0.000000e+00
-3.430000e+00	-3.360000e+00	0.000000e+00	0.000000e+00	0.000000e+00
-3.360000e+00	-3.290000e+00	0.000000e+00	0.000000e+00	0.000000e+00
-3.290000e+00	-3.220000e+00	0.000000e+00	0.000000e+00	0.000000e+00
-3.220000e+00	-3.150000e+00	0.000000e+00	0.000000e+00	0.000000e+00
-3.150000e+00	-3.080000e+00	5.374856e+00	5.374856e+00	5.374856e+00
-3.080000e+00	-3.010000e+00	1.077672e+01	1.077672e+01	1.077672e+01
-3.010000e+00	-2.940000e+00	0.000000e+00	0.000000e+00	0.000000e+00
-2.940000e+00	-2.870000e+00	0.000000e+00	0.000000e+00	0.000000e+00
-2.870000e+00	-2.800000e+00	3.668916e+00	1.124315e+01	1.124315e+01
-2.800000e+00	-2.730000e+00	-4.720164e+03	4.777522e+03	4.777522e+03
-2.730000e+00	-2.660000e+00	-8.857711e+01	4.590387e+02	4.590387e+02
-2.660000e+00	-2.590000e+00	-1.862127e+04	1.670669e+04	1.670669e+04
-2.590000e+00	-2.520000e+00	3.844767e+03	3.269046e+03	3.269046e+03
-2.520000e+00	-2.450000e+00	5.044616e+04	2.917340e+04	2.917340e+04
-2.450000e+00	-2.380000e+00	2.522429e+05	1.995300e+05	1.995300e+05
-2.380000e+00	-2.310000e+00	3.124231e+05	1.595860e+05	1.595860e+05
-2.310000e+00	-2.240000e+00	3.049997e+05	2.483273e+05	2.483273e+05
-2.240000e+00	-2.170000e+00	5.856159e+05	2.034905e+05	2.034905e+05
-2.170000e+00	-2.100000e+00	1.126192e+06	4.081689e+05	4.081689e+05
-2.100000e+00	-2.030000e+00	3.425817e+06	1.410738e+06	1.410738e+06
-2.030000e+00	-1.960000e+00	4.379233e+06	9.415340e+05	9.415340e+05
-1.960000e+00	-1.890000e+00	2.941404e+06	1.019798e+06	1.019798e+06
-1.890000e+00	-1.820000e+00	1.040246e+07	2.166812e+06	2.166812e+06
-1.820000e+00	-1.750000e+00	1.347440e+07	2.784447e+06	2.784447e+06
-1.750000e+00	-1.680000e+00	1.819030e+07	3.069324e+06	3.069324e+06
-1.680000e+00	-1.610000e+00	3.112573e+07	3.972271e+06	3.972271e+06
-1.610000e+00	-1.540000e+00	4.741001e+07	4.210702e+06	4.210702e+06
-1.540000e+00	-1.470000e+00	7.446533e+07	5.201319e+06	5.201319e+06
-1.470000e+00	-1.400000e+00	9.935327e+07	8.494290e+06	8.494290e+06
-1.400000e+00	-1.330000e+00	1.880814e+08	8.980807e+06	8.980807e+06
-1.330000e+00	-1.260000e+00	2.561871e+08	1.054149e+07	1.054149e+07
-1.260000e+00	-1.190000e+00	4.044843e+08	1.342822e+07	1.342822e+07
-1.190000e+00	-1.120000e+00	6.021737e+08	1.549747e+07	1.549747e+07
-1.120000e+00	-1.050000e+00	8.258063e+08	2.247313e+07	2.247313e+07
-1.050000e+00	-9.800000e-01	1.125904e+09	2.618538e+07	2.618538e+07
-9.800000e-01	-9.100000e-01	1.395013e+09	2.877556e+07	2.877556e+07
-9.100000e-01	-8.400000e-01	1.520580e+09	2.833929e+07	2.833929e+07
-8.400000e-01	-7.700000e-01	1.480194e+09	2.711254e+07	2.711254e+07
-7.700000e-01	-7.000000e-01	1.395968e+09	2.986274e+07	2.986274e+07
-7.000000e-01	-6.300000e-01	1.301821e+09	2.524012e+07	2.524012e+07
-6.300000e-01	-5.600000e-01	1.199984e+09	2.639860e+07	2.639860e+07
-5.600000e-01	-4.900000e-01	1.179956e+09	2.154662e+07	2.154662e+07
-4.900000e-01	-4.200000e-01	1.059338e+09	3.112993e+07	3.112993e+07
-4.200000e-01	-3.500000e-01	9.238530e+08	3.219144e+07	3.219144e+07
-3.500000e-01	-2.800000e-01	6.372721e+08	1.646520e+07	1.646520e+07
-2.800000e-01	-2.100000e-01	3.451470e+08	1.640263e+07	1.640263e+07
-2.100000e-01	-1.400000e-01	8.648040e+07	8.693804e+06	8.693804e+06
-1.400000e-01	-7.000000e-02	4.376071e+06	1.448741e+06	1.448741e+06
-7.000000e-02	0.000000e+00	5.959881e+04	5.905458e+04	5.905458e+04
# END HISTO1D

