# BEGIN PLOT
LegendOnly=/zj_ps_nlo_mer_mur0.5_muf1_R4.yoda/PAPER_FIN_R4/ch_lin_l20_pT_326_408
DrawOnly=/zj_ps_nlo_mer_mur0.5_muf1_R4.yoda/PAPER_FIN_R4/ch_lin_l20_pT_326_408
Legend=1
LogY=1
# END PLOT

# BEGIN HISTO1D /zj_ps_nlo_mer_mur0.5_muf1_R4.yoda/PAPER_FIN_R4/ch_lin_l20_pT_326_408
LineColor=red
LineStyle=solid
Path=/zj_ps_nlo_mer_mur0.5_muf1_R4.yoda/PAPER_FIN_R4/ch_lin_l20_pT_326_408
Title=zj_ps_nlo_mer_mur0.5_muf1_R4
XLabel=~
YLabel=~
# xlow	 xhigh	 val	 errminus	 errplus
0.000000e+00	5.000000e-03	7.121486e+10	1.463320e+09	1.463320e+09
5.000000e-03	1.250000e-02	3.759788e+09	9.335046e+08	9.335046e+08
1.250000e-02	2.250000e-02	2.345035e+09	2.036530e+08	2.036530e+08
2.250000e-02	3.500000e-02	1.533431e+09	6.812253e+07	6.812253e+07
3.500000e-02	5.000000e-02	1.019385e+09	7.308385e+07	7.308385e+07
5.000000e-02	7.000000e-02	6.134410e+08	6.379455e+07	6.379455e+07
7.000000e-02	9.250000e-02	4.114331e+08	3.254511e+07	3.254511e+07
9.250000e-02	1.200000e-01	2.799057e+08	6.628151e+07	6.628151e+07
1.200000e-01	1.520000e-01	2.272945e+08	3.177329e+07	3.177329e+07
1.520000e-01	1.880000e-01	1.136193e+08	1.749528e+07	1.749528e+07
1.880000e-01	2.280000e-01	6.760047e+07	1.648923e+07	1.648923e+07
2.280000e-01	1.000000e+00	1.534422e+06	4.614209e+05	4.614209e+05
# END HISTO1D

