# BEGIN PLOT
LegendOnly=/zj_ps_nlo_mer_mur0.5_muf1_R4.yoda/PAPER_FIN_R4/lin_SD_l05_pT_408_1500
DrawOnly=/zj_ps_nlo_mer_mur0.5_muf1_R4.yoda/PAPER_FIN_R4/lin_SD_l05_pT_408_1500
Legend=1
LogY=1
# END PLOT

# BEGIN HISTO1D /zj_ps_nlo_mer_mur0.5_muf1_R4.yoda/PAPER_FIN_R4/lin_SD_l05_pT_408_1500
LineColor=red
LineStyle=solid
Path=/zj_ps_nlo_mer_mur0.5_muf1_R4.yoda/PAPER_FIN_R4/lin_SD_l05_pT_408_1500
Title=zj_ps_nlo_mer_mur0.5_muf1_R4
XLabel=~
YLabel=~
# xlow	 xhigh	 val	 errminus	 errplus
0.000000e+00	1.000000e-01	2.084255e+09	4.766396e+07	4.766396e+07
1.000000e-01	1.800000e-01	9.663976e+08	3.465397e+07	3.465397e+07
1.800000e-01	2.600000e-01	5.692590e+08	2.806260e+07	2.806260e+07
2.600000e-01	3.400000e-01	4.334689e+08	3.201918e+07	3.201918e+07
3.400000e-01	4.200000e-01	2.099579e+08	2.988630e+07	2.988630e+07
4.200000e-01	5.000000e-01	1.636964e+08	1.593973e+07	1.593973e+07
5.000000e-01	5.700000e-01	5.682911e+07	5.699436e+06	5.699436e+06
5.700000e-01	6.400000e-01	2.759029e+07	3.435067e+06	3.435067e+06
6.400000e-01	1.000000e+00	7.147311e+05	1.666127e+05	1.666127e+05
# END HISTO1D

