# BEGIN PLOT
LegendOnly=/zj_ps_nlo_mer_mur0.5_muf1_R4.yoda/PAPER_FIN_R4/SD_l05_pT_50_65
DrawOnly=/zj_ps_nlo_mer_mur0.5_muf1_R4.yoda/PAPER_FIN_R4/SD_l05_pT_50_65
Legend=1
LogY=1
# END PLOT

# BEGIN HISTO1D /zj_ps_nlo_mer_mur0.5_muf1_R4.yoda/PAPER_FIN_R4/SD_l05_pT_50_65
LineColor=red
LineStyle=solid
Path=/zj_ps_nlo_mer_mur0.5_muf1_R4.yoda/PAPER_FIN_R4/SD_l05_pT_50_65
Title=zj_ps_nlo_mer_mur0.5_muf1_R4
XLabel=~
YLabel=~
# xlow	 xhigh	 val	 errminus	 errplus
-7.000000e+00	-6.930000e+00	0.000000e+00	0.000000e+00	0.000000e+00
-6.930000e+00	-6.860000e+00	1.912081e+11	1.419725e+09	1.419725e+09
-6.860000e+00	-6.790000e+00	0.000000e+00	0.000000e+00	0.000000e+00
-6.790000e+00	-6.720000e+00	0.000000e+00	0.000000e+00	0.000000e+00
-6.720000e+00	-6.650000e+00	0.000000e+00	0.000000e+00	0.000000e+00
-6.650000e+00	-6.580000e+00	0.000000e+00	0.000000e+00	0.000000e+00
-6.580000e+00	-6.510000e+00	0.000000e+00	0.000000e+00	0.000000e+00
-6.510000e+00	-6.440000e+00	0.000000e+00	0.000000e+00	0.000000e+00
-6.440000e+00	-6.370000e+00	0.000000e+00	0.000000e+00	0.000000e+00
-6.370000e+00	-6.300000e+00	0.000000e+00	0.000000e+00	0.000000e+00
-6.300000e+00	-6.230000e+00	0.000000e+00	0.000000e+00	0.000000e+00
-6.230000e+00	-6.160000e+00	0.000000e+00	0.000000e+00	0.000000e+00
-6.160000e+00	-6.090000e+00	0.000000e+00	0.000000e+00	0.000000e+00
-6.090000e+00	-6.020000e+00	0.000000e+00	0.000000e+00	0.000000e+00
-6.020000e+00	-5.950000e+00	0.000000e+00	0.000000e+00	0.000000e+00
-5.950000e+00	-5.880000e+00	0.000000e+00	0.000000e+00	0.000000e+00
-5.880000e+00	-5.810000e+00	0.000000e+00	0.000000e+00	0.000000e+00
-5.810000e+00	-5.740000e+00	0.000000e+00	0.000000e+00	0.000000e+00
-5.740000e+00	-5.670000e+00	0.000000e+00	0.000000e+00	0.000000e+00
-5.670000e+00	-5.600000e+00	0.000000e+00	0.000000e+00	0.000000e+00
-5.600000e+00	-5.530000e+00	0.000000e+00	0.000000e+00	0.000000e+00
-5.530000e+00	-5.460000e+00	0.000000e+00	0.000000e+00	0.000000e+00
-5.460000e+00	-5.390000e+00	0.000000e+00	0.000000e+00	0.000000e+00
-5.390000e+00	-5.320000e+00	0.000000e+00	0.000000e+00	0.000000e+00
-5.320000e+00	-5.250000e+00	0.000000e+00	0.000000e+00	0.000000e+00
-5.250000e+00	-5.180000e+00	0.000000e+00	0.000000e+00	0.000000e+00
-5.180000e+00	-5.110000e+00	0.000000e+00	0.000000e+00	0.000000e+00
-5.110000e+00	-5.040000e+00	0.000000e+00	0.000000e+00	0.000000e+00
-5.040000e+00	-4.970000e+00	0.000000e+00	0.000000e+00	0.000000e+00
-4.970000e+00	-4.900000e+00	0.000000e+00	0.000000e+00	0.000000e+00
-4.900000e+00	-4.830000e+00	0.000000e+00	0.000000e+00	0.000000e+00
-4.830000e+00	-4.760000e+00	0.000000e+00	0.000000e+00	0.000000e+00
-4.760000e+00	-4.690000e+00	0.000000e+00	0.000000e+00	0.000000e+00
-4.690000e+00	-4.620000e+00	0.000000e+00	0.000000e+00	0.000000e+00
-4.620000e+00	-4.550000e+00	0.000000e+00	0.000000e+00	0.000000e+00
-4.550000e+00	-4.480000e+00	0.000000e+00	0.000000e+00	0.000000e+00
-4.480000e+00	-4.410000e+00	0.000000e+00	0.000000e+00	0.000000e+00
-4.410000e+00	-4.340000e+00	0.000000e+00	0.000000e+00	0.000000e+00
-4.340000e+00	-4.270000e+00	0.000000e+00	0.000000e+00	0.000000e+00
-4.270000e+00	-4.200000e+00	0.000000e+00	0.000000e+00	0.000000e+00
-4.200000e+00	-4.130000e+00	0.000000e+00	0.000000e+00	0.000000e+00
-4.130000e+00	-4.060000e+00	0.000000e+00	0.000000e+00	0.000000e+00
-4.060000e+00	-3.990000e+00	0.000000e+00	0.000000e+00	0.000000e+00
-3.990000e+00	-3.920000e+00	0.000000e+00	0.000000e+00	0.000000e+00
-3.920000e+00	-3.850000e+00	0.000000e+00	0.000000e+00	0.000000e+00
-3.850000e+00	-3.780000e+00	0.000000e+00	0.000000e+00	0.000000e+00
-3.780000e+00	-3.710000e+00	0.000000e+00	0.000000e+00	0.000000e+00
-3.710000e+00	-3.640000e+00	0.000000e+00	0.000000e+00	0.000000e+00
-3.640000e+00	-3.570000e+00	0.000000e+00	0.000000e+00	0.000000e+00
-3.570000e+00	-3.500000e+00	0.000000e+00	0.000000e+00	0.000000e+00
-3.500000e+00	-3.430000e+00	0.000000e+00	0.000000e+00	0.000000e+00
-3.430000e+00	-3.360000e+00	0.000000e+00	0.000000e+00	0.000000e+00
-3.360000e+00	-3.290000e+00	0.000000e+00	0.000000e+00	0.000000e+00
-3.290000e+00	-3.220000e+00	0.000000e+00	0.000000e+00	0.000000e+00
-3.220000e+00	-3.150000e+00	0.000000e+00	0.000000e+00	0.000000e+00
-3.150000e+00	-3.080000e+00	0.000000e+00	0.000000e+00	0.000000e+00
-3.080000e+00	-3.010000e+00	0.000000e+00	0.000000e+00	0.000000e+00
-3.010000e+00	-2.940000e+00	0.000000e+00	0.000000e+00	0.000000e+00
-2.940000e+00	-2.870000e+00	0.000000e+00	0.000000e+00	0.000000e+00
-2.870000e+00	-2.800000e+00	0.000000e+00	0.000000e+00	0.000000e+00
-2.800000e+00	-2.730000e+00	0.000000e+00	0.000000e+00	0.000000e+00
-2.730000e+00	-2.660000e+00	0.000000e+00	0.000000e+00	0.000000e+00
-2.660000e+00	-2.590000e+00	0.000000e+00	0.000000e+00	0.000000e+00
-2.590000e+00	-2.520000e+00	0.000000e+00	0.000000e+00	0.000000e+00
-2.520000e+00	-2.450000e+00	5.796000e+02	2.994024e+02	2.994024e+02
-2.450000e+00	-2.380000e+00	4.404709e+03	2.682303e+03	2.682303e+03
-2.380000e+00	-2.310000e+00	3.170871e+05	3.157603e+05	3.157603e+05
-2.310000e+00	-2.240000e+00	-9.421707e+03	1.947953e+04	1.947953e+04
-2.240000e+00	-2.170000e+00	9.791643e+06	9.790402e+06	9.790402e+06
-2.170000e+00	-2.100000e+00	1.080332e+06	7.299539e+05	7.299539e+05
-2.100000e+00	-2.030000e+00	-1.608774e+06	1.474151e+06	1.474151e+06
-2.030000e+00	-1.960000e+00	1.941709e+06	3.121871e+06	3.121871e+06
-1.960000e+00	-1.890000e+00	4.179506e+06	1.941246e+07	1.941246e+07
-1.890000e+00	-1.820000e+00	8.042674e+07	6.345201e+07	6.345201e+07
-1.820000e+00	-1.750000e+00	9.810281e+07	4.695695e+07	4.695695e+07
-1.750000e+00	-1.680000e+00	1.427875e+08	1.072507e+08	1.072507e+08
-1.680000e+00	-1.610000e+00	5.288046e+06	2.137301e+07	2.137301e+07
-1.610000e+00	-1.540000e+00	1.132162e+08	5.127340e+07	5.127340e+07
-1.540000e+00	-1.470000e+00	1.129508e+08	2.707852e+07	2.707852e+07
-1.470000e+00	-1.400000e+00	1.933077e+08	4.207167e+07	4.207167e+07
-1.400000e+00	-1.330000e+00	4.743799e+08	5.506934e+07	5.506934e+07
-1.330000e+00	-1.260000e+00	9.787024e+08	1.596908e+08	1.596908e+08
-1.260000e+00	-1.190000e+00	1.986277e+09	1.595502e+08	1.595502e+08
-1.190000e+00	-1.120000e+00	4.296960e+09	1.708787e+08	1.708787e+08
-1.120000e+00	-1.050000e+00	9.844304e+09	3.023870e+08	3.023870e+08
-1.050000e+00	-9.800000e-01	1.699070e+10	3.687014e+08	3.687014e+08
-9.800000e-01	-9.100000e-01	2.122473e+10	4.169620e+08	4.169620e+08
-9.100000e-01	-8.400000e-01	2.480470e+10	4.324981e+08	4.324981e+08
-8.400000e-01	-7.700000e-01	2.569446e+10	9.800312e+08	9.800312e+08
-7.700000e-01	-7.000000e-01	2.757117e+10	5.067771e+08	5.067771e+08
-7.000000e-01	-6.300000e-01	2.848841e+10	4.876106e+08	4.876106e+08
-6.300000e-01	-5.600000e-01	2.731846e+10	4.664162e+08	4.664162e+08
-5.600000e-01	-4.900000e-01	2.570759e+10	4.300750e+08	4.300750e+08
-4.900000e-01	-4.200000e-01	2.268419e+10	3.529788e+08	3.529788e+08
-4.200000e-01	-3.500000e-01	1.769574e+10	3.226966e+08	3.226966e+08
-3.500000e-01	-2.800000e-01	1.069100e+10	4.008076e+08	4.008076e+08
-2.800000e-01	-2.100000e-01	3.448257e+09	5.595851e+08	5.595851e+08
-2.100000e-01	-1.400000e-01	7.106137e+08	4.414405e+07	4.414405e+07
-1.400000e-01	-7.000000e-02	1.327976e+07	8.304846e+06	8.304846e+06
-7.000000e-02	0.000000e+00	0.000000e+00	0.000000e+00	0.000000e+00
# END HISTO1D

