num,pt,eta,phi
0,85.9069,1.53129,3.87911
1,4.83234,-1.75921,5.94843
2,5.463,2.04771,3.30319
3,7.74946,-3.20743,0.152457
4,1.92411,2.75312,3.09231
5,7.60823,-1.35508,5.78889
6,1.3492,4.43406,4.8852
7,1.56783,3.75645,5.15811
8,15.5899,1.88298,3.8886
9,2.17699,-1.46355,6.15861
10,2.21597,-1.12094,4.67595
11,72.2136,1.54204,3.95266
12,1.21694,-4.66076,2.94249
13,1.10441,2.26612,2.31406
14,15.5254,1.62342,3.83606
15,0.172976,-2.65925,5.25686
16,0.515331,-0.954889,2.16611
17,3.84495,-1.61521,6.0676
18,0.846128,2.17262,4.34335
19,2.6363,-0.87855,5.91807
20,0.379256,-3.15427,6.10244
21,0.947127,1.80689,3.40836
22,1.84837,1.97218,4.02696
23,0.284518,-2.52761,1.50873
24,3.72766,4.89395,4.5474
25,0.298385,-2.04361,6.09193
26,0.092534,1.68701,0.170694
27,1.25694,-1.24773,5.34756
28,6.16565,1.94601,3.80172
29,0.363919,0.809549,3.11538
30,2.19739e-05,0.649369,0.622987
31,85.9069,1.53129,3.87911
32,4.83234,-1.75921,5.94843
33,5.463,2.04771,3.30319
34,7.74946,-3.20743,0.152457
35,1.92411,2.75312,3.09231
36,7.60823,-1.35508,5.78889
37,1.3492,4.43406,4.8852
38,1.56783,3.75645,5.15811
39,15.5899,1.88298,3.8886
40,2.17699,-1.46355,6.15861
41,2.21597,-1.12094,4.67595
42,72.2136,1.54204,3.95266
43,1.21694,-4.66076,2.94249
44,1.10441,2.26612,2.31406
45,15.5254,1.62342,3.83606
46,0.172976,-2.65925,5.25686
47,0.515331,-0.954889,2.16611
48,3.84495,-1.61521,6.0676
49,0.846128,2.17262,4.34335
50,2.6363,-0.87855,5.91807
51,0.379256,-3.15427,6.10244
52,0.947127,1.80689,3.40836
53,1.84837,1.97218,4.02696
54,0.284518,-2.52761,1.50873
55,3.72766,4.89395,4.5474
56,0.298385,-2.04361,6.09193
57,0.092534,1.68701,0.170694
58,1.25694,-1.24773,5.34756
59,6.16565,1.94601,3.80172
60,0.363919,0.809549,3.11538
61,2.19739e-05,0.649369,0.622987
