# BEGIN PLOT
LegendOnly=/zj_ps_nlo_mer_mur1_muf1_R8.yoda/PAPER_FIN_R8/lin_l10_pT_150_186
DrawOnly=/zj_ps_nlo_mer_mur1_muf1_R8.yoda/PAPER_FIN_R8/lin_l10_pT_150_186
Legend=1
LogY=1
# END PLOT

# BEGIN HISTO1D /zj_ps_nlo_mer_mur1_muf1_R8.yoda/PAPER_FIN_R8/lin_l10_pT_150_186
LineColor=red
LineStyle=solid
Path=/zj_ps_nlo_mer_mur1_muf1_R8.yoda/PAPER_FIN_R8/lin_l10_pT_150_186
Title=zj_ps_nlo_mer_mur1_muf1_R8
XLabel=~
YLabel=~
# xlow	 xhigh	 val	 errminus	 errplus
0.000000e+00	1.050000e-01	8.099239e+08	2.286385e+07	2.286385e+07
1.050000e-01	1.650000e-01	3.075820e+08	1.742960e+08	1.742960e+08
1.650000e-01	2.300000e-01	2.986158e+08	1.407455e+07	1.407455e+07
2.300000e-01	3.050000e-01	1.985675e+08	8.060930e+06	8.060930e+06
3.050000e-01	3.800000e-01	1.103716e+08	1.038383e+07	1.038383e+07
3.800000e-01	4.600000e-01	5.203580e+07	7.186483e+06	7.186483e+06
4.600000e-01	5.500000e-01	1.990149e+07	2.500188e+06	2.500188e+06
5.500000e-01	1.000000e+00	2.765438e+06	1.842412e+06	1.842412e+06
# END HISTO1D

