# BEGIN PLOT
LegendOnly=/zj_ps_nlo_mer_mur1_muf1_R8.yoda/PAPER_FIN_R8/ch_SD_l20_pT_120_150
DrawOnly=/zj_ps_nlo_mer_mur1_muf1_R8.yoda/PAPER_FIN_R8/ch_SD_l20_pT_120_150
Legend=1
LogY=1
# END PLOT

# BEGIN HISTO1D /zj_ps_nlo_mer_mur1_muf1_R8.yoda/PAPER_FIN_R8/ch_SD_l20_pT_120_150
LineColor=red
LineStyle=solid
Path=/zj_ps_nlo_mer_mur1_muf1_R8.yoda/PAPER_FIN_R8/ch_SD_l20_pT_120_150
Title=zj_ps_nlo_mer_mur1_muf1_R8
XLabel=~
YLabel=~
# xlow	 xhigh	 val	 errminus	 errplus
-7.000000e+00	-6.930000e+00	1.530096e+03	1.547811e+03	1.547811e+03
-6.930000e+00	-6.860000e+00	3.078514e+08	1.334775e+07	1.334775e+07
-6.860000e+00	-6.790000e+00	5.830593e+00	6.079326e+00	6.079326e+00
-6.790000e+00	-6.720000e+00	-1.839687e-01	1.218239e-01	1.218239e-01
-6.720000e+00	-6.650000e+00	2.411811e+01	6.811362e+01	6.811362e+01
-6.650000e+00	-6.580000e+00	-2.109994e+04	1.746596e+04	1.746596e+04
-6.580000e+00	-6.510000e+00	-2.345819e+00	3.481392e+00	3.481392e+00
-6.510000e+00	-6.440000e+00	-1.566057e+04	1.571336e+04	1.571336e+04
-6.440000e+00	-6.370000e+00	-5.613386e+00	5.719901e+00	5.719901e+00
-6.370000e+00	-6.300000e+00	-4.023809e+02	2.501222e+02	2.501222e+02
-6.300000e+00	-6.230000e+00	3.370934e+02	3.313661e+02	3.313661e+02
-6.230000e+00	-6.160000e+00	-3.377684e+02	2.526885e+02	2.526885e+02
-6.160000e+00	-6.090000e+00	-2.853649e+04	2.846725e+04	2.846725e+04
-6.090000e+00	-6.020000e+00	-3.202301e+03	3.134955e+03	3.134955e+03
-6.020000e+00	-5.950000e+00	-3.747196e+03	7.175393e+03	7.175393e+03
-5.950000e+00	-5.880000e+00	2.922963e+04	2.240346e+04	2.240346e+04
-5.880000e+00	-5.810000e+00	1.218408e+04	9.184170e+03	9.184170e+03
-5.810000e+00	-5.740000e+00	-2.092987e+04	1.695582e+04	1.695582e+04
-5.740000e+00	-5.670000e+00	6.432134e+03	9.250004e+03	9.250004e+03
-5.670000e+00	-5.600000e+00	1.534149e+04	1.997193e+04	1.997193e+04
-5.600000e+00	-5.530000e+00	1.304392e+04	1.406919e+04	1.406919e+04
-5.530000e+00	-5.460000e+00	4.818610e+04	4.911885e+04	4.911885e+04
-5.460000e+00	-5.390000e+00	3.543203e+04	2.436684e+04	2.436684e+04
-5.390000e+00	-5.320000e+00	6.062481e+03	1.572890e+04	1.572890e+04
-5.320000e+00	-5.250000e+00	8.111830e+04	3.971813e+04	3.971813e+04
-5.250000e+00	-5.180000e+00	2.560009e+04	1.538450e+04	1.538450e+04
-5.180000e+00	-5.110000e+00	-9.212363e+03	3.353718e+04	3.353718e+04
-5.110000e+00	-5.040000e+00	3.315566e+04	3.610640e+04	3.610640e+04
-5.040000e+00	-4.970000e+00	5.932179e+04	4.235942e+04	4.235942e+04
-4.970000e+00	-4.900000e+00	4.052309e+04	4.218531e+04	4.218531e+04
-4.900000e+00	-4.830000e+00	3.954574e+04	2.432875e+04	2.432875e+04
-4.830000e+00	-4.760000e+00	-2.045310e+04	3.703563e+04	3.703563e+04
-4.760000e+00	-4.690000e+00	1.334417e+05	5.378521e+04	5.378521e+04
-4.690000e+00	-4.620000e+00	-3.297669e+04	7.415323e+04	7.415323e+04
-4.620000e+00	-4.550000e+00	-3.127677e+04	4.841841e+04	4.841841e+04
-4.550000e+00	-4.480000e+00	-4.098389e+03	2.711579e+04	2.711579e+04
-4.480000e+00	-4.410000e+00	1.251983e+05	8.010898e+04	8.010898e+04
-4.410000e+00	-4.340000e+00	-7.617210e+04	8.833182e+04	8.833182e+04
-4.340000e+00	-4.270000e+00	2.826687e+05	1.124946e+05	1.124946e+05
-4.270000e+00	-4.200000e+00	5.970406e+04	5.876550e+04	5.876550e+04
-4.200000e+00	-4.130000e+00	7.538919e+04	5.483500e+04	5.483500e+04
-4.130000e+00	-4.060000e+00	1.031312e+05	2.139515e+05	2.139515e+05
-4.060000e+00	-3.990000e+00	3.286799e+05	1.236734e+05	1.236734e+05
-3.990000e+00	-3.920000e+00	5.000136e+05	1.685973e+05	1.685973e+05
-3.920000e+00	-3.850000e+00	7.977197e+05	1.773468e+05	1.773468e+05
-3.850000e+00	-3.780000e+00	-4.074984e+05	8.278653e+05	8.278653e+05
-3.780000e+00	-3.710000e+00	7.779050e+05	3.203498e+05	3.203498e+05
-3.710000e+00	-3.640000e+00	3.048403e+05	3.432643e+05	3.432643e+05
-3.640000e+00	-3.570000e+00	1.486746e+06	3.489112e+05	3.489112e+05
-3.570000e+00	-3.500000e+00	1.788821e+06	4.093068e+05	4.093068e+05
-3.500000e+00	-3.430000e+00	2.050816e+06	4.290443e+05	4.290443e+05
-3.430000e+00	-3.360000e+00	1.369028e+06	5.779395e+05	5.779395e+05
-3.360000e+00	-3.290000e+00	1.651589e+06	4.463146e+05	4.463146e+05
-3.290000e+00	-3.220000e+00	3.685254e+05	1.463541e+06	1.463541e+06
-3.220000e+00	-3.150000e+00	2.411634e+06	6.236443e+05	6.236443e+05
-3.150000e+00	-3.080000e+00	1.778173e+06	5.550905e+05	5.550905e+05
-3.080000e+00	-3.010000e+00	1.883404e+06	6.977629e+05	6.977629e+05
-3.010000e+00	-2.940000e+00	2.781623e+06	5.714650e+05	5.714650e+05
-2.940000e+00	-2.870000e+00	7.397793e+05	1.590105e+06	1.590105e+06
-2.870000e+00	-2.800000e+00	2.128553e+06	8.070992e+05	8.070992e+05
-2.800000e+00	-2.730000e+00	3.068890e+06	5.235782e+05	5.235782e+05
-2.730000e+00	-2.660000e+00	2.546956e+06	6.441100e+05	6.441100e+05
-2.660000e+00	-2.590000e+00	2.591303e+06	1.347190e+06	1.347190e+06
-2.590000e+00	-2.520000e+00	4.423856e+06	9.640866e+05	9.640866e+05
-2.520000e+00	-2.450000e+00	4.129077e+06	9.098171e+05	9.098171e+05
-2.450000e+00	-2.380000e+00	3.856310e+06	8.124070e+05	8.124070e+05
-2.380000e+00	-2.310000e+00	3.791459e+06	6.867757e+05	6.867757e+05
-2.310000e+00	-2.240000e+00	3.345954e+06	1.260142e+06	1.260142e+06
-2.240000e+00	-2.170000e+00	4.546439e+06	8.245490e+05	8.245490e+05
-2.170000e+00	-2.100000e+00	4.947966e+06	7.499906e+05	7.499906e+05
-2.100000e+00	-2.030000e+00	5.710711e+06	8.939361e+05	8.939361e+05
-2.030000e+00	-1.960000e+00	4.412919e+06	9.119148e+05	9.119148e+05
-1.960000e+00	-1.890000e+00	4.184690e+06	1.037463e+06	1.037463e+06
-1.890000e+00	-1.820000e+00	8.409234e+06	1.227376e+06	1.227376e+06
-1.820000e+00	-1.750000e+00	4.488221e+06	1.010371e+06	1.010371e+06
-1.750000e+00	-1.680000e+00	7.386131e+06	7.912077e+05	7.912077e+05
-1.680000e+00	-1.610000e+00	7.172553e+06	8.960020e+05	8.960020e+05
-1.610000e+00	-1.540000e+00	5.287751e+06	1.129026e+06	1.129026e+06
-1.540000e+00	-1.470000e+00	5.454031e+06	1.296634e+06	1.296634e+06
-1.470000e+00	-1.400000e+00	6.701464e+06	1.289823e+06	1.289823e+06
-1.400000e+00	-1.330000e+00	6.516081e+06	1.533225e+06	1.533225e+06
-1.330000e+00	-1.260000e+00	6.608444e+06	1.287965e+06	1.287965e+06
-1.260000e+00	-1.190000e+00	9.199794e+06	1.347048e+06	1.347048e+06
-1.190000e+00	-1.120000e+00	9.224624e+06	2.258688e+06	2.258688e+06
-1.120000e+00	-1.050000e+00	8.113303e+06	1.515429e+06	1.515429e+06
-1.050000e+00	-9.800000e-01	9.617627e+06	1.323536e+06	1.323536e+06
-9.800000e-01	-9.100000e-01	7.302969e+06	1.240327e+06	1.240327e+06
-9.100000e-01	-8.400000e-01	6.080733e+06	1.386400e+06	1.386400e+06
-8.400000e-01	-7.700000e-01	7.860097e+06	9.668725e+05	9.668725e+05
-7.700000e-01	-7.000000e-01	4.785493e+06	9.465204e+05	9.465204e+05
-7.000000e-01	-6.300000e-01	3.694640e+06	6.605879e+05	6.605879e+05
-6.300000e-01	-5.600000e-01	5.669174e+05	4.093389e+05	4.093389e+05
-5.600000e-01	-4.900000e-01	2.386247e+05	1.478072e+05	1.478072e+05
-4.900000e-01	-4.200000e-01	-2.115424e+04	4.773520e+04	4.773520e+04
-4.200000e-01	-3.500000e-01	1.888414e+02	2.661172e+02	2.661172e+02
-3.500000e-01	-2.800000e-01	0.000000e+00	0.000000e+00	0.000000e+00
-2.800000e-01	-2.100000e-01	0.000000e+00	0.000000e+00	0.000000e+00
-2.100000e-01	-1.400000e-01	0.000000e+00	0.000000e+00	0.000000e+00
-1.400000e-01	-7.000000e-02	0.000000e+00	0.000000e+00	0.000000e+00
-7.000000e-02	0.000000e+00	0.000000e+00	0.000000e+00	0.000000e+00
# END HISTO1D

