# BEGIN PLOT
LegendOnly=/zj_ps_nlo_mer_mur1_muf1_R8.yoda/PAPER_FIN_R8/ch_SD_l10_pT_326_408
DrawOnly=/zj_ps_nlo_mer_mur1_muf1_R8.yoda/PAPER_FIN_R8/ch_SD_l10_pT_326_408
Legend=1
LogY=1
# END PLOT

# BEGIN HISTO1D /zj_ps_nlo_mer_mur1_muf1_R8.yoda/PAPER_FIN_R8/ch_SD_l10_pT_326_408
LineColor=red
LineStyle=solid
Path=/zj_ps_nlo_mer_mur1_muf1_R8.yoda/PAPER_FIN_R8/ch_SD_l10_pT_326_408
Title=zj_ps_nlo_mer_mur1_muf1_R8
XLabel=~
YLabel=~
# xlow	 xhigh	 val	 errminus	 errplus
-7.000000e+00	-6.930000e+00	0.000000e+00	0.000000e+00	0.000000e+00
-6.930000e+00	-6.860000e+00	6.227319e+09	2.898698e+07	2.898698e+07
-6.860000e+00	-6.790000e+00	0.000000e+00	0.000000e+00	0.000000e+00
-6.790000e+00	-6.720000e+00	0.000000e+00	0.000000e+00	0.000000e+00
-6.720000e+00	-6.650000e+00	0.000000e+00	0.000000e+00	0.000000e+00
-6.650000e+00	-6.580000e+00	0.000000e+00	0.000000e+00	0.000000e+00
-6.580000e+00	-6.510000e+00	0.000000e+00	0.000000e+00	0.000000e+00
-6.510000e+00	-6.440000e+00	0.000000e+00	0.000000e+00	0.000000e+00
-6.440000e+00	-6.370000e+00	0.000000e+00	0.000000e+00	0.000000e+00
-6.370000e+00	-6.300000e+00	0.000000e+00	0.000000e+00	0.000000e+00
-6.300000e+00	-6.230000e+00	0.000000e+00	0.000000e+00	0.000000e+00
-6.230000e+00	-6.160000e+00	0.000000e+00	0.000000e+00	0.000000e+00
-6.160000e+00	-6.090000e+00	0.000000e+00	0.000000e+00	0.000000e+00
-6.090000e+00	-6.020000e+00	0.000000e+00	0.000000e+00	0.000000e+00
-6.020000e+00	-5.950000e+00	0.000000e+00	0.000000e+00	0.000000e+00
-5.950000e+00	-5.880000e+00	0.000000e+00	0.000000e+00	0.000000e+00
-5.880000e+00	-5.810000e+00	0.000000e+00	0.000000e+00	0.000000e+00
-5.810000e+00	-5.740000e+00	0.000000e+00	0.000000e+00	0.000000e+00
-5.740000e+00	-5.670000e+00	0.000000e+00	0.000000e+00	0.000000e+00
-5.670000e+00	-5.600000e+00	0.000000e+00	0.000000e+00	0.000000e+00
-5.600000e+00	-5.530000e+00	0.000000e+00	0.000000e+00	0.000000e+00
-5.530000e+00	-5.460000e+00	0.000000e+00	0.000000e+00	0.000000e+00
-5.460000e+00	-5.390000e+00	0.000000e+00	0.000000e+00	0.000000e+00
-5.390000e+00	-5.320000e+00	0.000000e+00	0.000000e+00	0.000000e+00
-5.320000e+00	-5.250000e+00	0.000000e+00	0.000000e+00	0.000000e+00
-5.250000e+00	-5.180000e+00	0.000000e+00	0.000000e+00	0.000000e+00
-5.180000e+00	-5.110000e+00	0.000000e+00	0.000000e+00	0.000000e+00
-5.110000e+00	-5.040000e+00	0.000000e+00	0.000000e+00	0.000000e+00
-5.040000e+00	-4.970000e+00	0.000000e+00	0.000000e+00	0.000000e+00
-4.970000e+00	-4.900000e+00	0.000000e+00	0.000000e+00	0.000000e+00
-4.900000e+00	-4.830000e+00	1.000571e+02	1.000575e+02	1.000575e+02
-4.830000e+00	-4.760000e+00	1.142344e-02	9.373449e-03	9.373449e-03
-4.760000e+00	-4.690000e+00	-9.638250e+00	9.053017e+00	9.053017e+00
-4.690000e+00	-4.620000e+00	7.355749e+00	7.344764e+00	7.344764e+00
-4.620000e+00	-4.550000e+00	-4.559539e+00	4.573801e+00	4.573801e+00
-4.550000e+00	-4.480000e+00	-1.080289e+02	1.092734e+02	1.092734e+02
-4.480000e+00	-4.410000e+00	-5.245160e-01	5.390877e-01	5.390877e-01
-4.410000e+00	-4.340000e+00	-5.469256e+02	5.098509e+02	5.098509e+02
-4.340000e+00	-4.270000e+00	-9.150976e+00	8.822305e+00	8.822305e+00
-4.270000e+00	-4.200000e+00	7.332676e+02	6.081496e+02	6.081496e+02
-4.200000e+00	-4.130000e+00	2.877946e+02	2.845573e+02	2.845573e+02
-4.130000e+00	-4.060000e+00	3.743660e+03	5.272255e+03	5.272255e+03
-4.060000e+00	-3.990000e+00	3.559284e+03	3.054372e+03	3.054372e+03
-3.990000e+00	-3.920000e+00	9.390456e+03	8.158631e+03	8.158631e+03
-3.920000e+00	-3.850000e+00	2.088433e+05	1.806119e+05	1.806119e+05
-3.850000e+00	-3.780000e+00	-1.882477e+03	9.491273e+03	9.491273e+03
-3.780000e+00	-3.710000e+00	3.608024e+05	3.378107e+05	3.378107e+05
-3.710000e+00	-3.640000e+00	3.071176e+04	3.265546e+04	3.265546e+04
-3.640000e+00	-3.570000e+00	3.314567e+05	5.584879e+05	5.584879e+05
-3.570000e+00	-3.500000e+00	2.749513e+05	1.491489e+05	1.491489e+05
-3.500000e+00	-3.430000e+00	4.117437e+05	2.850482e+05	2.850482e+05
-3.430000e+00	-3.360000e+00	1.509849e+05	5.070207e+04	5.070207e+04
-3.360000e+00	-3.290000e+00	1.327283e+05	4.627480e+04	4.627480e+04
-3.290000e+00	-3.220000e+00	7.742166e+04	7.068018e+04	7.068018e+04
-3.220000e+00	-3.150000e+00	3.287770e+05	1.068593e+05	1.068593e+05
-3.150000e+00	-3.080000e+00	2.988581e+05	6.267462e+04	6.267462e+04
-3.080000e+00	-3.010000e+00	5.345621e+05	1.626177e+05	1.626177e+05
-3.010000e+00	-2.940000e+00	4.573581e+04	4.571786e+05	4.571786e+05
-2.940000e+00	-2.870000e+00	8.715664e+05	1.680288e+05	1.680288e+05
-2.870000e+00	-2.800000e+00	1.683326e+06	1.920286e+05	1.920286e+05
-2.800000e+00	-2.730000e+00	2.861541e+06	2.066897e+05	2.066897e+05
-2.730000e+00	-2.660000e+00	4.538907e+06	2.678163e+05	2.678163e+05
-2.660000e+00	-2.590000e+00	6.818593e+06	5.149296e+05	5.149296e+05
-2.590000e+00	-2.520000e+00	9.008189e+06	1.690572e+06	1.690572e+06
-2.520000e+00	-2.450000e+00	1.456759e+07	1.012438e+06	1.012438e+06
-2.450000e+00	-2.380000e+00	2.014097e+07	1.008351e+06	1.008351e+06
-2.380000e+00	-2.310000e+00	2.618076e+07	8.014021e+05	8.014021e+05
-2.310000e+00	-2.240000e+00	3.261786e+07	1.024505e+06	1.024505e+06
-2.240000e+00	-2.170000e+00	4.119223e+07	1.139535e+06	1.139535e+06
-2.170000e+00	-2.100000e+00	4.799347e+07	1.592057e+06	1.592057e+06
-2.100000e+00	-2.030000e+00	5.997057e+07	2.610803e+06	2.610803e+06
-2.030000e+00	-1.960000e+00	6.809833e+07	2.606769e+06	2.606769e+06
-1.960000e+00	-1.890000e+00	7.152467e+07	2.408313e+06	2.408313e+06
-1.890000e+00	-1.820000e+00	7.742290e+07	2.990670e+06	2.990670e+06
-1.820000e+00	-1.750000e+00	8.970054e+07	2.167286e+06	2.167286e+06
-1.750000e+00	-1.680000e+00	9.613517e+07	1.898653e+06	1.898653e+06
-1.680000e+00	-1.610000e+00	1.034522e+08	1.996445e+06	1.996445e+06
-1.610000e+00	-1.540000e+00	1.121268e+08	2.045741e+06	2.045741e+06
-1.540000e+00	-1.470000e+00	1.184571e+08	2.575083e+06	2.575083e+06
-1.470000e+00	-1.400000e+00	1.249376e+08	2.149421e+06	2.149421e+06
-1.400000e+00	-1.330000e+00	1.364698e+08	3.796313e+06	3.796313e+06
-1.330000e+00	-1.260000e+00	1.433449e+08	2.549185e+06	2.549185e+06
-1.260000e+00	-1.190000e+00	1.518474e+08	2.801900e+06	2.801900e+06
-1.190000e+00	-1.120000e+00	1.604239e+08	2.325316e+06	2.325316e+06
-1.120000e+00	-1.050000e+00	1.649813e+08	4.050330e+06	4.050330e+06
-1.050000e+00	-9.800000e-01	1.942659e+08	4.970881e+06	4.970881e+06
-9.800000e-01	-9.100000e-01	1.945020e+08	3.972173e+06	3.972173e+06
-9.100000e-01	-8.400000e-01	1.862293e+08	3.687512e+06	3.687512e+06
-8.400000e-01	-7.700000e-01	1.831154e+08	3.881122e+06	3.881122e+06
-7.700000e-01	-7.000000e-01	1.688353e+08	6.025715e+06	6.025715e+06
-7.000000e-01	-6.300000e-01	1.663920e+08	4.494786e+06	4.494786e+06
-6.300000e-01	-5.600000e-01	1.433226e+08	2.432476e+06	2.432476e+06
-5.600000e-01	-4.900000e-01	1.181315e+08	3.422229e+06	3.422229e+06
-4.900000e-01	-4.200000e-01	9.417489e+07	2.755681e+06	2.755681e+06
-4.200000e-01	-3.500000e-01	5.829223e+07	1.382856e+06	1.382856e+06
-3.500000e-01	-2.800000e-01	2.307740e+07	8.322758e+05	8.322758e+05
-2.800000e-01	-2.100000e-01	4.908477e+06	4.340547e+05	4.340547e+05
-2.100000e-01	-1.400000e-01	3.596281e+05	6.670219e+04	6.670219e+04
-1.400000e-01	-7.000000e-02	8.006004e+03	4.454009e+03	4.454009e+03
-7.000000e-02	0.000000e+00	0.000000e+00	0.000000e+00	0.000000e+00
# END HISTO1D

