# BEGIN PLOT
LegendOnly=/zj_ps_nlo_mer_mur1_muf1_R8.yoda/PAPER_FIN_R8_CH/XS_CUTS_pT_65_88
DrawOnly=/zj_ps_nlo_mer_mur1_muf1_R8.yoda/PAPER_FIN_R8_CH/XS_CUTS_pT_65_88
Legend=1
LogY=1
# END PLOT

# BEGIN HISTO1D /zj_ps_nlo_mer_mur1_muf1_R8.yoda/PAPER_FIN_R8_CH/XS_CUTS_pT_65_88
LineColor=red
LineStyle=solid
Path=/zj_ps_nlo_mer_mur1_muf1_R8.yoda/PAPER_FIN_R8_CH/XS_CUTS_pT_65_88
Title=zj_ps_nlo_mer_mur1_muf1_R8
XLabel=~
YLabel=~
# xlow	 xhigh	 val	 errminus	 errplus
-5.000000e-01	5.000000e-01	-8.830200e-03	1.187342e-02	1.187342e-02
# END HISTO1D

