# BEGIN PLOT
LegendOnly=/zj_ps_nlo_mer_mur1_muf1_R8.yoda/PAPER_FIN_R8_CH/lin_SD_l20_pT_120_150
DrawOnly=/zj_ps_nlo_mer_mur1_muf1_R8.yoda/PAPER_FIN_R8_CH/lin_SD_l20_pT_120_150
Legend=1
LogY=1
# END PLOT

# BEGIN HISTO1D /zj_ps_nlo_mer_mur1_muf1_R8.yoda/PAPER_FIN_R8_CH/lin_SD_l20_pT_120_150
LineColor=red
LineStyle=solid
Path=/zj_ps_nlo_mer_mur1_muf1_R8.yoda/PAPER_FIN_R8_CH/lin_SD_l20_pT_120_150
Title=zj_ps_nlo_mer_mur1_muf1_R8
XLabel=~
YLabel=~
# xlow	 xhigh	 val	 errminus	 errplus
0.000000e+00	2.500000e-03	1.609406e+12	1.454744e+10	1.454744e+10
2.500000e-03	5.000000e-03	2.854047e+11	4.555844e+09	4.555844e+09
5.000000e-03	7.500000e-03	1.601624e+11	7.396476e+09	7.396476e+09
7.500000e-03	1.250000e-02	1.026806e+11	1.682452e+09	1.682452e+09
1.250000e-02	2.000000e-02	6.628331e+10	1.248208e+09	1.248208e+09
2.000000e-02	3.250000e-02	4.315915e+10	8.560785e+08	8.560785e+08
3.250000e-02	5.000000e-02	3.012047e+10	4.446028e+08	4.446028e+08
5.000000e-02	7.750000e-02	2.179679e+10	3.327650e+08	3.327650e+08
7.750000e-02	1.150000e-01	1.711562e+10	2.678276e+08	2.678276e+08
1.150000e-01	1.600000e-01	1.153104e+10	1.968530e+08	1.968530e+08
1.600000e-01	2.100000e-01	6.894556e+09	1.252143e+08	1.252143e+08
2.100000e-01	1.000000e+00	3.292461e+08	8.378108e+06	8.378108e+06
# END HISTO1D

