# BEGIN PLOT
LegendOnly=/scale_3.yoda/PAPER_FIN_R8/XS_CUTS_pT_408_1500
DrawOnly=/scale_3.yoda/PAPER_FIN_R8/XS_CUTS_pT_408_1500
Legend=1
LogY=1
# END PLOT

# BEGIN HISTO1D /scale_3.yoda/PAPER_FIN_R8/XS_CUTS_pT_408_1500
LineColor=red
LineStyle=solid
Path=/scale_3.yoda/PAPER_FIN_R8/XS_CUTS_pT_408_1500
Title=scale_3
XLabel=~
YLabel=~
# xlow	 xhigh	 val	 errminus	 errplus
-5.000000e-01	5.000000e-01	3.332212e+02	7.500779e+00	7.500779e+00
# END HISTO1D

