# BEGIN PLOT
LegendOnly=/zj_ps_nlo_mer_cent_R4.yoda/PAPER_FIN_R4/ch_SD_l10_pT_65_88
DrawOnly=/zj_ps_nlo_mer_cent_R4.yoda/PAPER_FIN_R4/ch_SD_l10_pT_65_88
Legend=1
LogY=1
# END PLOT

# BEGIN HISTO1D /zj_ps_nlo_mer_cent_R4.yoda/PAPER_FIN_R4/ch_SD_l10_pT_65_88
LineColor=red
LineStyle=solid
Path=/zj_ps_nlo_mer_cent_R4.yoda/PAPER_FIN_R4/ch_SD_l10_pT_65_88
Title=zj_ps_nlo_mer_cent_R4
XLabel=~
YLabel=~
# xlow	 xhigh	 val	 errminus	 errplus
-7.000000e+00	-6.930000e+00	0.000000e+00	0.000000e+00	0.000000e+00
-6.930000e+00	-6.860000e+00	2.652247e+11	1.594149e+09	1.594149e+09
-6.860000e+00	-6.790000e+00	0.000000e+00	0.000000e+00	0.000000e+00
-6.790000e+00	-6.720000e+00	0.000000e+00	0.000000e+00	0.000000e+00
-6.720000e+00	-6.650000e+00	0.000000e+00	0.000000e+00	0.000000e+00
-6.650000e+00	-6.580000e+00	0.000000e+00	0.000000e+00	0.000000e+00
-6.580000e+00	-6.510000e+00	0.000000e+00	0.000000e+00	0.000000e+00
-6.510000e+00	-6.440000e+00	0.000000e+00	0.000000e+00	0.000000e+00
-6.440000e+00	-6.370000e+00	0.000000e+00	0.000000e+00	0.000000e+00
-6.370000e+00	-6.300000e+00	0.000000e+00	0.000000e+00	0.000000e+00
-6.300000e+00	-6.230000e+00	0.000000e+00	0.000000e+00	0.000000e+00
-6.230000e+00	-6.160000e+00	0.000000e+00	0.000000e+00	0.000000e+00
-6.160000e+00	-6.090000e+00	0.000000e+00	0.000000e+00	0.000000e+00
-6.090000e+00	-6.020000e+00	0.000000e+00	0.000000e+00	0.000000e+00
-6.020000e+00	-5.950000e+00	0.000000e+00	0.000000e+00	0.000000e+00
-5.950000e+00	-5.880000e+00	0.000000e+00	0.000000e+00	0.000000e+00
-5.880000e+00	-5.810000e+00	0.000000e+00	0.000000e+00	0.000000e+00
-5.810000e+00	-5.740000e+00	0.000000e+00	0.000000e+00	0.000000e+00
-5.740000e+00	-5.670000e+00	0.000000e+00	0.000000e+00	0.000000e+00
-5.670000e+00	-5.600000e+00	0.000000e+00	0.000000e+00	0.000000e+00
-5.600000e+00	-5.530000e+00	0.000000e+00	0.000000e+00	0.000000e+00
-5.530000e+00	-5.460000e+00	0.000000e+00	0.000000e+00	0.000000e+00
-5.460000e+00	-5.390000e+00	0.000000e+00	0.000000e+00	0.000000e+00
-5.390000e+00	-5.320000e+00	0.000000e+00	0.000000e+00	0.000000e+00
-5.320000e+00	-5.250000e+00	0.000000e+00	0.000000e+00	0.000000e+00
-5.250000e+00	-5.180000e+00	0.000000e+00	0.000000e+00	0.000000e+00
-5.180000e+00	-5.110000e+00	0.000000e+00	0.000000e+00	0.000000e+00
-5.110000e+00	-5.040000e+00	0.000000e+00	0.000000e+00	0.000000e+00
-5.040000e+00	-4.970000e+00	0.000000e+00	0.000000e+00	0.000000e+00
-4.970000e+00	-4.900000e+00	0.000000e+00	0.000000e+00	0.000000e+00
-4.900000e+00	-4.830000e+00	0.000000e+00	0.000000e+00	0.000000e+00
-4.830000e+00	-4.760000e+00	0.000000e+00	0.000000e+00	0.000000e+00
-4.760000e+00	-4.690000e+00	0.000000e+00	0.000000e+00	0.000000e+00
-4.690000e+00	-4.620000e+00	0.000000e+00	0.000000e+00	0.000000e+00
-4.620000e+00	-4.550000e+00	0.000000e+00	0.000000e+00	0.000000e+00
-4.550000e+00	-4.480000e+00	0.000000e+00	0.000000e+00	0.000000e+00
-4.480000e+00	-4.410000e+00	0.000000e+00	0.000000e+00	0.000000e+00
-4.410000e+00	-4.340000e+00	0.000000e+00	0.000000e+00	0.000000e+00
-4.340000e+00	-4.270000e+00	4.859893e+01	4.859892e+01	4.859892e+01
-4.270000e+00	-4.200000e+00	0.000000e+00	0.000000e+00	0.000000e+00
-4.200000e+00	-4.130000e+00	0.000000e+00	0.000000e+00	0.000000e+00
-4.130000e+00	-4.060000e+00	0.000000e+00	0.000000e+00	0.000000e+00
-4.060000e+00	-3.990000e+00	2.182231e+00	1.619404e+00	1.619404e+00
-3.990000e+00	-3.920000e+00	7.010840e+03	7.010840e+03	7.010840e+03
-3.920000e+00	-3.850000e+00	2.241903e+04	1.996682e+04	1.996682e+04
-3.850000e+00	-3.780000e+00	0.000000e+00	0.000000e+00	0.000000e+00
-3.780000e+00	-3.710000e+00	1.434576e+03	1.277649e+03	1.277649e+03
-3.710000e+00	-3.640000e+00	-7.170767e+03	9.557018e+03	9.557018e+03
-3.640000e+00	-3.570000e+00	4.420006e+05	4.155997e+05	4.155997e+05
-3.570000e+00	-3.500000e+00	-4.434801e+04	4.504567e+04	4.504567e+04
-3.500000e+00	-3.430000e+00	6.583859e+06	6.422078e+06	6.422078e+06
-3.430000e+00	-3.360000e+00	4.550024e+06	4.688590e+06	4.688590e+06
-3.360000e+00	-3.290000e+00	-2.672164e+04	1.127533e+06	1.127533e+06
-3.290000e+00	-3.220000e+00	4.264186e+06	4.921189e+06	4.921189e+06
-3.220000e+00	-3.150000e+00	1.387447e+06	1.099940e+06	1.099940e+06
-3.150000e+00	-3.080000e+00	3.479183e+05	4.902842e+06	4.902842e+06
-3.080000e+00	-3.010000e+00	3.393009e+07	3.170089e+07	3.170089e+07
-3.010000e+00	-2.940000e+00	9.638107e+06	8.759690e+06	8.759690e+06
-2.940000e+00	-2.870000e+00	-2.067790e+06	8.208136e+06	8.208136e+06
-2.870000e+00	-2.800000e+00	1.348034e+07	7.427247e+06	7.427247e+06
-2.800000e+00	-2.730000e+00	-1.120647e+06	2.175355e+06	2.175355e+06
-2.730000e+00	-2.660000e+00	2.350880e+06	2.971735e+06	2.971735e+06
-2.660000e+00	-2.590000e+00	1.360079e+06	1.321937e+07	1.321937e+07
-2.590000e+00	-2.520000e+00	1.043725e+07	7.024757e+06	7.024757e+06
-2.520000e+00	-2.450000e+00	3.246030e+06	6.548923e+06	6.548923e+06
-2.450000e+00	-2.380000e+00	1.450147e+07	2.633030e+07	2.633030e+07
-2.380000e+00	-2.310000e+00	1.773680e+07	9.613342e+06	9.613342e+06
-2.310000e+00	-2.240000e+00	5.333739e+07	2.607782e+07	2.607782e+07
-2.240000e+00	-2.170000e+00	2.841033e+07	1.905267e+07	1.905267e+07
-2.170000e+00	-2.100000e+00	2.479261e+07	8.604906e+06	8.604906e+06
-2.100000e+00	-2.030000e+00	6.774394e+07	2.276818e+07	2.276818e+07
-2.030000e+00	-1.960000e+00	5.027201e+07	1.365848e+07	1.365848e+07
-1.960000e+00	-1.890000e+00	9.676673e+07	1.498823e+07	1.498823e+07
-1.890000e+00	-1.820000e+00	1.456227e+08	3.047371e+07	3.047371e+07
-1.820000e+00	-1.750000e+00	2.055383e+08	3.050147e+07	3.050147e+07
-1.750000e+00	-1.680000e+00	3.965753e+08	2.573953e+07	2.573953e+07
-1.680000e+00	-1.610000e+00	5.687821e+08	3.600238e+07	3.600238e+07
-1.610000e+00	-1.540000e+00	7.759404e+08	4.502050e+07	4.502050e+07
-1.540000e+00	-1.470000e+00	9.915593e+08	5.029945e+07	5.029945e+07
-1.470000e+00	-1.400000e+00	1.457793e+09	6.517029e+07	6.517029e+07
-1.400000e+00	-1.330000e+00	1.573956e+09	6.832470e+07	6.832470e+07
-1.330000e+00	-1.260000e+00	2.019373e+09	1.330382e+08	1.330382e+08
-1.260000e+00	-1.190000e+00	2.371323e+09	9.625439e+07	9.625439e+07
-1.190000e+00	-1.120000e+00	2.911959e+09	1.366368e+08	1.366368e+08
-1.120000e+00	-1.050000e+00	3.174253e+09	1.118786e+08	1.118786e+08
-1.050000e+00	-9.800000e-01	3.595690e+09	9.356057e+07	9.356057e+07
-9.800000e-01	-9.100000e-01	3.627764e+09	1.261524e+08	1.261524e+08
-9.100000e-01	-8.400000e-01	3.554417e+09	1.215539e+08	1.215539e+08
-8.400000e-01	-7.700000e-01	3.263809e+09	2.922524e+08	2.922524e+08
-7.700000e-01	-7.000000e-01	3.437739e+09	1.054218e+08	1.054218e+08
-7.000000e-01	-6.300000e-01	2.939549e+09	1.179770e+08	1.179770e+08
-6.300000e-01	-5.600000e-01	2.171586e+09	2.259856e+08	2.259856e+08
-5.600000e-01	-4.900000e-01	2.282623e+09	6.923752e+07	6.923752e+07
-4.900000e-01	-4.200000e-01	1.535637e+09	6.320782e+07	6.320782e+07
-4.200000e-01	-3.500000e-01	1.064537e+09	5.047620e+07	5.047620e+07
-3.500000e-01	-2.800000e-01	2.624897e+08	7.522422e+07	7.522422e+07
-2.800000e-01	-2.100000e-01	6.783656e+07	1.072108e+07	1.072108e+07
-2.100000e-01	-1.400000e-01	9.933336e+06	2.194975e+06	2.194975e+06
-1.400000e-01	-7.000000e-02	5.228023e+05	4.833759e+05	4.833759e+05
-7.000000e-02	0.000000e+00	0.000000e+00	0.000000e+00	0.000000e+00
# END HISTO1D

