# BEGIN PLOT
LegendOnly=/zj_ps_nlo_mer_cent_R4.yoda/PAPER_FIN_R4_CH/lin_SD_l20_pT_186_254
DrawOnly=/zj_ps_nlo_mer_cent_R4.yoda/PAPER_FIN_R4_CH/lin_SD_l20_pT_186_254
Legend=1
LogY=1
# END PLOT

# BEGIN HISTO1D /zj_ps_nlo_mer_cent_R4.yoda/PAPER_FIN_R4_CH/lin_SD_l20_pT_186_254
LineColor=red
LineStyle=solid
Path=/zj_ps_nlo_mer_cent_R4.yoda/PAPER_FIN_R4_CH/lin_SD_l20_pT_186_254
Title=zj_ps_nlo_mer_cent_R4
XLabel=~
YLabel=~
# xlow	 xhigh	 val	 errminus	 errplus
0.000000e+00	2.500000e-03	5.960932e+11	2.171525e+10	2.171525e+10
2.500000e-03	5.000000e-03	1.054646e+11	2.376205e+09	2.376205e+09
5.000000e-03	7.500000e-03	6.467868e+10	2.586423e+09	2.586423e+09
7.500000e-03	1.250000e-02	4.226116e+10	9.900198e+08	9.900198e+08
1.250000e-02	2.000000e-02	2.721081e+10	9.035025e+08	9.035025e+08
2.000000e-02	3.250000e-02	1.472153e+10	5.521123e+08	5.521123e+08
3.250000e-02	5.000000e-02	1.048678e+10	4.321566e+08	4.321566e+08
5.000000e-02	7.750000e-02	7.422356e+09	1.813368e+08	1.813368e+08
7.750000e-02	1.150000e-01	5.048032e+09	1.446600e+08	1.446600e+08
1.150000e-01	1.600000e-01	3.077071e+09	1.092473e+08	1.092473e+08
1.600000e-01	2.100000e-01	1.687507e+09	6.191328e+07	6.191328e+07
2.100000e-01	1.000000e+00	7.821295e+07	4.409099e+06	4.409099e+06
# END HISTO1D

