# BEGIN PLOT
LegendOnly=/zj_ps_nlo_mer_cent_R4.yoda/PAPER_FIN_R4_CH/lin_SD_l10_pT_326_408
DrawOnly=/zj_ps_nlo_mer_cent_R4.yoda/PAPER_FIN_R4_CH/lin_SD_l10_pT_326_408
Legend=1
LogY=1
# END PLOT

# BEGIN HISTO1D /zj_ps_nlo_mer_cent_R4.yoda/PAPER_FIN_R4_CH/lin_SD_l10_pT_326_408
LineColor=red
LineStyle=solid
Path=/zj_ps_nlo_mer_cent_R4.yoda/PAPER_FIN_R4_CH/lin_SD_l10_pT_326_408
Title=zj_ps_nlo_mer_cent_R4
XLabel=~
YLabel=~
# xlow	 xhigh	 val	 errminus	 errplus
0.000000e+00	1.250000e-02	6.636482e+09	2.436955e+08	2.436955e+08
1.250000e-02	2.250000e-02	8.549146e+09	2.774938e+08	2.774938e+08
2.250000e-02	3.500000e-02	4.946710e+09	2.346719e+08	2.346719e+08
3.500000e-02	5.000000e-02	3.225231e+09	1.409868e+08	1.409868e+08
5.000000e-02	7.000000e-02	1.934200e+09	7.256218e+07	7.256218e+07
7.000000e-02	9.500000e-02	1.131567e+09	1.213632e+08	1.213632e+08
9.500000e-02	1.280000e-01	1.034179e+09	3.472607e+07	3.472607e+07
1.280000e-01	1.700000e-01	8.292231e+08	6.053716e+07	6.053716e+07
1.700000e-01	2.250000e-01	5.683096e+08	1.996181e+07	1.996181e+07
2.250000e-01	2.900000e-01	3.377492e+08	1.816918e+07	1.816918e+07
2.900000e-01	3.650000e-01	2.007368e+08	1.338614e+07	1.338614e+07
3.650000e-01	4.500000e-01	1.116101e+08	7.216650e+06	7.216650e+06
4.500000e-01	1.000000e+00	1.159640e+07	1.196225e+06	1.196225e+06
# END HISTO1D

