# BEGIN PLOT
LegendOnly=/zj_ps_nlo_mer_cent_R4.yoda/PAPER_FIN_R4/lin_l10_pT_254_326
DrawOnly=/zj_ps_nlo_mer_cent_R4.yoda/PAPER_FIN_R4/lin_l10_pT_254_326
Legend=1
LogY=1
# END PLOT

# BEGIN HISTO1D /zj_ps_nlo_mer_cent_R4.yoda/PAPER_FIN_R4/lin_l10_pT_254_326
LineColor=red
LineStyle=solid
Path=/zj_ps_nlo_mer_cent_R4.yoda/PAPER_FIN_R4/lin_l10_pT_254_326
Title=zj_ps_nlo_mer_cent_R4
XLabel=~
YLabel=~
# xlow	 xhigh	 val	 errminus	 errplus
0.000000e+00	1.050000e-01	6.672129e+09	1.013976e+08	1.013976e+08
1.050000e-01	1.650000e-01	3.746610e+09	1.099169e+08	1.099169e+08
1.650000e-01	2.300000e-01	1.883686e+09	4.335414e+07	4.335414e+07
2.300000e-01	3.050000e-01	9.973939e+08	4.469529e+07	4.469529e+07
3.050000e-01	3.800000e-01	5.618372e+08	2.593060e+07	2.593060e+07
3.800000e-01	4.600000e-01	2.967014e+08	2.064414e+07	2.064414e+07
4.600000e-01	5.500000e-01	1.199773e+08	1.022062e+07	1.022062e+07
5.500000e-01	1.000000e+00	5.729764e+06	6.343097e+05	6.343097e+05
# END HISTO1D

