# BEGIN PLOT
# END PLOT

# BEGIN HISTO1D
LineColor=red
LineStyle=solid
Title=Z+Jet RES+NP
# Sigma = 3.107179e+00 pb
# xlow	xhigh	val	errminus	errplus
0.000000e+00	5.000000e-02	1.056607e+01	1.098355e+00	8.765451e-01
5.000000e-02	9.000000e-02	6.969592e+00	1.241405e+00	1.483474e+00
9.000000e-02	1.500000e-01	2.737883e+00	5.174798e-01	6.071346e-01
1.500000e-01	2.050000e-01	1.155320e+00	2.283416e-01	3.140762e-01
2.050000e-01	1.000000e+00	5.299217e-02	1.593894e-02	2.863314e-02
# END HISTO1D