# BEGIN PLOT
# END PLOT

# BEGIN HISTO1D
LineColor=red
LineStyle=solid
Title=Z+Jet RES+NP
# Sigma = 3.107179e+00 pb
# xlow	xhigh	val	errminus	errplus
0.000000e+00	5.000000e-03	7.639268e-01	5.107473e-01	5.468302e-01
5.000000e-03	1.250000e-02	8.921849e+00	3.172503e+00	2.978060e+00
1.250000e-02	2.250000e-02	1.352656e+01	2.220503e+00	2.410882e+00
2.250000e-02	3.500000e-02	1.462022e+01	2.013710e+00	2.504612e+00
3.500000e-02	5.000000e-02	1.200384e+01	1.868069e+00	2.305128e+00
5.000000e-02	7.000000e-02	8.309608e+00	1.500685e+00	1.786379e+00
7.000000e-02	9.250000e-02	5.474242e+00	9.606907e-01	1.151925e+00
9.250000e-02	1.200000e-01	3.331708e+00	6.133972e-01	7.066364e-01
1.200000e-01	1.520000e-01	2.032555e+00	3.989477e-01	4.842402e-01
1.520000e-01	1.880000e-01	1.283875e+00	2.423177e-01	3.319908e-01
1.880000e-01	2.280000e-01	7.345609e-01	1.610298e-01	2.396531e-01
2.280000e-01	1.000000e+00	3.469012e-02	1.258184e-02	2.386033e-02
# END HISTO1D