# BEGIN PLOT
# END PLOT

# BEGIN HISTO1D
LineColor=red
LineStyle=solid
Title=Z+Jet RES+NP
# Sigma = 4.607657e-01 pb
# xlow	xhigh	val	errminus	errplus
0.000000e+00	1.700000e-01	2.508943e+00	3.296481e-01	2.595190e-01
1.700000e-01	2.500000e-01	3.501823e+00	5.750713e-01	6.977314e-01
2.500000e-01	3.200000e-01	1.960793e+00	3.639378e-01	4.678365e-01
3.200000e-01	3.800000e-01	1.195302e+00	2.365287e-01	3.287227e-01
3.800000e-01	4.500000e-01	7.106155e-01	1.507791e-01	2.214316e-01
4.500000e-01	5.200000e-01	3.404236e-01	9.092871e-02	1.380561e-01
5.200000e-01	5.900000e-01	1.154813e-01	4.967020e-02	7.725470e-02
5.900000e-01	1.000000e+00	6.594723e-03	3.540150e-03	5.301924e-03
# END HISTO1D