# BEGIN PLOT
# END PLOT

# BEGIN HISTO1D
LineColor=red
LineStyle=solid
Title=Z+Jet RES+NP
# Sigma = 1.606410e+01 pb
# xlow	xhigh	val	errminus	errplus
0.000000e+00	1.000000e-01	2.528996e-01	1.897676e-01	1.640810e-01
1.000000e-01	1.800000e-01	3.161999e+00	4.677451e-01	4.773579e-01
1.800000e-01	2.600000e-01	3.316941e+00	6.741102e-01	8.507384e-01
2.600000e-01	3.400000e-01	2.341535e+00	5.208899e-01	7.882491e-01
3.400000e-01	4.200000e-01	1.702400e+00	3.928769e-01	6.443860e-01
4.200000e-01	5.000000e-01	1.079128e+00	2.787954e-01	4.584610e-01
5.000000e-01	5.700000e-01	4.542487e-01	1.699169e-01	2.815693e-01
5.700000e-01	6.400000e-01	1.764237e-01	9.281462e-02	1.409463e-01
6.400000e-01	1.000000e+00	6.674421e-03	4.112077e-03	5.098937e-03
# END HISTO1D