# BEGIN PLOT
# END PLOT

# BEGIN HISTO1D
LineColor=red
LineStyle=solid
Title=Z+Jet SHERPA MESP@NLO+NP
# Sigma = 2.005554e+00 pb
# xlow	xhigh	val	errminus	errplus
0.000000e+00	2.500000e-03	3.327283e+02	7.337506e+00	2.961073e+01
2.500000e-03	5.000000e-03	6.137647e+01	3.295147e+00	2.323302e+00
5.000000e-03	7.500000e-03	3.284983e+01	1.891190e+00	1.641746e+00
7.500000e-03	1.250000e-02	2.054689e+01	1.324491e+00	4.525800e-01
1.250000e-02	2.000000e-02	1.320326e+01	9.124873e-01	3.871785e-01
2.000000e-02	3.250000e-02	8.429793e+00	6.280747e-01	4.174840e-01
3.250000e-02	5.000000e-02	5.737780e+00	4.169356e-01	3.990500e-01
5.000000e-02	7.750000e-02	4.622309e+00	3.242281e-01	2.962804e-01
7.750000e-02	1.150000e-01	3.750383e+00	3.101099e-01	3.616894e-01
1.150000e-01	1.600000e-01	2.645955e+00	2.308849e-01	2.476766e-01
1.600000e-01	2.100000e-01	1.648264e+00	1.516942e-01	1.919268e-01
2.100000e-01	1.000000e+00	7.770954e-02	8.826743e-03	6.660732e-03
# END HISTO1D