# BEGIN PLOT
# END PLOT

# BEGIN HISTO1D
LineColor=red
LineStyle=solid
Title=Z+Jet SHERPA MESP@NLO+NP
# Sigma = 1.641631e-01 pb
# xlow	xhigh	val	errminus	errplus
0.000000e+00	2.500000e-03	3.438057e+01	1.384094e+00	1.570369e+00
2.500000e-03	1.000000e-02	2.310707e+00	1.812320e-01	7.261492e-02
1.000000e-02	2.500000e-02	8.617555e-01	5.909668e-02	6.402223e-02
2.500000e-02	6.000000e-02	4.526639e-01	4.179056e-02	2.825720e-02
6.000000e-02	1.200000e-01	2.730808e-01	2.748316e-02	1.891571e-02
1.200000e-01	1.770000e-01	1.589219e-01	1.631477e-02	1.065391e-02
1.770000e-01	2.300000e-01	8.277167e-02	8.663435e-03	6.176080e-03
2.300000e-01	1.000000e+00	2.962960e-03	3.383755e-04	2.286528e-04
# END HISTO1D