# BEGIN PLOT
# END PLOT

# BEGIN HISTO1D
LineColor=red
LineStyle=solid
Title=Z+Jet SHERPA MESP@NLO+NP
# Sigma = 7.604713e+00 pb
# xlow	xhigh	val	errminus	errplus
0.000000e+00	5.000000e-03	8.625832e+00	1.664992e+00	1.791585e+00
5.000000e-03	1.250000e-02	3.779697e+01	3.233341e-01	5.797853e+00
1.250000e-02	2.250000e-02	7.431675e+01	2.071571e+00	8.261918e+00
2.250000e-02	3.500000e-02	8.487677e+01	3.560921e+00	7.372573e+00
3.500000e-02	5.000000e-02	7.793416e+01	3.594113e+00	6.298849e+00
5.000000e-02	7.000000e-02	5.991278e+01	3.788221e+00	3.623896e+00
7.000000e-02	9.250000e-02	4.167297e+01	3.048995e+00	2.372510e+00
9.250000e-02	1.200000e-01	2.685150e+01	2.392482e+00	1.575981e+00
1.200000e-01	1.520000e-01	1.694047e+01	1.622487e+00	1.362757e+00
1.520000e-01	1.880000e-01	1.059854e+01	1.118850e+00	1.199806e+00
1.880000e-01	2.280000e-01	6.159454e+00	6.348420e-01	5.456368e-01
2.280000e-01	1.000000e+00	3.376076e-01	4.163296e-02	3.188450e-02
# END HISTO1D