# BEGIN PLOT
# END PLOT

# BEGIN HISTO1D
LineColor=red
LineStyle=solid
Title=Z+Jet RES+NP
# Sigma = 1.215942e+01 pb
# xlow	xhigh	val	errminus	errplus
0.000000e+00	2.500000e-03	1.125098e+03	2.181275e+02	2.225571e+02
2.500000e-03	5.000000e-03	6.243796e+02	7.067437e+01	8.344618e+01
5.000000e-03	7.500000e-03	3.415154e+02	3.867616e+01	4.240529e+01
7.500000e-03	1.250000e-02	1.992230e+02	2.311687e+01	2.409864e+01
1.250000e-02	2.000000e-02	1.089666e+02	1.374972e+01	1.382347e+01
2.000000e-02	3.250000e-02	6.576114e+01	7.536279e+00	7.315216e+00
3.250000e-02	5.000000e-02	4.437789e+01	5.084128e+00	4.833986e+00
5.000000e-02	7.750000e-02	3.533579e+01	4.207575e+00	4.009561e+00
7.750000e-02	1.150000e-01	3.790303e+01	7.681987e+00	9.094096e+00
1.150000e-01	1.600000e-01	2.815039e+01	5.793203e+00	7.403043e+00
1.600000e-01	2.100000e-01	1.804908e+01	3.882814e+00	5.684119e+00
2.100000e-01	1.000000e+00	9.843493e-01	3.451393e-01	6.144417e-01
# END HISTO1D