# BEGIN PLOT
# END PLOT

# BEGIN HISTO1D
LineColor=red
LineStyle=solid
Title=Z+Jet RES+NP
# Sigma = 4.607657e-01 pb
# xlow	xhigh	val	errminus	errplus
0.000000e+00	2.250000e-02	6.536741e-01	2.414016e-01	2.412218e-01
2.250000e-02	4.000000e-02	3.966666e+00	4.874578e-01	5.098545e-01
4.000000e-02	5.750000e-02	4.486142e+00	7.183752e-01	7.863617e-01
5.750000e-02	7.750000e-02	3.298147e+00	4.589524e-01	5.404552e-01
7.750000e-02	1.000000e-01	2.387884e+00	3.388582e-01	4.104850e-01
1.000000e-01	1.250000e-01	1.675241e+00	2.575801e-01	3.111285e-01
1.250000e-01	1.520000e-01	1.233301e+00	1.824117e-01	2.251612e-01
1.520000e-01	1.850000e-01	9.136043e-01	1.346192e-01	1.690347e-01
1.850000e-01	2.200000e-01	6.448907e-01	1.012704e-01	1.252457e-01
2.200000e-01	2.600000e-01	4.665621e-01	7.018862e-02	8.800636e-02
2.600000e-01	3.070000e-01	3.372348e-01	5.011147e-02	6.673432e-02
3.070000e-01	3.620000e-01	2.181742e-01	3.437327e-02	4.895882e-02
3.620000e-01	4.250000e-01	1.289624e-01	2.382138e-02	3.490751e-02
4.250000e-01	4.970000e-01	6.706885e-02	1.461093e-02	2.406573e-02
4.970000e-01	1.000000e+00	4.323122e-03	1.956827e-03	3.504945e-03
# END HISTO1D