# BEGIN PLOT
LegendOnly=/pythia_ps_pt150_s1_1e3.yoda/PAPER_FIN_R4/ch_SD_l05_pT_186_254
DrawOnly=/pythia_ps_pt150_s1_1e3.yoda/PAPER_FIN_R4/ch_SD_l05_pT_186_254
Legend=1
LogY=1
# END PLOT

# BEGIN HISTO1D /pythia_ps_pt150_s1_1e3.yoda/PAPER_FIN_R4/ch_SD_l05_pT_186_254
LineColor=red
LineStyle=solid
Path=/pythia_ps_pt150_s1_1e3.yoda/PAPER_FIN_R4/ch_SD_l05_pT_186_254
Title=pythia_ps_pt150_s1_1e3
XLabel=~
YLabel=~
# xlow	 xhigh	 val	 errminus	 errplus
-7.000000e+00	-6.930000e+00	0.000000e+00	0.000000e+00	0.000000e+00
-6.930000e+00	-6.860000e+00	1.449970e+08	4.551248e+04	4.551248e+04
-6.860000e+00	-6.790000e+00	0.000000e+00	0.000000e+00	0.000000e+00
-6.790000e+00	-6.720000e+00	0.000000e+00	0.000000e+00	0.000000e+00
-6.720000e+00	-6.650000e+00	0.000000e+00	0.000000e+00	0.000000e+00
-6.650000e+00	-6.580000e+00	0.000000e+00	0.000000e+00	0.000000e+00
-6.580000e+00	-6.510000e+00	0.000000e+00	0.000000e+00	0.000000e+00
-6.510000e+00	-6.440000e+00	0.000000e+00	0.000000e+00	0.000000e+00
-6.440000e+00	-6.370000e+00	0.000000e+00	0.000000e+00	0.000000e+00
-6.370000e+00	-6.300000e+00	0.000000e+00	0.000000e+00	0.000000e+00
-6.300000e+00	-6.230000e+00	0.000000e+00	0.000000e+00	0.000000e+00
-6.230000e+00	-6.160000e+00	0.000000e+00	0.000000e+00	0.000000e+00
-6.160000e+00	-6.090000e+00	0.000000e+00	0.000000e+00	0.000000e+00
-6.090000e+00	-6.020000e+00	0.000000e+00	0.000000e+00	0.000000e+00
-6.020000e+00	-5.950000e+00	0.000000e+00	0.000000e+00	0.000000e+00
-5.950000e+00	-5.880000e+00	0.000000e+00	0.000000e+00	0.000000e+00
-5.880000e+00	-5.810000e+00	0.000000e+00	0.000000e+00	0.000000e+00
-5.810000e+00	-5.740000e+00	0.000000e+00	0.000000e+00	0.000000e+00
-5.740000e+00	-5.670000e+00	0.000000e+00	0.000000e+00	0.000000e+00
-5.670000e+00	-5.600000e+00	0.000000e+00	0.000000e+00	0.000000e+00
-5.600000e+00	-5.530000e+00	0.000000e+00	0.000000e+00	0.000000e+00
-5.530000e+00	-5.460000e+00	0.000000e+00	0.000000e+00	0.000000e+00
-5.460000e+00	-5.390000e+00	0.000000e+00	0.000000e+00	0.000000e+00
-5.390000e+00	-5.320000e+00	0.000000e+00	0.000000e+00	0.000000e+00
-5.320000e+00	-5.250000e+00	0.000000e+00	0.000000e+00	0.000000e+00
-5.250000e+00	-5.180000e+00	0.000000e+00	0.000000e+00	0.000000e+00
-5.180000e+00	-5.110000e+00	0.000000e+00	0.000000e+00	0.000000e+00
-5.110000e+00	-5.040000e+00	0.000000e+00	0.000000e+00	0.000000e+00
-5.040000e+00	-4.970000e+00	0.000000e+00	0.000000e+00	0.000000e+00
-4.970000e+00	-4.900000e+00	0.000000e+00	0.000000e+00	0.000000e+00
-4.900000e+00	-4.830000e+00	0.000000e+00	0.000000e+00	0.000000e+00
-4.830000e+00	-4.760000e+00	0.000000e+00	0.000000e+00	0.000000e+00
-4.760000e+00	-4.690000e+00	0.000000e+00	0.000000e+00	0.000000e+00
-4.690000e+00	-4.620000e+00	0.000000e+00	0.000000e+00	0.000000e+00
-4.620000e+00	-4.550000e+00	0.000000e+00	0.000000e+00	0.000000e+00
-4.550000e+00	-4.480000e+00	0.000000e+00	0.000000e+00	0.000000e+00
-4.480000e+00	-4.410000e+00	0.000000e+00	0.000000e+00	0.000000e+00
-4.410000e+00	-4.340000e+00	0.000000e+00	0.000000e+00	0.000000e+00
-4.340000e+00	-4.270000e+00	0.000000e+00	0.000000e+00	0.000000e+00
-4.270000e+00	-4.200000e+00	0.000000e+00	0.000000e+00	0.000000e+00
-4.200000e+00	-4.130000e+00	0.000000e+00	0.000000e+00	0.000000e+00
-4.130000e+00	-4.060000e+00	0.000000e+00	0.000000e+00	0.000000e+00
-4.060000e+00	-3.990000e+00	0.000000e+00	0.000000e+00	0.000000e+00
-3.990000e+00	-3.920000e+00	0.000000e+00	0.000000e+00	0.000000e+00
-3.920000e+00	-3.850000e+00	0.000000e+00	0.000000e+00	0.000000e+00
-3.850000e+00	-3.780000e+00	0.000000e+00	0.000000e+00	0.000000e+00
-3.780000e+00	-3.710000e+00	0.000000e+00	0.000000e+00	0.000000e+00
-3.710000e+00	-3.640000e+00	0.000000e+00	0.000000e+00	0.000000e+00
-3.640000e+00	-3.570000e+00	0.000000e+00	0.000000e+00	0.000000e+00
-3.570000e+00	-3.500000e+00	0.000000e+00	0.000000e+00	0.000000e+00
-3.500000e+00	-3.430000e+00	0.000000e+00	0.000000e+00	0.000000e+00
-3.430000e+00	-3.360000e+00	0.000000e+00	0.000000e+00	0.000000e+00
-3.360000e+00	-3.290000e+00	0.000000e+00	0.000000e+00	0.000000e+00
-3.290000e+00	-3.220000e+00	0.000000e+00	0.000000e+00	0.000000e+00
-3.220000e+00	-3.150000e+00	0.000000e+00	0.000000e+00	0.000000e+00
-3.150000e+00	-3.080000e+00	0.000000e+00	0.000000e+00	0.000000e+00
-3.080000e+00	-3.010000e+00	0.000000e+00	0.000000e+00	0.000000e+00
-3.010000e+00	-2.940000e+00	0.000000e+00	0.000000e+00	0.000000e+00
-2.940000e+00	-2.870000e+00	1.428571e+01	1.428571e+01	1.428571e+01
-2.870000e+00	-2.800000e+00	2.857143e+01	2.020305e+01	2.020305e+01
-2.800000e+00	-2.730000e+00	7.142857e+01	3.194383e+01	3.194383e+01
-2.730000e+00	-2.660000e+00	5.714286e+01	2.857143e+01	2.857143e+01
-2.660000e+00	-2.590000e+00	8.571429e+01	3.499271e+01	3.499271e+01
-2.590000e+00	-2.520000e+00	4.285714e+01	2.474358e+01	2.474358e+01
-2.520000e+00	-2.450000e+00	7.142857e+01	3.194383e+01	3.194383e+01
-2.450000e+00	-2.380000e+00	1.428571e+02	4.517540e+01	4.517540e+01
-2.380000e+00	-2.310000e+00	1.285714e+02	4.285714e+01	4.285714e+01
-2.310000e+00	-2.240000e+00	3.285714e+02	6.851188e+01	6.851188e+01
-2.240000e+00	-2.170000e+00	4.857143e+02	8.329931e+01	8.329931e+01
-2.170000e+00	-2.100000e+00	1.128571e+03	1.269742e+02	1.269742e+02
-2.100000e+00	-2.030000e+00	1.800000e+03	1.603567e+02	1.603567e+02
-2.030000e+00	-1.960000e+00	3.085714e+03	2.099563e+02	2.099563e+02
-1.960000e+00	-1.890000e+00	6.157143e+03	2.965791e+02	2.965791e+02
-1.890000e+00	-1.820000e+00	1.302857e+04	4.314191e+02	4.314191e+02
-1.820000e+00	-1.750000e+00	2.545714e+04	6.030535e+02	6.030535e+02
-1.750000e+00	-1.680000e+00	4.841429e+04	8.316445e+02	8.316445e+02
-1.680000e+00	-1.610000e+00	9.550000e+04	1.168026e+03	1.168026e+03
-1.610000e+00	-1.540000e+00	1.838143e+05	1.620469e+03	1.620469e+03
-1.540000e+00	-1.470000e+00	3.133286e+05	2.115685e+03	2.115685e+03
-1.470000e+00	-1.400000e+00	5.030857e+05	2.680847e+03	2.680847e+03
-1.400000e+00	-1.330000e+00	7.290571e+05	3.227244e+03	3.227244e+03
-1.330000e+00	-1.260000e+00	1.041000e+06	3.856349e+03	3.856349e+03
-1.260000e+00	-1.190000e+00	1.431743e+06	4.522551e+03	4.522551e+03
-1.190000e+00	-1.120000e+00	1.904600e+06	5.216184e+03	5.216184e+03
-1.120000e+00	-1.050000e+00	2.475729e+06	5.947062e+03	5.947062e+03
-1.050000e+00	-9.800000e-01	3.066300e+06	6.618481e+03	6.618481e+03
-9.800000e-01	-9.100000e-01	3.431686e+06	7.001720e+03	7.001720e+03
-9.100000e-01	-8.400000e-01	3.631386e+06	7.202565e+03	7.202565e+03
-8.400000e-01	-7.700000e-01	3.701243e+06	7.271513e+03	7.271513e+03
-7.700000e-01	-7.000000e-01	3.698757e+06	7.269071e+03	7.269071e+03
-7.000000e-01	-6.300000e-01	3.550914e+06	7.122313e+03	7.122313e+03
-6.300000e-01	-5.600000e-01	3.269886e+06	6.834666e+03	6.834666e+03
-5.600000e-01	-4.900000e-01	2.850886e+06	6.381766e+03	6.381766e+03
-4.900000e-01	-4.200000e-01	2.288871e+06	5.718231e+03	5.718231e+03
-4.200000e-01	-3.500000e-01	1.569357e+06	4.734912e+03	4.734912e+03
-3.500000e-01	-2.800000e-01	7.307429e+05	3.230973e+03	3.230973e+03
-2.800000e-01	-2.100000e-01	1.957571e+05	1.672283e+03	1.672283e+03
-2.100000e-01	-1.400000e-01	1.912857e+04	5.227478e+02	5.227478e+02
-1.400000e-01	-7.000000e-02	8.571429e+01	3.499271e+01	3.499271e+01
-7.000000e-02	0.000000e+00	0.000000e+00	0.000000e+00	0.000000e+00
# END HISTO1D

