# BEGIN PLOT
LegendOnly=/pythia_ps_pt150_s1_1e3.yoda/PAPER_FIN_R8_CH/lin_SD_l10_pT_88_120
DrawOnly=/pythia_ps_pt150_s1_1e3.yoda/PAPER_FIN_R8_CH/lin_SD_l10_pT_88_120
Legend=1
LogY=1
# END PLOT

# BEGIN HISTO1D /pythia_ps_pt150_s1_1e3.yoda/PAPER_FIN_R8_CH/lin_SD_l10_pT_88_120
LineColor=red
LineStyle=solid
Path=/pythia_ps_pt150_s1_1e3.yoda/PAPER_FIN_R8_CH/lin_SD_l10_pT_88_120
Title=pythia_ps_pt150_s1_1e3
XLabel=~
YLabel=~
# xlow	 xhigh	 val	 errminus	 errplus
0.000000e+00	1.250000e-02	1.801558e+09	3.796376e+05	3.796376e+05
1.250000e-02	2.250000e-02	8.360230e+08	2.891406e+05	2.891406e+05
2.250000e-02	3.500000e-02	5.770781e+08	2.148633e+05	2.148633e+05
3.500000e-02	5.000000e-02	4.107649e+08	1.654821e+05	1.654821e+05
5.000000e-02	7.000000e-02	3.049766e+08	1.234862e+05	1.234862e+05
7.000000e-02	9.500000e-02	2.356676e+08	9.709121e+04	9.709121e+04
9.500000e-02	1.280000e-01	1.896402e+08	7.580680e+04	7.580680e+04
1.280000e-01	1.700000e-01	1.479809e+08	5.935785e+04	5.935785e+04
1.700000e-01	2.250000e-01	1.051201e+08	4.371812e+04	4.371812e+04
2.250000e-01	2.900000e-01	6.793352e+07	3.232849e+04	3.232849e+04
2.900000e-01	3.650000e-01	4.025661e+07	2.316797e+04	2.316797e+04
3.650000e-01	4.500000e-01	2.081846e+07	1.565002e+04	1.565002e+04
4.500000e-01	1.000000e+00	1.745291e+06	1.781364e+03	1.781364e+03
# END HISTO1D

