# BEGIN PLOT
LegendOnly=/pythia_ps_pt150_s1_1e3.yoda/PAPER_FIN_R4/ch_l10_pT_408_1500
DrawOnly=/pythia_ps_pt150_s1_1e3.yoda/PAPER_FIN_R4/ch_l10_pT_408_1500
Legend=1
LogY=1
# END PLOT

# BEGIN HISTO1D /pythia_ps_pt150_s1_1e3.yoda/PAPER_FIN_R4/ch_l10_pT_408_1500
LineColor=red
LineStyle=solid
Path=/pythia_ps_pt150_s1_1e3.yoda/PAPER_FIN_R4/ch_l10_pT_408_1500
Title=pythia_ps_pt150_s1_1e3
XLabel=~
YLabel=~
# xlow	 xhigh	 val	 errminus	 errplus
-7.000000e+00	-6.930000e+00	0.000000e+00	0.000000e+00	0.000000e+00
-6.930000e+00	-6.860000e+00	9.429300e+06	1.160622e+04	1.160622e+04
-6.860000e+00	-6.790000e+00	0.000000e+00	0.000000e+00	0.000000e+00
-6.790000e+00	-6.720000e+00	0.000000e+00	0.000000e+00	0.000000e+00
-6.720000e+00	-6.650000e+00	0.000000e+00	0.000000e+00	0.000000e+00
-6.650000e+00	-6.580000e+00	0.000000e+00	0.000000e+00	0.000000e+00
-6.580000e+00	-6.510000e+00	0.000000e+00	0.000000e+00	0.000000e+00
-6.510000e+00	-6.440000e+00	0.000000e+00	0.000000e+00	0.000000e+00
-6.440000e+00	-6.370000e+00	0.000000e+00	0.000000e+00	0.000000e+00
-6.370000e+00	-6.300000e+00	0.000000e+00	0.000000e+00	0.000000e+00
-6.300000e+00	-6.230000e+00	0.000000e+00	0.000000e+00	0.000000e+00
-6.230000e+00	-6.160000e+00	0.000000e+00	0.000000e+00	0.000000e+00
-6.160000e+00	-6.090000e+00	0.000000e+00	0.000000e+00	0.000000e+00
-6.090000e+00	-6.020000e+00	0.000000e+00	0.000000e+00	0.000000e+00
-6.020000e+00	-5.950000e+00	0.000000e+00	0.000000e+00	0.000000e+00
-5.950000e+00	-5.880000e+00	0.000000e+00	0.000000e+00	0.000000e+00
-5.880000e+00	-5.810000e+00	0.000000e+00	0.000000e+00	0.000000e+00
-5.810000e+00	-5.740000e+00	0.000000e+00	0.000000e+00	0.000000e+00
-5.740000e+00	-5.670000e+00	0.000000e+00	0.000000e+00	0.000000e+00
-5.670000e+00	-5.600000e+00	0.000000e+00	0.000000e+00	0.000000e+00
-5.600000e+00	-5.530000e+00	0.000000e+00	0.000000e+00	0.000000e+00
-5.530000e+00	-5.460000e+00	0.000000e+00	0.000000e+00	0.000000e+00
-5.460000e+00	-5.390000e+00	0.000000e+00	0.000000e+00	0.000000e+00
-5.390000e+00	-5.320000e+00	1.428571e+01	1.428571e+01	1.428571e+01
-5.320000e+00	-5.250000e+00	0.000000e+00	0.000000e+00	0.000000e+00
-5.250000e+00	-5.180000e+00	0.000000e+00	0.000000e+00	0.000000e+00
-5.180000e+00	-5.110000e+00	0.000000e+00	0.000000e+00	0.000000e+00
-5.110000e+00	-5.040000e+00	1.428571e+01	1.428571e+01	1.428571e+01
-5.040000e+00	-4.970000e+00	0.000000e+00	0.000000e+00	0.000000e+00
-4.970000e+00	-4.900000e+00	0.000000e+00	0.000000e+00	0.000000e+00
-4.900000e+00	-4.830000e+00	1.428571e+01	1.428571e+01	1.428571e+01
-4.830000e+00	-4.760000e+00	0.000000e+00	0.000000e+00	0.000000e+00
-4.760000e+00	-4.690000e+00	7.142857e+01	3.194383e+01	3.194383e+01
-4.690000e+00	-4.620000e+00	7.142857e+01	3.194383e+01	3.194383e+01
-4.620000e+00	-4.550000e+00	2.857143e+01	2.020305e+01	2.020305e+01
-4.550000e+00	-4.480000e+00	8.571429e+01	3.499271e+01	3.499271e+01
-4.480000e+00	-4.410000e+00	5.714286e+01	2.857143e+01	2.857143e+01
-4.410000e+00	-4.340000e+00	1.285714e+02	4.285714e+01	4.285714e+01
-4.340000e+00	-4.270000e+00	1.285714e+02	4.285714e+01	4.285714e+01
-4.270000e+00	-4.200000e+00	1.142857e+02	4.040610e+01	4.040610e+01
-4.200000e+00	-4.130000e+00	1.571429e+02	4.738035e+01	4.738035e+01
-4.130000e+00	-4.060000e+00	3.714286e+02	7.284314e+01	7.284314e+01
-4.060000e+00	-3.990000e+00	3.571429e+02	7.142857e+01	7.142857e+01
-3.990000e+00	-3.920000e+00	5.285714e+02	8.689661e+01	8.689661e+01
-3.920000e+00	-3.850000e+00	6.285714e+02	9.476071e+01	9.476071e+01
-3.850000e+00	-3.780000e+00	1.014286e+03	1.203736e+02	1.203736e+02
-3.780000e+00	-3.710000e+00	1.142857e+03	1.277753e+02	1.277753e+02
-3.710000e+00	-3.640000e+00	1.585714e+03	1.505093e+02	1.505093e+02
-3.640000e+00	-3.570000e+00	1.900000e+03	1.647509e+02	1.647509e+02
-3.570000e+00	-3.500000e+00	2.242857e+03	1.789995e+02	1.789995e+02
-3.500000e+00	-3.430000e+00	2.914286e+03	2.040408e+02	2.040408e+02
-3.430000e+00	-3.360000e+00	3.842857e+03	2.343031e+02	2.343031e+02
-3.360000e+00	-3.290000e+00	4.671429e+03	2.583306e+02	2.583306e+02
-3.290000e+00	-3.220000e+00	6.342857e+03	3.010187e+02	3.010187e+02
-3.220000e+00	-3.150000e+00	7.885714e+03	3.356383e+02	3.356383e+02
-3.150000e+00	-3.080000e+00	9.085714e+03	3.602720e+02	3.602720e+02
-3.080000e+00	-3.010000e+00	1.135714e+04	4.027963e+02	4.027963e+02
-3.010000e+00	-2.940000e+00	1.400000e+04	4.472136e+02	4.472136e+02
-2.940000e+00	-2.870000e+00	1.640000e+04	4.840307e+02	4.840307e+02
-2.870000e+00	-2.800000e+00	2.002857e+04	5.349041e+02	5.349041e+02
-2.800000e+00	-2.730000e+00	2.384286e+04	5.836199e+02	5.836199e+02
-2.730000e+00	-2.660000e+00	2.835714e+04	6.364763e+02	6.364763e+02
-2.660000e+00	-2.590000e+00	3.532857e+04	7.104181e+02	7.104181e+02
-2.590000e+00	-2.520000e+00	4.412857e+04	7.939825e+02	7.939825e+02
-2.520000e+00	-2.450000e+00	5.454286e+04	8.827138e+02	8.827138e+02
-2.450000e+00	-2.380000e+00	6.621429e+04	9.725833e+02	9.725833e+02
-2.380000e+00	-2.310000e+00	8.665714e+04	1.112636e+03	1.112636e+03
-2.310000e+00	-2.240000e+00	1.121571e+05	1.265798e+03	1.265798e+03
-2.240000e+00	-2.170000e+00	1.397000e+05	1.412698e+03	1.412698e+03
-2.170000e+00	-2.100000e+00	1.727857e+05	1.571104e+03	1.571104e+03
-2.100000e+00	-2.030000e+00	1.983000e+05	1.683109e+03	1.683109e+03
-2.030000e+00	-1.960000e+00	2.287857e+05	1.807863e+03	1.807863e+03
-1.960000e+00	-1.890000e+00	2.541571e+05	1.905470e+03	1.905470e+03
-1.890000e+00	-1.820000e+00	2.790286e+05	1.996528e+03	1.996528e+03
-1.820000e+00	-1.750000e+00	2.956286e+05	2.055058e+03	2.055058e+03
-1.750000e+00	-1.680000e+00	3.158143e+05	2.124060e+03	2.124060e+03
-1.680000e+00	-1.610000e+00	3.279286e+05	2.164415e+03	2.164415e+03
-1.610000e+00	-1.540000e+00	3.401571e+05	2.204402e+03	2.204402e+03
-1.540000e+00	-1.470000e+00	3.495429e+05	2.234607e+03	2.234607e+03
-1.470000e+00	-1.400000e+00	3.545571e+05	2.250578e+03	2.250578e+03
-1.400000e+00	-1.330000e+00	3.581714e+05	2.262020e+03	2.262020e+03
-1.330000e+00	-1.260000e+00	3.505000e+05	2.237665e+03	2.237665e+03
-1.260000e+00	-1.190000e+00	3.503429e+05	2.237163e+03	2.237163e+03
-1.190000e+00	-1.120000e+00	3.442714e+05	2.217693e+03	2.217693e+03
-1.120000e+00	-1.050000e+00	3.334143e+05	2.182444e+03	2.182444e+03
-1.050000e+00	-9.800000e-01	3.215143e+05	2.143143e+03	2.143143e+03
-9.800000e-01	-9.100000e-01	3.043714e+05	2.085225e+03	2.085225e+03
-9.100000e-01	-8.400000e-01	2.892286e+05	2.032692e+03	2.032692e+03
-8.400000e-01	-7.700000e-01	2.630000e+05	1.938335e+03	1.938335e+03
-7.700000e-01	-7.000000e-01	2.371571e+05	1.840641e+03	1.840641e+03
-7.000000e-01	-6.300000e-01	2.091000e+05	1.728335e+03	1.728335e+03
-6.300000e-01	-5.600000e-01	1.791000e+05	1.599554e+03	1.599554e+03
-5.600000e-01	-4.900000e-01	1.424857e+05	1.426713e+03	1.426713e+03
-4.900000e-01	-4.200000e-01	1.063571e+05	1.232634e+03	1.232634e+03
-4.200000e-01	-3.500000e-01	6.517143e+04	9.648940e+02	9.648940e+02
-3.500000e-01	-2.800000e-01	2.401429e+04	5.857143e+02	5.857143e+02
-2.800000e-01	-2.100000e-01	5.028571e+03	2.680238e+02	2.680238e+02
-2.100000e-01	-1.400000e-01	4.428571e+02	7.953949e+01	7.953949e+01
-1.400000e-01	-7.000000e-02	5.714286e+01	2.857143e+01	2.857143e+01
-7.000000e-02	0.000000e+00	0.000000e+00	0.000000e+00	0.000000e+00
# END HISTO1D

