# BEGIN PLOT
LegendOnly=/pythia_ps_pt150_s1_1e3.yoda/PAPER_FIN_R8/ch_lin_l20_pT_254_326
DrawOnly=/pythia_ps_pt150_s1_1e3.yoda/PAPER_FIN_R8/ch_lin_l20_pT_254_326
Legend=1
LogY=1
# END PLOT

# BEGIN HISTO1D /pythia_ps_pt150_s1_1e3.yoda/PAPER_FIN_R8/ch_lin_l20_pT_254_326
LineColor=red
LineStyle=solid
Path=/pythia_ps_pt150_s1_1e3.yoda/PAPER_FIN_R8/ch_lin_l20_pT_254_326
Title=pythia_ps_pt150_s1_1e3
XLabel=~
YLabel=~
# xlow	 xhigh	 val	 errminus	 errplus
0.000000e+00	5.000000e-03	7.086992e+08	3.764835e+05	3.764835e+05
5.000000e-03	1.250000e-02	6.453733e+07	9.276302e+04	9.276302e+04
1.250000e-02	2.250000e-02	3.304970e+07	5.748887e+04	5.748887e+04
2.250000e-02	3.500000e-02	1.929624e+07	3.928994e+04	3.928994e+04
3.500000e-02	5.000000e-02	1.215800e+07	2.846987e+04	2.846987e+04
5.000000e-02	7.000000e-02	7.878800e+06	1.984792e+04	1.984792e+04
7.000000e-02	9.250000e-02	5.201022e+06	1.520383e+04	1.520383e+04
9.250000e-02	1.200000e-01	3.446073e+06	1.119427e+04	1.119427e+04
1.200000e-01	1.520000e-01	2.246281e+06	8.378323e+03	8.378323e+03
1.520000e-01	1.880000e-01	1.398583e+06	6.232940e+03	6.232940e+03
1.880000e-01	2.280000e-01	7.741750e+05	4.399361e+03	4.399361e+03
2.280000e-01	1.000000e+00	1.695725e+04	1.482071e+02	1.482071e+02
# END HISTO1D

