# BEGIN PLOT
LegendOnly=/pythia_ps_pt150_s1_1e3.yoda/PAPER_FIN_R4/SD_l20_pT_186_254
DrawOnly=/pythia_ps_pt150_s1_1e3.yoda/PAPER_FIN_R4/SD_l20_pT_186_254
Legend=1
LogY=1
# END PLOT

# BEGIN HISTO1D /pythia_ps_pt150_s1_1e3.yoda/PAPER_FIN_R4/SD_l20_pT_186_254
LineColor=red
LineStyle=solid
Path=/pythia_ps_pt150_s1_1e3.yoda/PAPER_FIN_R4/SD_l20_pT_186_254
Title=pythia_ps_pt150_s1_1e3
XLabel=~
YLabel=~
# xlow	 xhigh	 val	 errminus	 errplus
-7.000000e+00	-6.930000e+00	1.000000e+02	3.779645e+01	3.779645e+01
-6.930000e+00	-6.860000e+00	3.765686e+07	2.319386e+04	2.319386e+04
-6.860000e+00	-6.790000e+00	1.857143e+02	5.150788e+01	5.150788e+01
-6.790000e+00	-6.720000e+00	1.285714e+02	4.285714e+01	4.285714e+01
-6.720000e+00	-6.650000e+00	3.571429e+02	7.142857e+01	7.142857e+01
-6.650000e+00	-6.580000e+00	2.857143e+02	6.388766e+01	6.388766e+01
-6.580000e+00	-6.510000e+00	4.285714e+02	7.824608e+01	7.824608e+01
-6.510000e+00	-6.440000e+00	5.285714e+02	8.689661e+01	8.689661e+01
-6.440000e+00	-6.370000e+00	7.142857e+02	1.010153e+02	1.010153e+02
-6.370000e+00	-6.300000e+00	7.571429e+02	1.040016e+02	1.040016e+02
-6.300000e+00	-6.230000e+00	9.000000e+02	1.133893e+02	1.133893e+02
-6.230000e+00	-6.160000e+00	1.100000e+03	1.253566e+02	1.253566e+02
-6.160000e+00	-6.090000e+00	1.400000e+03	1.414214e+02	1.414214e+02
-6.090000e+00	-6.020000e+00	1.371429e+03	1.399708e+02	1.399708e+02
-6.020000e+00	-5.950000e+00	2.014286e+03	1.696335e+02	1.696335e+02
-5.950000e+00	-5.880000e+00	2.371429e+03	1.840586e+02	1.840586e+02
-5.880000e+00	-5.810000e+00	3.128571e+03	2.114093e+02	2.114093e+02
-5.810000e+00	-5.740000e+00	3.500000e+03	2.236068e+02	2.236068e+02
-5.740000e+00	-5.670000e+00	3.785714e+03	2.325546e+02	2.325546e+02
-5.670000e+00	-5.600000e+00	4.671429e+03	2.583306e+02	2.583306e+02
-5.600000e+00	-5.530000e+00	5.542857e+03	2.813959e+02	2.813959e+02
-5.530000e+00	-5.460000e+00	7.585714e+03	3.291920e+02	3.291920e+02
-5.460000e+00	-5.390000e+00	8.614286e+03	3.508008e+02	3.508008e+02
-5.390000e+00	-5.320000e+00	9.828571e+03	3.747108e+02	3.747108e+02
-5.320000e+00	-5.250000e+00	1.250000e+04	4.225771e+02	4.225771e+02
-5.250000e+00	-5.180000e+00	1.558571e+04	4.718613e+02	4.718613e+02
-5.180000e+00	-5.110000e+00	1.840000e+04	5.126960e+02	5.126960e+02
-5.110000e+00	-5.040000e+00	2.244286e+04	5.662263e+02	5.662263e+02
-5.040000e+00	-4.970000e+00	2.707143e+04	6.218800e+02	6.218800e+02
-4.970000e+00	-4.900000e+00	3.501429e+04	7.072511e+02	7.072511e+02
-4.900000e+00	-4.830000e+00	4.097143e+04	7.650530e+02	7.650530e+02
-4.830000e+00	-4.760000e+00	5.127143e+04	8.558323e+02	8.558323e+02
-4.760000e+00	-4.690000e+00	5.967143e+04	9.232816e+02	9.232816e+02
-4.690000e+00	-4.620000e+00	7.132857e+04	1.009445e+03	1.009445e+03
-4.620000e+00	-4.550000e+00	8.548571e+04	1.105090e+03	1.105090e+03
-4.550000e+00	-4.480000e+00	1.039429e+05	1.218564e+03	1.218564e+03
-4.480000e+00	-4.410000e+00	1.221857e+05	1.321178e+03	1.321178e+03
-4.410000e+00	-4.340000e+00	1.492000e+05	1.459941e+03	1.459941e+03
-4.340000e+00	-4.270000e+00	1.779429e+05	1.594378e+03	1.594378e+03
-4.270000e+00	-4.200000e+00	2.126857e+05	1.743091e+03	1.743091e+03
-4.200000e+00	-4.130000e+00	2.523571e+05	1.898711e+03	1.898711e+03
-4.130000e+00	-4.060000e+00	2.951857e+05	2.053519e+03	2.053519e+03
-4.060000e+00	-3.990000e+00	3.521571e+05	2.242948e+03	2.242948e+03
-3.990000e+00	-3.920000e+00	4.219571e+05	2.455190e+03	2.455190e+03
-3.920000e+00	-3.850000e+00	5.676714e+05	2.847735e+03	2.847735e+03
-3.850000e+00	-3.780000e+00	8.269143e+05	3.437013e+03	3.437013e+03
-3.780000e+00	-3.710000e+00	1.217843e+06	4.171062e+03	4.171062e+03
-3.710000e+00	-3.640000e+00	1.734814e+06	4.978259e+03	4.978259e+03
-3.640000e+00	-3.570000e+00	2.214429e+06	5.624473e+03	5.624473e+03
-3.570000e+00	-3.500000e+00	2.576500e+06	6.066889e+03	6.066889e+03
-3.500000e+00	-3.430000e+00	2.795886e+06	6.319907e+03	6.319907e+03
-3.430000e+00	-3.360000e+00	2.925729e+06	6.464992e+03	6.464992e+03
-3.360000e+00	-3.290000e+00	3.039843e+06	6.589865e+03	6.589865e+03
-3.290000e+00	-3.220000e+00	3.129100e+06	6.685913e+03	6.685913e+03
-3.220000e+00	-3.150000e+00	3.250714e+06	6.814600e+03	6.814600e+03
-3.150000e+00	-3.080000e+00	3.354771e+06	6.922811e+03	6.922811e+03
-3.080000e+00	-3.010000e+00	3.463814e+06	7.034420e+03	7.034420e+03
-3.010000e+00	-2.940000e+00	3.531629e+06	7.102946e+03	7.102946e+03
-2.940000e+00	-2.870000e+00	3.609414e+06	7.180742e+03	7.180742e+03
-2.870000e+00	-2.800000e+00	3.646643e+06	7.217680e+03	7.217680e+03
-2.800000e+00	-2.730000e+00	3.668029e+06	7.238813e+03	7.238813e+03
-2.730000e+00	-2.660000e+00	3.687414e+06	7.257916e+03	7.257916e+03
-2.660000e+00	-2.590000e+00	3.691100e+06	7.261543e+03	7.261543e+03
-2.590000e+00	-2.520000e+00	3.665129e+06	7.235950e+03	7.235950e+03
-2.520000e+00	-2.450000e+00	3.637757e+06	7.208881e+03	7.208881e+03
-2.450000e+00	-2.380000e+00	3.640571e+06	7.211669e+03	7.211669e+03
-2.380000e+00	-2.310000e+00	3.619200e+06	7.190470e+03	7.190470e+03
-2.310000e+00	-2.240000e+00	3.590414e+06	7.161818e+03	7.161818e+03
-2.240000e+00	-2.170000e+00	3.586257e+06	7.157670e+03	7.157670e+03
-2.170000e+00	-2.100000e+00	3.579486e+06	7.150910e+03	7.150910e+03
-2.100000e+00	-2.030000e+00	3.569343e+06	7.140771e+03	7.140771e+03
-2.030000e+00	-1.960000e+00	3.578129e+06	7.149554e+03	7.149554e+03
-1.960000e+00	-1.890000e+00	3.571600e+06	7.143029e+03	7.143029e+03
-1.890000e+00	-1.820000e+00	3.593857e+06	7.165251e+03	7.165251e+03
-1.820000e+00	-1.750000e+00	3.610571e+06	7.181893e+03	7.181893e+03
-1.750000e+00	-1.680000e+00	3.631057e+06	7.202239e+03	7.202239e+03
-1.680000e+00	-1.610000e+00	3.670743e+06	7.241490e+03	7.241490e+03
-1.610000e+00	-1.540000e+00	3.695929e+06	7.266291e+03	7.266291e+03
-1.540000e+00	-1.470000e+00	3.728629e+06	7.298364e+03	7.298364e+03
-1.470000e+00	-1.400000e+00	3.764771e+06	7.333652e+03	7.333652e+03
-1.400000e+00	-1.330000e+00	3.812500e+06	7.379992e+03	7.379992e+03
-1.330000e+00	-1.260000e+00	3.906871e+06	7.470773e+03	7.470773e+03
-1.260000e+00	-1.190000e+00	3.998257e+06	7.557642e+03	7.557642e+03
-1.190000e+00	-1.120000e+00	4.104714e+06	7.657596e+03	7.657596e+03
-1.120000e+00	-1.050000e+00	4.179414e+06	7.726960e+03	7.726960e+03
-1.050000e+00	-9.800000e-01	4.173657e+06	7.721637e+03	7.721637e+03
-9.800000e-01	-9.100000e-01	3.977200e+06	7.537715e+03	7.537715e+03
-9.100000e-01	-8.400000e-01	3.613514e+06	7.184820e+03	7.184820e+03
-8.400000e-01	-7.700000e-01	3.164443e+06	6.723565e+03	6.723565e+03
-7.700000e-01	-7.000000e-01	2.628400e+06	6.127689e+03	6.127689e+03
-7.000000e-01	-6.300000e-01	2.013200e+06	5.362835e+03	5.362835e+03
-6.300000e-01	-5.600000e-01	1.254814e+06	4.233901e+03	4.233901e+03
-5.600000e-01	-4.900000e-01	4.551286e+05	2.549870e+03	2.549870e+03
-4.900000e-01	-4.200000e-01	1.012000e+05	1.202379e+03	1.202379e+03
-4.200000e-01	-3.500000e-01	1.135714e+04	4.027963e+02	4.027963e+02
-3.500000e-01	-2.800000e-01	3.428571e+02	6.998542e+01	6.998542e+01
-2.800000e-01	-2.100000e-01	0.000000e+00	0.000000e+00	0.000000e+00
-2.100000e-01	-1.400000e-01	0.000000e+00	0.000000e+00	0.000000e+00
-1.400000e-01	-7.000000e-02	0.000000e+00	0.000000e+00	0.000000e+00
-7.000000e-02	0.000000e+00	0.000000e+00	0.000000e+00	0.000000e+00
# END HISTO1D

