# BEGIN PLOT
LegendOnly=/pythia_ps_pt150_s1_1e3.yoda/PAPER_FIN_R8_CH/XS_CUTS_pT_186_254
DrawOnly=/pythia_ps_pt150_s1_1e3.yoda/PAPER_FIN_R8_CH/XS_CUTS_pT_186_254
Legend=1
LogY=1
# END PLOT

# BEGIN HISTO1D /pythia_ps_pt150_s1_1e3.yoda/PAPER_FIN_R8_CH/XS_CUTS_pT_186_254
LineColor=red
LineStyle=solid
Path=/pythia_ps_pt150_s1_1e3.yoda/PAPER_FIN_R8_CH/XS_CUTS_pT_186_254
Title=pythia_ps_pt150_s1_1e3
XLabel=~
YLabel=~
# xlow	 xhigh	 val	 errminus	 errplus
-5.000000e-01	5.000000e-01	7.963835e+02	2.518464e+01	2.518464e+01
# END HISTO1D

