# BEGIN PLOT
LegendOnly=/zj_ps_nlo_mer_mur0.5_muf1_R4.yoda/PAPER_FIN_R4/l20_pT_88_120
DrawOnly=/zj_ps_nlo_mer_mur0.5_muf1_R4.yoda/PAPER_FIN_R4/l20_pT_88_120
Legend=1
LogY=1
# END PLOT

# BEGIN HISTO1D /zj_ps_nlo_mer_mur0.5_muf1_R4.yoda/PAPER_FIN_R4/l20_pT_88_120
LineColor=red
LineStyle=solid
Path=/zj_ps_nlo_mer_mur0.5_muf1_R4.yoda/PAPER_FIN_R4/l20_pT_88_120
Title=zj_ps_nlo_mer_mur0.5_muf1_R4
XLabel=~
YLabel=~
# xlow	 xhigh	 val	 errminus	 errplus
-7.000000e+00	-6.930000e+00	3.832904e+04	7.406318e+04	7.406318e+04
-6.930000e+00	-6.860000e+00	5.000153e+10	6.532068e+08	6.532068e+08
-6.860000e+00	-6.790000e+00	1.181134e+05	1.179594e+05	1.179594e+05
-6.790000e+00	-6.720000e+00	3.024250e+05	1.744795e+05	1.744795e+05
-6.720000e+00	-6.650000e+00	7.467239e+05	6.410389e+05	6.410389e+05
-6.650000e+00	-6.580000e+00	2.996563e+06	1.908683e+06	1.908683e+06
-6.580000e+00	-6.510000e+00	1.841603e+06	1.733241e+06	1.733241e+06
-6.510000e+00	-6.440000e+00	3.911499e+06	2.020311e+06	2.020311e+06
-6.440000e+00	-6.370000e+00	1.476769e+06	1.426499e+06	1.426499e+06
-6.370000e+00	-6.300000e+00	6.570921e+06	3.452530e+06	3.452530e+06
-6.300000e+00	-6.230000e+00	2.538970e+06	1.320333e+06	1.320333e+06
-6.230000e+00	-6.160000e+00	2.822359e+07	2.459357e+07	2.459357e+07
-6.160000e+00	-6.090000e+00	3.380479e+07	2.307770e+07	2.307770e+07
-6.090000e+00	-6.020000e+00	2.264961e+06	1.584716e+06	1.584716e+06
-6.020000e+00	-5.950000e+00	4.622317e+06	2.224143e+06	2.224143e+06
-5.950000e+00	-5.880000e+00	1.948119e+07	9.586242e+06	9.586242e+06
-5.880000e+00	-5.810000e+00	1.311897e+06	4.723554e+05	4.723554e+05
-5.810000e+00	-5.740000e+00	2.144284e+07	1.525100e+07	1.525100e+07
-5.740000e+00	-5.670000e+00	-8.729614e+05	6.668197e+06	6.668197e+06
-5.670000e+00	-5.600000e+00	2.960107e+07	2.922964e+07	2.922964e+07
-5.600000e+00	-5.530000e+00	2.336681e+07	1.342861e+07	1.342861e+07
-5.530000e+00	-5.460000e+00	-2.535933e+06	1.188559e+07	1.188559e+07
-5.460000e+00	-5.390000e+00	4.972967e+06	3.347697e+06	3.347697e+06
-5.390000e+00	-5.320000e+00	1.977214e+06	4.916422e+06	4.916422e+06
-5.320000e+00	-5.250000e+00	6.783460e+06	3.795152e+06	3.795152e+06
-5.250000e+00	-5.180000e+00	2.304503e+07	1.884920e+07	1.884920e+07
-5.180000e+00	-5.110000e+00	1.059477e+07	4.490316e+06	4.490316e+06
-5.110000e+00	-5.040000e+00	1.509634e+07	9.821412e+06	9.821412e+06
-5.040000e+00	-4.970000e+00	1.274051e+06	4.979448e+06	4.979448e+06
-4.970000e+00	-4.900000e+00	7.812276e+06	2.784327e+06	2.784327e+06
-4.900000e+00	-4.830000e+00	4.767601e+06	4.447678e+06	4.447678e+06
-4.830000e+00	-4.760000e+00	8.695240e+06	4.262975e+06	4.262975e+06
-4.760000e+00	-4.690000e+00	1.208377e+07	4.900989e+06	4.900989e+06
-4.690000e+00	-4.620000e+00	6.281704e+06	6.105152e+06	6.105152e+06
-4.620000e+00	-4.550000e+00	9.207143e+06	3.368149e+06	3.368149e+06
-4.550000e+00	-4.480000e+00	1.097920e+07	5.744429e+06	5.744429e+06
-4.480000e+00	-4.410000e+00	2.052310e+07	6.379561e+06	6.379561e+06
-4.410000e+00	-4.340000e+00	-3.848007e+06	7.161054e+06	7.161054e+06
-4.340000e+00	-4.270000e+00	1.441910e+07	5.391261e+06	5.391261e+06
-4.270000e+00	-4.200000e+00	1.318271e+07	5.636106e+06	5.636106e+06
-4.200000e+00	-4.130000e+00	8.060137e+06	6.074720e+06	6.074720e+06
-4.130000e+00	-4.060000e+00	3.139873e+07	8.780453e+06	8.780453e+06
-4.060000e+00	-3.990000e+00	2.373443e+07	8.768756e+06	8.768756e+06
-3.990000e+00	-3.920000e+00	2.796390e+07	8.732255e+06	8.732255e+06
-3.920000e+00	-3.850000e+00	4.155339e+07	1.268860e+07	1.268860e+07
-3.850000e+00	-3.780000e+00	2.837180e+07	5.857101e+06	5.857101e+06
-3.780000e+00	-3.710000e+00	3.838294e+07	1.321645e+07	1.321645e+07
-3.710000e+00	-3.640000e+00	2.231450e+07	1.701809e+07	1.701809e+07
-3.640000e+00	-3.570000e+00	3.001309e+07	1.071313e+07	1.071313e+07
-3.570000e+00	-3.500000e+00	4.943659e+07	1.097828e+07	1.097828e+07
-3.500000e+00	-3.430000e+00	6.783447e+07	1.000492e+07	1.000492e+07
-3.430000e+00	-3.360000e+00	8.423264e+07	1.647150e+07	1.647150e+07
-3.360000e+00	-3.290000e+00	9.472507e+07	1.433675e+07	1.433675e+07
-3.290000e+00	-3.220000e+00	1.113909e+08	1.811445e+07	1.811445e+07
-3.220000e+00	-3.150000e+00	2.177581e+08	2.018435e+07	2.018435e+07
-3.150000e+00	-3.080000e+00	3.030400e+08	2.534581e+07	2.534581e+07
-3.080000e+00	-3.010000e+00	4.525893e+08	5.097052e+07	5.097052e+07
-3.010000e+00	-2.940000e+00	6.885170e+08	4.311356e+07	4.311356e+07
-2.940000e+00	-2.870000e+00	8.080914e+08	3.710018e+07	3.710018e+07
-2.870000e+00	-2.800000e+00	1.050549e+09	4.466902e+07	4.466902e+07
-2.800000e+00	-2.730000e+00	1.089025e+09	5.148531e+07	5.148531e+07
-2.730000e+00	-2.660000e+00	1.408098e+09	6.845919e+07	6.845919e+07
-2.660000e+00	-2.590000e+00	1.640230e+09	7.410361e+07	7.410361e+07
-2.590000e+00	-2.520000e+00	1.846751e+09	7.667039e+07	7.667039e+07
-2.520000e+00	-2.450000e+00	2.353431e+09	8.571376e+07	8.571376e+07
-2.450000e+00	-2.380000e+00	2.859560e+09	3.257854e+08	3.257854e+08
-2.380000e+00	-2.310000e+00	2.998201e+09	8.177978e+07	8.177978e+07
-2.310000e+00	-2.240000e+00	3.333177e+09	9.223735e+07	9.223735e+07
-2.240000e+00	-2.170000e+00	3.568223e+09	1.344715e+08	1.344715e+08
-2.170000e+00	-2.100000e+00	4.146704e+09	9.532775e+07	9.532775e+07
-2.100000e+00	-2.030000e+00	4.811521e+09	1.146934e+08	1.146934e+08
-2.030000e+00	-1.960000e+00	5.390941e+09	1.294295e+08	1.294295e+08
-1.960000e+00	-1.890000e+00	5.811939e+09	1.239722e+08	1.239722e+08
-1.890000e+00	-1.820000e+00	6.400804e+09	1.524499e+08	1.524499e+08
-1.820000e+00	-1.750000e+00	7.259874e+09	1.497990e+08	1.497990e+08
-1.750000e+00	-1.680000e+00	8.160627e+09	1.665845e+08	1.665845e+08
-1.680000e+00	-1.610000e+00	8.839097e+09	1.940553e+08	1.940553e+08
-1.610000e+00	-1.540000e+00	9.304027e+09	1.863071e+08	1.863071e+08
-1.540000e+00	-1.470000e+00	9.907350e+09	1.725305e+08	1.725305e+08
-1.470000e+00	-1.400000e+00	1.021691e+10	1.851114e+08	1.851114e+08
-1.400000e+00	-1.330000e+00	1.074335e+10	1.554141e+08	1.554141e+08
-1.330000e+00	-1.260000e+00	1.031753e+10	2.130500e+08	2.130500e+08
-1.260000e+00	-1.190000e+00	9.985644e+09	1.955927e+08	1.955927e+08
-1.190000e+00	-1.120000e+00	9.726554e+09	1.654698e+08	1.654698e+08
-1.120000e+00	-1.050000e+00	9.176864e+09	1.627465e+08	1.627465e+08
-1.050000e+00	-9.800000e-01	8.228849e+09	1.960770e+08	1.960770e+08
-9.800000e-01	-9.100000e-01	7.395244e+09	1.513420e+08	1.513420e+08
-9.100000e-01	-8.400000e-01	6.229469e+09	1.358282e+08	1.358282e+08
-8.400000e-01	-7.700000e-01	5.208204e+09	1.244708e+08	1.244708e+08
-7.700000e-01	-7.000000e-01	3.823251e+09	1.072285e+08	1.072285e+08
-7.000000e-01	-6.300000e-01	2.741011e+09	1.011306e+08	1.011306e+08
-6.300000e-01	-5.600000e-01	1.509856e+09	8.686328e+07	8.686328e+07
-5.600000e-01	-4.900000e-01	3.860656e+08	3.293679e+07	3.293679e+07
-4.900000e-01	-4.200000e-01	8.957184e+07	1.312645e+07	1.312645e+07
-4.200000e-01	-3.500000e-01	6.804843e+06	3.129829e+06	3.129829e+06
-3.500000e-01	-2.800000e-01	-1.943374e+05	3.100222e+05	3.100222e+05
-2.800000e-01	-2.100000e-01	0.000000e+00	0.000000e+00	0.000000e+00
-2.100000e-01	-1.400000e-01	0.000000e+00	0.000000e+00	0.000000e+00
-1.400000e-01	-7.000000e-02	0.000000e+00	0.000000e+00	0.000000e+00
-7.000000e-02	0.000000e+00	0.000000e+00	0.000000e+00	0.000000e+00
# END HISTO1D

