# BEGIN PLOT
LegendOnly=/zj_ps_nlo_mer_mur0.5_muf1_R4.yoda/PAPER_FIN_R4/ch_SD_l05_pT_408_1500
DrawOnly=/zj_ps_nlo_mer_mur0.5_muf1_R4.yoda/PAPER_FIN_R4/ch_SD_l05_pT_408_1500
Legend=1
LogY=1
# END PLOT

# BEGIN HISTO1D /zj_ps_nlo_mer_mur0.5_muf1_R4.yoda/PAPER_FIN_R4/ch_SD_l05_pT_408_1500
LineColor=red
LineStyle=solid
Path=/zj_ps_nlo_mer_mur0.5_muf1_R4.yoda/PAPER_FIN_R4/ch_SD_l05_pT_408_1500
Title=zj_ps_nlo_mer_mur0.5_muf1_R4
XLabel=~
YLabel=~
# xlow	 xhigh	 val	 errminus	 errplus
-7.000000e+00	-6.930000e+00	0.000000e+00	0.000000e+00	0.000000e+00
-6.930000e+00	-6.860000e+00	3.399327e+09	7.256715e+07	7.256715e+07
-6.860000e+00	-6.790000e+00	0.000000e+00	0.000000e+00	0.000000e+00
-6.790000e+00	-6.720000e+00	0.000000e+00	0.000000e+00	0.000000e+00
-6.720000e+00	-6.650000e+00	0.000000e+00	0.000000e+00	0.000000e+00
-6.650000e+00	-6.580000e+00	0.000000e+00	0.000000e+00	0.000000e+00
-6.580000e+00	-6.510000e+00	0.000000e+00	0.000000e+00	0.000000e+00
-6.510000e+00	-6.440000e+00	0.000000e+00	0.000000e+00	0.000000e+00
-6.440000e+00	-6.370000e+00	0.000000e+00	0.000000e+00	0.000000e+00
-6.370000e+00	-6.300000e+00	0.000000e+00	0.000000e+00	0.000000e+00
-6.300000e+00	-6.230000e+00	0.000000e+00	0.000000e+00	0.000000e+00
-6.230000e+00	-6.160000e+00	0.000000e+00	0.000000e+00	0.000000e+00
-6.160000e+00	-6.090000e+00	0.000000e+00	0.000000e+00	0.000000e+00
-6.090000e+00	-6.020000e+00	0.000000e+00	0.000000e+00	0.000000e+00
-6.020000e+00	-5.950000e+00	0.000000e+00	0.000000e+00	0.000000e+00
-5.950000e+00	-5.880000e+00	0.000000e+00	0.000000e+00	0.000000e+00
-5.880000e+00	-5.810000e+00	0.000000e+00	0.000000e+00	0.000000e+00
-5.810000e+00	-5.740000e+00	0.000000e+00	0.000000e+00	0.000000e+00
-5.740000e+00	-5.670000e+00	0.000000e+00	0.000000e+00	0.000000e+00
-5.670000e+00	-5.600000e+00	0.000000e+00	0.000000e+00	0.000000e+00
-5.600000e+00	-5.530000e+00	0.000000e+00	0.000000e+00	0.000000e+00
-5.530000e+00	-5.460000e+00	0.000000e+00	0.000000e+00	0.000000e+00
-5.460000e+00	-5.390000e+00	0.000000e+00	0.000000e+00	0.000000e+00
-5.390000e+00	-5.320000e+00	0.000000e+00	0.000000e+00	0.000000e+00
-5.320000e+00	-5.250000e+00	0.000000e+00	0.000000e+00	0.000000e+00
-5.250000e+00	-5.180000e+00	0.000000e+00	0.000000e+00	0.000000e+00
-5.180000e+00	-5.110000e+00	0.000000e+00	0.000000e+00	0.000000e+00
-5.110000e+00	-5.040000e+00	0.000000e+00	0.000000e+00	0.000000e+00
-5.040000e+00	-4.970000e+00	0.000000e+00	0.000000e+00	0.000000e+00
-4.970000e+00	-4.900000e+00	0.000000e+00	0.000000e+00	0.000000e+00
-4.900000e+00	-4.830000e+00	0.000000e+00	0.000000e+00	0.000000e+00
-4.830000e+00	-4.760000e+00	0.000000e+00	0.000000e+00	0.000000e+00
-4.760000e+00	-4.690000e+00	0.000000e+00	0.000000e+00	0.000000e+00
-4.690000e+00	-4.620000e+00	0.000000e+00	0.000000e+00	0.000000e+00
-4.620000e+00	-4.550000e+00	0.000000e+00	0.000000e+00	0.000000e+00
-4.550000e+00	-4.480000e+00	0.000000e+00	0.000000e+00	0.000000e+00
-4.480000e+00	-4.410000e+00	0.000000e+00	0.000000e+00	0.000000e+00
-4.410000e+00	-4.340000e+00	0.000000e+00	0.000000e+00	0.000000e+00
-4.340000e+00	-4.270000e+00	0.000000e+00	0.000000e+00	0.000000e+00
-4.270000e+00	-4.200000e+00	0.000000e+00	0.000000e+00	0.000000e+00
-4.200000e+00	-4.130000e+00	0.000000e+00	0.000000e+00	0.000000e+00
-4.130000e+00	-4.060000e+00	0.000000e+00	0.000000e+00	0.000000e+00
-4.060000e+00	-3.990000e+00	0.000000e+00	0.000000e+00	0.000000e+00
-3.990000e+00	-3.920000e+00	0.000000e+00	0.000000e+00	0.000000e+00
-3.920000e+00	-3.850000e+00	0.000000e+00	0.000000e+00	0.000000e+00
-3.850000e+00	-3.780000e+00	0.000000e+00	0.000000e+00	0.000000e+00
-3.780000e+00	-3.710000e+00	0.000000e+00	0.000000e+00	0.000000e+00
-3.710000e+00	-3.640000e+00	0.000000e+00	0.000000e+00	0.000000e+00
-3.640000e+00	-3.570000e+00	0.000000e+00	0.000000e+00	0.000000e+00
-3.570000e+00	-3.500000e+00	0.000000e+00	0.000000e+00	0.000000e+00
-3.500000e+00	-3.430000e+00	0.000000e+00	0.000000e+00	0.000000e+00
-3.430000e+00	-3.360000e+00	0.000000e+00	0.000000e+00	0.000000e+00
-3.360000e+00	-3.290000e+00	0.000000e+00	0.000000e+00	0.000000e+00
-3.290000e+00	-3.220000e+00	0.000000e+00	0.000000e+00	0.000000e+00
-3.220000e+00	-3.150000e+00	0.000000e+00	0.000000e+00	0.000000e+00
-3.150000e+00	-3.080000e+00	0.000000e+00	0.000000e+00	0.000000e+00
-3.080000e+00	-3.010000e+00	0.000000e+00	0.000000e+00	0.000000e+00
-3.010000e+00	-2.940000e+00	0.000000e+00	0.000000e+00	0.000000e+00
-2.940000e+00	-2.870000e+00	4.736083e-07	3.645439e-07	3.645439e-07
-2.870000e+00	-2.800000e+00	6.289720e-06	4.968891e-06	4.968891e-06
-2.800000e+00	-2.730000e+00	-1.112002e+00	1.112231e+00	1.112231e+00
-2.730000e+00	-2.660000e+00	4.941774e-03	3.844635e-03	3.844635e-03
-2.660000e+00	-2.590000e+00	9.514533e+00	7.270624e+01	7.270624e+01
-2.590000e+00	-2.520000e+00	5.222887e+00	4.553944e+00	4.553944e+00
-2.520000e+00	-2.450000e+00	-7.010549e+02	9.530428e+02	9.530428e+02
-2.450000e+00	-2.380000e+00	4.176980e+03	3.931056e+03	3.931056e+03
-2.380000e+00	-2.310000e+00	-4.096633e+02	5.367088e+02	5.367088e+02
-2.310000e+00	-2.240000e+00	2.954846e+04	3.216873e+04	3.216873e+04
-2.240000e+00	-2.170000e+00	4.334194e+04	5.948857e+04	5.948857e+04
-2.170000e+00	-2.100000e+00	1.246708e+05	6.085915e+04	6.085915e+04
-2.100000e+00	-2.030000e+00	-3.270761e+04	1.167314e+05	1.167314e+05
-2.030000e+00	-1.960000e+00	1.872266e+05	1.442481e+05	1.442481e+05
-1.960000e+00	-1.890000e+00	9.755363e+05	4.404572e+05	4.404572e+05
-1.890000e+00	-1.820000e+00	9.960214e+05	2.663716e+05	2.663716e+05
-1.820000e+00	-1.750000e+00	1.602523e+06	7.297779e+05	7.297779e+05
-1.750000e+00	-1.680000e+00	2.963221e+05	3.956884e+06	3.956884e+06
-1.680000e+00	-1.610000e+00	8.477874e+06	1.091259e+06	1.091259e+06
-1.610000e+00	-1.540000e+00	1.166365e+07	2.444792e+06	2.444792e+06
-1.540000e+00	-1.470000e+00	2.386733e+07	3.409845e+06	3.409845e+06
-1.470000e+00	-1.400000e+00	1.817587e+07	5.230971e+06	5.230971e+06
-1.400000e+00	-1.330000e+00	3.780177e+07	2.618094e+06	2.618094e+06
-1.330000e+00	-1.260000e+00	4.799781e+07	4.924495e+06	4.924495e+06
-1.260000e+00	-1.190000e+00	7.394849e+07	9.339341e+06	9.339341e+06
-1.190000e+00	-1.120000e+00	8.454623e+07	4.848574e+06	4.848574e+06
-1.120000e+00	-1.050000e+00	1.022511e+08	8.884773e+06	8.884773e+06
-1.050000e+00	-9.800000e-01	1.053775e+08	8.791292e+06	8.791292e+06
-9.800000e-01	-9.100000e-01	1.142273e+08	1.566497e+07	1.566497e+07
-9.100000e-01	-8.400000e-01	1.194574e+08	6.679784e+06	6.679784e+06
-8.400000e-01	-7.700000e-01	1.193139e+08	1.321555e+07	1.321555e+07
-7.700000e-01	-7.000000e-01	9.378127e+07	1.899206e+07	1.899206e+07
-7.000000e-01	-6.300000e-01	1.035446e+08	7.091757e+06	7.091757e+06
-6.300000e-01	-5.600000e-01	9.545866e+07	7.700934e+06	7.700934e+06
-5.600000e-01	-4.900000e-01	1.005722e+08	6.538455e+06	6.538455e+06
-4.900000e-01	-4.200000e-01	6.687426e+07	5.809665e+06	5.809665e+06
-4.200000e-01	-3.500000e-01	4.853964e+07	4.858523e+06	4.858523e+06
-3.500000e-01	-2.800000e-01	2.306721e+07	2.683438e+06	2.683438e+06
-2.800000e-01	-2.100000e-01	3.469750e+06	1.324958e+06	1.324958e+06
-2.100000e-01	-1.400000e-01	4.024344e+05	1.314319e+05	1.314319e+05
-1.400000e-01	-7.000000e-02	3.785440e+04	3.729172e+04	3.729172e+04
-7.000000e-02	0.000000e+00	0.000000e+00	0.000000e+00	0.000000e+00
# END HISTO1D

