# BEGIN PLOT
LegendOnly=/zj_ps_nlo_mer_mur0.5_muf1_R4.yoda/PAPER_FIN_R4/ch_l20_pT_408_1500
DrawOnly=/zj_ps_nlo_mer_mur0.5_muf1_R4.yoda/PAPER_FIN_R4/ch_l20_pT_408_1500
Legend=1
LogY=1
# END PLOT

# BEGIN HISTO1D /zj_ps_nlo_mer_mur0.5_muf1_R4.yoda/PAPER_FIN_R4/ch_l20_pT_408_1500
LineColor=red
LineStyle=solid
Path=/zj_ps_nlo_mer_mur0.5_muf1_R4.yoda/PAPER_FIN_R4/ch_l20_pT_408_1500
Title=zj_ps_nlo_mer_mur0.5_muf1_R4
XLabel=~
YLabel=~
# xlow	 xhigh	 val	 errminus	 errplus
-7.000000e+00	-6.930000e+00	-5.485829e+01	6.260671e+01	6.260671e+01
-6.930000e+00	-6.860000e+00	2.776813e+09	6.965004e+07	6.965004e+07
-6.860000e+00	-6.790000e+00	1.453013e+03	1.289522e+03	1.289522e+03
-6.790000e+00	-6.720000e+00	5.582371e+03	3.419949e+03	3.419949e+03
-6.720000e+00	-6.650000e+00	1.824273e+04	1.665412e+04	1.665412e+04
-6.650000e+00	-6.580000e+00	1.220040e+03	5.167880e+03	5.167880e+03
-6.580000e+00	-6.510000e+00	3.698187e+05	2.308247e+05	2.308247e+05
-6.510000e+00	-6.440000e+00	1.485304e+05	7.981953e+04	7.981953e+04
-6.440000e+00	-6.370000e+00	5.652700e+04	4.136010e+04	4.136010e+04
-6.370000e+00	-6.300000e+00	5.260534e+05	5.096145e+05	5.096145e+05
-6.300000e+00	-6.230000e+00	5.312634e+04	4.294169e+04	4.294169e+04
-6.230000e+00	-6.160000e+00	1.030823e+05	9.402470e+04	9.402470e+04
-6.160000e+00	-6.090000e+00	4.256473e+05	4.142383e+05	4.142383e+05
-6.090000e+00	-6.020000e+00	1.364820e+05	8.570795e+04	8.570795e+04
-6.020000e+00	-5.950000e+00	3.106251e+04	1.816145e+04	1.816145e+04
-5.950000e+00	-5.880000e+00	3.874860e+04	7.321909e+04	7.321909e+04
-5.880000e+00	-5.810000e+00	3.020400e+04	4.453043e+04	4.453043e+04
-5.810000e+00	-5.740000e+00	8.031879e+04	2.530842e+05	2.530842e+05
-5.740000e+00	-5.670000e+00	-2.082344e+04	4.235035e+04	4.235035e+04
-5.670000e+00	-5.600000e+00	4.871773e+04	1.621727e+05	1.621727e+05
-5.600000e+00	-5.530000e+00	1.143938e+05	1.659820e+05	1.659820e+05
-5.530000e+00	-5.460000e+00	3.591266e+05	1.606767e+05	1.606767e+05
-5.460000e+00	-5.390000e+00	8.857964e+04	9.308302e+04	9.308302e+04
-5.390000e+00	-5.320000e+00	2.032517e+05	1.185514e+05	1.185514e+05
-5.320000e+00	-5.250000e+00	1.049026e+05	9.680534e+04	9.680534e+04
-5.250000e+00	-5.180000e+00	5.733327e+05	2.066467e+05	2.066467e+05
-5.180000e+00	-5.110000e+00	2.995099e+05	1.236490e+05	1.236490e+05
-5.110000e+00	-5.040000e+00	2.459853e+05	1.924395e+05	1.924395e+05
-5.040000e+00	-4.970000e+00	1.489917e+05	1.074975e+05	1.074975e+05
-4.970000e+00	-4.900000e+00	3.747611e+05	2.942510e+05	2.942510e+05
-4.900000e+00	-4.830000e+00	6.742551e+05	1.729422e+05	1.729422e+05
-4.830000e+00	-4.760000e+00	4.272686e+05	1.622776e+05	1.622776e+05
-4.760000e+00	-4.690000e+00	1.487761e+05	6.241703e+05	6.241703e+05
-4.690000e+00	-4.620000e+00	1.622440e+06	6.785820e+05	6.785820e+05
-4.620000e+00	-4.550000e+00	1.176173e+06	2.473194e+05	2.473194e+05
-4.550000e+00	-4.480000e+00	2.874050e+06	2.583779e+06	2.583779e+06
-4.480000e+00	-4.410000e+00	1.085431e+06	4.584933e+05	4.584933e+05
-4.410000e+00	-4.340000e+00	2.549601e+06	4.330696e+05	4.330696e+05
-4.340000e+00	-4.270000e+00	3.984287e+06	7.914912e+05	7.914912e+05
-4.270000e+00	-4.200000e+00	3.325921e+06	1.218144e+06	1.218144e+06
-4.200000e+00	-4.130000e+00	3.900854e+06	7.452860e+05	7.452860e+05
-4.130000e+00	-4.060000e+00	4.222564e+06	7.002312e+05	7.002312e+05
-4.060000e+00	-3.990000e+00	5.278487e+06	8.903101e+05	8.903101e+05
-3.990000e+00	-3.920000e+00	5.811933e+05	4.261356e+06	4.261356e+06
-3.920000e+00	-3.850000e+00	1.002448e+07	2.267400e+06	2.267400e+06
-3.850000e+00	-3.780000e+00	6.359550e+06	2.222008e+06	2.222008e+06
-3.780000e+00	-3.710000e+00	9.932770e+06	1.179150e+06	1.179150e+06
-3.710000e+00	-3.640000e+00	1.004907e+07	1.972776e+06	1.972776e+06
-3.640000e+00	-3.570000e+00	1.176094e+07	1.409448e+06	1.409448e+06
-3.570000e+00	-3.500000e+00	1.284441e+07	1.245534e+06	1.245534e+06
-3.500000e+00	-3.430000e+00	1.603171e+07	1.621731e+06	1.621731e+06
-3.430000e+00	-3.360000e+00	1.419851e+07	2.519108e+06	2.519108e+06
-3.360000e+00	-3.290000e+00	1.952710e+07	1.868816e+06	1.868816e+06
-3.290000e+00	-3.220000e+00	2.894049e+07	7.069288e+06	7.069288e+06
-3.220000e+00	-3.150000e+00	2.305474e+07	2.088959e+06	2.088959e+06
-3.150000e+00	-3.080000e+00	2.333504e+07	2.293268e+06	2.293268e+06
-3.080000e+00	-3.010000e+00	3.221267e+07	3.385822e+06	3.385822e+06
-3.010000e+00	-2.940000e+00	2.325009e+07	2.272988e+06	2.272988e+06
-2.940000e+00	-2.870000e+00	3.332567e+07	3.020551e+06	3.020551e+06
-2.870000e+00	-2.800000e+00	3.059246e+07	3.695025e+06	3.695025e+06
-2.800000e+00	-2.730000e+00	3.559551e+07	3.196178e+06	3.196178e+06
-2.730000e+00	-2.660000e+00	3.396210e+07	4.126238e+06	4.126238e+06
-2.660000e+00	-2.590000e+00	5.573306e+07	9.937793e+06	9.937793e+06
-2.590000e+00	-2.520000e+00	4.769870e+07	4.048467e+06	4.048467e+06
-2.520000e+00	-2.450000e+00	4.968411e+07	5.526892e+06	5.526892e+06
-2.450000e+00	-2.380000e+00	4.816090e+07	2.802343e+06	2.802343e+06
-2.380000e+00	-2.310000e+00	6.113394e+07	4.376264e+06	4.376264e+06
-2.310000e+00	-2.240000e+00	5.595973e+07	6.567072e+06	6.567072e+06
-2.240000e+00	-2.170000e+00	6.650369e+07	4.651963e+06	4.651963e+06
-2.170000e+00	-2.100000e+00	5.133673e+07	1.375908e+07	1.375908e+07
-2.100000e+00	-2.030000e+00	5.910929e+07	7.569827e+06	7.569827e+06
-2.030000e+00	-1.960000e+00	6.471420e+07	5.245933e+06	5.245933e+06
-1.960000e+00	-1.890000e+00	6.874174e+07	5.602272e+06	5.602272e+06
-1.890000e+00	-1.820000e+00	7.406116e+07	8.474882e+06	8.474882e+06
-1.820000e+00	-1.750000e+00	6.374524e+07	5.391719e+06	5.391719e+06
-1.750000e+00	-1.680000e+00	8.165506e+07	1.355131e+07	1.355131e+07
-1.680000e+00	-1.610000e+00	7.940794e+07	6.289259e+06	6.289259e+06
-1.610000e+00	-1.540000e+00	6.352951e+07	4.780520e+06	4.780520e+06
-1.540000e+00	-1.470000e+00	5.945856e+07	7.947242e+06	7.947242e+06
-1.470000e+00	-1.400000e+00	7.244629e+07	5.504938e+06	5.504938e+06
-1.400000e+00	-1.330000e+00	6.322673e+07	3.999289e+06	3.999289e+06
-1.330000e+00	-1.260000e+00	5.828314e+07	3.549666e+06	3.549666e+06
-1.260000e+00	-1.190000e+00	5.852819e+07	5.073985e+06	5.073985e+06
-1.190000e+00	-1.120000e+00	5.819300e+07	1.219234e+07	1.219234e+07
-1.120000e+00	-1.050000e+00	5.515394e+07	5.393044e+06	5.393044e+06
-1.050000e+00	-9.800000e-01	4.030964e+07	4.779653e+06	4.779653e+06
-9.800000e-01	-9.100000e-01	3.414503e+07	1.811777e+07	1.811777e+07
-9.100000e-01	-8.400000e-01	3.771084e+07	5.613146e+06	5.613146e+06
-8.400000e-01	-7.700000e-01	4.081009e+07	4.050518e+06	4.050518e+06
-7.700000e-01	-7.000000e-01	2.498657e+07	2.894870e+06	2.894870e+06
-7.000000e-01	-6.300000e-01	1.709099e+07	2.582372e+06	2.582372e+06
-6.300000e-01	-5.600000e-01	5.936089e+06	1.180003e+06	1.180003e+06
-5.600000e-01	-4.900000e-01	5.445711e+05	2.051244e+05	2.051244e+05
-4.900000e-01	-4.200000e-01	1.457111e+05	6.509248e+04	6.509248e+04
-4.200000e-01	-3.500000e-01	2.979031e+04	3.805198e+04	3.805198e+04
-3.500000e-01	-2.800000e-01	0.000000e+00	0.000000e+00	0.000000e+00
-2.800000e-01	-2.100000e-01	0.000000e+00	0.000000e+00	0.000000e+00
-2.100000e-01	-1.400000e-01	0.000000e+00	0.000000e+00	0.000000e+00
-1.400000e-01	-7.000000e-02	0.000000e+00	0.000000e+00	0.000000e+00
-7.000000e-02	0.000000e+00	0.000000e+00	0.000000e+00	0.000000e+00
# END HISTO1D

