# BEGIN PLOT
LegendOnly=/zj_ps_nlo_mer_mur2_muf2_R8.yoda/PAPER_FIN_R8_CH/lin_l05_pT_408_1500
DrawOnly=/zj_ps_nlo_mer_mur2_muf2_R8.yoda/PAPER_FIN_R8_CH/lin_l05_pT_408_1500
Legend=1
LogY=1
# END PLOT

# BEGIN HISTO1D /zj_ps_nlo_mer_mur2_muf2_R8.yoda/PAPER_FIN_R8_CH/lin_l05_pT_408_1500
LineColor=red
LineStyle=solid
Path=/zj_ps_nlo_mer_mur2_muf2_R8.yoda/PAPER_FIN_R8_CH/lin_l05_pT_408_1500
Title=zj_ps_nlo_mer_mur2_muf2_R8
XLabel=~
YLabel=~
# xlow	 xhigh	 val	 errminus	 errplus
0.000000e+00	6.000000e-02	8.502520e+07	1.529617e+06	1.529617e+06
6.000000e-02	1.100000e-01	1.027882e+09	6.695357e+06	6.695357e+06
1.100000e-01	1.500000e-01	1.183096e+09	7.437196e+06	7.437196e+06
1.500000e-01	1.900000e-01	9.261152e+08	5.959433e+06	5.959433e+06
1.900000e-01	2.300000e-01	7.244052e+08	5.461347e+06	5.461347e+06
2.300000e-01	2.700000e-01	5.503897e+08	4.540375e+06	4.540375e+06
2.700000e-01	3.100000e-01	4.211455e+08	4.836836e+06	4.836836e+06
3.100000e-01	3.500000e-01	3.198128e+08	4.124571e+06	4.124571e+06
3.500000e-01	3.900000e-01	2.467276e+08	2.760863e+06	2.760863e+06
3.900000e-01	4.400000e-01	1.800244e+08	2.097806e+06	2.097806e+06
4.400000e-01	4.900000e-01	1.231214e+08	1.526268e+06	1.526268e+06
4.900000e-01	5.400000e-01	8.009418e+07	1.138468e+06	1.138468e+06
5.400000e-01	6.000000e-01	4.157662e+07	8.994239e+05	8.994239e+05
6.000000e-01	1.000000e+00	2.913980e+06	7.128102e+04	7.128102e+04
# END HISTO1D

