# BEGIN PLOT
LegendOnly=/zj_ps_nlo_mer_mur2_muf2_R8.yoda/PAPER_FIN_R8/ch_lin_SD_l10_pT_408_1500
DrawOnly=/zj_ps_nlo_mer_mur2_muf2_R8.yoda/PAPER_FIN_R8/ch_lin_SD_l10_pT_408_1500
Legend=1
LogY=1
# END PLOT

# BEGIN HISTO1D /zj_ps_nlo_mer_mur2_muf2_R8.yoda/PAPER_FIN_R8/ch_lin_SD_l10_pT_408_1500
LineColor=red
LineStyle=solid
Path=/zj_ps_nlo_mer_mur2_muf2_R8.yoda/PAPER_FIN_R8/ch_lin_SD_l10_pT_408_1500
Title=zj_ps_nlo_mer_mur2_muf2_R8
XLabel=~
YLabel=~
# xlow	 xhigh	 val	 errminus	 errplus
0.000000e+00	1.250000e-02	7.085810e+09	3.351786e+07	3.351786e+07
1.250000e-02	2.250000e-02	2.744337e+09	2.265273e+07	2.265273e+07
2.250000e-02	3.500000e-02	1.524572e+09	1.450599e+07	1.450599e+07
3.500000e-02	5.000000e-02	1.025957e+09	9.764355e+06	9.764355e+06
5.000000e-02	7.000000e-02	7.698110e+08	7.972496e+06	7.972496e+06
7.000000e-02	9.500000e-02	5.998920e+08	6.099530e+06	6.099530e+06
9.500000e-02	1.280000e-01	4.850858e+08	4.848961e+06	4.848961e+06
1.280000e-01	1.700000e-01	3.882205e+08	4.944887e+06	4.944887e+06
1.700000e-01	2.250000e-01	2.665304e+08	2.534328e+06	2.534328e+06
2.250000e-01	2.900000e-01	1.735840e+08	1.834886e+06	1.834886e+06
2.900000e-01	3.650000e-01	1.053329e+08	1.179279e+06	1.179279e+06
3.650000e-01	4.500000e-01	5.717287e+07	8.434121e+05	8.434121e+05
4.500000e-01	1.000000e+00	4.207402e+06	8.017640e+04	8.017640e+04
# END HISTO1D

