# BEGIN PLOT
LegendOnly=/herwig_np_lo_r8_pt50_s1_1e3.yoda/PAPER_FIN_R8/XS_CUTS_pT_254_326
DrawOnly=/herwig_np_lo_r8_pt50_s1_1e3.yoda/PAPER_FIN_R8/XS_CUTS_pT_254_326
Legend=1
LogY=1
# END PLOT

# BEGIN HISTO1D /herwig_np_lo_r8_pt50_s1_1e3.yoda/PAPER_FIN_R8/XS_CUTS_pT_254_326
LineColor=red
LineStyle=solid
Path=/herwig_np_lo_r8_pt50_s1_1e3.yoda/PAPER_FIN_R8/XS_CUTS_pT_254_326
Title=herwig_np_lo_r8_pt50_s1_1e3
XLabel=~
YLabel=~
# xlow	 xhigh	 val	 errminus	 errplus
-5.000000e-01	5.000000e-01	2.705643e+02	8.561215e+00	8.561215e+00
# END HISTO1D

