# BEGIN PLOT
LegendOnly=/pythia_np_pt408_s1_1e3.yoda/PAPER_FIN_R8/lin_l05_pT_186_254
DrawOnly=/pythia_np_pt408_s1_1e3.yoda/PAPER_FIN_R8/lin_l05_pT_186_254
Legend=1
LogY=1
# END PLOT

# BEGIN HISTO1D /pythia_np_pt408_s1_1e3.yoda/PAPER_FIN_R8/lin_l05_pT_186_254
LineColor=red
LineStyle=solid
Path=/pythia_np_pt408_s1_1e3.yoda/PAPER_FIN_R8/lin_l05_pT_186_254
Title=pythia_np_pt408_s1_1e3
XLabel=~
YLabel=~
# xlow	 xhigh	 val	 errminus	 errplus
0.000000e+00	1.700000e-01	3.859392e+08	4.764694e+04	4.764694e+04
1.700000e-01	2.500000e-01	7.743510e+08	9.838388e+04	9.838388e+04
2.500000e-01	3.200000e-01	4.505507e+08	8.022742e+04	8.022742e+04
3.200000e-01	3.800000e-01	2.719192e+08	6.732003e+04	6.732003e+04
3.800000e-01	4.500000e-01	1.610363e+08	4.796372e+04	4.796372e+04
4.500000e-01	5.200000e-01	8.660791e+07	3.517465e+04	3.517465e+04
5.200000e-01	5.900000e-01	4.073991e+07	2.412465e+04	2.412465e+04
5.900000e-01	1.000000e+00	3.062915e+06	2.733226e+03	2.733226e+03
# END HISTO1D

