# BEGIN PLOT
LegendOnly=/pythia_np_pt408_s1_1e3.yoda/PAPER_FIN_R4/SD_l20_pT_150_186
DrawOnly=/pythia_np_pt408_s1_1e3.yoda/PAPER_FIN_R4/SD_l20_pT_150_186
Legend=1
LogY=1
# END PLOT

# BEGIN HISTO1D /pythia_np_pt408_s1_1e3.yoda/PAPER_FIN_R4/SD_l20_pT_150_186
LineColor=red
LineStyle=solid
Path=/pythia_np_pt408_s1_1e3.yoda/PAPER_FIN_R4/SD_l20_pT_150_186
Title=pythia_np_pt408_s1_1e3
XLabel=~
YLabel=~
# xlow	 xhigh	 val	 errminus	 errplus
-7.000000e+00	-6.930000e+00	5.285714e+02	8.689661e+01	8.689661e+01
-6.930000e+00	-6.860000e+00	2.828843e+06	6.357047e+03	6.357047e+03
-6.860000e+00	-6.790000e+00	8.428571e+02	1.097307e+02	1.097307e+02
-6.790000e+00	-6.720000e+00	1.271429e+03	1.347712e+02	1.347712e+02
-6.720000e+00	-6.650000e+00	8.857143e+02	1.124858e+02	1.124858e+02
-6.650000e+00	-6.580000e+00	1.114286e+03	1.261680e+02	1.261680e+02
-6.580000e+00	-6.510000e+00	1.400000e+03	1.414214e+02	1.414214e+02
-6.510000e+00	-6.440000e+00	1.414286e+03	1.421411e+02	1.421411e+02
-6.440000e+00	-6.370000e+00	1.528571e+03	1.477726e+02	1.477726e+02
-6.370000e+00	-6.300000e+00	2.028571e+03	1.702339e+02	1.702339e+02
-6.300000e+00	-6.230000e+00	2.628571e+03	1.937809e+02	1.937809e+02
-6.230000e+00	-6.160000e+00	2.928571e+03	2.045403e+02	2.045403e+02
-6.160000e+00	-6.090000e+00	3.285714e+03	2.166536e+02	2.166536e+02
-6.090000e+00	-6.020000e+00	3.928571e+03	2.369018e+02	2.369018e+02
-6.020000e+00	-5.950000e+00	4.457143e+03	2.523360e+02	2.523360e+02
-5.950000e+00	-5.880000e+00	5.900000e+03	2.903200e+02	2.903200e+02
-5.880000e+00	-5.810000e+00	6.685714e+03	3.090473e+02	3.090473e+02
-5.810000e+00	-5.740000e+00	7.357143e+03	3.241944e+02	3.241944e+02
-5.740000e+00	-5.670000e+00	7.957143e+03	3.371550e+02	3.371550e+02
-5.670000e+00	-5.600000e+00	1.041429e+04	3.857143e+02	3.857143e+02
-5.600000e+00	-5.530000e+00	1.165714e+04	4.080816e+02	4.080816e+02
-5.530000e+00	-5.460000e+00	1.485714e+04	4.607004e+02	4.607004e+02
-5.460000e+00	-5.390000e+00	2.672857e+04	6.179294e+02	6.179294e+02
-5.390000e+00	-5.320000e+00	6.532857e+04	9.660566e+02	9.660566e+02
-5.320000e+00	-5.250000e+00	1.145000e+05	1.278950e+03	1.278950e+03
-5.250000e+00	-5.180000e+00	1.309429e+05	1.367703e+03	1.367703e+03
-5.180000e+00	-5.110000e+00	1.151000e+05	1.282297e+03	1.282297e+03
-5.110000e+00	-5.040000e+00	8.688571e+04	1.114103e+03	1.114103e+03
-5.040000e+00	-4.970000e+00	7.115714e+04	1.008231e+03	1.008231e+03
-4.970000e+00	-4.900000e+00	6.897143e+04	9.926259e+02	9.926259e+02
-4.900000e+00	-4.830000e+00	7.780000e+04	1.054243e+03	1.054243e+03
-4.830000e+00	-4.760000e+00	9.475714e+04	1.163475e+03	1.163475e+03
-4.760000e+00	-4.690000e+00	1.116143e+05	1.262731e+03	1.262731e+03
-4.690000e+00	-4.620000e+00	1.325857e+05	1.376256e+03	1.376256e+03
-4.620000e+00	-4.550000e+00	1.608571e+05	1.515902e+03	1.515902e+03
-4.550000e+00	-4.480000e+00	1.925857e+05	1.658682e+03	1.658682e+03
-4.480000e+00	-4.410000e+00	2.364000e+05	1.837700e+03	1.837700e+03
-4.410000e+00	-4.340000e+00	2.894857e+05	2.033595e+03	2.033595e+03
-4.340000e+00	-4.270000e+00	3.488429e+05	2.232369e+03	2.232369e+03
-4.270000e+00	-4.200000e+00	4.077000e+05	2.413356e+03	2.413356e+03
-4.200000e+00	-4.130000e+00	4.961429e+05	2.662284e+03	2.662284e+03
-4.130000e+00	-4.060000e+00	6.031857e+05	2.935462e+03	2.935462e+03
-4.060000e+00	-3.990000e+00	7.445429e+05	3.261338e+03	3.261338e+03
-3.990000e+00	-3.920000e+00	9.299000e+05	3.644761e+03	3.644761e+03
-3.920000e+00	-3.850000e+00	1.148371e+06	4.050346e+03	4.050346e+03
-3.850000e+00	-3.780000e+00	1.376686e+06	4.434742e+03	4.434742e+03
-3.780000e+00	-3.710000e+00	1.637443e+06	4.836532e+03	4.836532e+03
-3.710000e+00	-3.640000e+00	1.935443e+06	5.258249e+03	5.258249e+03
-3.640000e+00	-3.570000e+00	2.297086e+06	5.728482e+03	5.728482e+03
-3.570000e+00	-3.500000e+00	2.750300e+06	6.268174e+03	6.268174e+03
-3.500000e+00	-3.430000e+00	3.321443e+06	6.888337e+03	6.888337e+03
-3.430000e+00	-3.360000e+00	4.011257e+06	7.569919e+03	7.569919e+03
-3.360000e+00	-3.290000e+00	4.813900e+06	8.292768e+03	8.292768e+03
-3.290000e+00	-3.220000e+00	5.732514e+06	9.049479e+03	9.049479e+03
-3.220000e+00	-3.150000e+00	6.760014e+06	9.827087e+03	9.827087e+03
-3.150000e+00	-3.080000e+00	7.850671e+06	1.059021e+04	1.059021e+04
-3.080000e+00	-3.010000e+00	8.996300e+06	1.133660e+04	1.133660e+04
-3.010000e+00	-2.940000e+00	1.006719e+07	1.199237e+04	1.199237e+04
-2.940000e+00	-2.870000e+00	1.112087e+07	1.260435e+04	1.260435e+04
-2.870000e+00	-2.800000e+00	1.202090e+07	1.310447e+04	1.310447e+04
-2.800000e+00	-2.730000e+00	1.276384e+07	1.350336e+04	1.350336e+04
-2.730000e+00	-2.660000e+00	1.332934e+07	1.379925e+04	1.379925e+04
-2.660000e+00	-2.590000e+00	1.368924e+07	1.398430e+04	1.398430e+04
-2.590000e+00	-2.520000e+00	1.387369e+07	1.407819e+04	1.407819e+04
-2.520000e+00	-2.450000e+00	1.395496e+07	1.411937e+04	1.411937e+04
-2.450000e+00	-2.380000e+00	1.388881e+07	1.408587e+04	1.408587e+04
-2.380000e+00	-2.310000e+00	1.371911e+07	1.399955e+04	1.399955e+04
-2.310000e+00	-2.240000e+00	1.341601e+07	1.384404e+04	1.384404e+04
-2.240000e+00	-2.170000e+00	1.289429e+07	1.357218e+04	1.357218e+04
-2.170000e+00	-2.100000e+00	1.226351e+07	1.323605e+04	1.323605e+04
-2.100000e+00	-2.030000e+00	1.160504e+07	1.287580e+04	1.287580e+04
-2.030000e+00	-1.960000e+00	1.097356e+07	1.252059e+04	1.252059e+04
-1.960000e+00	-1.890000e+00	1.048259e+07	1.223729e+04	1.223729e+04
-1.890000e+00	-1.820000e+00	1.008220e+07	1.200131e+04	1.200131e+04
-1.820000e+00	-1.750000e+00	9.766900e+06	1.181216e+04	1.181216e+04
-1.750000e+00	-1.680000e+00	9.539957e+06	1.167412e+04	1.167412e+04
-1.680000e+00	-1.610000e+00	9.394157e+06	1.158457e+04	1.158457e+04
-1.610000e+00	-1.540000e+00	9.325557e+06	1.154219e+04	1.154219e+04
-1.540000e+00	-1.470000e+00	9.326429e+06	1.154273e+04	1.154273e+04
-1.470000e+00	-1.400000e+00	9.378143e+06	1.157469e+04	1.157469e+04
-1.400000e+00	-1.330000e+00	9.513943e+06	1.165819e+04	1.165819e+04
-1.330000e+00	-1.260000e+00	9.909943e+06	1.189834e+04	1.189834e+04
-1.260000e+00	-1.190000e+00	1.055027e+07	1.227673e+04	1.227673e+04
-1.190000e+00	-1.120000e+00	1.139347e+07	1.275789e+04	1.275789e+04
-1.120000e+00	-1.050000e+00	1.243331e+07	1.332737e+04	1.332737e+04
-1.050000e+00	-9.800000e-01	1.331494e+07	1.379179e+04	1.379179e+04
-9.800000e-01	-9.100000e-01	1.363649e+07	1.395733e+04	1.395733e+04
-9.100000e-01	-8.400000e-01	1.321997e+07	1.374252e+04	1.374252e+04
-8.400000e-01	-7.700000e-01	1.220737e+07	1.320572e+04	1.320572e+04
-7.700000e-01	-7.000000e-01	1.070996e+07	1.236929e+04	1.236929e+04
-7.000000e-01	-6.300000e-01	8.622957e+06	1.109888e+04	1.109888e+04
-6.300000e-01	-5.600000e-01	6.093957e+06	9.330409e+03	9.330409e+03
-5.600000e-01	-4.900000e-01	3.223414e+06	6.785925e+03	6.785925e+03
-4.900000e-01	-4.200000e-01	1.076757e+06	3.922021e+03	3.922021e+03
-4.200000e-01	-3.500000e-01	2.171143e+05	1.761145e+03	1.761145e+03
-3.500000e-01	-2.800000e-01	2.164286e+04	5.560429e+02	5.560429e+02
-2.800000e-01	-2.100000e-01	6.000000e+02	9.258201e+01	9.258201e+01
-2.100000e-01	-1.400000e-01	0.000000e+00	0.000000e+00	0.000000e+00
-1.400000e-01	-7.000000e-02	0.000000e+00	0.000000e+00	0.000000e+00
-7.000000e-02	0.000000e+00	0.000000e+00	0.000000e+00	0.000000e+00
# END HISTO1D

