# BEGIN PLOT
LegendOnly=/pythia_np_pt408_s1_1e3.yoda/PAPER_FIN_R8/ch_lin_l20_pT_408_1500
DrawOnly=/pythia_np_pt408_s1_1e3.yoda/PAPER_FIN_R8/ch_lin_l20_pT_408_1500
Legend=1
LogY=1
# END PLOT

# BEGIN HISTO1D /pythia_np_pt408_s1_1e3.yoda/PAPER_FIN_R8/ch_lin_l20_pT_408_1500
LineColor=red
LineStyle=solid
Path=/pythia_np_pt408_s1_1e3.yoda/PAPER_FIN_R8/ch_lin_l20_pT_408_1500
Title=pythia_np_pt408_s1_1e3
XLabel=~
YLabel=~
# xlow	 xhigh	 val	 errminus	 errplus
0.000000e+00	5.000000e-03	6.846422e+08	3.700384e+05	3.700384e+05
5.000000e-03	1.250000e-02	1.121652e+09	3.867217e+05	3.867217e+05
1.250000e-02	2.250000e-02	7.659329e+08	2.767549e+05	2.767549e+05
2.250000e-02	3.500000e-02	4.377546e+08	1.871373e+05	1.871373e+05
3.500000e-02	5.000000e-02	2.522026e+08	1.296669e+05	1.296669e+05
5.000000e-02	7.000000e-02	1.483469e+08	8.612401e+04	8.612401e+04
7.000000e-02	9.250000e-02	9.009431e+07	6.327868e+04	6.327868e+04
9.250000e-02	1.200000e-01	5.677342e+07	4.543664e+04	4.543664e+04
1.200000e-01	1.520000e-01	3.584384e+07	3.346820e+04	3.346820e+04
1.520000e-01	1.880000e-01	2.222564e+07	2.484711e+04	2.484711e+04
1.880000e-01	2.280000e-01	1.298747e+07	1.801907e+04	1.801907e+04
2.280000e-01	1.000000e+00	4.440194e+05	7.583895e+02	7.583895e+02
# END HISTO1D

