# BEGIN PLOT
LegendOnly=/pythia_np_pt408_s1_1e3.yoda/PAPER_FIN_R8_CH/lin_l05_pT_408_1500
DrawOnly=/pythia_np_pt408_s1_1e3.yoda/PAPER_FIN_R8_CH/lin_l05_pT_408_1500
Legend=1
LogY=1
# END PLOT

# BEGIN HISTO1D /pythia_np_pt408_s1_1e3.yoda/PAPER_FIN_R8_CH/lin_l05_pT_408_1500
LineColor=red
LineStyle=solid
Path=/pythia_np_pt408_s1_1e3.yoda/PAPER_FIN_R8_CH/lin_l05_pT_408_1500
Title=pythia_np_pt408_s1_1e3
XLabel=~
YLabel=~
# xlow	 xhigh	 val	 errminus	 errplus
0.000000e+00	6.000000e-02	9.299683e+06	1.244969e+04	1.244969e+04
6.000000e-02	1.100000e-01	1.571941e+08	5.607033e+04	5.607033e+04
1.100000e-01	1.500000e-01	1.956157e+08	6.993133e+04	6.993133e+04
1.500000e-01	1.900000e-01	1.459451e+08	6.040388e+04	6.040388e+04
1.900000e-01	2.300000e-01	1.081926e+08	5.200784e+04	5.200784e+04
2.300000e-01	2.700000e-01	8.036647e+07	4.482368e+04	4.482368e+04
2.700000e-01	3.100000e-01	5.992338e+07	3.870509e+04	3.870509e+04
3.100000e-01	3.500000e-01	4.484378e+07	3.348275e+04	3.348275e+04
3.500000e-01	3.900000e-01	3.353090e+07	2.895294e+04	2.895294e+04
3.900000e-01	4.400000e-01	2.395564e+07	2.188865e+04	2.188865e+04
4.400000e-01	4.900000e-01	1.603780e+07	1.790966e+04	1.790966e+04
4.900000e-01	5.400000e-01	1.002876e+07	1.416246e+04	1.416246e+04
5.400000e-01	6.000000e-01	5.162800e+06	9.276134e+03	9.276134e+03
6.000000e-01	1.000000e+00	3.744150e+05	9.674903e+02	9.674903e+02
# END HISTO1D

