# BEGIN PLOT
LegendOnly=/pythia_np_pt408_s1_1e3.yoda/PAPER_FIN_R4/ch_lin_l05_pT_150_186
DrawOnly=/pythia_np_pt408_s1_1e3.yoda/PAPER_FIN_R4/ch_lin_l05_pT_150_186
Legend=1
LogY=1
# END PLOT

# BEGIN HISTO1D /pythia_np_pt408_s1_1e3.yoda/PAPER_FIN_R4/ch_lin_l05_pT_150_186
LineColor=red
LineStyle=solid
Path=/pythia_np_pt408_s1_1e3.yoda/PAPER_FIN_R4/ch_lin_l05_pT_150_186
Title=pythia_np_pt408_s1_1e3
XLabel=~
YLabel=~
# xlow	 xhigh	 val	 errminus	 errplus
0.000000e+00	6.000000e-02	5.558517e+06	9.625069e+03	9.625069e+03
6.000000e-02	1.100000e-01	2.951064e+07	2.429430e+04	2.429430e+04
1.100000e-01	1.500000e-01	7.037820e+07	4.194586e+04	4.194586e+04
1.500000e-01	1.900000e-01	1.011759e+08	5.029313e+04	5.029313e+04
1.900000e-01	2.300000e-01	1.089020e+08	5.217807e+04	5.217807e+04
2.300000e-01	2.700000e-01	1.015696e+08	5.039087e+04	5.039087e+04
2.700000e-01	3.100000e-01	8.900548e+07	4.717136e+04	4.717136e+04
3.100000e-01	3.500000e-01	7.487845e+07	4.326617e+04	4.326617e+04
3.500000e-01	3.900000e-01	6.085192e+07	3.900382e+04	3.900382e+04
3.900000e-01	4.400000e-01	4.658230e+07	3.052288e+04	3.052288e+04
4.400000e-01	4.900000e-01	3.328870e+07	2.580260e+04	2.580260e+04
4.900000e-01	5.400000e-01	2.255466e+07	2.123895e+04	2.123895e+04
5.400000e-01	6.000000e-01	1.319662e+07	1.483050e+04	1.483050e+04
6.000000e-01	1.000000e+00	1.197500e+06	1.730246e+03	1.730246e+03
# END HISTO1D

