# BEGIN PLOT
LegendOnly=/zj_ps_nlo_mer_cent_R4.yoda/PAPER_FIN_R4/SD_l10_pT_408_1500
DrawOnly=/zj_ps_nlo_mer_cent_R4.yoda/PAPER_FIN_R4/SD_l10_pT_408_1500
Legend=1
LogY=1
# END PLOT

# BEGIN HISTO1D /zj_ps_nlo_mer_cent_R4.yoda/PAPER_FIN_R4/SD_l10_pT_408_1500
LineColor=red
LineStyle=solid
Path=/zj_ps_nlo_mer_cent_R4.yoda/PAPER_FIN_R4/SD_l10_pT_408_1500
Title=zj_ps_nlo_mer_cent_R4
XLabel=~
YLabel=~
# xlow	 xhigh	 val	 errminus	 errplus
-7.000000e+00	-6.930000e+00	0.000000e+00	0.000000e+00	0.000000e+00
-6.930000e+00	-6.860000e+00	1.319756e+09	1.188180e+07	1.188180e+07
-6.860000e+00	-6.790000e+00	0.000000e+00	0.000000e+00	0.000000e+00
-6.790000e+00	-6.720000e+00	0.000000e+00	0.000000e+00	0.000000e+00
-6.720000e+00	-6.650000e+00	0.000000e+00	0.000000e+00	0.000000e+00
-6.650000e+00	-6.580000e+00	0.000000e+00	0.000000e+00	0.000000e+00
-6.580000e+00	-6.510000e+00	0.000000e+00	0.000000e+00	0.000000e+00
-6.510000e+00	-6.440000e+00	0.000000e+00	0.000000e+00	0.000000e+00
-6.440000e+00	-6.370000e+00	0.000000e+00	0.000000e+00	0.000000e+00
-6.370000e+00	-6.300000e+00	0.000000e+00	0.000000e+00	0.000000e+00
-6.300000e+00	-6.230000e+00	0.000000e+00	0.000000e+00	0.000000e+00
-6.230000e+00	-6.160000e+00	0.000000e+00	0.000000e+00	0.000000e+00
-6.160000e+00	-6.090000e+00	0.000000e+00	0.000000e+00	0.000000e+00
-6.090000e+00	-6.020000e+00	0.000000e+00	0.000000e+00	0.000000e+00
-6.020000e+00	-5.950000e+00	0.000000e+00	0.000000e+00	0.000000e+00
-5.950000e+00	-5.880000e+00	0.000000e+00	0.000000e+00	0.000000e+00
-5.880000e+00	-5.810000e+00	0.000000e+00	0.000000e+00	0.000000e+00
-5.810000e+00	-5.740000e+00	0.000000e+00	0.000000e+00	0.000000e+00
-5.740000e+00	-5.670000e+00	-2.202889e+01	2.202888e+01	2.202888e+01
-5.670000e+00	-5.600000e+00	0.000000e+00	0.000000e+00	0.000000e+00
-5.600000e+00	-5.530000e+00	0.000000e+00	0.000000e+00	0.000000e+00
-5.530000e+00	-5.460000e+00	-1.016996e-02	1.016996e-02	1.016996e-02
-5.460000e+00	-5.390000e+00	0.000000e+00	0.000000e+00	0.000000e+00
-5.390000e+00	-5.320000e+00	0.000000e+00	0.000000e+00	0.000000e+00
-5.320000e+00	-5.250000e+00	0.000000e+00	0.000000e+00	0.000000e+00
-5.250000e+00	-5.180000e+00	-1.181840e+00	1.175058e+00	1.175058e+00
-5.180000e+00	-5.110000e+00	0.000000e+00	0.000000e+00	0.000000e+00
-5.110000e+00	-5.040000e+00	1.489479e-02	1.525918e-02	1.525918e-02
-5.040000e+00	-4.970000e+00	-1.552666e-01	1.736138e-01	1.736138e-01
-4.970000e+00	-4.900000e+00	-1.472614e+03	1.472596e+03	1.472596e+03
-4.900000e+00	-4.830000e+00	8.276113e+01	8.320215e+01	8.320215e+01
-4.830000e+00	-4.760000e+00	-2.743420e+01	2.227315e+01	2.227315e+01
-4.760000e+00	-4.690000e+00	5.123790e+01	5.143109e+01	5.143109e+01
-4.690000e+00	-4.620000e+00	-3.199394e-02	2.519268e+00	2.519268e+00
-4.620000e+00	-4.550000e+00	3.345913e+02	1.734818e+02	1.734818e+02
-4.550000e+00	-4.480000e+00	-3.663269e+02	3.285898e+02	3.285898e+02
-4.480000e+00	-4.410000e+00	1.065647e+03	8.025950e+02	8.025950e+02
-4.410000e+00	-4.340000e+00	3.708591e+02	1.049667e+03	1.049667e+03
-4.340000e+00	-4.270000e+00	-7.648647e+02	7.695443e+02	7.695443e+02
-4.270000e+00	-4.200000e+00	4.822959e+03	3.041005e+03	3.041005e+03
-4.200000e+00	-4.130000e+00	4.357684e+03	3.354135e+03	3.354135e+03
-4.130000e+00	-4.060000e+00	2.012076e+04	9.774969e+03	9.774969e+03
-4.060000e+00	-3.990000e+00	-8.194789e+03	8.560103e+03	8.560103e+03
-3.990000e+00	-3.920000e+00	2.094259e+03	2.170017e+03	2.170017e+03
-3.920000e+00	-3.850000e+00	5.793900e+03	4.332105e+03	4.332105e+03
-3.850000e+00	-3.780000e+00	3.654980e+04	2.743399e+04	2.743399e+04
-3.780000e+00	-3.710000e+00	3.413549e+04	1.687630e+04	1.687630e+04
-3.710000e+00	-3.640000e+00	8.630231e+03	1.262213e+04	1.262213e+04
-3.640000e+00	-3.570000e+00	1.861349e+05	1.140999e+05	1.140999e+05
-3.570000e+00	-3.500000e+00	8.215493e+04	7.822726e+04	7.822726e+04
-3.500000e+00	-3.430000e+00	-1.946959e+05	2.974267e+05	2.974267e+05
-3.430000e+00	-3.360000e+00	2.974711e+06	2.593852e+06	2.593852e+06
-3.360000e+00	-3.290000e+00	1.660503e+05	8.323033e+04	8.323033e+04
-3.290000e+00	-3.220000e+00	9.274286e+04	4.809213e+04	4.809213e+04
-3.220000e+00	-3.150000e+00	2.926870e+05	9.162889e+04	9.162889e+04
-3.150000e+00	-3.080000e+00	8.562974e+05	2.355997e+05	2.355997e+05
-3.080000e+00	-3.010000e+00	1.155392e+06	5.155459e+05	5.155459e+05
-3.010000e+00	-2.940000e+00	1.071090e+06	3.018331e+05	3.018331e+05
-2.940000e+00	-2.870000e+00	1.436747e+06	1.852444e+05	1.852444e+05
-2.870000e+00	-2.800000e+00	1.808293e+06	2.412565e+05	2.412565e+05
-2.800000e+00	-2.730000e+00	2.116557e+06	3.201726e+05	3.201726e+05
-2.730000e+00	-2.660000e+00	4.116517e+06	2.951886e+05	2.951886e+05
-2.660000e+00	-2.590000e+00	7.325499e+06	3.807906e+05	3.807906e+05
-2.590000e+00	-2.520000e+00	1.099379e+07	5.743801e+05	5.743801e+05
-2.520000e+00	-2.450000e+00	1.534439e+07	5.829767e+05	5.829767e+05
-2.450000e+00	-2.380000e+00	2.329350e+07	8.089451e+05	8.089451e+05
-2.380000e+00	-2.310000e+00	3.603537e+07	7.752645e+05	7.752645e+05
-2.310000e+00	-2.240000e+00	2.601919e+07	2.682378e+07	2.682378e+07
-2.240000e+00	-2.170000e+00	9.243983e+07	3.589905e+06	3.589905e+06
-2.170000e+00	-2.100000e+00	1.304179e+08	3.393127e+06	3.393127e+06
-2.100000e+00	-2.030000e+00	1.440601e+08	4.152583e+06	4.152583e+06
-2.030000e+00	-1.960000e+00	1.453141e+08	9.257619e+06	9.257619e+06
-1.960000e+00	-1.890000e+00	1.514624e+08	4.255626e+06	4.255626e+06
-1.890000e+00	-1.820000e+00	1.555184e+08	3.552160e+06	3.552160e+06
-1.820000e+00	-1.750000e+00	1.640647e+08	2.801797e+06	2.801797e+06
-1.750000e+00	-1.680000e+00	1.669183e+08	4.682314e+06	4.682314e+06
-1.680000e+00	-1.610000e+00	1.730717e+08	2.628632e+06	2.628632e+06
-1.610000e+00	-1.540000e+00	1.726351e+08	6.410720e+06	6.410720e+06
-1.540000e+00	-1.470000e+00	1.709586e+08	5.053049e+06	5.053049e+06
-1.470000e+00	-1.400000e+00	1.681179e+08	6.436812e+06	6.436812e+06
-1.400000e+00	-1.330000e+00	1.647257e+08	1.002507e+07	1.002507e+07
-1.330000e+00	-1.260000e+00	1.823107e+08	2.813385e+06	2.813385e+06
-1.260000e+00	-1.190000e+00	1.759670e+08	3.579292e+06	3.579292e+06
-1.190000e+00	-1.120000e+00	1.821451e+08	5.240620e+06	5.240620e+06
-1.120000e+00	-1.050000e+00	1.910846e+08	3.153649e+06	3.153649e+06
-1.050000e+00	-9.800000e-01	1.919023e+08	4.881903e+06	4.881903e+06
-9.800000e-01	-9.100000e-01	2.063979e+08	4.020347e+06	4.020347e+06
-9.100000e-01	-8.400000e-01	2.061369e+08	3.063247e+06	3.063247e+06
-8.400000e-01	-7.700000e-01	1.837313e+08	8.829146e+06	8.829146e+06
-7.700000e-01	-7.000000e-01	1.821080e+08	6.977799e+06	6.977799e+06
-7.000000e-01	-6.300000e-01	1.792336e+08	3.433223e+06	3.433223e+06
-6.300000e-01	-5.600000e-01	1.472929e+08	4.325861e+06	4.325861e+06
-5.600000e-01	-4.900000e-01	1.363846e+08	4.148486e+06	4.148486e+06
-4.900000e-01	-4.200000e-01	1.022779e+08	4.526775e+06	4.526775e+06
-4.200000e-01	-3.500000e-01	7.160737e+07	2.338792e+06	2.338792e+06
-3.500000e-01	-2.800000e-01	3.811029e+07	1.394027e+06	1.394027e+06
-2.800000e-01	-2.100000e-01	1.026191e+07	7.231031e+05	7.231031e+05
-2.100000e-01	-1.400000e-01	1.532044e+06	1.593017e+05	1.593017e+05
-1.400000e-01	-7.000000e-02	1.683457e+05	8.000624e+04	8.000624e+04
-7.000000e-02	0.000000e+00	-3.309930e+03	4.225758e+03	4.225758e+03
# END HISTO1D

