# BEGIN PLOT
LegendOnly=/zj_ps_nlo_mer_cent_R4.yoda/PAPER_FIN_R4/ch_SD_l10_pT_88_120
DrawOnly=/zj_ps_nlo_mer_cent_R4.yoda/PAPER_FIN_R4/ch_SD_l10_pT_88_120
Legend=1
LogY=1
# END PLOT

# BEGIN HISTO1D /zj_ps_nlo_mer_cent_R4.yoda/PAPER_FIN_R4/ch_SD_l10_pT_88_120
LineColor=red
LineStyle=solid
Path=/zj_ps_nlo_mer_cent_R4.yoda/PAPER_FIN_R4/ch_SD_l10_pT_88_120
Title=zj_ps_nlo_mer_cent_R4
XLabel=~
YLabel=~
# xlow	 xhigh	 val	 errminus	 errplus
-7.000000e+00	-6.930000e+00	0.000000e+00	0.000000e+00	0.000000e+00
-6.930000e+00	-6.860000e+00	-6.522813e+06	1.048802e+07	1.048802e+07
-6.860000e+00	-6.790000e+00	0.000000e+00	0.000000e+00	0.000000e+00
-6.790000e+00	-6.720000e+00	0.000000e+00	0.000000e+00	0.000000e+00
-6.720000e+00	-6.650000e+00	0.000000e+00	0.000000e+00	0.000000e+00
-6.650000e+00	-6.580000e+00	0.000000e+00	0.000000e+00	0.000000e+00
-6.580000e+00	-6.510000e+00	0.000000e+00	0.000000e+00	0.000000e+00
-6.510000e+00	-6.440000e+00	0.000000e+00	0.000000e+00	0.000000e+00
-6.440000e+00	-6.370000e+00	0.000000e+00	0.000000e+00	0.000000e+00
-6.370000e+00	-6.300000e+00	0.000000e+00	0.000000e+00	0.000000e+00
-6.300000e+00	-6.230000e+00	0.000000e+00	0.000000e+00	0.000000e+00
-6.230000e+00	-6.160000e+00	0.000000e+00	0.000000e+00	0.000000e+00
-6.160000e+00	-6.090000e+00	0.000000e+00	0.000000e+00	0.000000e+00
-6.090000e+00	-6.020000e+00	0.000000e+00	0.000000e+00	0.000000e+00
-6.020000e+00	-5.950000e+00	0.000000e+00	0.000000e+00	0.000000e+00
-5.950000e+00	-5.880000e+00	0.000000e+00	0.000000e+00	0.000000e+00
-5.880000e+00	-5.810000e+00	0.000000e+00	0.000000e+00	0.000000e+00
-5.810000e+00	-5.740000e+00	0.000000e+00	0.000000e+00	0.000000e+00
-5.740000e+00	-5.670000e+00	0.000000e+00	0.000000e+00	0.000000e+00
-5.670000e+00	-5.600000e+00	0.000000e+00	0.000000e+00	0.000000e+00
-5.600000e+00	-5.530000e+00	0.000000e+00	0.000000e+00	0.000000e+00
-5.530000e+00	-5.460000e+00	0.000000e+00	0.000000e+00	0.000000e+00
-5.460000e+00	-5.390000e+00	0.000000e+00	0.000000e+00	0.000000e+00
-5.390000e+00	-5.320000e+00	0.000000e+00	0.000000e+00	0.000000e+00
-5.320000e+00	-5.250000e+00	0.000000e+00	0.000000e+00	0.000000e+00
-5.250000e+00	-5.180000e+00	0.000000e+00	0.000000e+00	0.000000e+00
-5.180000e+00	-5.110000e+00	0.000000e+00	0.000000e+00	0.000000e+00
-5.110000e+00	-5.040000e+00	0.000000e+00	0.000000e+00	0.000000e+00
-5.040000e+00	-4.970000e+00	0.000000e+00	0.000000e+00	0.000000e+00
-4.970000e+00	-4.900000e+00	0.000000e+00	0.000000e+00	0.000000e+00
-4.900000e+00	-4.830000e+00	0.000000e+00	0.000000e+00	0.000000e+00
-4.830000e+00	-4.760000e+00	0.000000e+00	0.000000e+00	0.000000e+00
-4.760000e+00	-4.690000e+00	0.000000e+00	0.000000e+00	0.000000e+00
-4.690000e+00	-4.620000e+00	0.000000e+00	0.000000e+00	0.000000e+00
-4.620000e+00	-4.550000e+00	0.000000e+00	0.000000e+00	0.000000e+00
-4.550000e+00	-4.480000e+00	0.000000e+00	0.000000e+00	0.000000e+00
-4.480000e+00	-4.410000e+00	0.000000e+00	0.000000e+00	0.000000e+00
-4.410000e+00	-4.340000e+00	0.000000e+00	0.000000e+00	0.000000e+00
-4.340000e+00	-4.270000e+00	0.000000e+00	0.000000e+00	0.000000e+00
-4.270000e+00	-4.200000e+00	0.000000e+00	0.000000e+00	0.000000e+00
-4.200000e+00	-4.130000e+00	0.000000e+00	0.000000e+00	0.000000e+00
-4.130000e+00	-4.060000e+00	7.404897e+03	7.404898e+03	7.404898e+03
-4.060000e+00	-3.990000e+00	0.000000e+00	0.000000e+00	0.000000e+00
-3.990000e+00	-3.920000e+00	0.000000e+00	0.000000e+00	0.000000e+00
-3.920000e+00	-3.850000e+00	0.000000e+00	0.000000e+00	0.000000e+00
-3.850000e+00	-3.780000e+00	0.000000e+00	0.000000e+00	0.000000e+00
-3.780000e+00	-3.710000e+00	0.000000e+00	0.000000e+00	0.000000e+00
-3.710000e+00	-3.640000e+00	3.294203e-02	3.294203e-02	3.294203e-02
-3.640000e+00	-3.570000e+00	6.711494e-03	6.711495e-03	6.711495e-03
-3.570000e+00	-3.500000e+00	0.000000e+00	0.000000e+00	0.000000e+00
-3.500000e+00	-3.430000e+00	-1.634647e+00	1.634648e+00	1.634648e+00
-3.430000e+00	-3.360000e+00	-9.774157e+01	9.774157e+01	9.774157e+01
-3.360000e+00	-3.290000e+00	4.712769e+00	4.712768e+00	4.712768e+00
-3.290000e+00	-3.220000e+00	-1.293268e+03	2.743996e+03	2.743996e+03
-3.220000e+00	-3.150000e+00	-3.136140e+01	3.093325e+01	3.093325e+01
-3.150000e+00	-3.080000e+00	-1.242311e+03	1.276087e+03	1.276087e+03
-3.080000e+00	-3.010000e+00	-6.058600e+02	6.182997e+02	6.182997e+02
-3.010000e+00	-2.940000e+00	-2.248200e+03	2.386187e+03	2.386187e+03
-2.940000e+00	-2.870000e+00	-3.288431e+02	4.809362e+02	4.809362e+02
-2.870000e+00	-2.800000e+00	1.415528e+01	1.378016e+02	1.378016e+02
-2.800000e+00	-2.730000e+00	-1.193275e+04	7.676285e+03	7.676285e+03
-2.730000e+00	-2.660000e+00	-4.203214e+03	2.369444e+03	2.369444e+03
-2.660000e+00	-2.590000e+00	-5.629281e+03	2.608646e+04	2.608646e+04
-2.590000e+00	-2.520000e+00	-1.020305e+05	7.075582e+04	7.075582e+04
-2.520000e+00	-2.450000e+00	2.514337e+04	1.974220e+04	1.974220e+04
-2.450000e+00	-2.380000e+00	-1.891979e+04	2.330403e+04	2.330403e+04
-2.380000e+00	-2.310000e+00	9.106374e+03	2.394144e+04	2.394144e+04
-2.310000e+00	-2.240000e+00	-2.019250e+02	4.598653e+04	4.598653e+04
-2.240000e+00	-2.170000e+00	-1.821143e+04	6.110353e+04	6.110353e+04
-2.170000e+00	-2.100000e+00	5.802183e+04	8.501144e+04	8.501144e+04
-2.100000e+00	-2.030000e+00	8.915663e+04	6.217922e+04	6.217922e+04
-2.030000e+00	-1.960000e+00	6.947913e+04	1.974484e+05	1.974484e+05
-1.960000e+00	-1.890000e+00	-3.969644e+05	4.467057e+05	4.467057e+05
-1.890000e+00	-1.820000e+00	-9.410467e+05	5.038079e+05	5.038079e+05
-1.820000e+00	-1.750000e+00	-4.558206e+05	4.890985e+05	4.890985e+05
-1.750000e+00	-1.680000e+00	-5.287129e+05	5.460070e+05	5.460070e+05
-1.680000e+00	-1.610000e+00	7.798833e+05	6.091082e+05	6.091082e+05
-1.610000e+00	-1.540000e+00	-4.318424e+05	1.245758e+06	1.245758e+06
-1.540000e+00	-1.470000e+00	-1.397119e+06	7.072407e+05	7.072407e+05
-1.470000e+00	-1.400000e+00	-8.070150e+05	8.922292e+05	8.922292e+05
-1.400000e+00	-1.330000e+00	-1.584184e+04	7.332153e+05	7.332153e+05
-1.330000e+00	-1.260000e+00	-1.081842e+06	7.464970e+05	7.464970e+05
-1.260000e+00	-1.190000e+00	-1.769426e+06	9.483031e+05	9.483031e+05
-1.190000e+00	-1.120000e+00	2.621851e+06	1.907995e+06	1.907995e+06
-1.120000e+00	-1.050000e+00	-4.240509e+05	1.444883e+06	1.444883e+06
-1.050000e+00	-9.800000e-01	-5.748224e+06	1.726847e+06	1.726847e+06
-9.800000e-01	-9.100000e-01	-3.120839e+06	2.799379e+06	2.799379e+06
-9.100000e-01	-8.400000e-01	-1.441511e+06	1.372747e+06	1.372747e+06
-8.400000e-01	-7.700000e-01	-1.652104e+05	1.169302e+06	1.169302e+06
-7.700000e-01	-7.000000e-01	7.944783e+05	8.349887e+05	8.349887e+05
-7.000000e-01	-6.300000e-01	3.151769e+05	7.203957e+05	7.203957e+05
-6.300000e-01	-5.600000e-01	8.529601e+05	9.862494e+05	9.862494e+05
-5.600000e-01	-4.900000e-01	-6.556559e+05	8.373604e+05	8.373604e+05
-4.900000e-01	-4.200000e-01	-4.364556e+05	5.822122e+05	5.822122e+05
-4.200000e-01	-3.500000e-01	-2.246747e+05	4.850649e+05	4.850649e+05
-3.500000e-01	-2.800000e-01	1.783044e+05	2.292015e+05	2.292015e+05
-2.800000e-01	-2.100000e-01	-5.506410e+03	5.501746e+04	5.501746e+04
-2.100000e-01	-1.400000e-01	-3.026981e+03	4.198060e+03	4.198060e+03
-1.400000e-01	-7.000000e-02	1.991476e+02	1.824362e+02	1.824362e+02
-7.000000e-02	0.000000e+00	0.000000e+00	0.000000e+00	0.000000e+00
# END HISTO1D

