# BEGIN PLOT
LegendOnly=/zj_ps_nlo_mer_cent_R4.yoda/PAPER_FIN_R4/ch_SD_l10_pT_120_150
DrawOnly=/zj_ps_nlo_mer_cent_R4.yoda/PAPER_FIN_R4/ch_SD_l10_pT_120_150
Legend=1
LogY=1
# END PLOT

# BEGIN HISTO1D /zj_ps_nlo_mer_cent_R4.yoda/PAPER_FIN_R4/ch_SD_l10_pT_120_150
LineColor=red
LineStyle=solid
Path=/zj_ps_nlo_mer_cent_R4.yoda/PAPER_FIN_R4/ch_SD_l10_pT_120_150
Title=zj_ps_nlo_mer_cent_R4
XLabel=~
YLabel=~
# xlow	 xhigh	 val	 errminus	 errplus
-7.000000e+00	-6.930000e+00	0.000000e+00	0.000000e+00	0.000000e+00
-6.930000e+00	-6.860000e+00	1.577880e+08	1.854938e+07	1.854938e+07
-6.860000e+00	-6.790000e+00	0.000000e+00	0.000000e+00	0.000000e+00
-6.790000e+00	-6.720000e+00	0.000000e+00	0.000000e+00	0.000000e+00
-6.720000e+00	-6.650000e+00	0.000000e+00	0.000000e+00	0.000000e+00
-6.650000e+00	-6.580000e+00	0.000000e+00	0.000000e+00	0.000000e+00
-6.580000e+00	-6.510000e+00	0.000000e+00	0.000000e+00	0.000000e+00
-6.510000e+00	-6.440000e+00	0.000000e+00	0.000000e+00	0.000000e+00
-6.440000e+00	-6.370000e+00	0.000000e+00	0.000000e+00	0.000000e+00
-6.370000e+00	-6.300000e+00	0.000000e+00	0.000000e+00	0.000000e+00
-6.300000e+00	-6.230000e+00	0.000000e+00	0.000000e+00	0.000000e+00
-6.230000e+00	-6.160000e+00	0.000000e+00	0.000000e+00	0.000000e+00
-6.160000e+00	-6.090000e+00	0.000000e+00	0.000000e+00	0.000000e+00
-6.090000e+00	-6.020000e+00	0.000000e+00	0.000000e+00	0.000000e+00
-6.020000e+00	-5.950000e+00	0.000000e+00	0.000000e+00	0.000000e+00
-5.950000e+00	-5.880000e+00	0.000000e+00	0.000000e+00	0.000000e+00
-5.880000e+00	-5.810000e+00	0.000000e+00	0.000000e+00	0.000000e+00
-5.810000e+00	-5.740000e+00	0.000000e+00	0.000000e+00	0.000000e+00
-5.740000e+00	-5.670000e+00	0.000000e+00	0.000000e+00	0.000000e+00
-5.670000e+00	-5.600000e+00	0.000000e+00	0.000000e+00	0.000000e+00
-5.600000e+00	-5.530000e+00	0.000000e+00	0.000000e+00	0.000000e+00
-5.530000e+00	-5.460000e+00	0.000000e+00	0.000000e+00	0.000000e+00
-5.460000e+00	-5.390000e+00	0.000000e+00	0.000000e+00	0.000000e+00
-5.390000e+00	-5.320000e+00	0.000000e+00	0.000000e+00	0.000000e+00
-5.320000e+00	-5.250000e+00	0.000000e+00	0.000000e+00	0.000000e+00
-5.250000e+00	-5.180000e+00	0.000000e+00	0.000000e+00	0.000000e+00
-5.180000e+00	-5.110000e+00	0.000000e+00	0.000000e+00	0.000000e+00
-5.110000e+00	-5.040000e+00	0.000000e+00	0.000000e+00	0.000000e+00
-5.040000e+00	-4.970000e+00	0.000000e+00	0.000000e+00	0.000000e+00
-4.970000e+00	-4.900000e+00	0.000000e+00	0.000000e+00	0.000000e+00
-4.900000e+00	-4.830000e+00	0.000000e+00	0.000000e+00	0.000000e+00
-4.830000e+00	-4.760000e+00	0.000000e+00	0.000000e+00	0.000000e+00
-4.760000e+00	-4.690000e+00	0.000000e+00	0.000000e+00	0.000000e+00
-4.690000e+00	-4.620000e+00	0.000000e+00	0.000000e+00	0.000000e+00
-4.620000e+00	-4.550000e+00	0.000000e+00	0.000000e+00	0.000000e+00
-4.550000e+00	-4.480000e+00	0.000000e+00	0.000000e+00	0.000000e+00
-4.480000e+00	-4.410000e+00	0.000000e+00	0.000000e+00	0.000000e+00
-4.410000e+00	-4.340000e+00	0.000000e+00	0.000000e+00	0.000000e+00
-4.340000e+00	-4.270000e+00	0.000000e+00	0.000000e+00	0.000000e+00
-4.270000e+00	-4.200000e+00	0.000000e+00	0.000000e+00	0.000000e+00
-4.200000e+00	-4.130000e+00	0.000000e+00	0.000000e+00	0.000000e+00
-4.130000e+00	-4.060000e+00	-1.157440e+00	1.157440e+00	1.157440e+00
-4.060000e+00	-3.990000e+00	-2.143960e+01	2.143960e+01	2.143960e+01
-3.990000e+00	-3.920000e+00	1.882880e-01	1.882879e-01	1.882879e-01
-3.920000e+00	-3.850000e+00	1.680777e+03	1.680777e+03	1.680777e+03
-3.850000e+00	-3.780000e+00	-8.081737e+01	8.081738e+01	8.081738e+01
-3.780000e+00	-3.710000e+00	-6.277906e+00	6.277906e+00	6.277906e+00
-3.710000e+00	-3.640000e+00	6.755226e-05	6.755226e-05	6.755226e-05
-3.640000e+00	-3.570000e+00	-6.196863e+00	4.363714e+00	4.363714e+00
-3.570000e+00	-3.500000e+00	0.000000e+00	0.000000e+00	0.000000e+00
-3.500000e+00	-3.430000e+00	-3.829389e+01	1.024882e+02	1.024882e+02
-3.430000e+00	-3.360000e+00	3.776104e+03	3.800294e+03	3.800294e+03
-3.360000e+00	-3.290000e+00	-3.300420e+03	2.867167e+03	2.867167e+03
-3.290000e+00	-3.220000e+00	2.045859e+03	2.116093e+03	2.116093e+03
-3.220000e+00	-3.150000e+00	8.868533e+03	6.670087e+03	6.670087e+03
-3.150000e+00	-3.080000e+00	-4.424051e+03	3.981885e+03	3.981885e+03
-3.080000e+00	-3.010000e+00	-7.045596e+02	1.179428e+03	1.179428e+03
-3.010000e+00	-2.940000e+00	-1.548057e+04	1.271546e+04	1.271546e+04
-2.940000e+00	-2.870000e+00	6.727777e+02	8.403316e+03	8.403316e+03
-2.870000e+00	-2.800000e+00	1.339650e+04	1.223814e+04	1.223814e+04
-2.800000e+00	-2.730000e+00	4.468130e+04	2.789149e+04	2.789149e+04
-2.730000e+00	-2.660000e+00	4.948387e+04	3.351625e+04	3.351625e+04
-2.660000e+00	-2.590000e+00	-3.783019e+04	7.081979e+04	7.081979e+04
-2.590000e+00	-2.520000e+00	1.000545e+04	5.785594e+04	5.785594e+04
-2.520000e+00	-2.450000e+00	-7.540057e+03	1.061637e+05	1.061637e+05
-2.450000e+00	-2.380000e+00	9.176870e+04	6.793579e+04	6.793579e+04
-2.380000e+00	-2.310000e+00	1.747377e+04	8.704714e+04	8.704714e+04
-2.310000e+00	-2.240000e+00	9.981246e+04	8.115192e+04	8.115192e+04
-2.240000e+00	-2.170000e+00	9.242453e+04	1.607491e+05	1.607491e+05
-2.170000e+00	-2.100000e+00	2.557116e+05	2.079736e+05	2.079736e+05
-2.100000e+00	-2.030000e+00	5.411453e+05	3.601532e+05	3.601532e+05
-2.030000e+00	-1.960000e+00	5.284920e+05	4.976959e+05	4.976959e+05
-1.960000e+00	-1.890000e+00	5.138084e+05	6.716627e+05	6.716627e+05
-1.890000e+00	-1.820000e+00	3.350364e+06	1.576215e+06	1.576215e+06
-1.820000e+00	-1.750000e+00	1.997529e+06	7.894715e+05	7.894715e+05
-1.750000e+00	-1.680000e+00	5.761890e+05	1.181550e+06	1.181550e+06
-1.680000e+00	-1.610000e+00	2.762173e+06	1.262963e+06	1.262963e+06
-1.610000e+00	-1.540000e+00	1.654601e+06	1.714779e+06	1.714779e+06
-1.540000e+00	-1.470000e+00	2.036016e+06	1.505222e+06	1.505222e+06
-1.470000e+00	-1.400000e+00	7.473954e+06	4.055757e+06	4.055757e+06
-1.400000e+00	-1.330000e+00	8.075173e+06	2.997496e+06	2.997496e+06
-1.330000e+00	-1.260000e+00	6.674926e+06	2.642854e+06	2.642854e+06
-1.260000e+00	-1.190000e+00	2.376247e+06	2.483495e+06	2.483495e+06
-1.190000e+00	-1.120000e+00	5.402486e+06	1.915444e+06	1.915444e+06
-1.120000e+00	-1.050000e+00	6.460599e+06	3.920325e+06	3.920325e+06
-1.050000e+00	-9.800000e-01	8.493287e+06	2.266306e+06	2.266306e+06
-9.800000e-01	-9.100000e-01	-7.543099e+06	1.164740e+07	1.164740e+07
-9.100000e-01	-8.400000e-01	9.234344e+06	2.413087e+06	2.413087e+06
-8.400000e-01	-7.700000e-01	4.941270e+06	2.494187e+06	2.494187e+06
-7.700000e-01	-7.000000e-01	2.839501e+06	2.396437e+06	2.396437e+06
-7.000000e-01	-6.300000e-01	2.620834e+06	2.475073e+06	2.475073e+06
-6.300000e-01	-5.600000e-01	6.692744e+06	1.664941e+06	1.664941e+06
-5.600000e-01	-4.900000e-01	1.987741e+06	2.061822e+06	2.061822e+06
-4.900000e-01	-4.200000e-01	5.316027e+06	2.122267e+06	2.122267e+06
-4.200000e-01	-3.500000e-01	-3.329937e+06	2.845611e+06	2.845611e+06
-3.500000e-01	-2.800000e-01	1.470151e+06	4.992926e+05	4.992926e+05
-2.800000e-01	-2.100000e-01	-8.001227e+04	4.008159e+05	4.008159e+05
-2.100000e-01	-1.400000e-01	-1.932789e+04	3.815877e+04	3.815877e+04
-1.400000e-01	-7.000000e-02	2.224380e+01	1.516699e+01	1.516699e+01
-7.000000e-02	0.000000e+00	0.000000e+00	0.000000e+00	0.000000e+00
# END HISTO1D

