# BEGIN PLOT
LegendOnly=/zj_ps_nlo_mer_cent_R4.yoda/PAPER_FIN_R4/SD_l10_pT_120_150
DrawOnly=/zj_ps_nlo_mer_cent_R4.yoda/PAPER_FIN_R4/SD_l10_pT_120_150
Legend=1
LogY=1
# END PLOT

# BEGIN HISTO1D /zj_ps_nlo_mer_cent_R4.yoda/PAPER_FIN_R4/SD_l10_pT_120_150
LineColor=red
LineStyle=solid
Path=/zj_ps_nlo_mer_cent_R4.yoda/PAPER_FIN_R4/SD_l10_pT_120_150
Title=zj_ps_nlo_mer_cent_R4
XLabel=~
YLabel=~
# xlow	 xhigh	 val	 errminus	 errplus
-7.000000e+00	-6.930000e+00	0.000000e+00	0.000000e+00	0.000000e+00
-6.930000e+00	-6.860000e+00	6.803743e+07	1.287099e+07	1.287099e+07
-6.860000e+00	-6.790000e+00	0.000000e+00	0.000000e+00	0.000000e+00
-6.790000e+00	-6.720000e+00	0.000000e+00	0.000000e+00	0.000000e+00
-6.720000e+00	-6.650000e+00	0.000000e+00	0.000000e+00	0.000000e+00
-6.650000e+00	-6.580000e+00	0.000000e+00	0.000000e+00	0.000000e+00
-6.580000e+00	-6.510000e+00	0.000000e+00	0.000000e+00	0.000000e+00
-6.510000e+00	-6.440000e+00	0.000000e+00	0.000000e+00	0.000000e+00
-6.440000e+00	-6.370000e+00	0.000000e+00	0.000000e+00	0.000000e+00
-6.370000e+00	-6.300000e+00	0.000000e+00	0.000000e+00	0.000000e+00
-6.300000e+00	-6.230000e+00	0.000000e+00	0.000000e+00	0.000000e+00
-6.230000e+00	-6.160000e+00	0.000000e+00	0.000000e+00	0.000000e+00
-6.160000e+00	-6.090000e+00	0.000000e+00	0.000000e+00	0.000000e+00
-6.090000e+00	-6.020000e+00	0.000000e+00	0.000000e+00	0.000000e+00
-6.020000e+00	-5.950000e+00	0.000000e+00	0.000000e+00	0.000000e+00
-5.950000e+00	-5.880000e+00	0.000000e+00	0.000000e+00	0.000000e+00
-5.880000e+00	-5.810000e+00	0.000000e+00	0.000000e+00	0.000000e+00
-5.810000e+00	-5.740000e+00	0.000000e+00	0.000000e+00	0.000000e+00
-5.740000e+00	-5.670000e+00	0.000000e+00	0.000000e+00	0.000000e+00
-5.670000e+00	-5.600000e+00	0.000000e+00	0.000000e+00	0.000000e+00
-5.600000e+00	-5.530000e+00	0.000000e+00	0.000000e+00	0.000000e+00
-5.530000e+00	-5.460000e+00	0.000000e+00	0.000000e+00	0.000000e+00
-5.460000e+00	-5.390000e+00	0.000000e+00	0.000000e+00	0.000000e+00
-5.390000e+00	-5.320000e+00	0.000000e+00	0.000000e+00	0.000000e+00
-5.320000e+00	-5.250000e+00	0.000000e+00	0.000000e+00	0.000000e+00
-5.250000e+00	-5.180000e+00	0.000000e+00	0.000000e+00	0.000000e+00
-5.180000e+00	-5.110000e+00	0.000000e+00	0.000000e+00	0.000000e+00
-5.110000e+00	-5.040000e+00	0.000000e+00	0.000000e+00	0.000000e+00
-5.040000e+00	-4.970000e+00	0.000000e+00	0.000000e+00	0.000000e+00
-4.970000e+00	-4.900000e+00	0.000000e+00	0.000000e+00	0.000000e+00
-4.900000e+00	-4.830000e+00	0.000000e+00	0.000000e+00	0.000000e+00
-4.830000e+00	-4.760000e+00	0.000000e+00	0.000000e+00	0.000000e+00
-4.760000e+00	-4.690000e+00	0.000000e+00	0.000000e+00	0.000000e+00
-4.690000e+00	-4.620000e+00	0.000000e+00	0.000000e+00	0.000000e+00
-4.620000e+00	-4.550000e+00	-4.277709e+00	4.277709e+00	4.277709e+00
-4.550000e+00	-4.480000e+00	0.000000e+00	0.000000e+00	0.000000e+00
-4.480000e+00	-4.410000e+00	0.000000e+00	0.000000e+00	0.000000e+00
-4.410000e+00	-4.340000e+00	0.000000e+00	0.000000e+00	0.000000e+00
-4.340000e+00	-4.270000e+00	0.000000e+00	0.000000e+00	0.000000e+00
-4.270000e+00	-4.200000e+00	0.000000e+00	0.000000e+00	0.000000e+00
-4.200000e+00	-4.130000e+00	6.632919e-02	6.632917e-02	6.632917e-02
-4.130000e+00	-4.060000e+00	-1.157440e+00	1.157440e+00	1.157440e+00
-4.060000e+00	-3.990000e+00	-3.710767e+00	3.730958e+00	3.730958e+00
-3.990000e+00	-3.920000e+00	-2.287507e-01	2.387171e-01	2.387171e-01
-3.920000e+00	-3.850000e+00	-1.468664e+01	1.479146e+01	1.479146e+01
-3.850000e+00	-3.780000e+00	-6.672297e+01	8.205469e+01	8.205469e+01
-3.780000e+00	-3.710000e+00	8.173050e+00	8.172893e+00	8.172893e+00
-3.710000e+00	-3.640000e+00	-1.273630e+02	1.067353e+02	1.067353e+02
-3.640000e+00	-3.570000e+00	2.694910e+00	9.149319e+00	9.149319e+00
-3.570000e+00	-3.500000e+00	1.086452e+04	1.086826e+04	1.086826e+04
-3.500000e+00	-3.430000e+00	-4.886949e+02	5.221668e+02	5.221668e+02
-3.430000e+00	-3.360000e+00	5.768037e+03	6.053017e+03	6.053017e+03
-3.360000e+00	-3.290000e+00	8.727993e+02	1.073603e+03	1.073603e+03
-3.290000e+00	-3.220000e+00	7.987949e+03	7.778118e+03	7.778118e+03
-3.220000e+00	-3.150000e+00	8.799881e+03	9.028460e+03	9.028460e+03
-3.150000e+00	-3.080000e+00	1.687291e+04	1.634436e+04	1.634436e+04
-3.080000e+00	-3.010000e+00	-2.328841e+04	1.982910e+04	1.982910e+04
-3.010000e+00	-2.940000e+00	9.290364e+04	6.498136e+04	6.498136e+04
-2.940000e+00	-2.870000e+00	-8.649721e+03	1.676789e+04	1.676789e+04
-2.870000e+00	-2.800000e+00	1.743661e+04	2.169762e+04	2.169762e+04
-2.800000e+00	-2.730000e+00	5.305686e+04	3.681682e+04	3.681682e+04
-2.730000e+00	-2.660000e+00	3.333349e+04	7.585981e+04	7.585981e+04
-2.660000e+00	-2.590000e+00	-3.611477e+05	3.671342e+05	3.671342e+05
-2.590000e+00	-2.520000e+00	-1.116277e+05	1.179587e+05	1.179587e+05
-2.520000e+00	-2.450000e+00	2.500466e+05	7.360648e+04	7.360648e+04
-2.450000e+00	-2.380000e+00	1.761711e+05	8.458289e+04	8.458289e+04
-2.380000e+00	-2.310000e+00	2.085557e+05	1.453524e+05	1.453524e+05
-2.310000e+00	-2.240000e+00	2.982720e+04	1.183905e+05	1.183905e+05
-2.240000e+00	-2.170000e+00	6.797037e+04	1.374836e+05	1.374836e+05
-2.170000e+00	-2.100000e+00	1.286311e+05	2.422224e+05	2.422224e+05
-2.100000e+00	-2.030000e+00	9.578919e+05	6.739009e+05	6.739009e+05
-2.030000e+00	-1.960000e+00	1.576574e+06	6.622362e+05	6.622362e+05
-1.960000e+00	-1.890000e+00	3.817369e+05	8.140877e+05	8.140877e+05
-1.890000e+00	-1.820000e+00	1.141061e+06	7.190976e+05	7.190976e+05
-1.820000e+00	-1.750000e+00	2.275750e+06	1.078702e+06	1.078702e+06
-1.750000e+00	-1.680000e+00	7.689414e+06	3.207129e+06	3.207129e+06
-1.680000e+00	-1.610000e+00	4.539373e+06	3.361059e+06	3.361059e+06
-1.610000e+00	-1.540000e+00	9.441123e+06	2.808583e+06	2.808583e+06
-1.540000e+00	-1.470000e+00	5.292794e+06	3.113257e+06	3.113257e+06
-1.470000e+00	-1.400000e+00	1.741801e+07	5.230895e+06	5.230895e+06
-1.400000e+00	-1.330000e+00	1.141069e+07	3.321092e+06	3.321092e+06
-1.330000e+00	-1.260000e+00	5.925234e+06	4.486139e+06	4.486139e+06
-1.260000e+00	-1.190000e+00	2.145857e+07	3.255238e+06	3.255238e+06
-1.190000e+00	-1.120000e+00	1.574113e+07	5.644361e+06	5.644361e+06
-1.120000e+00	-1.050000e+00	1.709350e+07	3.645035e+06	3.645035e+06
-1.050000e+00	-9.800000e-01	5.274674e+05	1.244176e+07	1.244176e+07
-9.800000e-01	-9.100000e-01	1.615599e+07	5.018604e+06	5.018604e+06
-9.100000e-01	-8.400000e-01	2.148120e+07	3.758769e+06	3.758769e+06
-8.400000e-01	-7.700000e-01	1.575359e+07	4.996564e+06	4.996564e+06
-7.700000e-01	-7.000000e-01	1.513300e+07	6.565361e+06	6.565361e+06
-7.000000e-01	-6.300000e-01	1.754800e+07	6.416687e+06	6.416687e+06
-6.300000e-01	-5.600000e-01	1.445581e+07	4.911972e+06	4.911972e+06
-5.600000e-01	-4.900000e-01	7.774500e+06	4.021086e+06	4.021086e+06
-4.900000e-01	-4.200000e-01	1.356518e+07	3.047743e+06	3.047743e+06
-4.200000e-01	-3.500000e-01	1.745530e+07	1.017443e+07	1.017443e+07
-3.500000e-01	-2.800000e-01	2.921713e+06	1.666883e+06	1.666883e+06
-2.800000e-01	-2.100000e-01	6.295817e+05	2.082622e+06	2.082622e+06
-2.100000e-01	-1.400000e-01	-1.398009e+05	6.309101e+05	6.309101e+05
-1.400000e-01	-7.000000e-02	-3.469579e+05	4.613969e+05	4.613969e+05
-7.000000e-02	0.000000e+00	3.130779e+03	2.228524e+03	2.228524e+03
# END HISTO1D

