# BEGIN PLOT
LegendOnly=/zj_ps_nlo_mer_cent_R4.yoda/PAPER_FIN_R4/ch_lin_l10_pT_326_408
DrawOnly=/zj_ps_nlo_mer_cent_R4.yoda/PAPER_FIN_R4/ch_lin_l10_pT_326_408
Legend=1
LogY=1
# END PLOT

# BEGIN HISTO1D /zj_ps_nlo_mer_cent_R4.yoda/PAPER_FIN_R4/ch_lin_l10_pT_326_408
LineColor=red
LineStyle=solid
Path=/zj_ps_nlo_mer_cent_R4.yoda/PAPER_FIN_R4/ch_lin_l10_pT_326_408
Title=zj_ps_nlo_mer_cent_R4
XLabel=~
YLabel=~
# xlow	 xhigh	 val	 errminus	 errplus
0.000000e+00	2.250000e-02	1.662938e+10	1.011567e+08	1.011567e+08
2.250000e-02	4.000000e-02	1.936477e+09	2.720809e+07	2.720809e+07
4.000000e-02	5.750000e-02	1.217494e+09	7.950956e+07	7.950956e+07
5.750000e-02	7.750000e-02	9.574200e+08	1.948902e+07	1.948902e+07
7.750000e-02	1.000000e-01	6.600791e+08	1.542453e+07	1.542453e+07
1.000000e-01	1.250000e-01	5.494820e+08	2.034726e+07	2.034726e+07
1.250000e-01	1.520000e-01	3.906644e+08	9.898242e+06	9.898242e+06
1.520000e-01	1.850000e-01	3.021480e+08	1.229129e+07	1.229129e+07
1.850000e-01	2.200000e-01	2.215664e+08	6.695668e+06	6.695668e+06
2.200000e-01	2.600000e-01	1.630248e+08	4.980351e+06	4.980351e+06
2.600000e-01	3.070000e-01	1.052690e+08	4.463712e+06	4.463712e+06
3.070000e-01	3.620000e-01	7.138793e+07	2.740064e+06	2.740064e+06
3.620000e-01	4.250000e-01	3.897557e+07	2.489573e+06	2.489573e+06
4.250000e-01	4.970000e-01	1.550332e+07	1.041396e+06	1.041396e+06
4.970000e-01	1.000000e+00	5.138883e+05	8.688760e+04	8.688760e+04
# END HISTO1D

