# BEGIN PLOT
LegendOnly=/zj_ps_nlo_mer_cent_R4.yoda/PAPER_FIN_R4/l05_pT_50_65
DrawOnly=/zj_ps_nlo_mer_cent_R4.yoda/PAPER_FIN_R4/l05_pT_50_65
Legend=1
LogY=1
# END PLOT

# BEGIN HISTO1D /zj_ps_nlo_mer_cent_R4.yoda/PAPER_FIN_R4/l05_pT_50_65
LineColor=red
LineStyle=solid
Path=/zj_ps_nlo_mer_cent_R4.yoda/PAPER_FIN_R4/l05_pT_50_65
Title=zj_ps_nlo_mer_cent_R4
XLabel=~
YLabel=~
# xlow	 xhigh	 val	 errminus	 errplus
-7.000000e+00	-6.930000e+00	0.000000e+00	0.000000e+00	0.000000e+00
-6.930000e+00	-6.860000e+00	-6.910959e+04	3.160027e+04	3.160027e+04
-6.860000e+00	-6.790000e+00	0.000000e+00	0.000000e+00	0.000000e+00
-6.790000e+00	-6.720000e+00	0.000000e+00	0.000000e+00	0.000000e+00
-6.720000e+00	-6.650000e+00	0.000000e+00	0.000000e+00	0.000000e+00
-6.650000e+00	-6.580000e+00	0.000000e+00	0.000000e+00	0.000000e+00
-6.580000e+00	-6.510000e+00	0.000000e+00	0.000000e+00	0.000000e+00
-6.510000e+00	-6.440000e+00	0.000000e+00	0.000000e+00	0.000000e+00
-6.440000e+00	-6.370000e+00	0.000000e+00	0.000000e+00	0.000000e+00
-6.370000e+00	-6.300000e+00	0.000000e+00	0.000000e+00	0.000000e+00
-6.300000e+00	-6.230000e+00	0.000000e+00	0.000000e+00	0.000000e+00
-6.230000e+00	-6.160000e+00	0.000000e+00	0.000000e+00	0.000000e+00
-6.160000e+00	-6.090000e+00	0.000000e+00	0.000000e+00	0.000000e+00
-6.090000e+00	-6.020000e+00	0.000000e+00	0.000000e+00	0.000000e+00
-6.020000e+00	-5.950000e+00	0.000000e+00	0.000000e+00	0.000000e+00
-5.950000e+00	-5.880000e+00	0.000000e+00	0.000000e+00	0.000000e+00
-5.880000e+00	-5.810000e+00	0.000000e+00	0.000000e+00	0.000000e+00
-5.810000e+00	-5.740000e+00	0.000000e+00	0.000000e+00	0.000000e+00
-5.740000e+00	-5.670000e+00	0.000000e+00	0.000000e+00	0.000000e+00
-5.670000e+00	-5.600000e+00	0.000000e+00	0.000000e+00	0.000000e+00
-5.600000e+00	-5.530000e+00	0.000000e+00	0.000000e+00	0.000000e+00
-5.530000e+00	-5.460000e+00	0.000000e+00	0.000000e+00	0.000000e+00
-5.460000e+00	-5.390000e+00	0.000000e+00	0.000000e+00	0.000000e+00
-5.390000e+00	-5.320000e+00	0.000000e+00	0.000000e+00	0.000000e+00
-5.320000e+00	-5.250000e+00	0.000000e+00	0.000000e+00	0.000000e+00
-5.250000e+00	-5.180000e+00	0.000000e+00	0.000000e+00	0.000000e+00
-5.180000e+00	-5.110000e+00	0.000000e+00	0.000000e+00	0.000000e+00
-5.110000e+00	-5.040000e+00	0.000000e+00	0.000000e+00	0.000000e+00
-5.040000e+00	-4.970000e+00	0.000000e+00	0.000000e+00	0.000000e+00
-4.970000e+00	-4.900000e+00	0.000000e+00	0.000000e+00	0.000000e+00
-4.900000e+00	-4.830000e+00	0.000000e+00	0.000000e+00	0.000000e+00
-4.830000e+00	-4.760000e+00	0.000000e+00	0.000000e+00	0.000000e+00
-4.760000e+00	-4.690000e+00	0.000000e+00	0.000000e+00	0.000000e+00
-4.690000e+00	-4.620000e+00	0.000000e+00	0.000000e+00	0.000000e+00
-4.620000e+00	-4.550000e+00	0.000000e+00	0.000000e+00	0.000000e+00
-4.550000e+00	-4.480000e+00	0.000000e+00	0.000000e+00	0.000000e+00
-4.480000e+00	-4.410000e+00	0.000000e+00	0.000000e+00	0.000000e+00
-4.410000e+00	-4.340000e+00	0.000000e+00	0.000000e+00	0.000000e+00
-4.340000e+00	-4.270000e+00	0.000000e+00	0.000000e+00	0.000000e+00
-4.270000e+00	-4.200000e+00	0.000000e+00	0.000000e+00	0.000000e+00
-4.200000e+00	-4.130000e+00	0.000000e+00	0.000000e+00	0.000000e+00
-4.130000e+00	-4.060000e+00	0.000000e+00	0.000000e+00	0.000000e+00
-4.060000e+00	-3.990000e+00	0.000000e+00	0.000000e+00	0.000000e+00
-3.990000e+00	-3.920000e+00	0.000000e+00	0.000000e+00	0.000000e+00
-3.920000e+00	-3.850000e+00	0.000000e+00	0.000000e+00	0.000000e+00
-3.850000e+00	-3.780000e+00	0.000000e+00	0.000000e+00	0.000000e+00
-3.780000e+00	-3.710000e+00	0.000000e+00	0.000000e+00	0.000000e+00
-3.710000e+00	-3.640000e+00	0.000000e+00	0.000000e+00	0.000000e+00
-3.640000e+00	-3.570000e+00	0.000000e+00	0.000000e+00	0.000000e+00
-3.570000e+00	-3.500000e+00	1.650504e+01	1.650504e+01	1.650504e+01
-3.500000e+00	-3.430000e+00	0.000000e+00	0.000000e+00	0.000000e+00
-3.430000e+00	-3.360000e+00	0.000000e+00	0.000000e+00	0.000000e+00
-3.360000e+00	-3.290000e+00	0.000000e+00	0.000000e+00	0.000000e+00
-3.290000e+00	-3.220000e+00	0.000000e+00	0.000000e+00	0.000000e+00
-3.220000e+00	-3.150000e+00	0.000000e+00	0.000000e+00	0.000000e+00
-3.150000e+00	-3.080000e+00	0.000000e+00	0.000000e+00	0.000000e+00
-3.080000e+00	-3.010000e+00	0.000000e+00	0.000000e+00	0.000000e+00
-3.010000e+00	-2.940000e+00	0.000000e+00	0.000000e+00	0.000000e+00
-2.940000e+00	-2.870000e+00	0.000000e+00	0.000000e+00	0.000000e+00
-2.870000e+00	-2.800000e+00	-1.477383e+01	1.477383e+01	1.477383e+01
-2.800000e+00	-2.730000e+00	0.000000e+00	0.000000e+00	0.000000e+00
-2.730000e+00	-2.660000e+00	0.000000e+00	0.000000e+00	0.000000e+00
-2.660000e+00	-2.590000e+00	9.843109e-01	9.843109e-01	9.843109e-01
-2.590000e+00	-2.520000e+00	1.054006e-01	1.054006e-01	1.054006e-01
-2.520000e+00	-2.450000e+00	-8.129911e+00	8.136219e+00	8.136219e+00
-2.450000e+00	-2.380000e+00	0.000000e+00	0.000000e+00	0.000000e+00
-2.380000e+00	-2.310000e+00	-1.222225e+01	9.247089e+00	9.247089e+00
-2.310000e+00	-2.240000e+00	-8.692281e-01	8.692281e-01	8.692281e-01
-2.240000e+00	-2.170000e+00	0.000000e+00	0.000000e+00	0.000000e+00
-2.170000e+00	-2.100000e+00	3.150133e+00	3.150133e+00	3.150133e+00
-2.100000e+00	-2.030000e+00	-1.264394e+00	8.632081e-01	8.632081e-01
-2.030000e+00	-1.960000e+00	-2.023093e+01	2.838089e+01	2.838089e+01
-1.960000e+00	-1.890000e+00	-4.525324e+01	2.102499e+02	2.102499e+02
-1.890000e+00	-1.820000e+00	7.528947e+00	2.723430e+01	2.723430e+01
-1.820000e+00	-1.750000e+00	-8.239026e+01	8.449090e+01	8.449090e+01
-1.750000e+00	-1.680000e+00	-5.153127e+02	7.062651e+02	7.062651e+02
-1.680000e+00	-1.610000e+00	-2.049283e+03	1.858960e+03	1.858960e+03
-1.610000e+00	-1.540000e+00	-7.178994e+02	7.116349e+02	7.116349e+02
-1.540000e+00	-1.470000e+00	-9.380314e+03	7.829738e+03	7.829738e+03
-1.470000e+00	-1.400000e+00	-3.073536e+03	1.921412e+03	1.921412e+03
-1.400000e+00	-1.330000e+00	7.280257e+03	8.648279e+03	8.648279e+03
-1.330000e+00	-1.260000e+00	-9.672247e+02	5.237576e+02	5.237576e+02
-1.260000e+00	-1.190000e+00	-6.140189e+03	3.847419e+03	3.847419e+03
-1.190000e+00	-1.120000e+00	-5.765903e+04	5.163753e+04	5.163753e+04
-1.120000e+00	-1.050000e+00	-6.651244e+03	7.862885e+03	7.862885e+03
-1.050000e+00	-9.800000e-01	-8.262801e+03	4.876240e+03	4.876240e+03
-9.800000e-01	-9.100000e-01	-5.763934e+03	2.016110e+04	2.016110e+04
-9.100000e-01	-8.400000e-01	9.352593e+03	2.534599e+04	2.534599e+04
-8.400000e-01	-7.700000e-01	-1.777484e+04	1.126700e+04	1.126700e+04
-7.700000e-01	-7.000000e-01	-4.714810e+04	1.721992e+04	1.721992e+04
-7.000000e-01	-6.300000e-01	-7.836680e+04	5.955868e+04	5.955868e+04
-6.300000e-01	-5.600000e-01	-5.033336e+04	4.107419e+04	4.107419e+04
-5.600000e-01	-4.900000e-01	-2.942410e+03	2.590160e+04	2.590160e+04
-4.900000e-01	-4.200000e-01	2.936470e+03	1.262610e+04	1.262610e+04
-4.200000e-01	-3.500000e-01	-6.157387e+04	6.118913e+04	6.118913e+04
-3.500000e-01	-2.800000e-01	-3.228910e+04	2.652318e+04	2.652318e+04
-2.800000e-01	-2.100000e-01	-7.715501e+03	4.612715e+03	4.612715e+03
-2.100000e-01	-1.400000e-01	-4.945059e+01	2.982949e+01	2.982949e+01
-1.400000e-01	-7.000000e-02	0.000000e+00	0.000000e+00	0.000000e+00
-7.000000e-02	0.000000e+00	0.000000e+00	0.000000e+00	0.000000e+00
# END HISTO1D

