# BEGIN PLOT
LegendOnly=/herwig_ps_lo_r4_pt408_s1_1e3.yoda/PAPER_FIN_R4/l05_pT_120_150
DrawOnly=/herwig_ps_lo_r4_pt408_s1_1e3.yoda/PAPER_FIN_R4/l05_pT_120_150
Legend=1
LogY=1
# END PLOT

# BEGIN HISTO1D /herwig_ps_lo_r4_pt408_s1_1e3.yoda/PAPER_FIN_R4/l05_pT_120_150
LineColor=red
LineStyle=solid
Path=/herwig_ps_lo_r4_pt408_s1_1e3.yoda/PAPER_FIN_R4/l05_pT_120_150
Title=herwig_ps_lo_r4_pt408_s1_1e3
XLabel=~
YLabel=~
# xlow	 xhigh	 val	 errminus	 errplus
-7.000000e+00	-6.930000e+00	0.000000e+00	0.000000e+00	0.000000e+00
-6.930000e+00	-6.860000e+00	2.727114e+07	1.992597e+04	1.992597e+04
-6.860000e+00	-6.790000e+00	7.142857e+01	3.194383e+01	3.194383e+01
-6.790000e+00	-6.720000e+00	8.571429e+01	3.499271e+01	3.499271e+01
-6.720000e+00	-6.650000e+00	1.571429e+02	4.738035e+01	4.738035e+01
-6.650000e+00	-6.580000e+00	2.000000e+02	5.345225e+01	5.345225e+01
-6.580000e+00	-6.510000e+00	4.285714e+01	2.474358e+01	2.474358e+01
-6.510000e+00	-6.440000e+00	1.142857e+02	4.040610e+01	4.040610e+01
-6.440000e+00	-6.370000e+00	1.714286e+02	4.948717e+01	4.948717e+01
-6.370000e+00	-6.300000e+00	1.857143e+02	5.150788e+01	5.150788e+01
-6.300000e+00	-6.230000e+00	1.000000e+02	3.779645e+01	3.779645e+01
-6.230000e+00	-6.160000e+00	5.714286e+01	2.857143e+01	2.857143e+01
-6.160000e+00	-6.090000e+00	1.428571e+02	4.517540e+01	4.517540e+01
-6.090000e+00	-6.020000e+00	8.571429e+01	3.499271e+01	3.499271e+01
-6.020000e+00	-5.950000e+00	2.000000e+02	5.345225e+01	5.345225e+01
-5.950000e+00	-5.880000e+00	5.714286e+01	2.857143e+01	2.857143e+01
-5.880000e+00	-5.810000e+00	2.142857e+02	5.532833e+01	5.532833e+01
-5.810000e+00	-5.740000e+00	1.428571e+02	4.517540e+01	4.517540e+01
-5.740000e+00	-5.670000e+00	1.142857e+02	4.040610e+01	4.040610e+01
-5.670000e+00	-5.600000e+00	1.142857e+02	4.040610e+01	4.040610e+01
-5.600000e+00	-5.530000e+00	2.285714e+02	5.714286e+01	5.714286e+01
-5.530000e+00	-5.460000e+00	1.857143e+02	5.150788e+01	5.150788e+01
-5.460000e+00	-5.390000e+00	1.714286e+02	4.948717e+01	4.948717e+01
-5.390000e+00	-5.320000e+00	1.000000e+02	3.779645e+01	3.779645e+01
-5.320000e+00	-5.250000e+00	1.000000e+02	3.779645e+01	3.779645e+01
-5.250000e+00	-5.180000e+00	1.000000e+02	3.779645e+01	3.779645e+01
-5.180000e+00	-5.110000e+00	1.285714e+02	4.285714e+01	4.285714e+01
-5.110000e+00	-5.040000e+00	1.285714e+02	4.285714e+01	4.285714e+01
-5.040000e+00	-4.970000e+00	1.285714e+02	4.285714e+01	4.285714e+01
-4.970000e+00	-4.900000e+00	8.571429e+01	3.499271e+01	3.499271e+01
-4.900000e+00	-4.830000e+00	8.571429e+01	3.499271e+01	3.499271e+01
-4.830000e+00	-4.760000e+00	7.142857e+01	3.194383e+01	3.194383e+01
-4.760000e+00	-4.690000e+00	2.142857e+02	5.532833e+01	5.532833e+01
-4.690000e+00	-4.620000e+00	7.142857e+01	3.194383e+01	3.194383e+01
-4.620000e+00	-4.550000e+00	1.285714e+02	4.285714e+01	4.285714e+01
-4.550000e+00	-4.480000e+00	1.285714e+02	4.285714e+01	4.285714e+01
-4.480000e+00	-4.410000e+00	1.571429e+02	4.738035e+01	4.738035e+01
-4.410000e+00	-4.340000e+00	1.142857e+02	4.040610e+01	4.040610e+01
-4.340000e+00	-4.270000e+00	5.714286e+01	2.857143e+01	2.857143e+01
-4.270000e+00	-4.200000e+00	1.428571e+02	4.517540e+01	4.517540e+01
-4.200000e+00	-4.130000e+00	1.571429e+02	4.738035e+01	4.738035e+01
-4.130000e+00	-4.060000e+00	1.428571e+02	4.517540e+01	4.517540e+01
-4.060000e+00	-3.990000e+00	1.000000e+02	3.779645e+01	3.779645e+01
-3.990000e+00	-3.920000e+00	1.571429e+02	4.738035e+01	4.738035e+01
-3.920000e+00	-3.850000e+00	2.285714e+02	5.714286e+01	5.714286e+01
-3.850000e+00	-3.780000e+00	2.285714e+02	5.714286e+01	5.714286e+01
-3.780000e+00	-3.710000e+00	1.428571e+02	4.517540e+01	4.517540e+01
-3.710000e+00	-3.640000e+00	3.000000e+02	6.546537e+01	6.546537e+01
-3.640000e+00	-3.570000e+00	4.000000e+02	7.559289e+01	7.559289e+01
-3.570000e+00	-3.500000e+00	4.428571e+02	7.953949e+01	7.953949e+01
-3.500000e+00	-3.430000e+00	5.000000e+02	8.451543e+01	8.451543e+01
-3.430000e+00	-3.360000e+00	6.571429e+02	9.689043e+01	9.689043e+01
-3.360000e+00	-3.290000e+00	8.285714e+02	1.087968e+02	1.087968e+02
-3.290000e+00	-3.220000e+00	1.142857e+03	1.277753e+02	1.277753e+02
-3.220000e+00	-3.150000e+00	1.700000e+03	1.558387e+02	1.558387e+02
-3.150000e+00	-3.080000e+00	2.114286e+03	1.737932e+02	1.737932e+02
-3.080000e+00	-3.010000e+00	2.985714e+03	2.065262e+02	2.065262e+02
-3.010000e+00	-2.940000e+00	3.471429e+03	2.226922e+02	2.226922e+02
-2.940000e+00	-2.870000e+00	4.267990e+03	2.474750e+02	2.474750e+02
-2.870000e+00	-2.800000e+00	6.399456e+03	3.029552e+02	3.029552e+02
-2.800000e+00	-2.730000e+00	7.902600e+03	3.360627e+02	3.360627e+02
-2.730000e+00	-2.660000e+00	1.171233e+04	4.093773e+02	4.093773e+02
-2.660000e+00	-2.590000e+00	1.437443e+04	4.532117e+02	4.532117e+02
-2.590000e+00	-2.520000e+00	2.146446e+04	5.543218e+02	5.543218e+02
-2.520000e+00	-2.450000e+00	3.288689e+04	6.854421e+02	6.854421e+02
-2.450000e+00	-2.380000e+00	5.198523e+04	8.641427e+02	8.641427e+02
-2.380000e+00	-2.310000e+00	8.468309e+04	1.100545e+03	1.100545e+03
-2.310000e+00	-2.240000e+00	1.443184e+05	1.437363e+03	1.437363e+03
-2.240000e+00	-2.170000e+00	2.304969e+05	1.819080e+03	1.819080e+03
-2.170000e+00	-2.100000e+00	3.162317e+05	2.129115e+03	2.129115e+03
-2.100000e+00	-2.030000e+00	3.640486e+05	2.288364e+03	2.288364e+03
-2.030000e+00	-1.960000e+00	4.118093e+05	2.434929e+03	2.434929e+03
-1.960000e+00	-1.890000e+00	4.943010e+05	2.660870e+03	2.660870e+03
-1.890000e+00	-1.820000e+00	5.941964e+05	2.916531e+03	2.916531e+03
-1.820000e+00	-1.750000e+00	7.544934e+05	3.322230e+03	3.322230e+03
-1.750000e+00	-1.680000e+00	1.004915e+06	3.796920e+03	3.796920e+03
-1.680000e+00	-1.610000e+00	1.422074e+06	4.515647e+03	4.515647e+03
-1.610000e+00	-1.540000e+00	2.056723e+06	5.492591e+03	5.492591e+03
-1.540000e+00	-1.470000e+00	2.688243e+06	6.210038e+03	6.210038e+03
-1.470000e+00	-1.400000e+00	3.262216e+06	6.836911e+03	6.836911e+03
-1.400000e+00	-1.330000e+00	3.843346e+06	7.433265e+03	7.433265e+03
-1.330000e+00	-1.260000e+00	4.494216e+06	8.025311e+03	8.025311e+03
-1.260000e+00	-1.190000e+00	5.269959e+06	8.692027e+03	8.692027e+03
-1.190000e+00	-1.120000e+00	6.249320e+06	1.033264e+04	1.033264e+04
-1.120000e+00	-1.050000e+00	7.371280e+06	1.037070e+04	1.037070e+04
-1.050000e+00	-9.800000e-01	8.761724e+06	1.120890e+04	1.120890e+04
-9.800000e-01	-9.100000e-01	1.045929e+07	1.234813e+04	1.234813e+04
-9.100000e-01	-8.400000e-01	1.239754e+07	1.333673e+04	1.333673e+04
-8.400000e-01	-7.700000e-01	1.422396e+07	1.432917e+04	1.432917e+04
-7.700000e-01	-7.000000e-01	1.611357e+07	1.528832e+04	1.528832e+04
-7.000000e-01	-6.300000e-01	1.767066e+07	1.593780e+04	1.593780e+04
-6.300000e-01	-5.600000e-01	1.868347e+07	1.638031e+04	1.638031e+04
-5.600000e-01	-4.900000e-01	1.871671e+07	1.639117e+04	1.639117e+04
-4.900000e-01	-4.200000e-01	1.741443e+07	1.607446e+04	1.607446e+04
-4.200000e-01	-3.500000e-01	1.452463e+07	1.447442e+04	1.447442e+04
-3.500000e-01	-2.800000e-01	9.817079e+06	1.201332e+04	1.201332e+04
-2.800000e-01	-2.100000e-01	4.416834e+06	7.963926e+03	7.963926e+03
-2.100000e-01	-1.400000e-01	8.438379e+05	3.481753e+03	3.481753e+03
-1.400000e-01	-7.000000e-02	3.190459e+04	6.760010e+02	6.760010e+02
-7.000000e-02	0.000000e+00	4.285714e+01	2.474358e+01	2.474358e+01
# END HISTO1D

