# BEGIN PLOT
LegendOnly=/herwig_ps_lo_r4_pt408_s1_1e3.yoda/PAPER_FIN_R4/ch_SD_l10_pT_326_408
DrawOnly=/herwig_ps_lo_r4_pt408_s1_1e3.yoda/PAPER_FIN_R4/ch_SD_l10_pT_326_408
Legend=1
LogY=1
# END PLOT

# BEGIN HISTO1D /herwig_ps_lo_r4_pt408_s1_1e3.yoda/PAPER_FIN_R4/ch_SD_l10_pT_326_408
LineColor=red
LineStyle=solid
Path=/herwig_ps_lo_r4_pt408_s1_1e3.yoda/PAPER_FIN_R4/ch_SD_l10_pT_326_408
Title=herwig_ps_lo_r4_pt408_s1_1e3
XLabel=~
YLabel=~
# xlow	 xhigh	 val	 errminus	 errplus
-7.000000e+00	-6.930000e+00	0.000000e+00	0.000000e+00	0.000000e+00
-6.930000e+00	-6.860000e+00	5.863113e+08	9.210458e+04	9.210458e+04
-6.860000e+00	-6.790000e+00	0.000000e+00	0.000000e+00	0.000000e+00
-6.790000e+00	-6.720000e+00	0.000000e+00	0.000000e+00	0.000000e+00
-6.720000e+00	-6.650000e+00	0.000000e+00	0.000000e+00	0.000000e+00
-6.650000e+00	-6.580000e+00	0.000000e+00	0.000000e+00	0.000000e+00
-6.580000e+00	-6.510000e+00	0.000000e+00	0.000000e+00	0.000000e+00
-6.510000e+00	-6.440000e+00	0.000000e+00	0.000000e+00	0.000000e+00
-6.440000e+00	-6.370000e+00	0.000000e+00	0.000000e+00	0.000000e+00
-6.370000e+00	-6.300000e+00	0.000000e+00	0.000000e+00	0.000000e+00
-6.300000e+00	-6.230000e+00	0.000000e+00	0.000000e+00	0.000000e+00
-6.230000e+00	-6.160000e+00	0.000000e+00	0.000000e+00	0.000000e+00
-6.160000e+00	-6.090000e+00	0.000000e+00	0.000000e+00	0.000000e+00
-6.090000e+00	-6.020000e+00	0.000000e+00	0.000000e+00	0.000000e+00
-6.020000e+00	-5.950000e+00	0.000000e+00	0.000000e+00	0.000000e+00
-5.950000e+00	-5.880000e+00	0.000000e+00	0.000000e+00	0.000000e+00
-5.880000e+00	-5.810000e+00	0.000000e+00	0.000000e+00	0.000000e+00
-5.810000e+00	-5.740000e+00	0.000000e+00	0.000000e+00	0.000000e+00
-5.740000e+00	-5.670000e+00	0.000000e+00	0.000000e+00	0.000000e+00
-5.670000e+00	-5.600000e+00	0.000000e+00	0.000000e+00	0.000000e+00
-5.600000e+00	-5.530000e+00	0.000000e+00	0.000000e+00	0.000000e+00
-5.530000e+00	-5.460000e+00	0.000000e+00	0.000000e+00	0.000000e+00
-5.460000e+00	-5.390000e+00	0.000000e+00	0.000000e+00	0.000000e+00
-5.390000e+00	-5.320000e+00	0.000000e+00	0.000000e+00	0.000000e+00
-5.320000e+00	-5.250000e+00	0.000000e+00	0.000000e+00	0.000000e+00
-5.250000e+00	-5.180000e+00	0.000000e+00	0.000000e+00	0.000000e+00
-5.180000e+00	-5.110000e+00	0.000000e+00	0.000000e+00	0.000000e+00
-5.110000e+00	-5.040000e+00	0.000000e+00	0.000000e+00	0.000000e+00
-5.040000e+00	-4.970000e+00	0.000000e+00	0.000000e+00	0.000000e+00
-4.970000e+00	-4.900000e+00	0.000000e+00	0.000000e+00	0.000000e+00
-4.900000e+00	-4.830000e+00	0.000000e+00	0.000000e+00	0.000000e+00
-4.830000e+00	-4.760000e+00	0.000000e+00	0.000000e+00	0.000000e+00
-4.760000e+00	-4.690000e+00	0.000000e+00	0.000000e+00	0.000000e+00
-4.690000e+00	-4.620000e+00	0.000000e+00	0.000000e+00	0.000000e+00
-4.620000e+00	-4.550000e+00	0.000000e+00	0.000000e+00	0.000000e+00
-4.550000e+00	-4.480000e+00	0.000000e+00	0.000000e+00	0.000000e+00
-4.480000e+00	-4.410000e+00	0.000000e+00	0.000000e+00	0.000000e+00
-4.410000e+00	-4.340000e+00	0.000000e+00	0.000000e+00	0.000000e+00
-4.340000e+00	-4.270000e+00	0.000000e+00	0.000000e+00	0.000000e+00
-4.270000e+00	-4.200000e+00	0.000000e+00	0.000000e+00	0.000000e+00
-4.200000e+00	-4.130000e+00	0.000000e+00	0.000000e+00	0.000000e+00
-4.130000e+00	-4.060000e+00	0.000000e+00	0.000000e+00	0.000000e+00
-4.060000e+00	-3.990000e+00	0.000000e+00	0.000000e+00	0.000000e+00
-3.990000e+00	-3.920000e+00	0.000000e+00	0.000000e+00	0.000000e+00
-3.920000e+00	-3.850000e+00	0.000000e+00	0.000000e+00	0.000000e+00
-3.850000e+00	-3.780000e+00	0.000000e+00	0.000000e+00	0.000000e+00
-3.780000e+00	-3.710000e+00	0.000000e+00	0.000000e+00	0.000000e+00
-3.710000e+00	-3.640000e+00	0.000000e+00	0.000000e+00	0.000000e+00
-3.640000e+00	-3.570000e+00	0.000000e+00	0.000000e+00	0.000000e+00
-3.570000e+00	-3.500000e+00	0.000000e+00	0.000000e+00	0.000000e+00
-3.500000e+00	-3.430000e+00	1.428571e+01	1.428571e+01	1.428571e+01
-3.430000e+00	-3.360000e+00	0.000000e+00	0.000000e+00	0.000000e+00
-3.360000e+00	-3.290000e+00	0.000000e+00	0.000000e+00	0.000000e+00
-3.290000e+00	-3.220000e+00	1.428571e+01	1.428571e+01	1.428571e+01
-3.220000e+00	-3.150000e+00	2.857143e+01	2.020305e+01	2.020305e+01
-3.150000e+00	-3.080000e+00	0.000000e+00	0.000000e+00	0.000000e+00
-3.080000e+00	-3.010000e+00	1.000000e+02	3.779645e+01	3.779645e+01
-3.010000e+00	-2.940000e+00	5.714286e+01	2.857143e+01	2.857143e+01
-2.940000e+00	-2.870000e+00	5.714286e+01	2.857143e+01	2.857143e+01
-2.870000e+00	-2.800000e+00	8.696357e+01	3.552104e+01	3.552104e+01
-2.800000e+00	-2.730000e+00	1.000000e+02	3.779645e+01	3.779645e+01
-2.730000e+00	-2.660000e+00	1.428571e+02	4.517540e+01	4.517540e+01
-2.660000e+00	-2.590000e+00	2.857143e+02	6.388766e+01	6.388766e+01
-2.590000e+00	-2.520000e+00	3.714286e+02	7.284314e+01	7.284314e+01
-2.520000e+00	-2.450000e+00	6.000000e+02	9.258201e+01	9.258201e+01
-2.450000e+00	-2.380000e+00	1.057143e+03	1.228904e+02	1.228904e+02
-2.380000e+00	-2.310000e+00	1.285714e+03	1.355262e+02	1.355262e+02
-2.310000e+00	-2.240000e+00	2.085714e+03	1.726149e+02	1.726149e+02
-2.240000e+00	-2.170000e+00	3.514286e+03	2.240627e+02	2.240627e+02
-2.170000e+00	-2.100000e+00	1.202857e+04	4.145319e+02	4.145319e+02
-2.100000e+00	-2.030000e+00	6.560000e+04	9.680614e+02	9.680614e+02
-2.030000e+00	-1.960000e+00	1.962149e+05	1.674608e+03	1.674608e+03
-1.960000e+00	-1.890000e+00	3.761657e+05	2.318259e+03	2.318259e+03
-1.890000e+00	-1.820000e+00	5.845297e+05	2.889813e+03	2.889813e+03
-1.820000e+00	-1.750000e+00	7.959411e+05	3.372302e+03	3.372302e+03
-1.750000e+00	-1.680000e+00	1.011153e+06	3.800893e+03	3.800893e+03
-1.680000e+00	-1.610000e+00	1.217753e+06	4.171169e+03	4.171169e+03
-1.610000e+00	-1.540000e+00	1.436974e+06	4.531552e+03	4.531552e+03
-1.540000e+00	-1.470000e+00	1.664881e+06	4.880743e+03	4.880743e+03
-1.470000e+00	-1.400000e+00	1.907243e+06	5.220013e+03	5.220013e+03
-1.400000e+00	-1.330000e+00	2.161406e+06	5.559652e+03	5.559652e+03
-1.330000e+00	-1.260000e+00	2.466204e+06	6.043988e+03	6.043988e+03
-1.260000e+00	-1.190000e+00	2.762340e+06	6.286745e+03	6.286745e+03
-1.190000e+00	-1.120000e+00	3.086757e+06	6.642667e+03	6.642667e+03
-1.120000e+00	-1.050000e+00	3.425950e+06	7.040095e+03	7.040095e+03
-1.050000e+00	-9.800000e-01	3.729293e+06	7.306012e+03	7.306012e+03
-9.800000e-01	-9.100000e-01	3.805676e+06	7.374122e+03	7.374122e+03
-9.100000e-01	-8.400000e-01	3.762467e+06	7.331809e+03	7.331809e+03
-8.400000e-01	-7.700000e-01	3.638040e+06	7.209734e+03	7.209734e+03
-7.700000e-01	-7.000000e-01	3.408739e+06	6.979107e+03	6.979107e+03
-7.000000e-01	-6.300000e-01	3.088313e+06	6.707156e+03	6.707156e+03
-6.300000e-01	-5.600000e-01	2.690227e+06	6.199796e+03	6.199796e+03
-5.600000e-01	-4.900000e-01	2.229493e+06	5.646037e+03	5.646037e+03
-4.900000e-01	-4.200000e-01	1.669657e+06	4.886460e+03	4.886460e+03
-4.200000e-01	-3.500000e-01	1.025042e+06	3.826791e+03	3.826791e+03
-3.500000e-01	-2.800000e-01	3.534753e+05	2.268671e+03	2.268671e+03
-2.800000e-01	-2.100000e-01	5.638571e+04	8.975022e+02	8.975022e+02
-2.100000e-01	-1.400000e-01	4.014286e+03	2.394722e+02	2.394722e+02
-1.400000e-01	-7.000000e-02	8.571429e+01	3.499271e+01	3.499271e+01
-7.000000e-02	0.000000e+00	0.000000e+00	0.000000e+00	0.000000e+00
# END HISTO1D

