# BEGIN PLOT
LegendOnly=/herwig_ps_lo_r4_pt408_s1_1e3.yoda/PAPER_FIN_R4_CH/lin_SD_l05_pT_254_326
DrawOnly=/herwig_ps_lo_r4_pt408_s1_1e3.yoda/PAPER_FIN_R4_CH/lin_SD_l05_pT_254_326
Legend=1
LogY=1
# END PLOT

# BEGIN HISTO1D /herwig_ps_lo_r4_pt408_s1_1e3.yoda/PAPER_FIN_R4_CH/lin_SD_l05_pT_254_326
LineColor=red
LineStyle=solid
Path=/herwig_ps_lo_r4_pt408_s1_1e3.yoda/PAPER_FIN_R4_CH/lin_SD_l05_pT_254_326
Title=herwig_ps_lo_r4_pt408_s1_1e3
XLabel=~
YLabel=~
# xlow	 xhigh	 val	 errminus	 errplus
0.000000e+00	6.000000e-02	7.630287e+08	1.136115e+05	1.136115e+05
6.000000e-02	9.000000e-02	3.812510e+08	1.140057e+05	1.140057e+05
9.000000e-02	1.200000e-01	3.451983e+08	1.095174e+05	1.095174e+05
1.200000e-01	1.500000e-01	2.938827e+08	9.912909e+04	9.912909e+04
1.500000e-01	1.900000e-01	2.477402e+08	7.991386e+04	7.991386e+04
1.900000e-01	2.300000e-01	2.019704e+08	7.122989e+04	7.122989e+04
2.300000e-01	2.700000e-01	1.628717e+08	6.396070e+04	6.396070e+04
2.700000e-01	3.200000e-01	1.265705e+08	5.035664e+04	5.035664e+04
3.200000e-01	3.700000e-01	9.358490e+07	4.329024e+04	4.329024e+04
3.700000e-01	4.200000e-01	6.717638e+07	3.668955e+04	3.668955e+04
4.200000e-01	4.800000e-01	4.436465e+07	2.722970e+04	2.722970e+04
4.800000e-01	5.400000e-01	2.495062e+07	2.063403e+04	2.063403e+04
5.400000e-01	6.000000e-01	1.171795e+07	1.397870e+04	1.397870e+04
6.000000e-01	1.000000e+00	7.816645e+05	1.398385e+03	1.398385e+03
# END HISTO1D

