# BEGIN PLOT
LegendOnly=/herwig_ps_lo_r4_pt408_s1_1e3.yoda/PAPER_FIN_R4_CH/lin_SD_l10_pT_186_254
DrawOnly=/herwig_ps_lo_r4_pt408_s1_1e3.yoda/PAPER_FIN_R4_CH/lin_SD_l10_pT_186_254
Legend=1
LogY=1
# END PLOT

# BEGIN HISTO1D /herwig_ps_lo_r4_pt408_s1_1e3.yoda/PAPER_FIN_R4_CH/lin_SD_l10_pT_186_254
LineColor=red
LineStyle=solid
Path=/herwig_ps_lo_r4_pt408_s1_1e3.yoda/PAPER_FIN_R4_CH/lin_SD_l10_pT_186_254
Title=herwig_ps_lo_r4_pt408_s1_1e3
XLabel=~
YLabel=~
# xlow	 xhigh	 val	 errminus	 errplus
0.000000e+00	1.250000e-02	5.857512e+09	1.090135e+08	1.090135e+08
1.250000e-02	2.250000e-02	1.714914e+09	4.184964e+05	4.184964e+05
2.250000e-02	3.500000e-02	1.377077e+09	3.436446e+05	3.436446e+05
3.500000e-02	5.000000e-02	1.041803e+09	2.662444e+05	2.662444e+05
5.000000e-02	7.000000e-02	8.113615e+08	4.151945e+05	4.151945e+05
7.000000e-02	9.500000e-02	6.368996e+08	1.602391e+05	1.602391e+05
9.500000e-02	1.280000e-01	4.977345e+08	1.240601e+05	1.240601e+05
1.280000e-01	1.700000e-01	3.679271e+08	9.413453e+04	9.413453e+04
1.700000e-01	2.250000e-01	2.515865e+08	6.793378e+04	6.793378e+04
2.250000e-01	2.900000e-01	1.596660e+08	4.981875e+04	4.981875e+04
2.900000e-01	3.650000e-01	9.476171e+07	3.566400e+04	3.566400e+04
3.650000e-01	4.500000e-01	4.939606e+07	2.417631e+04	2.417631e+04
4.500000e-01	1.000000e+00	4.005542e+06	2.703465e+03	2.703465e+03
# END HISTO1D

