# BEGIN PLOT
LegendOnly=/herwig_ps_lo_r4_pt408_s1_1e3.yoda/PAPER_FIN_R4/lin_SD_l05_pT_65_88
DrawOnly=/herwig_ps_lo_r4_pt408_s1_1e3.yoda/PAPER_FIN_R4/lin_SD_l05_pT_65_88
Legend=1
LogY=1
# END PLOT

# BEGIN HISTO1D /herwig_ps_lo_r4_pt408_s1_1e3.yoda/PAPER_FIN_R4/lin_SD_l05_pT_65_88
LineColor=red
LineStyle=solid
Path=/herwig_ps_lo_r4_pt408_s1_1e3.yoda/PAPER_FIN_R4/lin_SD_l05_pT_65_88
Title=herwig_ps_lo_r4_pt408_s1_1e3
XLabel=~
YLabel=~
# xlow	 xhigh	 val	 errminus	 errplus
0.000000e+00	1.000000e-01	5.225084e+03	2.287521e+02	2.287521e+02
1.000000e-01	1.800000e-01	3.681310e+03	2.147907e+02	2.147907e+02
1.800000e-01	2.600000e-01	3.337500e+03	2.042517e+02	2.042517e+02
2.600000e-01	3.400000e-01	2.825000e+03	1.879162e+02	1.879162e+02
3.400000e-01	4.200000e-01	2.075074e+03	1.610570e+02	1.610570e+02
4.200000e-01	5.000000e-01	1.225000e+03	1.237437e+02	1.237437e+02
5.000000e-01	5.700000e-01	7.285714e+02	1.020204e+02	1.020204e+02
5.700000e-01	6.400000e-01	1.857143e+02	5.150788e+01	5.150788e+01
6.400000e-01	1.000000e+00	1.388889e+01	6.211300e+00	6.211300e+00
# END HISTO1D

