# BEGIN PLOT
LegendOnly=/herwig_ps_lo_r4_pt408_s1_1e3.yoda/PAPER_FIN_R4_CH/lin_l20_pT_150_186
DrawOnly=/herwig_ps_lo_r4_pt408_s1_1e3.yoda/PAPER_FIN_R4_CH/lin_l20_pT_150_186
Legend=1
LogY=1
# END PLOT

# BEGIN HISTO1D /herwig_ps_lo_r4_pt408_s1_1e3.yoda/PAPER_FIN_R4_CH/lin_l20_pT_150_186
LineColor=red
LineStyle=solid
Path=/herwig_ps_lo_r4_pt408_s1_1e3.yoda/PAPER_FIN_R4_CH/lin_l20_pT_150_186
Title=herwig_ps_lo_r4_pt408_s1_1e3
XLabel=~
YLabel=~
# xlow	 xhigh	 val	 errminus	 errplus
0.000000e+00	5.000000e-03	1.937799e+09	6.289921e+05	6.289921e+05
5.000000e-03	1.250000e-02	7.097815e+08	3.133387e+05	3.133387e+05
1.250000e-02	2.250000e-02	5.564113e+08	2.401285e+05	2.401285e+05
2.250000e-02	3.500000e-02	4.140290e+08	1.823885e+05	1.823885e+05
3.500000e-02	5.000000e-02	3.046408e+08	1.437043e+05	1.437043e+05
5.000000e-02	7.000000e-02	2.180985e+08	1.048107e+05	1.048107e+05
7.000000e-02	9.250000e-02	1.529804e+08	8.274961e+04	8.274961e+04
9.250000e-02	1.200000e-01	1.057445e+08	6.218522e+04	6.218522e+04
1.200000e-01	1.520000e-01	7.111272e+07	4.739458e+04	4.739458e+04
1.520000e-01	1.880000e-01	4.575186e+07	3.575396e+04	3.575396e+04
1.880000e-01	2.280000e-01	2.727082e+07	2.616361e+04	2.616361e+04
2.280000e-01	1.000000e+00	1.119212e+06	1.205893e+03	1.205893e+03
# END HISTO1D

