# BEGIN PLOT
LegendOnly=/herwig_ps_lo_r4_pt408_s1_1e3.yoda/PAPER_FIN_R4/lin_l10_pT_326_408
DrawOnly=/herwig_ps_lo_r4_pt408_s1_1e3.yoda/PAPER_FIN_R4/lin_l10_pT_326_408
Legend=1
LogY=1
# END PLOT

# BEGIN HISTO1D /herwig_ps_lo_r4_pt408_s1_1e3.yoda/PAPER_FIN_R4/lin_l10_pT_326_408
LineColor=red
LineStyle=solid
Path=/herwig_ps_lo_r4_pt408_s1_1e3.yoda/PAPER_FIN_R4/lin_l10_pT_326_408
Title=herwig_ps_lo_r4_pt408_s1_1e3
XLabel=~
YLabel=~
# xlow	 xhigh	 val	 errminus	 errplus
0.000000e+00	1.050000e-01	3.295565e+08	5.642945e+04	5.642945e+04
1.050000e-01	1.650000e-01	1.044324e+08	4.196008e+04	4.196008e+04
1.650000e-01	2.300000e-01	5.663498e+07	2.960325e+04	2.960325e+04
2.300000e-01	3.050000e-01	3.138385e+07	2.046488e+04	2.046488e+04
3.050000e-01	3.800000e-01	1.719661e+07	1.514631e+04	1.514631e+04
3.800000e-01	4.600000e-01	8.728042e+06	1.045076e+04	1.045076e+04
4.600000e-01	5.500000e-01	3.201587e+06	5.993725e+03	5.993725e+03
5.500000e-01	1.000000e+00	1.617468e+05	5.995717e+02	5.995717e+02
# END HISTO1D

