# BEGIN PLOT
LegendOnly=/zj_ps_nlo_mer_mur2_muf2_R4.yoda/PAPER_FIN_R4/lin_SD_l20_pT_326_408
DrawOnly=/zj_ps_nlo_mer_mur2_muf2_R4.yoda/PAPER_FIN_R4/lin_SD_l20_pT_326_408
Legend=1
LogY=1
# END PLOT

# BEGIN HISTO1D /zj_ps_nlo_mer_mur2_muf2_R4.yoda/PAPER_FIN_R4/lin_SD_l20_pT_326_408
LineColor=red
LineStyle=solid
Path=/zj_ps_nlo_mer_mur2_muf2_R4.yoda/PAPER_FIN_R4/lin_SD_l20_pT_326_408
Title=zj_ps_nlo_mer_mur2_muf2_R4
XLabel=~
YLabel=~
# xlow	 xhigh	 val	 errminus	 errplus
0.000000e+00	2.500000e-03	1.124309e+11	5.904616e+08	5.904616e+08
2.500000e-03	1.000000e-02	1.070616e+10	7.776691e+07	7.776691e+07
1.000000e-02	2.500000e-02	3.349080e+09	8.300744e+07	8.300744e+07
2.500000e-02	6.000000e-02	1.525861e+09	1.774753e+07	1.774753e+07
6.000000e-02	1.200000e-01	7.786053e+08	8.790350e+06	8.790350e+06
1.200000e-01	1.770000e-01	3.672984e+08	1.276419e+07	1.276419e+07
1.770000e-01	2.300000e-01	1.896236e+08	5.700922e+06	5.700922e+06
2.300000e-01	1.000000e+00	6.552638e+06	3.675746e+05	3.675746e+05
# END HISTO1D

