# BEGIN PLOT
LegendOnly=/zj_ps_nlo_mer_mur2_muf2_R4.yoda/PAPER_FIN_R4/ch_lin_l10_pT_150_186
DrawOnly=/zj_ps_nlo_mer_mur2_muf2_R4.yoda/PAPER_FIN_R4/ch_lin_l10_pT_150_186
Legend=1
LogY=1
# END PLOT

# BEGIN HISTO1D /zj_ps_nlo_mer_mur2_muf2_R4.yoda/PAPER_FIN_R4/ch_lin_l10_pT_150_186
LineColor=red
LineStyle=solid
Path=/zj_ps_nlo_mer_mur2_muf2_R4.yoda/PAPER_FIN_R4/ch_lin_l10_pT_150_186
Title=zj_ps_nlo_mer_mur2_muf2_R4
XLabel=~
YLabel=~
# xlow	 xhigh	 val	 errminus	 errplus
0.000000e+00	2.250000e-02	3.410867e+09	2.994777e+08	2.994777e+08
2.250000e-02	4.000000e-02	3.907361e+08	4.400393e+07	4.400393e+07
4.000000e-02	5.750000e-02	3.489781e+08	2.397901e+07	2.397901e+07
5.750000e-02	7.750000e-02	2.707681e+08	2.232558e+07	2.232558e+07
7.750000e-02	1.000000e-01	2.488044e+08	1.835694e+07	1.835694e+07
1.000000e-01	1.250000e-01	1.923857e+08	2.089900e+07	2.089900e+07
1.250000e-01	1.520000e-01	1.387038e+08	1.093298e+07	1.093298e+07
1.520000e-01	1.850000e-01	9.910115e+07	8.064704e+06	8.064704e+06
1.850000e-01	2.200000e-01	6.744497e+07	8.768953e+06	8.768953e+06
2.200000e-01	2.600000e-01	4.563860e+07	8.942787e+06	8.942787e+06
2.600000e-01	3.070000e-01	2.288423e+07	7.666876e+06	7.666876e+06
3.070000e-01	3.620000e-01	2.661284e+07	2.602075e+06	2.602075e+06
3.620000e-01	4.250000e-01	1.658435e+07	2.405644e+06	2.405644e+06
4.250000e-01	4.970000e-01	3.232532e+06	2.230490e+06	2.230490e+06
4.970000e-01	1.000000e+00	2.331270e+05	6.229144e+04	6.229144e+04
# END HISTO1D

