# BEGIN PLOT
LegendOnly=/zj_ps_nlo_mer_mur2_muf2_R4.yoda/PAPER_FIN_R4/lin_l20_pT_150_186
DrawOnly=/zj_ps_nlo_mer_mur2_muf2_R4.yoda/PAPER_FIN_R4/lin_l20_pT_150_186
Legend=1
LogY=1
# END PLOT

# BEGIN HISTO1D /zj_ps_nlo_mer_mur2_muf2_R4.yoda/PAPER_FIN_R4/lin_l20_pT_150_186
LineColor=red
LineStyle=solid
Path=/zj_ps_nlo_mer_mur2_muf2_R4.yoda/PAPER_FIN_R4/lin_l20_pT_150_186
Title=zj_ps_nlo_mer_mur2_muf2_R4
XLabel=~
YLabel=~
# xlow	 xhigh	 val	 errminus	 errplus
0.000000e+00	5.000000e-02	1.915572e+09	1.347030e+08	1.347030e+08
5.000000e-02	9.000000e-02	7.610583e+08	3.330922e+07	3.330922e+07
9.000000e-02	1.500000e-01	3.223583e+08	1.771765e+07	1.771765e+07
1.500000e-01	2.050000e-01	1.602854e+08	1.181426e+07	1.181426e+07
2.050000e-01	1.000000e+00	5.736596e+06	9.702814e+05	9.702814e+05
# END HISTO1D

