# BEGIN PLOT
LegendOnly=/zj_ps_nlo_mer_mur2_muf2_R4.yoda/PAPER_FIN_R4/ch_l05_pT_120_150
DrawOnly=/zj_ps_nlo_mer_mur2_muf2_R4.yoda/PAPER_FIN_R4/ch_l05_pT_120_150
Legend=1
LogY=1
# END PLOT

# BEGIN HISTO1D /zj_ps_nlo_mer_mur2_muf2_R4.yoda/PAPER_FIN_R4/ch_l05_pT_120_150
LineColor=red
LineStyle=solid
Path=/zj_ps_nlo_mer_mur2_muf2_R4.yoda/PAPER_FIN_R4/ch_l05_pT_120_150
Title=zj_ps_nlo_mer_mur2_muf2_R4
XLabel=~
YLabel=~
# xlow	 xhigh	 val	 errminus	 errplus
-7.000000e+00	-6.930000e+00	0.000000e+00	0.000000e+00	0.000000e+00
-6.930000e+00	-6.860000e+00	2.867724e+08	1.380175e+07	1.380175e+07
-6.860000e+00	-6.790000e+00	0.000000e+00	0.000000e+00	0.000000e+00
-6.790000e+00	-6.720000e+00	0.000000e+00	0.000000e+00	0.000000e+00
-6.720000e+00	-6.650000e+00	0.000000e+00	0.000000e+00	0.000000e+00
-6.650000e+00	-6.580000e+00	0.000000e+00	0.000000e+00	0.000000e+00
-6.580000e+00	-6.510000e+00	0.000000e+00	0.000000e+00	0.000000e+00
-6.510000e+00	-6.440000e+00	0.000000e+00	0.000000e+00	0.000000e+00
-6.440000e+00	-6.370000e+00	0.000000e+00	0.000000e+00	0.000000e+00
-6.370000e+00	-6.300000e+00	0.000000e+00	0.000000e+00	0.000000e+00
-6.300000e+00	-6.230000e+00	0.000000e+00	0.000000e+00	0.000000e+00
-6.230000e+00	-6.160000e+00	0.000000e+00	0.000000e+00	0.000000e+00
-6.160000e+00	-6.090000e+00	0.000000e+00	0.000000e+00	0.000000e+00
-6.090000e+00	-6.020000e+00	0.000000e+00	0.000000e+00	0.000000e+00
-6.020000e+00	-5.950000e+00	0.000000e+00	0.000000e+00	0.000000e+00
-5.950000e+00	-5.880000e+00	1.689574e-04	1.689575e-04	1.689575e-04
-5.880000e+00	-5.810000e+00	0.000000e+00	0.000000e+00	0.000000e+00
-5.810000e+00	-5.740000e+00	2.399397e-05	2.388142e-05	2.388142e-05
-5.740000e+00	-5.670000e+00	0.000000e+00	0.000000e+00	0.000000e+00
-5.670000e+00	-5.600000e+00	-7.673274e-02	7.673273e-02	7.673273e-02
-5.600000e+00	-5.530000e+00	0.000000e+00	0.000000e+00	0.000000e+00
-5.530000e+00	-5.460000e+00	7.044056e-04	7.044057e-04	7.044057e-04
-5.460000e+00	-5.390000e+00	-3.427739e-07	3.427738e-07	3.427738e-07
-5.390000e+00	-5.320000e+00	0.000000e+00	0.000000e+00	0.000000e+00
-5.320000e+00	-5.250000e+00	-1.731510e-02	1.757583e-02	1.757583e-02
-5.250000e+00	-5.180000e+00	-8.686653e-01	7.406744e-01	7.406744e-01
-5.180000e+00	-5.110000e+00	-5.222856e-03	5.114252e-03	5.114252e-03
-5.110000e+00	-5.040000e+00	-1.068849e-01	1.068644e-01	1.068644e-01
-5.040000e+00	-4.970000e+00	0.000000e+00	0.000000e+00	0.000000e+00
-4.970000e+00	-4.900000e+00	-6.812756e-02	6.462526e-02	6.462526e-02
-4.900000e+00	-4.830000e+00	-1.842370e-04	1.302877e-04	1.302877e-04
-4.830000e+00	-4.760000e+00	0.000000e+00	0.000000e+00	0.000000e+00
-4.760000e+00	-4.690000e+00	-1.711787e-02	1.690034e-02	1.690034e-02
-4.690000e+00	-4.620000e+00	-4.816117e+00	4.818584e+00	4.818584e+00
-4.620000e+00	-4.550000e+00	-5.479849e-01	5.479386e-01	5.479386e-01
-4.550000e+00	-4.480000e+00	-1.009878e+04	1.004411e+04	1.004411e+04
-4.480000e+00	-4.410000e+00	-5.948731e+01	5.694519e+01	5.694519e+01
-4.410000e+00	-4.340000e+00	6.443611e+03	6.441774e+03	6.441774e+03
-4.340000e+00	-4.270000e+00	8.903117e+01	8.869810e+01	8.869810e+01
-4.270000e+00	-4.200000e+00	7.918061e+01	2.421630e+03	2.421630e+03
-4.200000e+00	-4.130000e+00	-8.588144e+02	7.563446e+02	7.563446e+02
-4.130000e+00	-4.060000e+00	-1.690249e+03	1.493464e+03	1.493464e+03
-4.060000e+00	-3.990000e+00	6.751210e+02	2.419805e+03	2.419805e+03
-3.990000e+00	-3.920000e+00	6.969570e+03	1.006821e+04	1.006821e+04
-3.920000e+00	-3.850000e+00	4.103433e+04	8.765717e+04	8.765717e+04
-3.850000e+00	-3.780000e+00	1.087441e+05	1.016510e+05	1.016510e+05
-3.780000e+00	-3.710000e+00	1.579110e+04	2.722060e+04	2.722060e+04
-3.710000e+00	-3.640000e+00	5.776617e+03	4.905994e+04	4.905994e+04
-3.640000e+00	-3.570000e+00	2.603589e+04	1.267644e+05	1.267644e+05
-3.570000e+00	-3.500000e+00	1.132613e+05	7.603722e+04	7.603722e+04
-3.500000e+00	-3.430000e+00	6.936377e+04	6.449911e+04	6.449911e+04
-3.430000e+00	-3.360000e+00	-3.300220e+04	2.324968e+04	2.324968e+04
-3.360000e+00	-3.290000e+00	6.573747e+04	3.474277e+04	3.474277e+04
-3.290000e+00	-3.220000e+00	5.444999e+04	3.720538e+04	3.720538e+04
-3.220000e+00	-3.150000e+00	6.116780e+04	3.186623e+04	3.186623e+04
-3.150000e+00	-3.080000e+00	2.539054e+04	3.832752e+04	3.832752e+04
-3.080000e+00	-3.010000e+00	6.758144e+04	6.374231e+04	6.374231e+04
-3.010000e+00	-2.940000e+00	1.752456e+05	7.119801e+04	7.119801e+04
-2.940000e+00	-2.870000e+00	8.982116e+04	1.134911e+05	1.134911e+05
-2.870000e+00	-2.800000e+00	1.804657e+05	7.522273e+04	7.522273e+04
-2.800000e+00	-2.730000e+00	8.769977e+04	1.114851e+05	1.114851e+05
-2.730000e+00	-2.660000e+00	4.421956e+04	1.544817e+05	1.544817e+05
-2.660000e+00	-2.590000e+00	8.373041e+04	1.343458e+05	1.343458e+05
-2.590000e+00	-2.520000e+00	-3.295809e+05	3.351927e+05	3.351927e+05
-2.520000e+00	-2.450000e+00	1.369206e+05	1.826922e+05	1.826922e+05
-2.450000e+00	-2.380000e+00	8.611979e+04	2.321194e+05	2.321194e+05
-2.380000e+00	-2.310000e+00	5.198730e+05	5.473677e+05	5.473677e+05
-2.310000e+00	-2.240000e+00	2.172271e+06	8.956826e+05	8.956826e+05
-2.240000e+00	-2.170000e+00	-7.580896e+04	4.839457e+05	4.839457e+05
-2.170000e+00	-2.100000e+00	2.751610e+05	4.568861e+05	4.568861e+05
-2.100000e+00	-2.030000e+00	1.263513e+04	5.721973e+05	5.721973e+05
-2.030000e+00	-1.960000e+00	1.551477e+06	5.421693e+05	5.421693e+05
-1.960000e+00	-1.890000e+00	1.318346e+06	7.085789e+05	7.085789e+05
-1.890000e+00	-1.820000e+00	2.478347e+06	6.902826e+05	6.902826e+05
-1.820000e+00	-1.750000e+00	1.670633e+06	5.869609e+05	5.869609e+05
-1.750000e+00	-1.680000e+00	4.130033e+05	1.482085e+06	1.482085e+06
-1.680000e+00	-1.610000e+00	3.000583e+06	9.641226e+05	9.641226e+05
-1.610000e+00	-1.540000e+00	3.912813e+06	1.948036e+06	1.948036e+06
-1.540000e+00	-1.470000e+00	-3.785613e+06	8.435919e+06	8.435919e+06
-1.470000e+00	-1.400000e+00	3.017039e+06	1.277624e+06	1.277624e+06
-1.400000e+00	-1.330000e+00	7.624727e+06	1.590020e+06	1.590020e+06
-1.330000e+00	-1.260000e+00	5.871819e+06	1.287582e+06	1.287582e+06
-1.260000e+00	-1.190000e+00	8.385636e+06	1.533419e+06	1.533419e+06
-1.190000e+00	-1.120000e+00	8.168489e+06	1.642768e+06	1.642768e+06
-1.120000e+00	-1.050000e+00	1.389091e+07	2.074968e+06	2.074968e+06
-1.050000e+00	-9.800000e-01	1.478417e+07	1.842838e+06	1.842838e+06
-9.800000e-01	-9.100000e-01	1.575386e+07	5.127614e+06	5.127614e+06
-9.100000e-01	-8.400000e-01	-8.729243e+06	2.385630e+07	2.385630e+07
-8.400000e-01	-7.700000e-01	1.670581e+07	2.779364e+06	2.779364e+06
-7.700000e-01	-7.000000e-01	1.576226e+07	2.662910e+06	2.662910e+06
-7.000000e-01	-6.300000e-01	1.650807e+07	2.339092e+06	2.339092e+06
-6.300000e-01	-5.600000e-01	1.456294e+07	1.733939e+06	1.733939e+06
-5.600000e-01	-4.900000e-01	1.157584e+07	1.894041e+06	1.894041e+06
-4.900000e-01	-4.200000e-01	1.187489e+07	2.718209e+06	2.718209e+06
-4.200000e-01	-3.500000e-01	6.357077e+06	1.165639e+06	1.165639e+06
-3.500000e-01	-2.800000e-01	2.000030e+06	7.737277e+05	7.737277e+05
-2.800000e-01	-2.100000e-01	-1.070376e+06	1.264651e+06	1.264651e+06
-2.100000e-01	-1.400000e-01	1.347307e+05	9.940496e+04	9.940496e+04
-1.400000e-01	-7.000000e-02	6.359506e+01	5.703862e+02	5.703862e+02
-7.000000e-02	0.000000e+00	0.000000e+00	0.000000e+00	0.000000e+00
# END HISTO1D

