pt, eta, phi
0.993687,-0.60233,5.8277
0.160874,0.647679,5.19345
3.7476,0.332098,5.18912
3.10704,0.236225,5.26044
2.0474,-0.154417,5.46314
1.16182,0.23146,6.18133
24.0521,0.249632,6.1261
1.51989,0.149656,5.45124
6.05063,0.268544,6.00599
13.8663,0.379488,5.89622
6.08625,0.0102918,5.82497
1.41453,0.0557505,5.77691
179.56,0.164448,5.75615
1.67358,0.184361,5.66663
