# BEGIN PLOT
LegendOnly=/zj_ps_nlo_mer_mur0.5_muf0.5_R4.yoda/PAPER_FIN_R4_CH/lin_SD_l10_pT_65_88
DrawOnly=/zj_ps_nlo_mer_mur0.5_muf0.5_R4.yoda/PAPER_FIN_R4_CH/lin_SD_l10_pT_65_88
Legend=1
LogY=1
# END PLOT

# BEGIN HISTO1D /zj_ps_nlo_mer_mur0.5_muf0.5_R4.yoda/PAPER_FIN_R4_CH/lin_SD_l10_pT_65_88
LineColor=red
LineStyle=solid
Path=/zj_ps_nlo_mer_mur0.5_muf0.5_R4.yoda/PAPER_FIN_R4_CH/lin_SD_l10_pT_65_88
Title=zj_ps_nlo_mer_mur0.5_muf0.5_R4
XLabel=~
YLabel=~
# xlow	 xhigh	 val	 errminus	 errplus
0.000000e+00	1.250000e-02	-4.765873e+06	3.739004e+06	3.739004e+06
1.250000e-02	2.250000e-02	1.916510e+06	2.417195e+06	2.417195e+06
2.250000e-02	3.500000e-02	1.406768e+06	1.914052e+06	1.914052e+06
3.500000e-02	5.000000e-02	-2.326816e+06	9.714836e+05	9.714836e+05
5.000000e-02	7.000000e-02	-2.862330e+06	1.579174e+06	1.579174e+06
7.000000e-02	9.500000e-02	-9.377404e+06	3.202572e+06	3.202572e+06
9.500000e-02	1.280000e-01	-4.213558e+06	1.267300e+06	1.267300e+06
1.280000e-01	1.700000e-01	-3.500821e+06	9.689490e+05	9.689490e+05
1.700000e-01	2.250000e-01	7.296216e+04	2.801079e+06	2.801079e+06
2.250000e-01	2.900000e-01	-3.723708e+06	1.317479e+06	1.317479e+06
2.900000e-01	3.650000e-01	-2.609141e+06	5.974570e+05	5.974570e+05
3.650000e-01	4.500000e-01	-1.867459e+06	6.819282e+05	6.819282e+05
4.500000e-01	1.000000e+00	-3.605296e+05	2.364257e+05	2.364257e+05
# END HISTO1D

