# BEGIN PLOT
LegendOnly=/zj_ps_nlo_mer_mur0.5_muf0.5_R4.yoda/PAPER_FIN_R4/lin_SD_l05_pT_326_408
DrawOnly=/zj_ps_nlo_mer_mur0.5_muf0.5_R4.yoda/PAPER_FIN_R4/lin_SD_l05_pT_326_408
Legend=1
LogY=1
# END PLOT

# BEGIN HISTO1D /zj_ps_nlo_mer_mur0.5_muf0.5_R4.yoda/PAPER_FIN_R4/lin_SD_l05_pT_326_408
LineColor=red
LineStyle=solid
Path=/zj_ps_nlo_mer_mur0.5_muf0.5_R4.yoda/PAPER_FIN_R4/lin_SD_l05_pT_326_408
Title=zj_ps_nlo_mer_mur0.5_muf0.5_R4
XLabel=~
YLabel=~
# xlow	 xhigh	 val	 errminus	 errplus
0.000000e+00	1.000000e-01	1.525436e+09	2.019189e+07	2.019189e+07
1.000000e-01	1.800000e-01	2.227074e+09	4.011133e+07	4.011133e+07
1.800000e-01	2.600000e-01	1.180930e+09	1.605421e+07	1.605421e+07
2.600000e-01	3.400000e-01	8.397794e+08	1.118493e+07	1.118493e+07
3.400000e-01	4.200000e-01	5.115921e+08	1.335481e+07	1.335481e+07
4.200000e-01	5.000000e-01	3.399636e+08	8.327165e+06	8.327165e+06
5.000000e-01	5.700000e-01	1.861996e+08	1.875536e+07	1.875536e+07
5.700000e-01	6.400000e-01	7.356584e+07	4.505231e+06	4.505231e+06
6.400000e-01	1.000000e+00	4.303606e+06	4.369599e+05	4.369599e+05
# END HISTO1D

