# BEGIN PLOT
LegendOnly=/zj_ps_nlo_mer_mur0.5_muf0.5_R4.yoda/PAPER_FIN_R4/lin_SD_l10_pT_326_408
DrawOnly=/zj_ps_nlo_mer_mur0.5_muf0.5_R4.yoda/PAPER_FIN_R4/lin_SD_l10_pT_326_408
Legend=1
LogY=1
# END PLOT

# BEGIN HISTO1D /zj_ps_nlo_mer_mur0.5_muf0.5_R4.yoda/PAPER_FIN_R4/lin_SD_l10_pT_326_408
LineColor=red
LineStyle=solid
Path=/zj_ps_nlo_mer_mur0.5_muf0.5_R4.yoda/PAPER_FIN_R4/lin_SD_l10_pT_326_408
Title=zj_ps_nlo_mer_mur0.5_muf0.5_R4
XLabel=~
YLabel=~
# xlow	 xhigh	 val	 errminus	 errplus
0.000000e+00	2.000000e-02	9.208020e+09	1.005955e+08	1.005955e+08
2.000000e-02	5.000000e-02	4.747183e+09	1.078955e+08	1.078955e+08
5.000000e-02	9.500000e-02	1.698834e+09	2.357995e+07	2.357995e+07
9.500000e-02	1.470000e-01	1.101341e+09	1.576173e+07	1.576173e+07
1.470000e-01	2.250000e-01	6.744733e+08	1.424681e+07	1.424681e+07
2.250000e-01	3.070000e-01	4.116702e+08	9.793166e+06	9.793166e+06
3.070000e-01	3.880000e-01	2.435480e+08	1.198179e+07	1.198179e+07
3.880000e-01	4.680000e-01	1.121481e+08	1.278602e+07	1.278602e+07
4.680000e-01	1.000000e+00	9.145207e+06	4.855844e+05	4.855844e+05
# END HISTO1D

