# BEGIN PLOT
LegendOnly=/zj_ps_nlo_mer_mur0.5_muf0.5_R4.yoda/PAPER_FIN_R4/ch_SD_l20_pT_88_120
DrawOnly=/zj_ps_nlo_mer_mur0.5_muf0.5_R4.yoda/PAPER_FIN_R4/ch_SD_l20_pT_88_120
Legend=1
LogY=1
# END PLOT

# BEGIN HISTO1D /zj_ps_nlo_mer_mur0.5_muf0.5_R4.yoda/PAPER_FIN_R4/ch_SD_l20_pT_88_120
LineColor=red
LineStyle=solid
Path=/zj_ps_nlo_mer_mur0.5_muf0.5_R4.yoda/PAPER_FIN_R4/ch_SD_l20_pT_88_120
Title=zj_ps_nlo_mer_mur0.5_muf0.5_R4
XLabel=~
YLabel=~
# xlow	 xhigh	 val	 errminus	 errplus
-7.000000e+00	-6.930000e+00	2.653149e+00	2.653149e+00	2.653149e+00
-6.930000e+00	-6.860000e+00	2.092480e+06	2.410356e+06	2.410356e+06
-6.860000e+00	-6.790000e+00	5.331877e+02	5.199737e+02	5.199737e+02
-6.790000e+00	-6.720000e+00	5.926729e+00	1.057353e+01	1.057353e+01
-6.720000e+00	-6.650000e+00	-2.262544e+02	1.718991e+02	1.718991e+02
-6.650000e+00	-6.580000e+00	-5.470619e+00	4.350395e+00	4.350395e+00
-6.580000e+00	-6.510000e+00	1.145646e+05	1.164893e+05	1.164893e+05
-6.510000e+00	-6.440000e+00	-2.104306e+03	2.154237e+03	2.154237e+03
-6.440000e+00	-6.370000e+00	7.543454e+02	6.767318e+02	6.767318e+02
-6.370000e+00	-6.300000e+00	-7.689676e+02	7.937583e+02	7.937583e+02
-6.300000e+00	-6.230000e+00	1.386575e+02	9.907671e+01	9.907671e+01
-6.230000e+00	-6.160000e+00	6.530694e+02	2.289534e+03	2.289534e+03
-6.160000e+00	-6.090000e+00	-2.704946e+03	2.984028e+03	2.984028e+03
-6.090000e+00	-6.020000e+00	-3.153246e+02	2.875034e+02	2.875034e+02
-6.020000e+00	-5.950000e+00	9.704741e+03	9.826611e+03	9.826611e+03
-5.950000e+00	-5.880000e+00	3.231500e+03	8.397987e+03	8.397987e+03
-5.880000e+00	-5.810000e+00	-2.848789e+04	2.008904e+04	2.008904e+04
-5.810000e+00	-5.740000e+00	-1.563331e+03	1.093560e+03	1.093560e+03
-5.740000e+00	-5.670000e+00	-6.361794e+03	7.973627e+03	7.973627e+03
-5.670000e+00	-5.600000e+00	9.924816e+03	1.162024e+04	1.162024e+04
-5.600000e+00	-5.530000e+00	1.745789e+04	1.104215e+04	1.104215e+04
-5.530000e+00	-5.460000e+00	-4.739027e+04	5.798928e+04	5.798928e+04
-5.460000e+00	-5.390000e+00	-1.511174e+04	5.184297e+04	5.184297e+04
-5.390000e+00	-5.320000e+00	6.305054e+04	7.298887e+04	7.298887e+04
-5.320000e+00	-5.250000e+00	1.015088e+04	9.753098e+03	9.753098e+03
-5.250000e+00	-5.180000e+00	1.632424e+04	1.083707e+05	1.083707e+05
-5.180000e+00	-5.110000e+00	-6.622806e+04	4.684858e+04	4.684858e+04
-5.110000e+00	-5.040000e+00	-7.025307e+04	9.025516e+04	9.025516e+04
-5.040000e+00	-4.970000e+00	6.583384e+04	6.116325e+04	6.116325e+04
-4.970000e+00	-4.900000e+00	-4.867811e+02	4.005218e+04	4.005218e+04
-4.900000e+00	-4.830000e+00	-3.865577e+04	3.253909e+04	3.253909e+04
-4.830000e+00	-4.760000e+00	-1.590236e+05	1.825326e+05	1.825326e+05
-4.760000e+00	-4.690000e+00	3.459074e+04	5.539585e+04	5.539585e+04
-4.690000e+00	-4.620000e+00	4.239007e+02	8.604574e+04	8.604574e+04
-4.620000e+00	-4.550000e+00	4.880041e+04	1.831003e+05	1.831003e+05
-4.550000e+00	-4.480000e+00	-2.214983e+04	4.996752e+04	4.996752e+04
-4.480000e+00	-4.410000e+00	-1.486260e+05	1.936280e+05	1.936280e+05
-4.410000e+00	-4.340000e+00	1.802189e+05	2.179478e+05	2.179478e+05
-4.340000e+00	-4.270000e+00	9.731764e+04	1.649300e+05	1.649300e+05
-4.270000e+00	-4.200000e+00	-1.080346e+05	1.916101e+05	1.916101e+05
-4.200000e+00	-4.130000e+00	-2.747087e+05	3.491939e+05	3.491939e+05
-4.130000e+00	-4.060000e+00	8.081201e+04	3.463626e+05	3.463626e+05
-4.060000e+00	-3.990000e+00	-5.172427e+05	5.075435e+05	5.075435e+05
-3.990000e+00	-3.920000e+00	-7.951997e+05	8.709656e+05	8.709656e+05
-3.920000e+00	-3.850000e+00	2.024553e+05	5.707004e+05	5.707004e+05
-3.850000e+00	-3.780000e+00	-2.355600e+05	6.867351e+05	6.867351e+05
-3.780000e+00	-3.710000e+00	-5.101281e+06	4.602034e+06	4.602034e+06
-3.710000e+00	-3.640000e+00	5.614543e+05	3.504681e+05	3.504681e+05
-3.640000e+00	-3.570000e+00	-1.841091e+05	4.184491e+05	4.184491e+05
-3.570000e+00	-3.500000e+00	-3.287573e+04	8.710021e+05	8.710021e+05
-3.500000e+00	-3.430000e+00	-1.588357e+05	5.889472e+05	5.889472e+05
-3.430000e+00	-3.360000e+00	3.014341e+05	5.221346e+05	5.221346e+05
-3.360000e+00	-3.290000e+00	5.083293e+05	5.754725e+05	5.754725e+05
-3.290000e+00	-3.220000e+00	4.474521e+05	1.075338e+06	1.075338e+06
-3.220000e+00	-3.150000e+00	1.530977e+05	8.624269e+05	8.624269e+05
-3.150000e+00	-3.080000e+00	-5.053044e+05	8.748796e+05	8.748796e+05
-3.080000e+00	-3.010000e+00	1.251777e+06	2.456449e+06	2.456449e+06
-3.010000e+00	-2.940000e+00	-1.606967e+06	1.438241e+06	1.438241e+06
-2.940000e+00	-2.870000e+00	-1.656980e+05	1.198978e+06	1.198978e+06
-2.870000e+00	-2.800000e+00	-4.243146e+06	3.355091e+06	3.355091e+06
-2.800000e+00	-2.730000e+00	4.056800e+05	1.322157e+06	1.322157e+06
-2.730000e+00	-2.660000e+00	-1.343894e+06	1.349016e+06	1.349016e+06
-2.660000e+00	-2.590000e+00	4.739854e+05	1.952493e+06	1.952493e+06
-2.590000e+00	-2.520000e+00	-6.823219e+05	3.201755e+06	3.201755e+06
-2.520000e+00	-2.450000e+00	-1.716327e+06	1.832320e+06	1.832320e+06
-2.450000e+00	-2.380000e+00	1.927874e+06	3.580960e+06	3.580960e+06
-2.380000e+00	-2.310000e+00	-4.578996e+06	2.808271e+06	2.808271e+06
-2.310000e+00	-2.240000e+00	-2.745873e+06	1.966420e+06	1.966420e+06
-2.240000e+00	-2.170000e+00	-6.721760e+06	2.419916e+06	2.419916e+06
-2.170000e+00	-2.100000e+00	-2.979517e+06	2.159823e+06	2.159823e+06
-2.100000e+00	-2.030000e+00	-7.858527e+06	4.057347e+06	4.057347e+06
-2.030000e+00	-1.960000e+00	-3.865409e+06	3.869772e+06	3.869772e+06
-1.960000e+00	-1.890000e+00	-2.182277e+06	2.940769e+06	2.940769e+06
-1.890000e+00	-1.820000e+00	-7.499777e+05	4.707736e+06	4.707736e+06
-1.820000e+00	-1.750000e+00	-9.854297e+06	4.092412e+06	4.092412e+06
-1.750000e+00	-1.680000e+00	-2.992540e+06	2.199036e+06	2.199036e+06
-1.680000e+00	-1.610000e+00	-1.624549e+07	6.999273e+06	6.999273e+06
-1.610000e+00	-1.540000e+00	-7.555427e+06	2.666890e+06	2.666890e+06
-1.540000e+00	-1.470000e+00	-3.618146e+06	2.218356e+06	2.218356e+06
-1.470000e+00	-1.400000e+00	-5.867674e+06	2.742369e+06	2.742369e+06
-1.400000e+00	-1.330000e+00	-1.288041e+07	4.133677e+06	4.133677e+06
-1.330000e+00	-1.260000e+00	-8.154541e+06	2.882981e+06	2.882981e+06
-1.260000e+00	-1.190000e+00	1.124117e+07	1.565103e+07	1.565103e+07
-1.190000e+00	-1.120000e+00	-5.336570e+06	4.045500e+06	4.045500e+06
-1.120000e+00	-1.050000e+00	-8.529689e+06	2.772542e+06	2.772542e+06
-1.050000e+00	-9.800000e-01	-1.569216e+07	5.409464e+06	5.409464e+06
-9.800000e-01	-9.100000e-01	-2.002534e+07	7.765368e+06	7.765368e+06
-9.100000e-01	-8.400000e-01	-1.403362e+07	3.151911e+06	3.151911e+06
-8.400000e-01	-7.700000e-01	-9.800120e+06	3.619215e+06	3.619215e+06
-7.700000e-01	-7.000000e-01	-1.111138e+07	4.392104e+06	4.392104e+06
-7.000000e-01	-6.300000e-01	-9.409024e+06	2.199331e+06	2.199331e+06
-6.300000e-01	-5.600000e-01	-5.219484e+06	2.311847e+06	2.311847e+06
-5.600000e-01	-4.900000e-01	-1.473306e+06	9.652264e+05	9.652264e+05
-4.900000e-01	-4.200000e-01	-1.022838e+06	3.901219e+05	3.901219e+05
-4.200000e-01	-3.500000e-01	2.491103e+04	9.855565e+04	9.855565e+04
-3.500000e-01	-2.800000e-01	3.923404e+03	6.215529e+03	6.215529e+03
-2.800000e-01	-2.100000e-01	0.000000e+00	0.000000e+00	0.000000e+00
-2.100000e-01	-1.400000e-01	0.000000e+00	0.000000e+00	0.000000e+00
-1.400000e-01	-7.000000e-02	0.000000e+00	0.000000e+00	0.000000e+00
-7.000000e-02	0.000000e+00	0.000000e+00	0.000000e+00	0.000000e+00
# END HISTO1D

