# BEGIN PLOT
LegendOnly=/zj_ps_nlo_mer_mur0.5_muf0.5_R4.yoda/PAPER_FIN_R4/ch_l20_pT_150_186
DrawOnly=/zj_ps_nlo_mer_mur0.5_muf0.5_R4.yoda/PAPER_FIN_R4/ch_l20_pT_150_186
Legend=1
LogY=1
# END PLOT

# BEGIN HISTO1D /zj_ps_nlo_mer_mur0.5_muf0.5_R4.yoda/PAPER_FIN_R4/ch_l20_pT_150_186
LineColor=red
LineStyle=solid
Path=/zj_ps_nlo_mer_mur0.5_muf0.5_R4.yoda/PAPER_FIN_R4/ch_l20_pT_150_186
Title=zj_ps_nlo_mer_mur0.5_muf0.5_R4
XLabel=~
YLabel=~
# xlow	 xhigh	 val	 errminus	 errplus
-7.000000e+00	-6.930000e+00	0.000000e+00	0.000000e+00	0.000000e+00
-6.930000e+00	-6.860000e+00	-2.381966e+06	1.879514e+06	1.879514e+06
-6.860000e+00	-6.790000e+00	0.000000e+00	0.000000e+00	0.000000e+00
-6.790000e+00	-6.720000e+00	-1.440343e+01	1.440343e+01	1.440343e+01
-6.720000e+00	-6.650000e+00	0.000000e+00	0.000000e+00	0.000000e+00
-6.650000e+00	-6.580000e+00	-2.631846e+00	2.631846e+00	2.631846e+00
-6.580000e+00	-6.510000e+00	-6.134110e+00	5.280105e+00	5.280105e+00
-6.510000e+00	-6.440000e+00	-6.093704e+00	7.531001e+00	7.531001e+00
-6.440000e+00	-6.370000e+00	-8.089670e+01	8.089670e+01	8.089670e+01
-6.370000e+00	-6.300000e+00	-1.360888e+03	1.503625e+03	1.503625e+03
-6.300000e+00	-6.230000e+00	5.739109e+01	5.739109e+01	5.739109e+01
-6.230000e+00	-6.160000e+00	-7.949077e+03	7.947879e+03	7.947879e+03
-6.160000e+00	-6.090000e+00	2.061119e+02	2.049880e+02	2.049880e+02
-6.090000e+00	-6.020000e+00	5.271239e+00	8.515163e+01	8.515163e+01
-6.020000e+00	-5.950000e+00	-4.400997e+03	6.258927e+03	6.258927e+03
-5.950000e+00	-5.880000e+00	-4.926569e+03	3.459721e+03	3.459721e+03
-5.880000e+00	-5.810000e+00	-2.018087e+03	4.151516e+03	4.151516e+03
-5.810000e+00	-5.740000e+00	2.047221e+04	2.223249e+04	2.223249e+04
-5.740000e+00	-5.670000e+00	-1.212850e+03	1.221002e+03	1.221002e+03
-5.670000e+00	-5.600000e+00	-1.310744e+03	8.906767e+02	8.906767e+02
-5.600000e+00	-5.530000e+00	6.598821e+02	1.260633e+03	1.260633e+03
-5.530000e+00	-5.460000e+00	-8.048127e+02	2.514313e+03	2.514313e+03
-5.460000e+00	-5.390000e+00	4.529184e+03	9.896304e+03	9.896304e+03
-5.390000e+00	-5.320000e+00	2.217596e+04	1.552597e+04	1.552597e+04
-5.320000e+00	-5.250000e+00	-3.323117e+03	4.030286e+04	4.030286e+04
-5.250000e+00	-5.180000e+00	-6.963643e+04	1.302067e+05	1.302067e+05
-5.180000e+00	-5.110000e+00	-5.793173e+03	5.026168e+03	5.026168e+03
-5.110000e+00	-5.040000e+00	-6.303789e+04	5.460025e+04	5.460025e+04
-5.040000e+00	-4.970000e+00	-2.625816e+04	1.223374e+04	1.223374e+04
-4.970000e+00	-4.900000e+00	7.665236e+04	1.231210e+05	1.231210e+05
-4.900000e+00	-4.830000e+00	1.098963e+04	2.560205e+04	2.560205e+04
-4.830000e+00	-4.760000e+00	5.115850e+04	3.333421e+04	3.333421e+04
-4.760000e+00	-4.690000e+00	-8.988397e+04	7.423659e+04	7.423659e+04
-4.690000e+00	-4.620000e+00	-3.984033e+04	7.968241e+04	7.968241e+04
-4.620000e+00	-4.550000e+00	-2.873870e+04	4.000977e+04	4.000977e+04
-4.550000e+00	-4.480000e+00	3.471699e+04	8.339018e+04	8.339018e+04
-4.480000e+00	-4.410000e+00	-6.363809e+04	6.654144e+04	6.654144e+04
-4.410000e+00	-4.340000e+00	1.639747e+05	8.327194e+04	8.327194e+04
-4.340000e+00	-4.270000e+00	1.966866e+05	1.349519e+05	1.349519e+05
-4.270000e+00	-4.200000e+00	-7.882616e+04	1.099744e+05	1.099744e+05
-4.200000e+00	-4.130000e+00	-4.092186e+05	3.285754e+05	3.285754e+05
-4.130000e+00	-4.060000e+00	4.633853e+04	1.440997e+05	1.440997e+05
-4.060000e+00	-3.990000e+00	-4.428124e+06	4.283359e+06	4.283359e+06
-3.990000e+00	-3.920000e+00	3.958143e+05	1.715053e+05	1.715053e+05
-3.920000e+00	-3.850000e+00	1.438763e+06	1.130560e+06	1.130560e+06
-3.850000e+00	-3.780000e+00	-5.629491e+05	6.011545e+05	6.011545e+05
-3.780000e+00	-3.710000e+00	1.318320e+05	6.350579e+05	6.350579e+05
-3.710000e+00	-3.640000e+00	1.239538e+05	4.906354e+05	4.906354e+05
-3.640000e+00	-3.570000e+00	-7.081120e+04	2.507458e+05	2.507458e+05
-3.570000e+00	-3.500000e+00	5.696757e+05	3.998136e+05	3.998136e+05
-3.500000e+00	-3.430000e+00	-9.652411e+05	5.938412e+05	5.938412e+05
-3.430000e+00	-3.360000e+00	3.282641e+04	4.918109e+05	4.918109e+05
-3.360000e+00	-3.290000e+00	-4.205970e+05	5.695387e+05	5.695387e+05
-3.290000e+00	-3.220000e+00	-1.201755e+06	1.059420e+06	1.059420e+06
-3.220000e+00	-3.150000e+00	-6.692793e+05	6.084758e+05	6.084758e+05
-3.150000e+00	-3.080000e+00	-5.847297e+05	9.422108e+05	9.422108e+05
-3.080000e+00	-3.010000e+00	-1.180192e+07	1.046485e+07	1.046485e+07
-3.010000e+00	-2.940000e+00	1.597107e+06	9.870586e+05	9.870586e+05
-2.940000e+00	-2.870000e+00	-2.101366e+06	2.231091e+06	2.231091e+06
-2.870000e+00	-2.800000e+00	1.002799e+06	1.858131e+06	1.858131e+06
-2.800000e+00	-2.730000e+00	1.896191e+06	1.896630e+06	1.896630e+06
-2.730000e+00	-2.660000e+00	-1.266576e+06	2.543991e+06	2.543991e+06
-2.660000e+00	-2.590000e+00	-3.277850e+06	2.848372e+06	2.848372e+06
-2.590000e+00	-2.520000e+00	1.365315e+06	2.671257e+06	2.671257e+06
-2.520000e+00	-2.450000e+00	7.817213e+06	5.963861e+06	5.963861e+06
-2.450000e+00	-2.380000e+00	-5.161150e+06	5.799664e+06	5.799664e+06
-2.380000e+00	-2.310000e+00	-2.930414e+06	6.565603e+06	6.565603e+06
-2.310000e+00	-2.240000e+00	5.005323e+06	6.140259e+06	6.140259e+06
-2.240000e+00	-2.170000e+00	-1.211531e+07	1.057234e+07	1.057234e+07
-2.170000e+00	-2.100000e+00	1.484853e+07	1.028981e+07	1.028981e+07
-2.100000e+00	-2.030000e+00	-6.531380e+06	1.193316e+07	1.193316e+07
-2.030000e+00	-1.960000e+00	2.944764e+07	2.318586e+07	2.318586e+07
-1.960000e+00	-1.890000e+00	5.298860e+07	3.089337e+07	3.089337e+07
-1.890000e+00	-1.820000e+00	-1.710146e+07	1.755286e+07	1.755286e+07
-1.820000e+00	-1.750000e+00	1.248685e+06	1.333606e+07	1.333606e+07
-1.750000e+00	-1.680000e+00	3.710281e+06	1.390337e+07	1.390337e+07
-1.680000e+00	-1.610000e+00	-1.827429e+07	1.753729e+07	1.753729e+07
-1.610000e+00	-1.540000e+00	-5.276997e+07	4.037984e+07	4.037984e+07
-1.540000e+00	-1.470000e+00	-1.560904e+07	1.797985e+07	1.797985e+07
-1.470000e+00	-1.400000e+00	1.897109e+07	2.064447e+07	2.064447e+07
-1.400000e+00	-1.330000e+00	6.088877e+06	1.778654e+07	1.778654e+07
-1.330000e+00	-1.260000e+00	3.988530e+06	1.623620e+07	1.623620e+07
-1.260000e+00	-1.190000e+00	-5.113287e+07	1.927765e+07	1.927765e+07
-1.190000e+00	-1.120000e+00	-3.685166e+07	2.098226e+07	2.098226e+07
-1.120000e+00	-1.050000e+00	-5.361781e+06	1.848924e+07	1.848924e+07
-1.050000e+00	-9.800000e-01	-3.716309e+07	4.219036e+07	4.219036e+07
-9.800000e-01	-9.100000e-01	-8.341837e+06	1.631021e+07	1.631021e+07
-9.100000e-01	-8.400000e-01	-1.615289e+07	1.225129e+07	1.225129e+07
-8.400000e-01	-7.700000e-01	-9.451031e+06	1.307034e+07	1.307034e+07
-7.700000e-01	-7.000000e-01	-1.459009e+07	1.431238e+07	1.431238e+07
-7.000000e-01	-6.300000e-01	-2.703373e+07	1.259011e+07	1.259011e+07
-6.300000e-01	-5.600000e-01	-6.370353e+06	6.427952e+06	6.427952e+06
-5.600000e-01	-4.900000e-01	-4.567764e+06	3.693691e+06	3.693691e+06
-4.900000e-01	-4.200000e-01	1.684014e+06	1.514757e+06	1.514757e+06
-4.200000e-01	-3.500000e-01	1.115321e+05	3.716732e+05	3.716732e+05
-3.500000e-01	-2.800000e-01	1.927874e+04	3.501881e+04	3.501881e+04
-2.800000e-01	-2.100000e-01	0.000000e+00	0.000000e+00	0.000000e+00
-2.100000e-01	-1.400000e-01	0.000000e+00	0.000000e+00	0.000000e+00
-1.400000e-01	-7.000000e-02	0.000000e+00	0.000000e+00	0.000000e+00
-7.000000e-02	0.000000e+00	0.000000e+00	0.000000e+00	0.000000e+00
# END HISTO1D

