# BEGIN PLOT
LegendOnly=/zj_ps_nlo_mer_mur0.5_muf0.5_R4.yoda/PAPER_FIN_R4_CH/lin_l05_pT_254_326
DrawOnly=/zj_ps_nlo_mer_mur0.5_muf0.5_R4.yoda/PAPER_FIN_R4_CH/lin_l05_pT_254_326
Legend=1
LogY=1
# END PLOT

# BEGIN HISTO1D /zj_ps_nlo_mer_mur0.5_muf0.5_R4.yoda/PAPER_FIN_R4_CH/lin_l05_pT_254_326
LineColor=red
LineStyle=solid
Path=/zj_ps_nlo_mer_mur0.5_muf0.5_R4.yoda/PAPER_FIN_R4_CH/lin_l05_pT_254_326
Title=zj_ps_nlo_mer_mur0.5_muf0.5_R4
XLabel=~
YLabel=~
# xlow	 xhigh	 val	 errminus	 errplus
0.000000e+00	6.000000e-02	1.255574e+08	1.124541e+07	1.124541e+07
6.000000e-02	1.100000e-01	1.756828e+09	5.073462e+07	5.073462e+07
1.100000e-01	1.500000e-01	5.314275e+09	7.194018e+07	7.194018e+07
1.500000e-01	1.900000e-01	6.436877e+09	7.301746e+07	7.301746e+07
1.900000e-01	2.300000e-01	5.544140e+09	2.351987e+08	2.351987e+08
2.300000e-01	2.700000e-01	3.810062e+09	7.930857e+07	7.930857e+07
2.700000e-01	3.100000e-01	2.967353e+09	5.672993e+07	5.672993e+07
3.100000e-01	3.500000e-01	2.258308e+09	6.069632e+07	6.069632e+07
3.500000e-01	3.900000e-01	1.632136e+09	8.336970e+07	8.336970e+07
3.900000e-01	4.400000e-01	1.265343e+09	2.577165e+07	2.577165e+07
4.400000e-01	4.900000e-01	8.507346e+08	3.456436e+07	3.456436e+07
4.900000e-01	5.400000e-01	5.777032e+08	2.885935e+07	2.885935e+07
5.400000e-01	6.000000e-01	3.136242e+08	1.453074e+07	1.453074e+07
6.000000e-01	1.000000e+00	2.384741e+07	1.344897e+06	1.344897e+06
# END HISTO1D

