# BEGIN PLOT
LegendOnly=/zj_ps_nlo_mer_mur2_muf1_R8.yoda/PAPER_FIN_R8/l05_pT_65_88
DrawOnly=/zj_ps_nlo_mer_mur2_muf1_R8.yoda/PAPER_FIN_R8/l05_pT_65_88
Legend=1
LogY=1
# END PLOT

# BEGIN HISTO1D /zj_ps_nlo_mer_mur2_muf1_R8.yoda/PAPER_FIN_R8/l05_pT_65_88
LineColor=red
LineStyle=solid
Path=/zj_ps_nlo_mer_mur2_muf1_R8.yoda/PAPER_FIN_R8/l05_pT_65_88
Title=zj_ps_nlo_mer_mur2_muf1_R8
XLabel=~
YLabel=~
# xlow	 xhigh	 val	 errminus	 errplus
-7.000000e+00	-6.930000e+00	0.000000e+00	0.000000e+00	0.000000e+00
-6.930000e+00	-6.860000e+00	7.277881e+03	7.277881e+03	7.277881e+03
-6.860000e+00	-6.790000e+00	0.000000e+00	0.000000e+00	0.000000e+00
-6.790000e+00	-6.720000e+00	0.000000e+00	0.000000e+00	0.000000e+00
-6.720000e+00	-6.650000e+00	0.000000e+00	0.000000e+00	0.000000e+00
-6.650000e+00	-6.580000e+00	0.000000e+00	0.000000e+00	0.000000e+00
-6.580000e+00	-6.510000e+00	0.000000e+00	0.000000e+00	0.000000e+00
-6.510000e+00	-6.440000e+00	0.000000e+00	0.000000e+00	0.000000e+00
-6.440000e+00	-6.370000e+00	0.000000e+00	0.000000e+00	0.000000e+00
-6.370000e+00	-6.300000e+00	0.000000e+00	0.000000e+00	0.000000e+00
-6.300000e+00	-6.230000e+00	0.000000e+00	0.000000e+00	0.000000e+00
-6.230000e+00	-6.160000e+00	0.000000e+00	0.000000e+00	0.000000e+00
-6.160000e+00	-6.090000e+00	0.000000e+00	0.000000e+00	0.000000e+00
-6.090000e+00	-6.020000e+00	0.000000e+00	0.000000e+00	0.000000e+00
-6.020000e+00	-5.950000e+00	0.000000e+00	0.000000e+00	0.000000e+00
-5.950000e+00	-5.880000e+00	0.000000e+00	0.000000e+00	0.000000e+00
-5.880000e+00	-5.810000e+00	0.000000e+00	0.000000e+00	0.000000e+00
-5.810000e+00	-5.740000e+00	0.000000e+00	0.000000e+00	0.000000e+00
-5.740000e+00	-5.670000e+00	0.000000e+00	0.000000e+00	0.000000e+00
-5.670000e+00	-5.600000e+00	0.000000e+00	0.000000e+00	0.000000e+00
-5.600000e+00	-5.530000e+00	0.000000e+00	0.000000e+00	0.000000e+00
-5.530000e+00	-5.460000e+00	0.000000e+00	0.000000e+00	0.000000e+00
-5.460000e+00	-5.390000e+00	0.000000e+00	0.000000e+00	0.000000e+00
-5.390000e+00	-5.320000e+00	0.000000e+00	0.000000e+00	0.000000e+00
-5.320000e+00	-5.250000e+00	0.000000e+00	0.000000e+00	0.000000e+00
-5.250000e+00	-5.180000e+00	0.000000e+00	0.000000e+00	0.000000e+00
-5.180000e+00	-5.110000e+00	0.000000e+00	0.000000e+00	0.000000e+00
-5.110000e+00	-5.040000e+00	0.000000e+00	0.000000e+00	0.000000e+00
-5.040000e+00	-4.970000e+00	0.000000e+00	0.000000e+00	0.000000e+00
-4.970000e+00	-4.900000e+00	0.000000e+00	0.000000e+00	0.000000e+00
-4.900000e+00	-4.830000e+00	0.000000e+00	0.000000e+00	0.000000e+00
-4.830000e+00	-4.760000e+00	0.000000e+00	0.000000e+00	0.000000e+00
-4.760000e+00	-4.690000e+00	0.000000e+00	0.000000e+00	0.000000e+00
-4.690000e+00	-4.620000e+00	0.000000e+00	0.000000e+00	0.000000e+00
-4.620000e+00	-4.550000e+00	0.000000e+00	0.000000e+00	0.000000e+00
-4.550000e+00	-4.480000e+00	0.000000e+00	0.000000e+00	0.000000e+00
-4.480000e+00	-4.410000e+00	0.000000e+00	0.000000e+00	0.000000e+00
-4.410000e+00	-4.340000e+00	0.000000e+00	0.000000e+00	0.000000e+00
-4.340000e+00	-4.270000e+00	0.000000e+00	0.000000e+00	0.000000e+00
-4.270000e+00	-4.200000e+00	0.000000e+00	0.000000e+00	0.000000e+00
-4.200000e+00	-4.130000e+00	0.000000e+00	0.000000e+00	0.000000e+00
-4.130000e+00	-4.060000e+00	0.000000e+00	0.000000e+00	0.000000e+00
-4.060000e+00	-3.990000e+00	0.000000e+00	0.000000e+00	0.000000e+00
-3.990000e+00	-3.920000e+00	0.000000e+00	0.000000e+00	0.000000e+00
-3.920000e+00	-3.850000e+00	0.000000e+00	0.000000e+00	0.000000e+00
-3.850000e+00	-3.780000e+00	0.000000e+00	0.000000e+00	0.000000e+00
-3.780000e+00	-3.710000e+00	0.000000e+00	0.000000e+00	0.000000e+00
-3.710000e+00	-3.640000e+00	0.000000e+00	0.000000e+00	0.000000e+00
-3.640000e+00	-3.570000e+00	0.000000e+00	0.000000e+00	0.000000e+00
-3.570000e+00	-3.500000e+00	0.000000e+00	0.000000e+00	0.000000e+00
-3.500000e+00	-3.430000e+00	0.000000e+00	0.000000e+00	0.000000e+00
-3.430000e+00	-3.360000e+00	0.000000e+00	0.000000e+00	0.000000e+00
-3.360000e+00	-3.290000e+00	0.000000e+00	0.000000e+00	0.000000e+00
-3.290000e+00	-3.220000e+00	0.000000e+00	0.000000e+00	0.000000e+00
-3.220000e+00	-3.150000e+00	0.000000e+00	0.000000e+00	0.000000e+00
-3.150000e+00	-3.080000e+00	0.000000e+00	0.000000e+00	0.000000e+00
-3.080000e+00	-3.010000e+00	0.000000e+00	0.000000e+00	0.000000e+00
-3.010000e+00	-2.940000e+00	0.000000e+00	0.000000e+00	0.000000e+00
-2.940000e+00	-2.870000e+00	0.000000e+00	0.000000e+00	0.000000e+00
-2.870000e+00	-2.800000e+00	0.000000e+00	0.000000e+00	0.000000e+00
-2.800000e+00	-2.730000e+00	0.000000e+00	0.000000e+00	0.000000e+00
-2.730000e+00	-2.660000e+00	0.000000e+00	0.000000e+00	0.000000e+00
-2.660000e+00	-2.590000e+00	0.000000e+00	0.000000e+00	0.000000e+00
-2.590000e+00	-2.520000e+00	0.000000e+00	0.000000e+00	0.000000e+00
-2.520000e+00	-2.450000e+00	0.000000e+00	0.000000e+00	0.000000e+00
-2.450000e+00	-2.380000e+00	4.190967e+03	4.190966e+03	4.190966e+03
-2.380000e+00	-2.310000e+00	0.000000e+00	0.000000e+00	0.000000e+00
-2.310000e+00	-2.240000e+00	0.000000e+00	0.000000e+00	0.000000e+00
-2.240000e+00	-2.170000e+00	1.327188e+04	1.327188e+04	1.327188e+04
-2.170000e+00	-2.100000e+00	1.636324e+05	1.225024e+05	1.225024e+05
-2.100000e+00	-2.030000e+00	1.957587e+04	1.700915e+04	1.700915e+04
-2.030000e+00	-1.960000e+00	1.676820e+05	7.289481e+04	7.289481e+04
-1.960000e+00	-1.890000e+00	2.377429e+05	7.291547e+04	7.291547e+04
-1.890000e+00	-1.820000e+00	4.466739e+05	1.311595e+05	1.311595e+05
-1.820000e+00	-1.750000e+00	7.141821e+05	1.905997e+05	1.905997e+05
-1.750000e+00	-1.680000e+00	1.602149e+06	2.898383e+05	2.898383e+05
-1.680000e+00	-1.610000e+00	2.498146e+06	3.049584e+05	3.049584e+05
-1.610000e+00	-1.540000e+00	6.131854e+06	5.633071e+05	5.633071e+05
-1.540000e+00	-1.470000e+00	1.022578e+07	7.047440e+05	7.047440e+05
-1.470000e+00	-1.400000e+00	1.902889e+07	9.543104e+05	9.543104e+05
-1.400000e+00	-1.330000e+00	3.840343e+07	1.311371e+06	1.311371e+06
-1.330000e+00	-1.260000e+00	7.655527e+07	1.939958e+06	1.939958e+06
-1.260000e+00	-1.190000e+00	1.501581e+08	2.648430e+06	2.648430e+06
-1.190000e+00	-1.120000e+00	3.219549e+08	3.889560e+06	3.889560e+06
-1.120000e+00	-1.050000e+00	6.859664e+08	5.533617e+06	5.533617e+06
-1.050000e+00	-9.800000e-01	1.504057e+09	8.451217e+06	8.451217e+06
-9.800000e-01	-9.100000e-01	3.267107e+09	1.243802e+07	1.243802e+07
-9.100000e-01	-8.400000e-01	6.982604e+09	1.797999e+07	1.797999e+07
-8.400000e-01	-7.700000e-01	1.411020e+10	2.558421e+07	2.558421e+07
-7.700000e-01	-7.000000e-01	2.574707e+10	3.430210e+07	3.430210e+07
-7.000000e-01	-6.300000e-01	4.044336e+10	4.259699e+07	4.259699e+07
-6.300000e-01	-5.600000e-01	5.250140e+10	4.783245e+07	4.783245e+07
-5.600000e-01	-4.900000e-01	5.668999e+10	4.860411e+07	4.860411e+07
-4.900000e-01	-4.200000e-01	5.236627e+10	4.554007e+07	4.554007e+07
-4.200000e-01	-3.500000e-01	4.273113e+10	4.043891e+07	4.043891e+07
-3.500000e-01	-2.800000e-01	3.111856e+10	3.410605e+07	3.410605e+07
-2.800000e-01	-2.100000e-01	1.855521e+10	2.631043e+07	2.631043e+07
-2.100000e-01	-1.400000e-01	6.097417e+09	1.493614e+07	1.493614e+07
-1.400000e-01	-7.000000e-02	5.093317e+08	4.317350e+06	4.317350e+06
-7.000000e-02	0.000000e+00	5.168446e+06	4.064301e+05	4.064301e+05
# END HISTO1D

