# BEGIN PLOT
LegendOnly=/zj_ps_nlo_mer_mur2_muf1_R8.yoda/PAPER_FIN_R8/ch_lin_SD_l20_pT_326_408
DrawOnly=/zj_ps_nlo_mer_mur2_muf1_R8.yoda/PAPER_FIN_R8/ch_lin_SD_l20_pT_326_408
Legend=1
LogY=1
# END PLOT

# BEGIN HISTO1D /zj_ps_nlo_mer_mur2_muf1_R8.yoda/PAPER_FIN_R8/ch_lin_SD_l20_pT_326_408
LineColor=red
LineStyle=solid
Path=/zj_ps_nlo_mer_mur2_muf1_R8.yoda/PAPER_FIN_R8/ch_lin_SD_l20_pT_326_408
Title=zj_ps_nlo_mer_mur2_muf1_R8
XLabel=~
YLabel=~
# xlow	 xhigh	 val	 errminus	 errplus
0.000000e+00	2.500000e-03	8.084096e+10	2.666745e+08	2.666745e+08
2.500000e-03	5.000000e-03	9.240832e+09	8.959171e+07	8.959171e+07
5.000000e-03	7.500000e-03	5.589988e+09	6.928308e+07	6.928308e+07
7.500000e-03	1.250000e-02	3.607486e+09	4.018684e+07	4.018684e+07
1.250000e-02	2.000000e-02	2.329500e+09	2.352204e+07	2.352204e+07
2.000000e-02	3.250000e-02	1.534197e+09	1.471441e+07	1.471441e+07
3.250000e-02	5.000000e-02	1.058977e+09	1.040321e+07	1.040321e+07
5.000000e-02	7.750000e-02	7.912185e+08	7.263409e+06	7.263409e+06
7.750000e-02	1.150000e-01	5.955072e+08	5.627108e+06	5.627108e+06
1.150000e-01	1.600000e-01	3.911322e+08	3.869314e+06	3.869314e+06
1.600000e-01	2.100000e-01	2.251564e+08	2.466661e+06	2.466661e+06
2.100000e-01	1.000000e+00	9.173430e+06	1.273891e+05	1.273891e+05
# END HISTO1D

