# BEGIN PLOT
LegendOnly=/zj_ps_nlo_mer_mur2_muf1_R8.yoda/PAPER_FIN_R8/ch_lin_SD_l10_pT_254_326
DrawOnly=/zj_ps_nlo_mer_mur2_muf1_R8.yoda/PAPER_FIN_R8/ch_lin_SD_l10_pT_254_326
Legend=1
LogY=1
# END PLOT

# BEGIN HISTO1D /zj_ps_nlo_mer_mur2_muf1_R8.yoda/PAPER_FIN_R8/ch_lin_SD_l10_pT_254_326
LineColor=red
LineStyle=solid
Path=/zj_ps_nlo_mer_mur2_muf1_R8.yoda/PAPER_FIN_R8/ch_lin_SD_l10_pT_254_326
Title=zj_ps_nlo_mer_mur2_muf1_R8
XLabel=~
YLabel=~
# xlow	 xhigh	 val	 errminus	 errplus
0.000000e+00	1.250000e-02	1.964391e+10	6.364102e+07	6.364102e+07
1.250000e-02	2.250000e-02	1.313419e+10	5.624600e+07	5.624600e+07
2.250000e-02	3.500000e-02	7.115398e+09	3.589873e+07	3.589873e+07
3.500000e-02	5.000000e-02	4.389109e+09	2.488476e+07	2.488476e+07
5.000000e-02	7.000000e-02	3.098088e+09	1.950152e+07	1.950152e+07
7.000000e-02	9.500000e-02	2.386269e+09	1.396700e+07	1.396700e+07
9.500000e-02	1.280000e-01	1.944518e+09	1.075090e+07	1.075090e+07
1.280000e-01	1.700000e-01	1.582584e+09	8.971121e+06	8.971121e+06
1.700000e-01	2.250000e-01	1.140976e+09	6.505027e+06	6.505027e+06
2.250000e-01	2.900000e-01	7.581854e+08	4.806570e+06	4.806570e+06
2.900000e-01	3.650000e-01	4.776611e+08	3.507610e+06	3.507610e+06
3.650000e-01	4.500000e-01	2.566356e+08	2.139502e+06	2.139502e+06
4.500000e-01	1.000000e+00	2.107204e+07	2.656481e+05	2.656481e+05
# END HISTO1D

