# BEGIN PLOT
# END PLOT

# BEGIN HISTO1D
LineColor=red
LineStyle=solid
Title=Z+Jet SHERPA MESP@NLO+NP
# Sigma = 1.641770e-01 pb
# xlow	xhigh	val	errminus	errplus
0.000000e+00	5.000000e-03	1.998195e+01	1.322055e-01	1.900335e+00
5.000000e-03	1.250000e-02	2.579342e+01	9.019335e-01	1.143761e+00
1.250000e-02	2.250000e-02	1.723445e+01	9.235380e-01	5.850071e-01
2.250000e-02	3.500000e-02	1.047657e+01	7.406333e-01	2.999043e-01
3.500000e-02	5.000000e-02	6.628651e+00	5.429423e-01	3.800180e-01
5.000000e-02	7.000000e-02	4.271650e+00	4.066680e-01	2.476309e-01
7.000000e-02	9.250000e-02	2.809009e+00	2.608834e-01	1.674136e-01
9.250000e-02	1.200000e-01	1.920508e+00	1.983441e-01	1.491391e-01
1.200000e-01	1.520000e-01	1.264029e+00	1.185945e-01	6.546291e-02
1.520000e-01	1.880000e-01	8.164486e-01	8.389585e-02	7.155594e-02
1.880000e-01	2.280000e-01	4.921388e-01	5.105627e-02	2.957969e-02
2.280000e-01	1.000000e+00	1.675122e-02	1.887999e-03	1.117085e-03
# END HISTO1D