# BEGIN PLOT
LegendOnly=/zj_ps_nlo_mer_mur0.5_muf1_R8.yoda/PAPER_FIN_R8/ch_SD_l05_pT_408_1500
DrawOnly=/zj_ps_nlo_mer_mur0.5_muf1_R8.yoda/PAPER_FIN_R8/ch_SD_l05_pT_408_1500
Legend=1
LogY=1
# END PLOT

# BEGIN HISTO1D /zj_ps_nlo_mer_mur0.5_muf1_R8.yoda/PAPER_FIN_R8/ch_SD_l05_pT_408_1500
LineColor=red
LineStyle=solid
Path=/zj_ps_nlo_mer_mur0.5_muf1_R8.yoda/PAPER_FIN_R8/ch_SD_l05_pT_408_1500
Title=zj_ps_nlo_mer_mur0.5_muf1_R8
XLabel=~
YLabel=~
# xlow	 xhigh	 val	 errminus	 errplus
-7.000000e+00	-6.930000e+00	0.000000e+00	0.000000e+00	0.000000e+00
-6.930000e+00	-6.860000e+00	7.540740e+07	3.512641e+06	3.512641e+06
-6.860000e+00	-6.790000e+00	0.000000e+00	0.000000e+00	0.000000e+00
-6.790000e+00	-6.720000e+00	0.000000e+00	0.000000e+00	0.000000e+00
-6.720000e+00	-6.650000e+00	0.000000e+00	0.000000e+00	0.000000e+00
-6.650000e+00	-6.580000e+00	0.000000e+00	0.000000e+00	0.000000e+00
-6.580000e+00	-6.510000e+00	0.000000e+00	0.000000e+00	0.000000e+00
-6.510000e+00	-6.440000e+00	0.000000e+00	0.000000e+00	0.000000e+00
-6.440000e+00	-6.370000e+00	0.000000e+00	0.000000e+00	0.000000e+00
-6.370000e+00	-6.300000e+00	0.000000e+00	0.000000e+00	0.000000e+00
-6.300000e+00	-6.230000e+00	0.000000e+00	0.000000e+00	0.000000e+00
-6.230000e+00	-6.160000e+00	0.000000e+00	0.000000e+00	0.000000e+00
-6.160000e+00	-6.090000e+00	0.000000e+00	0.000000e+00	0.000000e+00
-6.090000e+00	-6.020000e+00	0.000000e+00	0.000000e+00	0.000000e+00
-6.020000e+00	-5.950000e+00	0.000000e+00	0.000000e+00	0.000000e+00
-5.950000e+00	-5.880000e+00	0.000000e+00	0.000000e+00	0.000000e+00
-5.880000e+00	-5.810000e+00	0.000000e+00	0.000000e+00	0.000000e+00
-5.810000e+00	-5.740000e+00	0.000000e+00	0.000000e+00	0.000000e+00
-5.740000e+00	-5.670000e+00	0.000000e+00	0.000000e+00	0.000000e+00
-5.670000e+00	-5.600000e+00	0.000000e+00	0.000000e+00	0.000000e+00
-5.600000e+00	-5.530000e+00	0.000000e+00	0.000000e+00	0.000000e+00
-5.530000e+00	-5.460000e+00	0.000000e+00	0.000000e+00	0.000000e+00
-5.460000e+00	-5.390000e+00	0.000000e+00	0.000000e+00	0.000000e+00
-5.390000e+00	-5.320000e+00	0.000000e+00	0.000000e+00	0.000000e+00
-5.320000e+00	-5.250000e+00	0.000000e+00	0.000000e+00	0.000000e+00
-5.250000e+00	-5.180000e+00	0.000000e+00	0.000000e+00	0.000000e+00
-5.180000e+00	-5.110000e+00	0.000000e+00	0.000000e+00	0.000000e+00
-5.110000e+00	-5.040000e+00	0.000000e+00	0.000000e+00	0.000000e+00
-5.040000e+00	-4.970000e+00	0.000000e+00	0.000000e+00	0.000000e+00
-4.970000e+00	-4.900000e+00	0.000000e+00	0.000000e+00	0.000000e+00
-4.900000e+00	-4.830000e+00	0.000000e+00	0.000000e+00	0.000000e+00
-4.830000e+00	-4.760000e+00	0.000000e+00	0.000000e+00	0.000000e+00
-4.760000e+00	-4.690000e+00	0.000000e+00	0.000000e+00	0.000000e+00
-4.690000e+00	-4.620000e+00	0.000000e+00	0.000000e+00	0.000000e+00
-4.620000e+00	-4.550000e+00	0.000000e+00	0.000000e+00	0.000000e+00
-4.550000e+00	-4.480000e+00	0.000000e+00	0.000000e+00	0.000000e+00
-4.480000e+00	-4.410000e+00	0.000000e+00	0.000000e+00	0.000000e+00
-4.410000e+00	-4.340000e+00	0.000000e+00	0.000000e+00	0.000000e+00
-4.340000e+00	-4.270000e+00	0.000000e+00	0.000000e+00	0.000000e+00
-4.270000e+00	-4.200000e+00	0.000000e+00	0.000000e+00	0.000000e+00
-4.200000e+00	-4.130000e+00	0.000000e+00	0.000000e+00	0.000000e+00
-4.130000e+00	-4.060000e+00	0.000000e+00	0.000000e+00	0.000000e+00
-4.060000e+00	-3.990000e+00	0.000000e+00	0.000000e+00	0.000000e+00
-3.990000e+00	-3.920000e+00	0.000000e+00	0.000000e+00	0.000000e+00
-3.920000e+00	-3.850000e+00	0.000000e+00	0.000000e+00	0.000000e+00
-3.850000e+00	-3.780000e+00	0.000000e+00	0.000000e+00	0.000000e+00
-3.780000e+00	-3.710000e+00	0.000000e+00	0.000000e+00	0.000000e+00
-3.710000e+00	-3.640000e+00	0.000000e+00	0.000000e+00	0.000000e+00
-3.640000e+00	-3.570000e+00	0.000000e+00	0.000000e+00	0.000000e+00
-3.570000e+00	-3.500000e+00	0.000000e+00	0.000000e+00	0.000000e+00
-3.500000e+00	-3.430000e+00	0.000000e+00	0.000000e+00	0.000000e+00
-3.430000e+00	-3.360000e+00	0.000000e+00	0.000000e+00	0.000000e+00
-3.360000e+00	-3.290000e+00	0.000000e+00	0.000000e+00	0.000000e+00
-3.290000e+00	-3.220000e+00	0.000000e+00	0.000000e+00	0.000000e+00
-3.220000e+00	-3.150000e+00	4.666747e+02	4.666747e+02	4.666747e+02
-3.150000e+00	-3.080000e+00	9.525073e-02	9.525073e-02	9.525073e-02
-3.080000e+00	-3.010000e+00	6.247389e+00	5.280847e+00	5.280847e+00
-3.010000e+00	-2.940000e+00	4.527259e-02	4.527260e-02	4.527260e-02
-2.940000e+00	-2.870000e+00	1.435314e+02	7.895377e+01	7.895377e+01
-2.870000e+00	-2.800000e+00	1.790711e+05	1.789870e+05	1.789870e+05
-2.800000e+00	-2.730000e+00	6.782871e+03	4.312664e+03	4.312664e+03
-2.730000e+00	-2.660000e+00	1.688277e+04	7.397638e+03	7.397638e+03
-2.660000e+00	-2.590000e+00	2.327130e+04	8.719352e+03	8.719352e+03
-2.590000e+00	-2.520000e+00	5.099866e+04	1.475753e+04	1.475753e+04
-2.520000e+00	-2.450000e+00	1.744526e+05	6.581257e+04	6.581257e+04
-2.450000e+00	-2.380000e+00	2.711519e+05	6.919428e+04	6.919428e+04
-2.380000e+00	-2.310000e+00	5.505546e+05	7.795531e+04	7.795531e+04
-2.310000e+00	-2.240000e+00	1.070970e+06	1.292411e+05	1.292411e+05
-2.240000e+00	-2.170000e+00	3.213106e+06	5.825214e+05	5.825214e+05
-2.170000e+00	-2.100000e+00	3.573540e+06	3.070901e+05	3.070901e+05
-2.100000e+00	-2.030000e+00	7.210503e+06	6.879418e+05	6.879418e+05
-2.030000e+00	-1.960000e+00	1.069588e+07	6.581216e+05	6.581216e+05
-1.960000e+00	-1.890000e+00	1.560979e+07	7.396157e+05	7.396157e+05
-1.890000e+00	-1.820000e+00	2.414114e+07	1.037298e+06	1.037298e+06
-1.820000e+00	-1.750000e+00	3.688929e+07	1.535342e+06	1.535342e+06
-1.750000e+00	-1.680000e+00	5.019690e+07	2.014252e+06	2.014252e+06
-1.680000e+00	-1.610000e+00	6.447953e+07	1.947589e+06	1.947589e+06
-1.610000e+00	-1.540000e+00	9.123501e+07	2.657649e+06	2.657649e+06
-1.540000e+00	-1.470000e+00	1.195181e+08	2.182305e+06	2.182305e+06
-1.470000e+00	-1.400000e+00	1.616491e+08	2.769523e+06	2.769523e+06
-1.400000e+00	-1.330000e+00	2.147794e+08	3.894137e+06	3.894137e+06
-1.330000e+00	-1.260000e+00	2.529093e+08	3.653309e+06	3.653309e+06
-1.260000e+00	-1.190000e+00	2.925279e+08	4.361423e+06	4.361423e+06
-1.190000e+00	-1.120000e+00	3.189540e+08	4.128313e+06	4.128313e+06
-1.120000e+00	-1.050000e+00	3.199889e+08	3.785020e+06	3.785020e+06
-1.050000e+00	-9.800000e-01	3.227154e+08	4.264241e+06	4.264241e+06
-9.800000e-01	-9.100000e-01	3.081249e+08	3.919595e+06	3.919595e+06
-9.100000e-01	-8.400000e-01	3.174699e+08	4.157360e+06	4.157360e+06
-8.400000e-01	-7.700000e-01	3.334376e+08	3.755573e+06	3.755573e+06
-7.700000e-01	-7.000000e-01	3.564084e+08	4.278359e+06	4.278359e+06
-7.000000e-01	-6.300000e-01	3.634061e+08	4.062466e+06	4.062466e+06
-6.300000e-01	-5.600000e-01	3.723884e+08	5.312623e+06	5.312623e+06
-5.600000e-01	-4.900000e-01	3.378083e+08	3.745156e+06	3.745156e+06
-4.900000e-01	-4.200000e-01	3.058176e+08	4.768057e+06	4.768057e+06
-4.200000e-01	-3.500000e-01	2.489496e+08	3.090842e+06	3.090842e+06
-3.500000e-01	-2.800000e-01	1.711140e+08	2.524173e+06	2.524173e+06
-2.800000e-01	-2.100000e-01	8.015157e+07	1.527887e+06	1.527887e+06
-2.100000e-01	-1.400000e-01	1.522280e+07	1.045012e+06	1.045012e+06
-1.400000e-01	-7.000000e-02	5.840679e+05	1.071122e+05	1.071122e+05
-7.000000e-02	0.000000e+00	0.000000e+00	0.000000e+00	0.000000e+00
# END HISTO1D

