# BEGIN PLOT
LegendOnly=/zj_ps_nlo_mer_mur0.5_muf1_R8.yoda/PAPER_FIN_R8/l10_pT_50_65
DrawOnly=/zj_ps_nlo_mer_mur0.5_muf1_R8.yoda/PAPER_FIN_R8/l10_pT_50_65
Legend=1
LogY=1
# END PLOT

# BEGIN HISTO1D /zj_ps_nlo_mer_mur0.5_muf1_R8.yoda/PAPER_FIN_R8/l10_pT_50_65
LineColor=red
LineStyle=solid
Path=/zj_ps_nlo_mer_mur0.5_muf1_R8.yoda/PAPER_FIN_R8/l10_pT_50_65
Title=zj_ps_nlo_mer_mur0.5_muf1_R8
XLabel=~
YLabel=~
# xlow	 xhigh	 val	 errminus	 errplus
-7.000000e+00	-6.930000e+00	0.000000e+00	0.000000e+00	0.000000e+00
-6.930000e+00	-6.860000e+00	0.000000e+00	0.000000e+00	0.000000e+00
-6.860000e+00	-6.790000e+00	0.000000e+00	0.000000e+00	0.000000e+00
-6.790000e+00	-6.720000e+00	0.000000e+00	0.000000e+00	0.000000e+00
-6.720000e+00	-6.650000e+00	0.000000e+00	0.000000e+00	0.000000e+00
-6.650000e+00	-6.580000e+00	0.000000e+00	0.000000e+00	0.000000e+00
-6.580000e+00	-6.510000e+00	0.000000e+00	0.000000e+00	0.000000e+00
-6.510000e+00	-6.440000e+00	0.000000e+00	0.000000e+00	0.000000e+00
-6.440000e+00	-6.370000e+00	0.000000e+00	0.000000e+00	0.000000e+00
-6.370000e+00	-6.300000e+00	0.000000e+00	0.000000e+00	0.000000e+00
-6.300000e+00	-6.230000e+00	0.000000e+00	0.000000e+00	0.000000e+00
-6.230000e+00	-6.160000e+00	0.000000e+00	0.000000e+00	0.000000e+00
-6.160000e+00	-6.090000e+00	0.000000e+00	0.000000e+00	0.000000e+00
-6.090000e+00	-6.020000e+00	0.000000e+00	0.000000e+00	0.000000e+00
-6.020000e+00	-5.950000e+00	0.000000e+00	0.000000e+00	0.000000e+00
-5.950000e+00	-5.880000e+00	0.000000e+00	0.000000e+00	0.000000e+00
-5.880000e+00	-5.810000e+00	0.000000e+00	0.000000e+00	0.000000e+00
-5.810000e+00	-5.740000e+00	0.000000e+00	0.000000e+00	0.000000e+00
-5.740000e+00	-5.670000e+00	0.000000e+00	0.000000e+00	0.000000e+00
-5.670000e+00	-5.600000e+00	0.000000e+00	0.000000e+00	0.000000e+00
-5.600000e+00	-5.530000e+00	0.000000e+00	0.000000e+00	0.000000e+00
-5.530000e+00	-5.460000e+00	0.000000e+00	0.000000e+00	0.000000e+00
-5.460000e+00	-5.390000e+00	0.000000e+00	0.000000e+00	0.000000e+00
-5.390000e+00	-5.320000e+00	0.000000e+00	0.000000e+00	0.000000e+00
-5.320000e+00	-5.250000e+00	0.000000e+00	0.000000e+00	0.000000e+00
-5.250000e+00	-5.180000e+00	0.000000e+00	0.000000e+00	0.000000e+00
-5.180000e+00	-5.110000e+00	0.000000e+00	0.000000e+00	0.000000e+00
-5.110000e+00	-5.040000e+00	0.000000e+00	0.000000e+00	0.000000e+00
-5.040000e+00	-4.970000e+00	0.000000e+00	0.000000e+00	0.000000e+00
-4.970000e+00	-4.900000e+00	0.000000e+00	0.000000e+00	0.000000e+00
-4.900000e+00	-4.830000e+00	0.000000e+00	0.000000e+00	0.000000e+00
-4.830000e+00	-4.760000e+00	0.000000e+00	0.000000e+00	0.000000e+00
-4.760000e+00	-4.690000e+00	0.000000e+00	0.000000e+00	0.000000e+00
-4.690000e+00	-4.620000e+00	0.000000e+00	0.000000e+00	0.000000e+00
-4.620000e+00	-4.550000e+00	0.000000e+00	0.000000e+00	0.000000e+00
-4.550000e+00	-4.480000e+00	0.000000e+00	0.000000e+00	0.000000e+00
-4.480000e+00	-4.410000e+00	0.000000e+00	0.000000e+00	0.000000e+00
-4.410000e+00	-4.340000e+00	0.000000e+00	0.000000e+00	0.000000e+00
-4.340000e+00	-4.270000e+00	0.000000e+00	0.000000e+00	0.000000e+00
-4.270000e+00	-4.200000e+00	0.000000e+00	0.000000e+00	0.000000e+00
-4.200000e+00	-4.130000e+00	0.000000e+00	0.000000e+00	0.000000e+00
-4.130000e+00	-4.060000e+00	0.000000e+00	0.000000e+00	0.000000e+00
-4.060000e+00	-3.990000e+00	0.000000e+00	0.000000e+00	0.000000e+00
-3.990000e+00	-3.920000e+00	0.000000e+00	0.000000e+00	0.000000e+00
-3.920000e+00	-3.850000e+00	7.604886e+03	7.604886e+03	7.604886e+03
-3.850000e+00	-3.780000e+00	1.214203e+02	1.214203e+02	1.214203e+02
-3.780000e+00	-3.710000e+00	0.000000e+00	0.000000e+00	0.000000e+00
-3.710000e+00	-3.640000e+00	0.000000e+00	0.000000e+00	0.000000e+00
-3.640000e+00	-3.570000e+00	0.000000e+00	0.000000e+00	0.000000e+00
-3.570000e+00	-3.500000e+00	0.000000e+00	0.000000e+00	0.000000e+00
-3.500000e+00	-3.430000e+00	6.847913e+03	6.847913e+03	6.847913e+03
-3.430000e+00	-3.360000e+00	0.000000e+00	0.000000e+00	0.000000e+00
-3.360000e+00	-3.290000e+00	0.000000e+00	0.000000e+00	0.000000e+00
-3.290000e+00	-3.220000e+00	0.000000e+00	0.000000e+00	0.000000e+00
-3.220000e+00	-3.150000e+00	9.173864e+02	9.173864e+02	9.173864e+02
-3.150000e+00	-3.080000e+00	4.085239e+03	4.085238e+03	4.085238e+03
-3.080000e+00	-3.010000e+00	1.220737e+05	7.089564e+04	7.089564e+04
-3.010000e+00	-2.940000e+00	4.559606e+04	3.926217e+04	3.926217e+04
-2.940000e+00	-2.870000e+00	5.903694e+04	5.903695e+04	5.903695e+04
-2.870000e+00	-2.800000e+00	1.073482e+04	8.735708e+03	8.735708e+03
-2.800000e+00	-2.730000e+00	1.075015e+05	5.911374e+04	5.911374e+04
-2.730000e+00	-2.660000e+00	2.436884e+05	9.921240e+04	9.921240e+04
-2.660000e+00	-2.590000e+00	3.162031e+05	1.019579e+05	1.019579e+05
-2.590000e+00	-2.520000e+00	4.917264e+05	1.736474e+05	1.736474e+05
-2.520000e+00	-2.450000e+00	6.318744e+05	2.518051e+05	2.518051e+05
-2.450000e+00	-2.380000e+00	5.784409e+05	1.865473e+05	1.865473e+05
-2.380000e+00	-2.310000e+00	1.683009e+06	4.154459e+05	4.154459e+05
-2.310000e+00	-2.240000e+00	2.220084e+06	3.561403e+05	3.561403e+05
-2.240000e+00	-2.170000e+00	4.292737e+06	9.853420e+05	9.853420e+05
-2.170000e+00	-2.100000e+00	8.487904e+06	1.055700e+06	1.055700e+06
-2.100000e+00	-2.030000e+00	9.652799e+06	7.803050e+05	7.803050e+05
-2.030000e+00	-1.960000e+00	1.904137e+07	1.207300e+06	1.207300e+06
-1.960000e+00	-1.890000e+00	3.028077e+07	1.409378e+06	1.409378e+06
-1.890000e+00	-1.820000e+00	5.954874e+07	2.341762e+06	2.341762e+06
-1.820000e+00	-1.750000e+00	9.688743e+07	3.036649e+06	3.036649e+06
-1.750000e+00	-1.680000e+00	1.689523e+08	3.637112e+06	3.637112e+06
-1.680000e+00	-1.610000e+00	3.110100e+08	5.283652e+06	5.283652e+06
-1.610000e+00	-1.540000e+00	5.546671e+08	7.169868e+06	7.169868e+06
-1.540000e+00	-1.470000e+00	9.862346e+08	9.543169e+06	9.543169e+06
-1.470000e+00	-1.400000e+00	1.795306e+09	1.314743e+07	1.314743e+07
-1.400000e+00	-1.330000e+00	3.147716e+09	1.721058e+07	1.721058e+07
-1.330000e+00	-1.260000e+00	5.600123e+09	2.304902e+07	2.304902e+07
-1.260000e+00	-1.190000e+00	9.624127e+09	3.014490e+07	3.014490e+07
-1.190000e+00	-1.120000e+00	1.602096e+10	3.845413e+07	3.845413e+07
-1.120000e+00	-1.050000e+00	2.490693e+10	4.743987e+07	4.743987e+07
-1.050000e+00	-9.800000e-01	3.587546e+10	5.657334e+07	5.657334e+07
-9.800000e-01	-9.100000e-01	4.753577e+10	6.431755e+07	6.431755e+07
-9.100000e-01	-8.400000e-01	5.757854e+10	7.011367e+07	7.011367e+07
-8.400000e-01	-7.700000e-01	6.437154e+10	7.312313e+07	7.312313e+07
-7.700000e-01	-7.000000e-01	6.678324e+10	7.335132e+07	7.335132e+07
-7.000000e-01	-6.300000e-01	6.456996e+10	7.103608e+07	7.103608e+07
-6.300000e-01	-5.600000e-01	5.836999e+10	6.656519e+07	6.656519e+07
-5.600000e-01	-4.900000e-01	4.952090e+10	6.170311e+07	6.170311e+07
-4.900000e-01	-4.200000e-01	3.917803e+10	5.429447e+07	5.429447e+07
-4.200000e-01	-3.500000e-01	2.853931e+10	4.651629e+07	4.651629e+07
-3.500000e-01	-2.800000e-01	1.790496e+10	3.662822e+07	3.662822e+07
-2.800000e-01	-2.100000e-01	8.233869e+09	2.518041e+07	2.518041e+07
-2.100000e-01	-1.400000e-01	2.230806e+09	1.248949e+07	1.248949e+07
-1.400000e-01	-7.000000e-02	3.473417e+08	5.107084e+06	5.107084e+06
-7.000000e-02	0.000000e+00	2.278247e+07	1.194729e+06	1.194729e+06
# END HISTO1D

