# BEGIN PLOT
LegendOnly=/zj_ps_nlo_mer_mur0.5_muf1_R8.yoda/PAPER_FIN_R8_CH/lin_l10_pT_65_88
DrawOnly=/zj_ps_nlo_mer_mur0.5_muf1_R8.yoda/PAPER_FIN_R8_CH/lin_l10_pT_65_88
Legend=1
LogY=1
# END PLOT

# BEGIN HISTO1D /zj_ps_nlo_mer_mur0.5_muf1_R8.yoda/PAPER_FIN_R8_CH/lin_l10_pT_65_88
LineColor=red
LineStyle=solid
Path=/zj_ps_nlo_mer_mur0.5_muf1_R8.yoda/PAPER_FIN_R8_CH/lin_l10_pT_65_88
Title=zj_ps_nlo_mer_mur0.5_muf1_R8
XLabel=~
YLabel=~
# xlow	 xhigh	 val	 errminus	 errplus
0.000000e+00	2.250000e-02	2.253162e+09	2.649469e+07	2.649469e+07
2.250000e-02	4.000000e-02	2.100890e+10	9.131071e+07	9.131071e+07
4.000000e-02	5.750000e-02	6.469737e+10	1.611306e+08	1.611306e+08
5.750000e-02	7.750000e-02	1.217488e+11	2.033842e+08	2.033842e+08
7.750000e-02	1.000000e-01	1.635206e+11	2.194370e+08	2.194370e+08
1.000000e-01	1.250000e-01	1.708772e+11	2.079481e+08	2.079481e+08
1.250000e-01	1.520000e-01	1.548082e+11	1.871379e+08	1.871379e+08
1.520000e-01	1.850000e-01	1.273816e+11	1.503200e+08	1.503200e+08
1.850000e-01	2.200000e-01	9.817586e+10	1.272054e+08	1.272054e+08
2.200000e-01	2.600000e-01	7.214495e+10	1.006626e+08	1.006626e+08
2.600000e-01	3.070000e-01	5.078445e+10	7.768012e+07	7.768012e+07
3.070000e-01	3.620000e-01	3.418660e+10	5.913847e+07	5.913847e+07
3.620000e-01	4.250000e-01	2.183927e+10	4.392317e+07	4.392317e+07
4.250000e-01	4.970000e-01	1.247159e+10	3.090512e+07	3.090512e+07
4.970000e-01	1.000000e+00	1.268489e+09	3.754006e+06	3.754006e+06
# END HISTO1D

