# BEGIN PLOT
LegendOnly=/zj_ps_nlo_mer_mur0.5_muf1_R8.yoda/PAPER_FIN_R8/l10_pT_150_186
DrawOnly=/zj_ps_nlo_mer_mur0.5_muf1_R8.yoda/PAPER_FIN_R8/l10_pT_150_186
Legend=1
LogY=1
# END PLOT

# BEGIN HISTO1D /zj_ps_nlo_mer_mur0.5_muf1_R8.yoda/PAPER_FIN_R8/l10_pT_150_186
LineColor=red
LineStyle=solid
Path=/zj_ps_nlo_mer_mur0.5_muf1_R8.yoda/PAPER_FIN_R8/l10_pT_150_186
Title=zj_ps_nlo_mer_mur0.5_muf1_R8
XLabel=~
YLabel=~
# xlow	 xhigh	 val	 errminus	 errplus
-7.000000e+00	-6.930000e+00	0.000000e+00	0.000000e+00	0.000000e+00
-6.930000e+00	-6.860000e+00	0.000000e+00	0.000000e+00	0.000000e+00
-6.860000e+00	-6.790000e+00	0.000000e+00	0.000000e+00	0.000000e+00
-6.790000e+00	-6.720000e+00	0.000000e+00	0.000000e+00	0.000000e+00
-6.720000e+00	-6.650000e+00	0.000000e+00	0.000000e+00	0.000000e+00
-6.650000e+00	-6.580000e+00	0.000000e+00	0.000000e+00	0.000000e+00
-6.580000e+00	-6.510000e+00	0.000000e+00	0.000000e+00	0.000000e+00
-6.510000e+00	-6.440000e+00	0.000000e+00	0.000000e+00	0.000000e+00
-6.440000e+00	-6.370000e+00	0.000000e+00	0.000000e+00	0.000000e+00
-6.370000e+00	-6.300000e+00	0.000000e+00	0.000000e+00	0.000000e+00
-6.300000e+00	-6.230000e+00	0.000000e+00	0.000000e+00	0.000000e+00
-6.230000e+00	-6.160000e+00	0.000000e+00	0.000000e+00	0.000000e+00
-6.160000e+00	-6.090000e+00	0.000000e+00	0.000000e+00	0.000000e+00
-6.090000e+00	-6.020000e+00	0.000000e+00	0.000000e+00	0.000000e+00
-6.020000e+00	-5.950000e+00	0.000000e+00	0.000000e+00	0.000000e+00
-5.950000e+00	-5.880000e+00	0.000000e+00	0.000000e+00	0.000000e+00
-5.880000e+00	-5.810000e+00	0.000000e+00	0.000000e+00	0.000000e+00
-5.810000e+00	-5.740000e+00	0.000000e+00	0.000000e+00	0.000000e+00
-5.740000e+00	-5.670000e+00	0.000000e+00	0.000000e+00	0.000000e+00
-5.670000e+00	-5.600000e+00	0.000000e+00	0.000000e+00	0.000000e+00
-5.600000e+00	-5.530000e+00	0.000000e+00	0.000000e+00	0.000000e+00
-5.530000e+00	-5.460000e+00	0.000000e+00	0.000000e+00	0.000000e+00
-5.460000e+00	-5.390000e+00	0.000000e+00	0.000000e+00	0.000000e+00
-5.390000e+00	-5.320000e+00	0.000000e+00	0.000000e+00	0.000000e+00
-5.320000e+00	-5.250000e+00	0.000000e+00	0.000000e+00	0.000000e+00
-5.250000e+00	-5.180000e+00	0.000000e+00	0.000000e+00	0.000000e+00
-5.180000e+00	-5.110000e+00	0.000000e+00	0.000000e+00	0.000000e+00
-5.110000e+00	-5.040000e+00	0.000000e+00	0.000000e+00	0.000000e+00
-5.040000e+00	-4.970000e+00	0.000000e+00	0.000000e+00	0.000000e+00
-4.970000e+00	-4.900000e+00	0.000000e+00	0.000000e+00	0.000000e+00
-4.900000e+00	-4.830000e+00	0.000000e+00	0.000000e+00	0.000000e+00
-4.830000e+00	-4.760000e+00	0.000000e+00	0.000000e+00	0.000000e+00
-4.760000e+00	-4.690000e+00	0.000000e+00	0.000000e+00	0.000000e+00
-4.690000e+00	-4.620000e+00	0.000000e+00	0.000000e+00	0.000000e+00
-4.620000e+00	-4.550000e+00	0.000000e+00	0.000000e+00	0.000000e+00
-4.550000e+00	-4.480000e+00	0.000000e+00	0.000000e+00	0.000000e+00
-4.480000e+00	-4.410000e+00	0.000000e+00	0.000000e+00	0.000000e+00
-4.410000e+00	-4.340000e+00	0.000000e+00	0.000000e+00	0.000000e+00
-4.340000e+00	-4.270000e+00	0.000000e+00	0.000000e+00	0.000000e+00
-4.270000e+00	-4.200000e+00	0.000000e+00	0.000000e+00	0.000000e+00
-4.200000e+00	-4.130000e+00	0.000000e+00	0.000000e+00	0.000000e+00
-4.130000e+00	-4.060000e+00	0.000000e+00	0.000000e+00	0.000000e+00
-4.060000e+00	-3.990000e+00	0.000000e+00	0.000000e+00	0.000000e+00
-3.990000e+00	-3.920000e+00	0.000000e+00	0.000000e+00	0.000000e+00
-3.920000e+00	-3.850000e+00	0.000000e+00	0.000000e+00	0.000000e+00
-3.850000e+00	-3.780000e+00	0.000000e+00	0.000000e+00	0.000000e+00
-3.780000e+00	-3.710000e+00	0.000000e+00	0.000000e+00	0.000000e+00
-3.710000e+00	-3.640000e+00	0.000000e+00	0.000000e+00	0.000000e+00
-3.640000e+00	-3.570000e+00	0.000000e+00	0.000000e+00	0.000000e+00
-3.570000e+00	-3.500000e+00	0.000000e+00	0.000000e+00	0.000000e+00
-3.500000e+00	-3.430000e+00	0.000000e+00	0.000000e+00	0.000000e+00
-3.430000e+00	-3.360000e+00	0.000000e+00	0.000000e+00	0.000000e+00
-3.360000e+00	-3.290000e+00	0.000000e+00	0.000000e+00	0.000000e+00
-3.290000e+00	-3.220000e+00	0.000000e+00	0.000000e+00	0.000000e+00
-3.220000e+00	-3.150000e+00	0.000000e+00	0.000000e+00	0.000000e+00
-3.150000e+00	-3.080000e+00	0.000000e+00	0.000000e+00	0.000000e+00
-3.080000e+00	-3.010000e+00	0.000000e+00	0.000000e+00	0.000000e+00
-3.010000e+00	-2.940000e+00	0.000000e+00	0.000000e+00	0.000000e+00
-2.940000e+00	-2.870000e+00	0.000000e+00	0.000000e+00	0.000000e+00
-2.870000e+00	-2.800000e+00	3.080049e+04	2.738132e+04	2.738132e+04
-2.800000e+00	-2.730000e+00	6.709107e+03	6.709107e+03	6.709107e+03
-2.730000e+00	-2.660000e+00	2.220854e+04	1.508348e+04	1.508348e+04
-2.660000e+00	-2.590000e+00	3.393130e+04	2.747415e+04	2.747415e+04
-2.590000e+00	-2.520000e+00	7.605451e+04	5.583129e+04	5.583129e+04
-2.520000e+00	-2.450000e+00	1.760040e+05	9.056166e+04	9.056166e+04
-2.450000e+00	-2.380000e+00	3.909011e+05	1.525534e+05	1.525534e+05
-2.380000e+00	-2.310000e+00	6.365179e+05	2.297597e+05	2.297597e+05
-2.310000e+00	-2.240000e+00	1.511780e+06	3.004527e+05	3.004527e+05
-2.240000e+00	-2.170000e+00	1.855969e+06	2.978336e+05	2.978336e+05
-2.170000e+00	-2.100000e+00	4.522397e+06	5.376933e+05	5.376933e+05
-2.100000e+00	-2.030000e+00	7.685186e+06	7.204562e+05	7.204562e+05
-2.030000e+00	-1.960000e+00	2.018684e+07	1.722585e+06	1.722585e+06
-1.960000e+00	-1.890000e+00	3.173821e+07	1.597196e+06	1.597196e+06
-1.890000e+00	-1.820000e+00	6.090270e+07	2.275256e+06	2.275256e+06
-1.820000e+00	-1.750000e+00	1.171578e+08	2.974504e+06	2.974504e+06
-1.750000e+00	-1.680000e+00	2.372917e+08	4.690796e+06	4.690796e+06
-1.680000e+00	-1.610000e+00	4.430573e+08	6.371358e+06	6.371358e+06
-1.610000e+00	-1.540000e+00	8.190933e+08	8.821840e+06	8.821840e+06
-1.540000e+00	-1.470000e+00	1.465651e+09	1.177945e+07	1.177945e+07
-1.470000e+00	-1.400000e+00	2.373736e+09	1.509004e+07	1.509004e+07
-1.400000e+00	-1.330000e+00	3.485200e+09	1.771959e+07	1.771959e+07
-1.330000e+00	-1.260000e+00	4.562103e+09	1.987079e+07	1.987079e+07
-1.260000e+00	-1.190000e+00	5.474244e+09	2.202901e+07	2.202901e+07
-1.190000e+00	-1.120000e+00	6.080114e+09	2.268769e+07	2.268769e+07
-1.120000e+00	-1.050000e+00	6.452847e+09	2.380997e+07	2.380997e+07
-1.050000e+00	-9.800000e-01	6.444303e+09	2.299805e+07	2.299805e+07
-9.800000e-01	-9.100000e-01	6.214404e+09	2.202620e+07	2.202620e+07
-9.100000e-01	-8.400000e-01	5.804257e+09	2.153712e+07	2.153712e+07
-8.400000e-01	-7.700000e-01	5.300863e+09	2.048435e+07	2.048435e+07
-7.700000e-01	-7.000000e-01	4.671997e+09	1.899310e+07	1.899310e+07
-7.000000e-01	-6.300000e-01	4.062791e+09	1.751694e+07	1.751694e+07
-6.300000e-01	-5.600000e-01	3.482613e+09	1.630088e+07	1.630088e+07
-5.600000e-01	-4.900000e-01	2.916763e+09	1.475716e+07	1.475716e+07
-4.900000e-01	-4.200000e-01	2.351847e+09	1.352383e+07	1.352383e+07
-4.200000e-01	-3.500000e-01	1.723586e+09	1.192804e+07	1.192804e+07
-3.500000e-01	-2.800000e-01	9.947519e+08	8.118114e+06	8.118114e+06
-2.800000e-01	-2.100000e-01	3.546351e+08	4.818288e+06	4.818288e+06
-2.100000e-01	-1.400000e-01	5.955239e+07	1.847280e+06	1.847280e+06
-1.400000e-01	-7.000000e-02	4.792621e+06	4.983002e+05	4.983002e+05
-7.000000e-02	0.000000e+00	1.065853e+05	4.864455e+04	4.864455e+04
# END HISTO1D

