# BEGIN PLOT
LegendOnly=/zj_ps_nlo_mer_mur1_muf0.5_R4.yoda/PAPER_FIN_R4/SD_l05_pT_254_326
DrawOnly=/zj_ps_nlo_mer_mur1_muf0.5_R4.yoda/PAPER_FIN_R4/SD_l05_pT_254_326
Legend=1
LogY=1
# END PLOT

# BEGIN HISTO1D /zj_ps_nlo_mer_mur1_muf0.5_R4.yoda/PAPER_FIN_R4/SD_l05_pT_254_326
LineColor=red
LineStyle=solid
Path=/zj_ps_nlo_mer_mur1_muf0.5_R4.yoda/PAPER_FIN_R4/SD_l05_pT_254_326
Title=zj_ps_nlo_mer_mur1_muf0.5_R4
XLabel=~
YLabel=~
# xlow	 xhigh	 val	 errminus	 errplus
-7.000000e+00	-6.930000e+00	0.000000e+00	0.000000e+00	0.000000e+00
-6.930000e+00	-6.860000e+00	4.928291e+09	4.583224e+07	4.583224e+07
-6.860000e+00	-6.790000e+00	0.000000e+00	0.000000e+00	0.000000e+00
-6.790000e+00	-6.720000e+00	0.000000e+00	0.000000e+00	0.000000e+00
-6.720000e+00	-6.650000e+00	0.000000e+00	0.000000e+00	0.000000e+00
-6.650000e+00	-6.580000e+00	0.000000e+00	0.000000e+00	0.000000e+00
-6.580000e+00	-6.510000e+00	0.000000e+00	0.000000e+00	0.000000e+00
-6.510000e+00	-6.440000e+00	0.000000e+00	0.000000e+00	0.000000e+00
-6.440000e+00	-6.370000e+00	0.000000e+00	0.000000e+00	0.000000e+00
-6.370000e+00	-6.300000e+00	0.000000e+00	0.000000e+00	0.000000e+00
-6.300000e+00	-6.230000e+00	0.000000e+00	0.000000e+00	0.000000e+00
-6.230000e+00	-6.160000e+00	0.000000e+00	0.000000e+00	0.000000e+00
-6.160000e+00	-6.090000e+00	0.000000e+00	0.000000e+00	0.000000e+00
-6.090000e+00	-6.020000e+00	0.000000e+00	0.000000e+00	0.000000e+00
-6.020000e+00	-5.950000e+00	0.000000e+00	0.000000e+00	0.000000e+00
-5.950000e+00	-5.880000e+00	0.000000e+00	0.000000e+00	0.000000e+00
-5.880000e+00	-5.810000e+00	0.000000e+00	0.000000e+00	0.000000e+00
-5.810000e+00	-5.740000e+00	0.000000e+00	0.000000e+00	0.000000e+00
-5.740000e+00	-5.670000e+00	0.000000e+00	0.000000e+00	0.000000e+00
-5.670000e+00	-5.600000e+00	0.000000e+00	0.000000e+00	0.000000e+00
-5.600000e+00	-5.530000e+00	0.000000e+00	0.000000e+00	0.000000e+00
-5.530000e+00	-5.460000e+00	0.000000e+00	0.000000e+00	0.000000e+00
-5.460000e+00	-5.390000e+00	0.000000e+00	0.000000e+00	0.000000e+00
-5.390000e+00	-5.320000e+00	0.000000e+00	0.000000e+00	0.000000e+00
-5.320000e+00	-5.250000e+00	0.000000e+00	0.000000e+00	0.000000e+00
-5.250000e+00	-5.180000e+00	0.000000e+00	0.000000e+00	0.000000e+00
-5.180000e+00	-5.110000e+00	0.000000e+00	0.000000e+00	0.000000e+00
-5.110000e+00	-5.040000e+00	0.000000e+00	0.000000e+00	0.000000e+00
-5.040000e+00	-4.970000e+00	0.000000e+00	0.000000e+00	0.000000e+00
-4.970000e+00	-4.900000e+00	0.000000e+00	0.000000e+00	0.000000e+00
-4.900000e+00	-4.830000e+00	0.000000e+00	0.000000e+00	0.000000e+00
-4.830000e+00	-4.760000e+00	0.000000e+00	0.000000e+00	0.000000e+00
-4.760000e+00	-4.690000e+00	0.000000e+00	0.000000e+00	0.000000e+00
-4.690000e+00	-4.620000e+00	0.000000e+00	0.000000e+00	0.000000e+00
-4.620000e+00	-4.550000e+00	0.000000e+00	0.000000e+00	0.000000e+00
-4.550000e+00	-4.480000e+00	0.000000e+00	0.000000e+00	0.000000e+00
-4.480000e+00	-4.410000e+00	0.000000e+00	0.000000e+00	0.000000e+00
-4.410000e+00	-4.340000e+00	0.000000e+00	0.000000e+00	0.000000e+00
-4.340000e+00	-4.270000e+00	0.000000e+00	0.000000e+00	0.000000e+00
-4.270000e+00	-4.200000e+00	0.000000e+00	0.000000e+00	0.000000e+00
-4.200000e+00	-4.130000e+00	0.000000e+00	0.000000e+00	0.000000e+00
-4.130000e+00	-4.060000e+00	0.000000e+00	0.000000e+00	0.000000e+00
-4.060000e+00	-3.990000e+00	0.000000e+00	0.000000e+00	0.000000e+00
-3.990000e+00	-3.920000e+00	0.000000e+00	0.000000e+00	0.000000e+00
-3.920000e+00	-3.850000e+00	0.000000e+00	0.000000e+00	0.000000e+00
-3.850000e+00	-3.780000e+00	0.000000e+00	0.000000e+00	0.000000e+00
-3.780000e+00	-3.710000e+00	0.000000e+00	0.000000e+00	0.000000e+00
-3.710000e+00	-3.640000e+00	0.000000e+00	0.000000e+00	0.000000e+00
-3.640000e+00	-3.570000e+00	0.000000e+00	0.000000e+00	0.000000e+00
-3.570000e+00	-3.500000e+00	0.000000e+00	0.000000e+00	0.000000e+00
-3.500000e+00	-3.430000e+00	0.000000e+00	0.000000e+00	0.000000e+00
-3.430000e+00	-3.360000e+00	0.000000e+00	0.000000e+00	0.000000e+00
-3.360000e+00	-3.290000e+00	0.000000e+00	0.000000e+00	0.000000e+00
-3.290000e+00	-3.220000e+00	0.000000e+00	0.000000e+00	0.000000e+00
-3.220000e+00	-3.150000e+00	0.000000e+00	0.000000e+00	0.000000e+00
-3.150000e+00	-3.080000e+00	-2.763454e-01	2.763454e-01	2.763454e-01
-3.080000e+00	-3.010000e+00	-1.752796e-02	1.294156e-02	1.294156e-02
-3.010000e+00	-2.940000e+00	-7.321977e-01	7.321977e-01	7.321977e-01
-2.940000e+00	-2.870000e+00	5.485371e+03	3.900342e+03	3.900342e+03
-2.870000e+00	-2.800000e+00	2.254857e-01	5.581875e-01	5.581875e-01
-2.800000e+00	-2.730000e+00	-3.413877e+01	1.669855e+01	1.669855e+01
-2.730000e+00	-2.660000e+00	5.830859e+02	5.959484e+02	5.959484e+02
-2.660000e+00	-2.590000e+00	1.386987e+03	1.295951e+03	1.295951e+03
-2.590000e+00	-2.520000e+00	7.383561e+03	5.165843e+03	5.165843e+03
-2.520000e+00	-2.450000e+00	-4.387629e+03	5.677244e+03	5.677244e+03
-2.450000e+00	-2.380000e+00	-4.146309e+03	9.327269e+03	9.327269e+03
-2.380000e+00	-2.310000e+00	-2.119091e+04	2.979870e+04	2.979870e+04
-2.310000e+00	-2.240000e+00	1.334398e+05	9.528407e+04	9.528407e+04
-2.240000e+00	-2.170000e+00	8.789230e+04	1.438154e+05	1.438154e+05
-2.170000e+00	-2.100000e+00	4.759764e+05	3.683045e+05	3.683045e+05
-2.100000e+00	-2.030000e+00	-7.562001e+05	9.568074e+05	9.568074e+05
-2.030000e+00	-1.960000e+00	7.073406e+05	1.913613e+05	1.913613e+05
-1.960000e+00	-1.890000e+00	1.025414e+06	3.364456e+05	3.364456e+05
-1.890000e+00	-1.820000e+00	3.286870e+06	6.671089e+05	6.671089e+05
-1.820000e+00	-1.750000e+00	4.171280e+06	5.778440e+05	5.778440e+05
-1.750000e+00	-1.680000e+00	1.161338e+07	7.969490e+05	7.969490e+05
-1.680000e+00	-1.610000e+00	2.788009e+07	2.299101e+06	2.299101e+06
-1.610000e+00	-1.540000e+00	4.435961e+07	3.558295e+06	3.558295e+06
-1.540000e+00	-1.470000e+00	1.041900e+08	3.327134e+06	3.327134e+06
-1.470000e+00	-1.400000e+00	2.684383e+08	4.919561e+06	4.919561e+06
-1.400000e+00	-1.330000e+00	4.477453e+08	1.198142e+07	1.198142e+07
-1.330000e+00	-1.260000e+00	5.930656e+08	1.157374e+07	1.157374e+07
-1.260000e+00	-1.190000e+00	6.666593e+08	2.191026e+07	2.191026e+07
-1.190000e+00	-1.120000e+00	8.130904e+08	1.547134e+07	1.547134e+07
-1.120000e+00	-1.050000e+00	9.267437e+08	2.026129e+07	2.026129e+07
-1.050000e+00	-9.800000e-01	9.073584e+08	1.140896e+07	1.140896e+07
-9.800000e-01	-9.100000e-01	9.629561e+08	3.718313e+07	3.718313e+07
-9.100000e-01	-8.400000e-01	1.066553e+09	1.786256e+07	1.786256e+07
-8.400000e-01	-7.700000e-01	1.104594e+09	1.886672e+07	1.886672e+07
-7.700000e-01	-7.000000e-01	1.121770e+09	1.384942e+07	1.384942e+07
-7.000000e-01	-6.300000e-01	1.109310e+09	1.588654e+07	1.588654e+07
-6.300000e-01	-5.600000e-01	1.066381e+09	1.774263e+07	1.774263e+07
-5.600000e-01	-4.900000e-01	9.429509e+08	4.490991e+07	4.490991e+07
-4.900000e-01	-4.200000e-01	8.281734e+08	1.043184e+07	1.043184e+07
-4.200000e-01	-3.500000e-01	6.472281e+08	1.461065e+07	1.461065e+07
-3.500000e-01	-2.800000e-01	4.104960e+08	9.915420e+06	9.915420e+06
-2.800000e-01	-2.100000e-01	1.721337e+08	8.796036e+06	8.796036e+06
-2.100000e-01	-1.400000e-01	2.896669e+07	1.839480e+06	1.839480e+06
-1.400000e-01	-7.000000e-02	8.960679e+05	3.246011e+05	3.246011e+05
-7.000000e-02	0.000000e+00	1.562426e+03	1.539584e+03	1.539584e+03
# END HISTO1D

