# BEGIN PLOT
LegendOnly=/zj_ps_nlo_mer_mur1_muf0.5_R4.yoda/PAPER_FIN_R4/ch_l10_pT_120_150
DrawOnly=/zj_ps_nlo_mer_mur1_muf0.5_R4.yoda/PAPER_FIN_R4/ch_l10_pT_120_150
Legend=1
LogY=1
# END PLOT

# BEGIN HISTO1D /zj_ps_nlo_mer_mur1_muf0.5_R4.yoda/PAPER_FIN_R4/ch_l10_pT_120_150
LineColor=red
LineStyle=solid
Path=/zj_ps_nlo_mer_mur1_muf0.5_R4.yoda/PAPER_FIN_R4/ch_l10_pT_120_150
Title=zj_ps_nlo_mer_mur1_muf0.5_R4
XLabel=~
YLabel=~
# xlow	 xhigh	 val	 errminus	 errplus
-7.000000e+00	-6.930000e+00	0.000000e+00	0.000000e+00	0.000000e+00
-6.930000e+00	-6.860000e+00	1.255754e+08	1.666730e+07	1.666730e+07
-6.860000e+00	-6.790000e+00	0.000000e+00	0.000000e+00	0.000000e+00
-6.790000e+00	-6.720000e+00	0.000000e+00	0.000000e+00	0.000000e+00
-6.720000e+00	-6.650000e+00	0.000000e+00	0.000000e+00	0.000000e+00
-6.650000e+00	-6.580000e+00	0.000000e+00	0.000000e+00	0.000000e+00
-6.580000e+00	-6.510000e+00	0.000000e+00	0.000000e+00	0.000000e+00
-6.510000e+00	-6.440000e+00	0.000000e+00	0.000000e+00	0.000000e+00
-6.440000e+00	-6.370000e+00	0.000000e+00	0.000000e+00	0.000000e+00
-6.370000e+00	-6.300000e+00	0.000000e+00	0.000000e+00	0.000000e+00
-6.300000e+00	-6.230000e+00	0.000000e+00	0.000000e+00	0.000000e+00
-6.230000e+00	-6.160000e+00	-5.803686e-04	6.271305e-04	6.271305e-04
-6.160000e+00	-6.090000e+00	0.000000e+00	0.000000e+00	0.000000e+00
-6.090000e+00	-6.020000e+00	0.000000e+00	0.000000e+00	0.000000e+00
-6.020000e+00	-5.950000e+00	2.684076e-04	2.684076e-04	2.684076e-04
-5.950000e+00	-5.880000e+00	-1.090064e-04	1.090064e-04	1.090064e-04
-5.880000e+00	-5.810000e+00	6.863784e-08	6.863784e-08	6.863784e-08
-5.810000e+00	-5.740000e+00	0.000000e+00	0.000000e+00	0.000000e+00
-5.740000e+00	-5.670000e+00	-4.988937e-02	4.988937e-02	4.988937e-02
-5.670000e+00	-5.600000e+00	0.000000e+00	0.000000e+00	0.000000e+00
-5.600000e+00	-5.530000e+00	9.219579e-04	9.219579e-04	9.219579e-04
-5.530000e+00	-5.460000e+00	0.000000e+00	0.000000e+00	0.000000e+00
-5.460000e+00	-5.390000e+00	-1.239904e+00	1.230862e+00	1.230862e+00
-5.390000e+00	-5.320000e+00	1.455350e-05	6.017905e-04	6.017905e-04
-5.320000e+00	-5.250000e+00	-1.861484e-01	1.861613e-01	1.861613e-01
-5.250000e+00	-5.180000e+00	-1.281232e-01	1.317815e-01	1.317815e-01
-5.180000e+00	-5.110000e+00	-2.275731e+03	2.037483e+03	2.037483e+03
-5.110000e+00	-5.040000e+00	3.028623e+03	3.050516e+03	3.050516e+03
-5.040000e+00	-4.970000e+00	-1.522956e+00	1.480696e+00	1.480696e+00
-4.970000e+00	-4.900000e+00	1.228725e+02	1.406487e+02	1.406487e+02
-4.900000e+00	-4.830000e+00	8.657133e+01	9.705496e+01	9.705496e+01
-4.830000e+00	-4.760000e+00	2.689244e+01	2.816064e+01	2.816064e+01
-4.760000e+00	-4.690000e+00	-2.456770e+01	2.496450e+01	2.496450e+01
-4.690000e+00	-4.620000e+00	-3.865644e+02	4.159565e+02	4.159565e+02
-4.620000e+00	-4.550000e+00	-1.238283e+02	1.080324e+02	1.080324e+02
-4.550000e+00	-4.480000e+00	1.191478e+04	7.245312e+03	7.245312e+03
-4.480000e+00	-4.410000e+00	-6.050303e+02	4.776627e+02	4.776627e+02
-4.410000e+00	-4.340000e+00	1.828387e+04	1.756496e+04	1.756496e+04
-4.340000e+00	-4.270000e+00	-3.360133e+02	2.280161e+02	2.280161e+02
-4.270000e+00	-4.200000e+00	5.891427e+02	2.958344e+03	2.958344e+03
-4.200000e+00	-4.130000e+00	-1.954553e+03	4.094686e+03	4.094686e+03
-4.130000e+00	-4.060000e+00	-2.462504e+04	2.127523e+04	2.127523e+04
-4.060000e+00	-3.990000e+00	1.373084e+03	9.454380e+03	9.454380e+03
-3.990000e+00	-3.920000e+00	2.122877e+04	2.008520e+04	2.008520e+04
-3.920000e+00	-3.850000e+00	4.438544e+04	2.929709e+04	2.929709e+04
-3.850000e+00	-3.780000e+00	-9.731436e+03	1.080225e+04	1.080225e+04
-3.780000e+00	-3.710000e+00	-2.693783e+04	3.295957e+04	3.295957e+04
-3.710000e+00	-3.640000e+00	6.074333e+04	4.568251e+04	4.568251e+04
-3.640000e+00	-3.570000e+00	-9.192949e+04	7.951382e+04	7.951382e+04
-3.570000e+00	-3.500000e+00	-2.717009e+04	6.674916e+04	6.674916e+04
-3.500000e+00	-3.430000e+00	6.256109e+04	2.848090e+04	2.848090e+04
-3.430000e+00	-3.360000e+00	9.907530e+04	1.165826e+05	1.165826e+05
-3.360000e+00	-3.290000e+00	8.770293e+03	5.515551e+04	5.515551e+04
-3.290000e+00	-3.220000e+00	1.240356e+05	4.975733e+04	4.975733e+04
-3.220000e+00	-3.150000e+00	1.385092e+05	4.636926e+04	4.636926e+04
-3.150000e+00	-3.080000e+00	-1.531220e+05	1.123471e+05	1.123471e+05
-3.080000e+00	-3.010000e+00	1.676421e+05	7.424995e+04	7.424995e+04
-3.010000e+00	-2.940000e+00	3.323894e+05	1.485802e+05	1.485802e+05
-2.940000e+00	-2.870000e+00	-2.326210e+05	1.920507e+05	1.920507e+05
-2.870000e+00	-2.800000e+00	-1.652470e+05	2.092040e+05	2.092040e+05
-2.800000e+00	-2.730000e+00	-6.077261e+04	2.608068e+05	2.608068e+05
-2.730000e+00	-2.660000e+00	-5.141914e+05	3.736005e+05	3.736005e+05
-2.660000e+00	-2.590000e+00	-4.013451e+05	4.041889e+05	4.041889e+05
-2.590000e+00	-2.520000e+00	1.399459e+05	2.974539e+05	2.974539e+05
-2.520000e+00	-2.450000e+00	9.599291e+05	4.474327e+05	4.474327e+05
-2.450000e+00	-2.380000e+00	6.119529e+05	4.798356e+05	4.798356e+05
-2.380000e+00	-2.310000e+00	5.938519e+05	4.835772e+05	4.835772e+05
-2.310000e+00	-2.240000e+00	-1.097799e+06	1.553520e+06	1.553520e+06
-2.240000e+00	-2.170000e+00	4.433414e+05	6.373509e+05	6.373509e+05
-2.170000e+00	-2.100000e+00	8.353790e+05	6.215297e+05	6.215297e+05
-2.100000e+00	-2.030000e+00	9.482526e+05	1.139393e+06	1.139393e+06
-2.030000e+00	-1.960000e+00	3.073404e+06	2.175605e+06	2.175605e+06
-1.960000e+00	-1.890000e+00	9.467854e+05	1.522530e+06	1.522530e+06
-1.890000e+00	-1.820000e+00	2.854121e+06	1.658404e+06	1.658404e+06
-1.820000e+00	-1.750000e+00	-8.105393e+05	2.209005e+06	2.209005e+06
-1.750000e+00	-1.680000e+00	2.227479e+06	1.501495e+06	1.501495e+06
-1.680000e+00	-1.610000e+00	-3.868764e+06	9.086251e+06	9.086251e+06
-1.610000e+00	-1.540000e+00	4.068123e+06	2.666177e+06	2.666177e+06
-1.540000e+00	-1.470000e+00	2.528639e+06	2.735896e+06	2.735896e+06
-1.470000e+00	-1.400000e+00	2.871580e+06	5.282939e+06	5.282939e+06
-1.400000e+00	-1.330000e+00	8.005681e+06	1.866600e+06	1.866600e+06
-1.330000e+00	-1.260000e+00	1.042111e+07	4.447518e+06	4.447518e+06
-1.260000e+00	-1.190000e+00	1.795154e+05	3.241503e+06	3.241503e+06
-1.190000e+00	-1.120000e+00	4.690486e+06	2.905225e+06	2.905225e+06
-1.120000e+00	-1.050000e+00	7.122343e+06	5.232124e+06	5.232124e+06
-1.050000e+00	-9.800000e-01	4.681144e+06	2.824984e+06	2.824984e+06
-9.800000e-01	-9.100000e-01	-2.871124e+06	9.383733e+06	9.383733e+06
-9.100000e-01	-8.400000e-01	8.477547e+06	2.201441e+06	2.201441e+06
-8.400000e-01	-7.700000e-01	3.880704e+06	2.787274e+06	2.787274e+06
-7.700000e-01	-7.000000e-01	4.153486e+06	2.632942e+06	2.632942e+06
-7.000000e-01	-6.300000e-01	2.860603e+06	2.487981e+06	2.487981e+06
-6.300000e-01	-5.600000e-01	4.574130e+06	2.167592e+06	2.167592e+06
-5.600000e-01	-4.900000e-01	1.286921e+06	2.428610e+06	2.428610e+06
-4.900000e-01	-4.200000e-01	5.427823e+06	2.496914e+06	2.496914e+06
-4.200000e-01	-3.500000e-01	-2.180930e+06	1.979551e+06	1.979551e+06
-3.500000e-01	-2.800000e-01	1.626753e+06	5.791738e+05	5.791738e+05
-2.800000e-01	-2.100000e-01	3.236093e+04	4.255827e+05	4.255827e+05
-2.100000e-01	-1.400000e-01	-1.199881e+04	3.482273e+04	3.482273e+04
-1.400000e-01	-7.000000e-02	2.170256e+01	1.436690e+01	1.436690e+01
-7.000000e-02	0.000000e+00	0.000000e+00	0.000000e+00	0.000000e+00
# END HISTO1D

