# BEGIN PLOT
LegendOnly=/zj_ps_nlo_mer_mur2_muf2_R8.yoda/PAPER_FIN_R8/ch_SD_l10_pT_150_186
DrawOnly=/zj_ps_nlo_mer_mur2_muf2_R8.yoda/PAPER_FIN_R8/ch_SD_l10_pT_150_186
Legend=1
LogY=1
# END PLOT

# BEGIN HISTO1D /zj_ps_nlo_mer_mur2_muf2_R8.yoda/PAPER_FIN_R8/ch_SD_l10_pT_150_186
LineColor=red
LineStyle=solid
Path=/zj_ps_nlo_mer_mur2_muf2_R8.yoda/PAPER_FIN_R8/ch_SD_l10_pT_150_186
Title=zj_ps_nlo_mer_mur2_muf2_R8
XLabel=~
YLabel=~
# xlow	 xhigh	 val	 errminus	 errplus
-7.000000e+00	-6.930000e+00	0.000000e+00	0.000000e+00	0.000000e+00
-6.930000e+00	-6.860000e+00	2.911940e+07	3.117093e+06	3.117093e+06
-6.860000e+00	-6.790000e+00	0.000000e+00	0.000000e+00	0.000000e+00
-6.790000e+00	-6.720000e+00	0.000000e+00	0.000000e+00	0.000000e+00
-6.720000e+00	-6.650000e+00	0.000000e+00	0.000000e+00	0.000000e+00
-6.650000e+00	-6.580000e+00	0.000000e+00	0.000000e+00	0.000000e+00
-6.580000e+00	-6.510000e+00	0.000000e+00	0.000000e+00	0.000000e+00
-6.510000e+00	-6.440000e+00	0.000000e+00	0.000000e+00	0.000000e+00
-6.440000e+00	-6.370000e+00	0.000000e+00	0.000000e+00	0.000000e+00
-6.370000e+00	-6.300000e+00	0.000000e+00	0.000000e+00	0.000000e+00
-6.300000e+00	-6.230000e+00	0.000000e+00	0.000000e+00	0.000000e+00
-6.230000e+00	-6.160000e+00	0.000000e+00	0.000000e+00	0.000000e+00
-6.160000e+00	-6.090000e+00	0.000000e+00	0.000000e+00	0.000000e+00
-6.090000e+00	-6.020000e+00	0.000000e+00	0.000000e+00	0.000000e+00
-6.020000e+00	-5.950000e+00	0.000000e+00	0.000000e+00	0.000000e+00
-5.950000e+00	-5.880000e+00	0.000000e+00	0.000000e+00	0.000000e+00
-5.880000e+00	-5.810000e+00	0.000000e+00	0.000000e+00	0.000000e+00
-5.810000e+00	-5.740000e+00	0.000000e+00	0.000000e+00	0.000000e+00
-5.740000e+00	-5.670000e+00	0.000000e+00	0.000000e+00	0.000000e+00
-5.670000e+00	-5.600000e+00	-1.219201e+00	1.219201e+00	1.219201e+00
-5.600000e+00	-5.530000e+00	0.000000e+00	0.000000e+00	0.000000e+00
-5.530000e+00	-5.460000e+00	0.000000e+00	0.000000e+00	0.000000e+00
-5.460000e+00	-5.390000e+00	0.000000e+00	0.000000e+00	0.000000e+00
-5.390000e+00	-5.320000e+00	-1.150354e-01	1.150354e-01	1.150354e-01
-5.320000e+00	-5.250000e+00	0.000000e+00	0.000000e+00	0.000000e+00
-5.250000e+00	-5.180000e+00	0.000000e+00	0.000000e+00	0.000000e+00
-5.180000e+00	-5.110000e+00	0.000000e+00	0.000000e+00	0.000000e+00
-5.110000e+00	-5.040000e+00	7.045737e+00	8.874693e+00	8.874693e+00
-5.040000e+00	-4.970000e+00	0.000000e+00	0.000000e+00	0.000000e+00
-4.970000e+00	-4.900000e+00	0.000000e+00	0.000000e+00	0.000000e+00
-4.900000e+00	-4.830000e+00	0.000000e+00	0.000000e+00	0.000000e+00
-4.830000e+00	-4.760000e+00	1.696557e+00	3.578969e+01	3.578969e+01
-4.760000e+00	-4.690000e+00	0.000000e+00	0.000000e+00	0.000000e+00
-4.690000e+00	-4.620000e+00	-5.238960e+02	3.844194e+02	3.844194e+02
-4.620000e+00	-4.550000e+00	1.512709e+04	1.512200e+04	1.512200e+04
-4.550000e+00	-4.480000e+00	9.854129e+03	8.132570e+03	8.132570e+03
-4.480000e+00	-4.410000e+00	1.894907e+03	1.541664e+03	1.541664e+03
-4.410000e+00	-4.340000e+00	-4.876319e+03	3.085728e+03	3.085728e+03
-4.340000e+00	-4.270000e+00	1.566551e+04	1.035208e+04	1.035208e+04
-4.270000e+00	-4.200000e+00	-2.429170e+03	1.471246e+03	1.471246e+03
-4.200000e+00	-4.130000e+00	-4.651567e+03	6.359483e+03	6.359483e+03
-4.130000e+00	-4.060000e+00	-4.010550e+04	3.819792e+04	3.819792e+04
-4.060000e+00	-3.990000e+00	3.128160e+04	1.913212e+04	1.913212e+04
-3.990000e+00	-3.920000e+00	1.196981e+04	1.463346e+04	1.463346e+04
-3.920000e+00	-3.850000e+00	3.608297e+04	2.174517e+04	2.174517e+04
-3.850000e+00	-3.780000e+00	-4.726054e+04	5.420724e+04	5.420724e+04
-3.780000e+00	-3.710000e+00	5.450604e+04	3.810861e+04	3.810861e+04
-3.710000e+00	-3.640000e+00	7.899843e+04	6.524996e+04	6.524996e+04
-3.640000e+00	-3.570000e+00	2.127003e+05	1.018174e+05	1.018174e+05
-3.570000e+00	-3.500000e+00	2.079689e+05	1.201224e+05	1.201224e+05
-3.500000e+00	-3.430000e+00	1.034755e+05	1.189385e+05	1.189385e+05
-3.430000e+00	-3.360000e+00	3.243513e+05	1.601918e+05	1.601918e+05
-3.360000e+00	-3.290000e+00	3.666513e+05	1.056902e+05	1.056902e+05
-3.290000e+00	-3.220000e+00	3.602474e+05	1.292941e+05	1.292941e+05
-3.220000e+00	-3.150000e+00	4.538526e+05	1.931210e+05	1.931210e+05
-3.150000e+00	-3.080000e+00	5.152040e+05	2.371167e+05	2.371167e+05
-3.080000e+00	-3.010000e+00	1.035898e+06	2.077968e+05	2.077968e+05
-3.010000e+00	-2.940000e+00	1.432524e+06	2.690748e+05	2.690748e+05
-2.940000e+00	-2.870000e+00	1.863096e+06	3.387869e+05	3.387869e+05
-2.870000e+00	-2.800000e+00	2.116067e+06	4.833343e+05	4.833343e+05
-2.800000e+00	-2.730000e+00	3.093904e+06	5.170371e+05	5.170371e+05
-2.730000e+00	-2.660000e+00	3.708403e+06	7.893849e+05	7.893849e+05
-2.660000e+00	-2.590000e+00	3.885129e+06	1.881392e+06	1.881392e+06
-2.590000e+00	-2.520000e+00	7.137697e+06	1.629569e+06	1.629569e+06
-2.520000e+00	-2.450000e+00	9.402811e+06	1.299133e+06	1.299133e+06
-2.450000e+00	-2.380000e+00	1.137586e+07	2.225187e+06	2.225187e+06
-2.380000e+00	-2.310000e+00	1.791620e+07	1.463152e+06	1.463152e+06
-2.310000e+00	-2.240000e+00	2.166849e+07	2.260808e+06	2.260808e+06
-2.240000e+00	-2.170000e+00	2.386240e+07	3.708382e+06	3.708382e+06
-2.170000e+00	-2.100000e+00	3.368231e+07	2.388914e+06	2.388914e+06
-2.100000e+00	-2.030000e+00	4.214091e+07	2.100605e+06	2.100605e+06
-2.030000e+00	-1.960000e+00	5.264161e+07	4.083126e+06	4.083126e+06
-1.960000e+00	-1.890000e+00	7.126626e+07	4.939024e+06	4.939024e+06
-1.890000e+00	-1.820000e+00	7.365259e+07	4.360629e+06	4.360629e+06
-1.820000e+00	-1.750000e+00	8.162874e+07	3.352953e+06	3.352953e+06
-1.750000e+00	-1.680000e+00	9.173884e+07	3.322999e+06	3.322999e+06
-1.680000e+00	-1.610000e+00	9.462527e+07	4.280987e+06	4.280987e+06
-1.610000e+00	-1.540000e+00	1.016492e+08	4.427474e+06	4.427474e+06
-1.540000e+00	-1.470000e+00	1.047037e+08	5.566093e+06	5.566093e+06
-1.470000e+00	-1.400000e+00	1.062727e+08	4.996840e+06	4.996840e+06
-1.400000e+00	-1.330000e+00	9.407350e+07	4.533292e+06	4.533292e+06
-1.330000e+00	-1.260000e+00	9.611351e+07	4.110585e+06	4.110585e+06
-1.260000e+00	-1.190000e+00	9.022087e+07	4.762260e+06	4.762260e+06
-1.190000e+00	-1.120000e+00	9.054369e+07	4.866323e+06	4.866323e+06
-1.120000e+00	-1.050000e+00	8.806834e+07	4.207544e+06	4.207544e+06
-1.050000e+00	-9.800000e-01	9.758817e+07	5.016286e+06	5.016286e+06
-9.800000e-01	-9.100000e-01	1.035803e+08	4.164530e+06	4.164530e+06
-9.100000e-01	-8.400000e-01	1.111194e+08	6.397067e+06	6.397067e+06
-8.400000e-01	-7.700000e-01	1.290257e+08	5.691619e+06	5.691619e+06
-7.700000e-01	-7.000000e-01	1.404187e+08	9.791626e+06	9.791626e+06
-7.000000e-01	-6.300000e-01	1.272754e+08	5.884131e+06	5.884131e+06
-6.300000e-01	-5.600000e-01	1.239061e+08	4.736913e+06	4.736913e+06
-5.600000e-01	-4.900000e-01	1.185988e+08	4.627116e+06	4.627116e+06
-4.900000e-01	-4.200000e-01	9.762024e+07	3.317737e+06	3.317737e+06
-4.200000e-01	-3.500000e-01	6.882353e+07	3.122540e+06	3.122540e+06
-3.500000e-01	-2.800000e-01	3.705163e+07	2.739831e+06	2.739831e+06
-2.800000e-01	-2.100000e-01	1.382575e+07	1.691924e+06	1.691924e+06
-2.100000e-01	-1.400000e-01	3.463686e+06	1.159048e+06	1.159048e+06
-1.400000e-01	-7.000000e-02	2.522871e+05	3.041488e+05	3.041488e+05
-7.000000e-02	0.000000e+00	-9.925300e+03	8.211633e+03	8.211633e+03
# END HISTO1D

