# BEGIN PLOT
LegendOnly=/zj_ps_nlo_mer_mur2_muf2_R8.yoda/PAPER_FIN_R8/ch_lin_SD_l05_pT_150_186
DrawOnly=/zj_ps_nlo_mer_mur2_muf2_R8.yoda/PAPER_FIN_R8/ch_lin_SD_l05_pT_150_186
Legend=1
LogY=1
# END PLOT

# BEGIN HISTO1D /zj_ps_nlo_mer_mur2_muf2_R8.yoda/PAPER_FIN_R8/ch_lin_SD_l05_pT_150_186
LineColor=red
LineStyle=solid
Path=/zj_ps_nlo_mer_mur2_muf2_R8.yoda/PAPER_FIN_R8/ch_lin_SD_l05_pT_150_186
Title=zj_ps_nlo_mer_mur2_muf2_R8
XLabel=~
YLabel=~
# xlow	 xhigh	 val	 errminus	 errplus
0.000000e+00	6.000000e-02	2.504925e+08	8.649085e+06	8.649085e+06
6.000000e-02	9.000000e-02	5.602243e+08	1.922855e+07	1.922855e+07
9.000000e-02	1.200000e-01	6.473270e+08	1.486334e+07	1.486334e+07
1.200000e-01	1.500000e-01	5.891903e+08	1.745742e+07	1.745742e+07
1.500000e-01	1.900000e-01	4.971540e+08	1.462086e+07	1.462086e+07
1.900000e-01	2.300000e-01	3.879690e+08	1.371962e+07	1.371962e+07
2.300000e-01	2.700000e-01	3.810410e+08	1.964006e+07	1.964006e+07
2.700000e-01	3.200000e-01	3.217394e+08	1.020878e+07	1.020878e+07
3.200000e-01	3.700000e-01	2.765454e+08	9.519284e+06	9.519284e+06
3.700000e-01	4.200000e-01	2.207510e+08	7.175681e+06	7.175681e+06
4.200000e-01	4.800000e-01	1.748582e+08	5.756641e+06	5.756641e+06
4.800000e-01	5.400000e-01	1.187735e+08	4.434846e+06	4.434846e+06
5.400000e-01	6.000000e-01	5.967270e+07	3.377699e+06	3.377699e+06
6.000000e-01	1.000000e+00	5.207902e+06	4.363899e+05	4.363899e+05
# END HISTO1D

