# BEGIN PLOT
LegendOnly=/zj_ps_nlo_mer_mur2_muf2_R8.yoda/PAPER_FIN_R8/ch_lin_SD_l20_pT_150_186
DrawOnly=/zj_ps_nlo_mer_mur2_muf2_R8.yoda/PAPER_FIN_R8/ch_lin_SD_l20_pT_150_186
Legend=1
LogY=1
# END PLOT

# BEGIN HISTO1D /zj_ps_nlo_mer_mur2_muf2_R8.yoda/PAPER_FIN_R8/ch_lin_SD_l20_pT_150_186
LineColor=red
LineStyle=solid
Path=/zj_ps_nlo_mer_mur2_muf2_R8.yoda/PAPER_FIN_R8/ch_lin_SD_l20_pT_150_186
Title=zj_ps_nlo_mer_mur2_muf2_R8
XLabel=~
YLabel=~
# xlow	 xhigh	 val	 errminus	 errplus
0.000000e+00	2.500000e-03	2.747407e+10	4.239681e+08	4.239681e+08
2.500000e-03	5.000000e-03	5.346256e+09	2.126029e+08	2.126029e+08
5.000000e-03	7.500000e-03	3.122930e+09	9.982991e+07	9.982991e+07
7.500000e-03	1.250000e-02	1.928199e+09	6.478339e+07	6.478339e+07
1.250000e-02	2.000000e-02	1.209802e+09	4.670338e+07	4.670338e+07
2.000000e-02	3.250000e-02	7.658053e+08	3.871569e+07	3.871569e+07
3.250000e-02	5.000000e-02	5.846743e+08	2.238276e+07	2.238276e+07
5.000000e-02	7.750000e-02	4.601469e+08	1.492138e+07	1.492138e+07
7.750000e-02	1.150000e-01	3.864005e+08	1.206175e+07	1.206175e+07
1.150000e-01	1.600000e-01	2.917973e+08	1.662214e+07	1.662214e+07
1.600000e-01	2.100000e-01	1.740344e+08	6.920327e+06	6.920327e+06
2.100000e-01	1.000000e+00	8.174544e+06	3.520531e+05	3.520531e+05
# END HISTO1D

