# BEGIN PLOT
LegendOnly=/zj_ps_nlo_mer_mur2_muf2_R8.yoda/PAPER_FIN_R8/ch_SD_l20_pT_50_65
DrawOnly=/zj_ps_nlo_mer_mur2_muf2_R8.yoda/PAPER_FIN_R8/ch_SD_l20_pT_50_65
Legend=1
LogY=1
# END PLOT

# BEGIN HISTO1D /zj_ps_nlo_mer_mur2_muf2_R8.yoda/PAPER_FIN_R8/ch_SD_l20_pT_50_65
LineColor=red
LineStyle=solid
Path=/zj_ps_nlo_mer_mur2_muf2_R8.yoda/PAPER_FIN_R8/ch_SD_l20_pT_50_65
Title=zj_ps_nlo_mer_mur2_muf2_R8
XLabel=~
YLabel=~
# xlow	 xhigh	 val	 errminus	 errplus
-7.000000e+00	-6.930000e+00	0.000000e+00	0.000000e+00	0.000000e+00
-6.930000e+00	-6.860000e+00	-1.437407e+02	5.812118e+01	5.812118e+01
-6.860000e+00	-6.790000e+00	0.000000e+00	0.000000e+00	0.000000e+00
-6.790000e+00	-6.720000e+00	0.000000e+00	0.000000e+00	0.000000e+00
-6.720000e+00	-6.650000e+00	0.000000e+00	0.000000e+00	0.000000e+00
-6.650000e+00	-6.580000e+00	0.000000e+00	0.000000e+00	0.000000e+00
-6.580000e+00	-6.510000e+00	0.000000e+00	0.000000e+00	0.000000e+00
-6.510000e+00	-6.440000e+00	0.000000e+00	0.000000e+00	0.000000e+00
-6.440000e+00	-6.370000e+00	0.000000e+00	0.000000e+00	0.000000e+00
-6.370000e+00	-6.300000e+00	0.000000e+00	0.000000e+00	0.000000e+00
-6.300000e+00	-6.230000e+00	0.000000e+00	0.000000e+00	0.000000e+00
-6.230000e+00	-6.160000e+00	0.000000e+00	0.000000e+00	0.000000e+00
-6.160000e+00	-6.090000e+00	-6.646101e-02	6.646101e-02	6.646101e-02
-6.090000e+00	-6.020000e+00	-2.713039e-03	2.636076e-03	2.636076e-03
-6.020000e+00	-5.950000e+00	0.000000e+00	0.000000e+00	0.000000e+00
-5.950000e+00	-5.880000e+00	-9.794651e-05	9.794652e-05	9.794652e-05
-5.880000e+00	-5.810000e+00	0.000000e+00	0.000000e+00	0.000000e+00
-5.810000e+00	-5.740000e+00	-2.760933e-04	2.760933e-04	2.760933e-04
-5.740000e+00	-5.670000e+00	8.482189e-02	1.356443e-01	1.356443e-01
-5.670000e+00	-5.600000e+00	-1.092464e-02	9.061573e-03	9.061573e-03
-5.600000e+00	-5.530000e+00	-8.227137e-01	1.208169e+00	1.208169e+00
-5.530000e+00	-5.460000e+00	9.535329e-03	9.657545e-03	9.657545e-03
-5.460000e+00	-5.390000e+00	-5.727657e-02	4.269946e-02	4.269946e-02
-5.390000e+00	-5.320000e+00	-6.334566e-04	6.334567e-04	6.334567e-04
-5.320000e+00	-5.250000e+00	-1.909890e-01	2.326263e-01	2.326263e-01
-5.250000e+00	-5.180000e+00	-9.885656e-01	8.797588e-01	8.797588e-01
-5.180000e+00	-5.110000e+00	5.413106e-02	6.638827e-02	6.638827e-02
-5.110000e+00	-5.040000e+00	-3.889373e-02	3.007496e-02	3.007496e-02
-5.040000e+00	-4.970000e+00	-1.609353e+00	1.381164e+00	1.381164e+00
-4.970000e+00	-4.900000e+00	1.578436e-01	2.731830e-01	2.731830e-01
-4.900000e+00	-4.830000e+00	1.883811e-01	7.209259e-01	7.209259e-01
-4.830000e+00	-4.760000e+00	-3.035059e-01	3.851206e-01	3.851206e-01
-4.760000e+00	-4.690000e+00	-7.496469e+00	5.417880e+00	5.417880e+00
-4.690000e+00	-4.620000e+00	-4.060831e+00	3.501679e+00	3.501679e+00
-4.620000e+00	-4.550000e+00	-4.857407e+00	4.418889e+00	4.418889e+00
-4.550000e+00	-4.480000e+00	-3.393427e+01	3.486683e+01	3.486683e+01
-4.480000e+00	-4.410000e+00	-1.747793e+01	1.674542e+01	1.674542e+01
-4.410000e+00	-4.340000e+00	-1.398706e+01	1.538055e+01	1.538055e+01
-4.340000e+00	-4.270000e+00	-4.813657e+00	3.289969e+00	3.289969e+00
-4.270000e+00	-4.200000e+00	6.775470e+00	1.129428e+01	1.129428e+01
-4.200000e+00	-4.130000e+00	-4.584467e+01	2.835268e+01	2.835268e+01
-4.130000e+00	-4.060000e+00	-4.522559e+00	3.937635e+00	3.937635e+00
-4.060000e+00	-3.990000e+00	-7.428550e+00	3.630151e+00	3.630151e+00
-3.990000e+00	-3.920000e+00	-5.419940e+00	4.996466e+00	4.996466e+00
-3.920000e+00	-3.850000e+00	-8.646643e+00	3.958597e+00	3.958597e+00
-3.850000e+00	-3.780000e+00	-9.774601e+00	4.437195e+00	4.437195e+00
-3.780000e+00	-3.710000e+00	-6.509399e+00	4.564705e+00	4.564705e+00
-3.710000e+00	-3.640000e+00	-1.257268e+02	8.703791e+01	8.703791e+01
-3.640000e+00	-3.570000e+00	-3.338250e+01	1.656475e+01	1.656475e+01
-3.570000e+00	-3.500000e+00	4.828917e+01	7.913516e+01	7.913516e+01
-3.500000e+00	-3.430000e+00	-8.054000e+01	4.584978e+01	4.584978e+01
-3.430000e+00	-3.360000e+00	-5.669126e+00	2.315061e+01	2.315061e+01
-3.360000e+00	-3.290000e+00	-2.808951e+01	2.050231e+01	2.050231e+01
-3.290000e+00	-3.220000e+00	-7.418440e+01	5.047919e+01	5.047919e+01
-3.220000e+00	-3.150000e+00	-1.366402e+02	5.544915e+01	5.544915e+01
-3.150000e+00	-3.080000e+00	-9.056753e+01	3.760936e+01	3.760936e+01
-3.080000e+00	-3.010000e+00	-5.151754e+01	2.217398e+01	2.217398e+01
-3.010000e+00	-2.940000e+00	-1.248746e+03	9.946205e+02	9.946205e+02
-2.940000e+00	-2.870000e+00	-2.426811e+02	9.756829e+01	9.756829e+01
-2.870000e+00	-2.800000e+00	-9.885244e+01	3.928749e+01	3.928749e+01
-2.800000e+00	-2.730000e+00	-3.389454e+02	1.439492e+02	1.439492e+02
-2.730000e+00	-2.660000e+00	-3.659303e+03	3.526628e+03	3.526628e+03
-2.660000e+00	-2.590000e+00	5.403477e+04	5.417777e+04	5.417777e+04
-2.590000e+00	-2.520000e+00	-2.543629e+02	8.007740e+01	8.007740e+01
-2.520000e+00	-2.450000e+00	-2.051233e+02	6.927495e+01	6.927495e+01
-2.450000e+00	-2.380000e+00	4.741896e+02	7.877488e+02	7.877488e+02
-2.380000e+00	-2.310000e+00	-4.452129e+02	1.483193e+02	1.483193e+02
-2.310000e+00	-2.240000e+00	-2.633349e+02	1.216160e+02	1.216160e+02
-2.240000e+00	-2.170000e+00	-3.130459e+02	1.112267e+02	1.112267e+02
-2.170000e+00	-2.100000e+00	3.975810e+03	5.571588e+03	5.571588e+03
-2.100000e+00	-2.030000e+00	-6.809817e+02	3.027874e+02	3.027874e+02
-2.030000e+00	-1.960000e+00	-1.162135e+02	1.074399e+02	1.074399e+02
-1.960000e+00	-1.890000e+00	-2.838059e+02	2.203658e+02	2.203658e+02
-1.890000e+00	-1.820000e+00	8.653774e+02	1.205168e+03	1.205168e+03
-1.820000e+00	-1.750000e+00	-9.211853e+02	4.654568e+02	4.654568e+02
-1.750000e+00	-1.680000e+00	-5.494169e+02	1.649318e+02	1.649318e+02
-1.680000e+00	-1.610000e+00	-6.920564e+02	6.701543e+02	6.701543e+02
-1.610000e+00	-1.540000e+00	2.866444e+02	6.163323e+03	6.163323e+03
-1.540000e+00	-1.470000e+00	-6.578557e+02	2.444094e+02	2.444094e+02
-1.470000e+00	-1.400000e+00	1.775306e+03	2.218210e+03	2.218210e+03
-1.400000e+00	-1.330000e+00	7.422417e+01	5.640151e+02	5.640151e+02
-1.330000e+00	-1.260000e+00	-1.188111e+04	1.312346e+04	1.312346e+04
-1.260000e+00	-1.190000e+00	1.596554e+03	1.911961e+03	1.911961e+03
-1.190000e+00	-1.120000e+00	-7.594601e+02	2.295695e+02	2.295695e+02
-1.120000e+00	-1.050000e+00	3.976983e+03	4.942459e+03	4.942459e+03
-1.050000e+00	-9.800000e-01	-2.421981e+03	1.643571e+03	1.643571e+03
-9.800000e-01	-9.100000e-01	-1.216705e+03	4.551340e+02	4.551340e+02
-9.100000e-01	-8.400000e-01	-1.262756e+03	4.553025e+02	4.553025e+02
-8.400000e-01	-7.700000e-01	5.081794e+03	6.233728e+03	6.233728e+03
-7.700000e-01	-7.000000e-01	-1.480156e+03	2.703880e+02	2.703880e+02
-7.000000e-01	-6.300000e-01	-2.429626e+03	1.895009e+03	1.895009e+03
-6.300000e-01	-5.600000e-01	-7.762799e+02	3.481398e+02	3.481398e+02
-5.600000e-01	-4.900000e-01	2.113654e+03	2.715653e+03	2.715653e+03
-4.900000e-01	-4.200000e-01	-9.030127e+01	9.171782e+01	9.171782e+01
-4.200000e-01	-3.500000e-01	-2.736617e+00	2.010059e+00	2.010059e+00
-3.500000e-01	-2.800000e-01	-1.819091e-01	2.271883e-01	2.271883e-01
-2.800000e-01	-2.100000e-01	0.000000e+00	0.000000e+00	0.000000e+00
-2.100000e-01	-1.400000e-01	0.000000e+00	0.000000e+00	0.000000e+00
-1.400000e-01	-7.000000e-02	0.000000e+00	0.000000e+00	0.000000e+00
-7.000000e-02	0.000000e+00	0.000000e+00	0.000000e+00	0.000000e+00
# END HISTO1D

