# BEGIN PLOT
LegendOnly=/zj_ps_nlo_mer_mur1_muf2_R8.yoda/MC_XS/XS
DrawOnly=/zj_ps_nlo_mer_mur1_muf2_R8.yoda/MC_XS/XS
Title=Total generated cross section
XMajorTickMarks=20
LogY=0
XLabel=
ShowZero=0
XMinorTickMarks=0
YLabel=$\sigma_\text{total}$ [pb]
Legend=1
# END PLOT

# BEGIN HISTO1D /zj_ps_nlo_mer_mur1_muf2_R8.yoda/MC_XS/XS
LineColor=red
LineStyle=solid
Path=/zj_ps_nlo_mer_mur1_muf2_R8.yoda/MC_XS/XS
Title=zj_ps_nlo_mer_mur1_muf2_R8
XLabel=~
YLabel=~
# xlow	 xhigh	 val	 errminus	 errplus
-5.000000e-01	5.000000e-01	8.361172e+01	1.697979e-01	1.697979e-01
# END HISTO1D

