# BEGIN PLOT
LegendOnly=/zj_ps_nlo_mer_mur1_muf1_R8.yoda/PAPER_FIN_R8/lin_l10_pT_150_186
DrawOnly=/zj_ps_nlo_mer_mur1_muf1_R8.yoda/PAPER_FIN_R8/lin_l10_pT_150_186
Legend=1
LogY=1
# END PLOT

# BEGIN HISTO1D /zj_ps_nlo_mer_mur1_muf1_R8.yoda/PAPER_FIN_R8/lin_l10_pT_150_186
LineColor=red
LineStyle=solid
Path=/zj_ps_nlo_mer_mur1_muf1_R8.yoda/PAPER_FIN_R8/lin_l10_pT_150_186
Title=zj_ps_nlo_mer_mur1_muf1_R8
XLabel=~
YLabel=~
# xlow	 xhigh	 val	 errminus	 errplus
0.000000e+00	1.050000e-01	6.748253e+08	1.234952e+07	1.234952e+07
1.050000e-01	1.650000e-01	6.369458e+08	1.618083e+07	1.618083e+07
1.650000e-01	2.300000e-01	3.729697e+08	1.433702e+07	1.433702e+07
2.300000e-01	3.050000e-01	2.423984e+08	7.437103e+06	7.437103e+06
3.050000e-01	3.800000e-01	1.384484e+08	6.184580e+06	6.184580e+06
3.800000e-01	4.600000e-01	8.366570e+07	7.060130e+06	7.060130e+06
4.600000e-01	5.500000e-01	2.371333e+07	2.724999e+06	2.724999e+06
5.500000e-01	1.000000e+00	2.270153e+06	3.283138e+05	3.283138e+05
# END HISTO1D

