# BEGIN PLOT
LegendOnly=/zj_ps_nlo_mer_mur1_muf1_R8.yoda/PAPER_FIN_R8/lin_l10_pT_120_150
DrawOnly=/zj_ps_nlo_mer_mur1_muf1_R8.yoda/PAPER_FIN_R8/lin_l10_pT_120_150
Legend=1
LogY=1
# END PLOT

# BEGIN HISTO1D /zj_ps_nlo_mer_mur1_muf1_R8.yoda/PAPER_FIN_R8/lin_l10_pT_120_150
LineColor=red
LineStyle=solid
Path=/zj_ps_nlo_mer_mur1_muf1_R8.yoda/PAPER_FIN_R8/lin_l10_pT_120_150
Title=zj_ps_nlo_mer_mur1_muf1_R8
XLabel=~
YLabel=~
# xlow	 xhigh	 val	 errminus	 errplus
0.000000e+00	1.050000e-01	1.645721e+08	6.880715e+06	6.880715e+06
1.050000e-01	1.650000e-01	2.012268e+08	1.322212e+07	1.322212e+07
1.650000e-01	2.300000e-01	1.279313e+08	5.668259e+06	5.668259e+06
2.300000e-01	3.050000e-01	7.360525e+07	3.972676e+06	3.972676e+06
3.050000e-01	3.800000e-01	3.613105e+07	2.856443e+06	2.856443e+06
3.800000e-01	4.600000e-01	1.965705e+07	1.737896e+06	1.737896e+06
4.600000e-01	5.500000e-01	7.230113e+06	1.064973e+06	1.064973e+06
5.500000e-01	1.000000e+00	3.793407e+05	1.069781e+05	1.069781e+05
# END HISTO1D

