# BEGIN PLOT
LegendOnly=/zj_ps_nlo_mer_mur2_muf2_R8.yoda/PAPER_FIN_R8/ch_SD_l20_pT_88_120
DrawOnly=/zj_ps_nlo_mer_mur2_muf2_R8.yoda/PAPER_FIN_R8/ch_SD_l20_pT_88_120
Legend=1
LogY=1
# END PLOT

# BEGIN HISTO1D /zj_ps_nlo_mer_mur2_muf2_R8.yoda/PAPER_FIN_R8/ch_SD_l20_pT_88_120
LineColor=red
LineStyle=solid
Path=/zj_ps_nlo_mer_mur2_muf2_R8.yoda/PAPER_FIN_R8/ch_SD_l20_pT_88_120
Title=zj_ps_nlo_mer_mur2_muf2_R8
XLabel=~
YLabel=~
# xlow	 xhigh	 val	 errminus	 errplus
-7.000000e+00	-6.930000e+00	-1.441867e+06	1.149125e+06	1.149125e+06
-6.930000e+00	-6.860000e+00	2.007671e+11	1.168457e+09	1.168457e+09
-6.860000e+00	-6.790000e+00	-6.826170e+04	4.818529e+04	4.818529e+04
-6.790000e+00	-6.720000e+00	-7.215481e+05	6.314727e+05	6.314727e+05
-6.720000e+00	-6.650000e+00	1.678797e+06	2.394029e+06	2.394029e+06
-6.650000e+00	-6.580000e+00	-1.241449e+06	1.314627e+06	1.314627e+06
-6.580000e+00	-6.510000e+00	1.397340e+06	8.049254e+05	8.049254e+05
-6.510000e+00	-6.440000e+00	-6.905021e+05	7.327119e+05	7.327119e+05
-6.440000e+00	-6.370000e+00	6.458756e+06	5.382153e+06	5.382153e+06
-6.370000e+00	-6.300000e+00	1.887751e+06	1.470825e+06	1.470825e+06
-6.300000e+00	-6.230000e+00	1.310491e+06	9.864746e+05	9.864746e+05
-6.230000e+00	-6.160000e+00	4.089690e+05	4.779640e+05	4.779640e+05
-6.160000e+00	-6.090000e+00	7.487941e+06	8.572632e+06	8.572632e+06
-6.090000e+00	-6.020000e+00	5.152644e+05	1.418649e+06	1.418649e+06
-6.020000e+00	-5.950000e+00	-3.607037e+06	5.106792e+06	5.106792e+06
-5.950000e+00	-5.880000e+00	4.869016e+06	3.046968e+06	3.046968e+06
-5.880000e+00	-5.810000e+00	4.720286e+06	3.876325e+06	3.876325e+06
-5.810000e+00	-5.740000e+00	-1.459147e+06	2.848092e+06	2.848092e+06
-5.740000e+00	-5.670000e+00	-7.282523e+04	5.595198e+05	5.595198e+05
-5.670000e+00	-5.600000e+00	7.858259e+05	1.460442e+06	1.460442e+06
-5.600000e+00	-5.530000e+00	3.850450e+04	2.143107e+06	2.143107e+06
-5.530000e+00	-5.460000e+00	1.386505e+06	1.054971e+06	1.054971e+06
-5.460000e+00	-5.390000e+00	-4.516286e+06	3.706772e+06	3.706772e+06
-5.390000e+00	-5.320000e+00	4.966777e+06	2.643643e+06	2.643643e+06
-5.320000e+00	-5.250000e+00	8.756161e+04	6.147555e+05	6.147555e+05
-5.250000e+00	-5.180000e+00	-3.127914e+06	2.875215e+06	2.875215e+06
-5.180000e+00	-5.110000e+00	2.733400e+06	1.508576e+06	1.508576e+06
-5.110000e+00	-5.040000e+00	-2.147820e+07	1.841615e+07	1.841615e+07
-5.040000e+00	-4.970000e+00	5.816906e+06	1.986230e+06	1.986230e+06
-4.970000e+00	-4.900000e+00	2.391210e+06	1.913705e+06	1.913705e+06
-4.900000e+00	-4.830000e+00	8.188601e+06	4.211333e+06	4.211333e+06
-4.830000e+00	-4.760000e+00	6.362583e+06	3.624401e+06	3.624401e+06
-4.760000e+00	-4.690000e+00	4.204120e+06	2.682696e+06	2.682696e+06
-4.690000e+00	-4.620000e+00	1.402443e+07	5.964774e+06	5.964774e+06
-4.620000e+00	-4.550000e+00	5.989400e+06	3.507175e+06	3.507175e+06
-4.550000e+00	-4.480000e+00	3.359419e+06	2.636624e+06	2.636624e+06
-4.480000e+00	-4.410000e+00	5.165969e+06	3.205903e+06	3.205903e+06
-4.410000e+00	-4.340000e+00	1.045507e+07	3.510715e+06	3.510715e+06
-4.340000e+00	-4.270000e+00	9.187287e+06	4.109346e+06	4.109346e+06
-4.270000e+00	-4.200000e+00	1.289601e+07	3.632736e+06	3.632736e+06
-4.200000e+00	-4.130000e+00	2.266834e+07	4.578749e+06	4.578749e+06
-4.130000e+00	-4.060000e+00	2.383977e+07	8.171452e+06	8.171452e+06
-4.060000e+00	-3.990000e+00	1.509573e+07	6.245364e+06	6.245364e+06
-3.990000e+00	-3.920000e+00	3.012157e+07	5.647112e+06	5.647112e+06
-3.920000e+00	-3.850000e+00	2.392647e+07	9.091061e+06	9.091061e+06
-3.850000e+00	-3.780000e+00	5.665523e+07	8.652494e+06	8.652494e+06
-3.780000e+00	-3.710000e+00	1.015368e+08	1.243635e+07	1.243635e+07
-3.710000e+00	-3.640000e+00	1.439526e+08	1.385314e+07	1.385314e+07
-3.640000e+00	-3.570000e+00	2.093157e+08	1.557706e+07	1.557706e+07
-3.570000e+00	-3.500000e+00	2.728681e+08	2.604298e+07	2.604298e+07
-3.500000e+00	-3.430000e+00	2.598960e+08	2.264219e+07	2.264219e+07
-3.430000e+00	-3.360000e+00	3.219806e+08	2.254329e+07	2.254329e+07
-3.360000e+00	-3.290000e+00	3.490621e+08	2.410676e+07	2.410676e+07
-3.290000e+00	-3.220000e+00	4.383654e+08	4.307259e+07	4.307259e+07
-3.220000e+00	-3.150000e+00	4.413003e+08	2.437921e+07	2.437921e+07
-3.150000e+00	-3.080000e+00	4.780139e+08	4.402115e+07	4.402115e+07
-3.080000e+00	-3.010000e+00	5.647640e+08	3.563382e+07	3.563382e+07
-3.010000e+00	-2.940000e+00	7.701673e+08	8.436293e+07	8.436293e+07
-2.940000e+00	-2.870000e+00	6.972310e+08	2.924337e+07	2.924337e+07
-2.870000e+00	-2.800000e+00	8.025139e+08	4.401018e+07	4.401018e+07
-2.800000e+00	-2.730000e+00	8.900486e+08	5.835425e+07	5.835425e+07
-2.730000e+00	-2.660000e+00	9.293523e+08	4.873094e+07	4.873094e+07
-2.660000e+00	-2.590000e+00	1.012588e+09	5.508244e+07	5.508244e+07
-2.590000e+00	-2.520000e+00	1.068887e+09	5.021415e+07	5.021415e+07
-2.520000e+00	-2.450000e+00	1.091622e+09	5.722414e+07	5.722414e+07
-2.450000e+00	-2.380000e+00	1.255131e+09	4.756948e+07	4.756948e+07
-2.380000e+00	-2.310000e+00	1.275041e+09	4.793435e+07	4.793435e+07
-2.310000e+00	-2.240000e+00	1.411322e+09	5.823417e+07	5.823417e+07
-2.240000e+00	-2.170000e+00	1.247697e+09	5.927199e+07	5.927199e+07
-2.170000e+00	-2.100000e+00	1.447953e+09	9.483525e+07	9.483525e+07
-2.100000e+00	-2.030000e+00	1.507614e+09	6.468724e+07	6.468724e+07
-2.030000e+00	-1.960000e+00	1.535537e+09	6.018680e+07	6.018680e+07
-1.960000e+00	-1.890000e+00	1.603569e+09	6.125567e+07	6.125567e+07
-1.890000e+00	-1.820000e+00	1.627726e+09	6.751127e+07	6.751127e+07
-1.820000e+00	-1.750000e+00	1.786271e+09	5.982007e+07	5.982007e+07
-1.750000e+00	-1.680000e+00	1.871060e+09	7.193957e+07	7.193957e+07
-1.680000e+00	-1.610000e+00	1.869717e+09	6.362741e+07	6.362741e+07
-1.610000e+00	-1.540000e+00	1.804317e+09	8.824778e+07	8.824778e+07
-1.540000e+00	-1.470000e+00	2.162684e+09	8.829142e+07	8.829142e+07
-1.470000e+00	-1.400000e+00	2.216557e+09	8.424365e+07	8.424365e+07
-1.400000e+00	-1.330000e+00	2.279083e+09	8.011487e+07	8.011487e+07
-1.330000e+00	-1.260000e+00	2.486033e+09	7.795591e+07	7.795591e+07
-1.260000e+00	-1.190000e+00	2.443681e+09	7.470940e+07	7.470940e+07
-1.190000e+00	-1.120000e+00	2.848263e+09	2.680648e+08	2.680648e+08
-1.120000e+00	-1.050000e+00	2.833224e+09	8.156985e+07	8.156985e+07
-1.050000e+00	-9.800000e-01	2.754353e+09	7.585767e+07	7.585767e+07
-9.800000e-01	-9.100000e-01	2.616773e+09	8.797923e+07	8.797923e+07
-9.100000e-01	-8.400000e-01	2.479413e+09	7.545332e+07	7.545332e+07
-8.400000e-01	-7.700000e-01	2.172066e+09	6.668975e+07	6.668975e+07
-7.700000e-01	-7.000000e-01	1.822991e+09	7.603877e+07	7.603877e+07
-7.000000e-01	-6.300000e-01	1.206256e+09	4.782647e+07	4.782647e+07
-6.300000e-01	-5.600000e-01	4.006293e+08	2.375813e+07	2.375813e+07
-5.600000e-01	-4.900000e-01	7.418027e+07	1.074398e+07	1.074398e+07
-4.900000e-01	-4.200000e-01	7.468747e+06	2.241019e+06	2.241019e+06
-4.200000e-01	-3.500000e-01	1.251993e+06	9.039389e+05	9.039389e+05
-3.500000e-01	-2.800000e-01	3.144620e-01	3.144621e-01	3.144621e-01
-2.800000e-01	-2.100000e-01	0.000000e+00	0.000000e+00	0.000000e+00
-2.100000e-01	-1.400000e-01	0.000000e+00	0.000000e+00	0.000000e+00
-1.400000e-01	-7.000000e-02	0.000000e+00	0.000000e+00	0.000000e+00
-7.000000e-02	0.000000e+00	0.000000e+00	0.000000e+00	0.000000e+00
# END HISTO1D

