# BEGIN PLOT
LegendOnly=/zj_ps_nlo_mer_mur2_muf2_R8.yoda/PAPER_FIN_R8/l10_pT_120_150
DrawOnly=/zj_ps_nlo_mer_mur2_muf2_R8.yoda/PAPER_FIN_R8/l10_pT_120_150
Legend=1
LogY=1
# END PLOT

# BEGIN HISTO1D /zj_ps_nlo_mer_mur2_muf2_R8.yoda/PAPER_FIN_R8/l10_pT_120_150
LineColor=red
LineStyle=solid
Path=/zj_ps_nlo_mer_mur2_muf2_R8.yoda/PAPER_FIN_R8/l10_pT_120_150
Title=zj_ps_nlo_mer_mur2_muf2_R8
XLabel=~
YLabel=~
# xlow	 xhigh	 val	 errminus	 errplus
-7.000000e+00	-6.930000e+00	-3.526637e-01	3.526637e-01	3.526637e-01
-6.930000e+00	-6.860000e+00	8.530373e+09	2.154484e+08	2.154484e+08
-6.860000e+00	-6.790000e+00	0.000000e+00	0.000000e+00	0.000000e+00
-6.790000e+00	-6.720000e+00	-2.622593e+05	2.622589e+05	2.622589e+05
-6.720000e+00	-6.650000e+00	4.988007e+04	4.988082e+04	4.988082e+04
-6.650000e+00	-6.580000e+00	-4.825107e-01	3.960138e-01	3.960138e-01
-6.580000e+00	-6.510000e+00	1.683124e+00	2.284083e+00	2.284083e+00
-6.510000e+00	-6.440000e+00	9.184741e-01	9.229125e-01	9.229125e-01
-6.440000e+00	-6.370000e+00	7.341599e+00	1.585341e+01	1.585341e+01
-6.370000e+00	-6.300000e+00	-3.276050e+06	3.325382e+06	3.325382e+06
-6.300000e+00	-6.230000e+00	-9.944669e+05	9.947598e+05	9.947598e+05
-6.230000e+00	-6.160000e+00	7.319547e+03	7.327771e+03	7.327771e+03
-6.160000e+00	-6.090000e+00	1.535410e+04	1.514038e+04	1.514038e+04
-6.090000e+00	-6.020000e+00	-1.818997e+04	1.780074e+04	1.780074e+04
-6.020000e+00	-5.950000e+00	4.344297e+05	4.220385e+05	4.220385e+05
-5.950000e+00	-5.880000e+00	1.095863e+03	8.601999e+02	8.601999e+02
-5.880000e+00	-5.810000e+00	9.276713e+02	1.121680e+03	1.121680e+03
-5.810000e+00	-5.740000e+00	9.775996e+04	6.736282e+04	6.736282e+04
-5.740000e+00	-5.670000e+00	5.938747e+04	1.181237e+05	1.181237e+05
-5.670000e+00	-5.600000e+00	1.210322e+05	8.743362e+04	8.743362e+04
-5.600000e+00	-5.530000e+00	4.574264e+04	4.553810e+04	4.553810e+04
-5.530000e+00	-5.460000e+00	1.509619e+05	2.683312e+05	2.683312e+05
-5.460000e+00	-5.390000e+00	-3.248897e+05	4.145514e+05	4.145514e+05
-5.390000e+00	-5.320000e+00	6.410434e+03	2.122243e+04	2.122243e+04
-5.320000e+00	-5.250000e+00	-2.353489e+06	1.976707e+06	1.976707e+06
-5.250000e+00	-5.180000e+00	-4.336636e+03	1.066492e+04	1.066492e+04
-5.180000e+00	-5.110000e+00	1.571239e+04	5.368183e+04	5.368183e+04
-5.110000e+00	-5.040000e+00	5.393196e+05	3.640957e+05	3.640957e+05
-5.040000e+00	-4.970000e+00	3.424193e+05	1.960529e+05	1.960529e+05
-4.970000e+00	-4.900000e+00	1.360108e+06	8.540074e+05	8.540074e+05
-4.900000e+00	-4.830000e+00	1.303694e+06	9.306770e+05	9.306770e+05
-4.830000e+00	-4.760000e+00	9.233420e+05	8.393981e+05	8.393981e+05
-4.760000e+00	-4.690000e+00	1.989814e+06	1.684997e+06	1.684997e+06
-4.690000e+00	-4.620000e+00	-1.621671e+05	3.062358e+05	3.062358e+05
-4.620000e+00	-4.550000e+00	4.049123e+05	2.930144e+05	2.930144e+05
-4.550000e+00	-4.480000e+00	-8.017713e+04	1.442566e+05	1.442566e+05
-4.480000e+00	-4.410000e+00	4.854361e+05	2.335087e+05	2.335087e+05
-4.410000e+00	-4.340000e+00	4.398349e+06	2.800165e+06	2.800165e+06
-4.340000e+00	-4.270000e+00	4.276654e+06	4.240845e+06	4.240845e+06
-4.270000e+00	-4.200000e+00	1.157611e+06	7.986477e+05	7.986477e+05
-4.200000e+00	-4.130000e+00	-6.329516e+05	1.987940e+06	1.987940e+06
-4.130000e+00	-4.060000e+00	8.196256e+05	1.028850e+06	1.028850e+06
-4.060000e+00	-3.990000e+00	5.060841e+06	1.987732e+06	1.987732e+06
-3.990000e+00	-3.920000e+00	4.139760e+06	3.149077e+06	3.149077e+06
-3.920000e+00	-3.850000e+00	4.631056e+06	2.635607e+06	2.635607e+06
-3.850000e+00	-3.780000e+00	2.270706e+06	6.532690e+06	6.532690e+06
-3.780000e+00	-3.710000e+00	-9.531059e+05	1.023249e+07	1.023249e+07
-3.710000e+00	-3.640000e+00	2.661309e+07	8.847355e+06	8.847355e+06
-3.640000e+00	-3.570000e+00	5.006140e+06	5.840457e+06	5.840457e+06
-3.570000e+00	-3.500000e+00	1.470846e+07	5.192762e+06	5.192762e+06
-3.500000e+00	-3.430000e+00	9.136224e+06	3.279028e+06	3.279028e+06
-3.430000e+00	-3.360000e+00	1.020040e+07	4.384534e+06	4.384534e+06
-3.360000e+00	-3.290000e+00	7.582536e+06	2.510111e+06	2.510111e+06
-3.290000e+00	-3.220000e+00	8.698533e+06	4.011985e+06	4.011985e+06
-3.220000e+00	-3.150000e+00	1.277349e+07	5.624155e+06	5.624155e+06
-3.150000e+00	-3.080000e+00	1.226965e+07	3.479501e+06	3.479501e+06
-3.080000e+00	-3.010000e+00	7.147864e+06	8.127086e+06	8.127086e+06
-3.010000e+00	-2.940000e+00	2.727734e+07	8.496150e+06	8.496150e+06
-2.940000e+00	-2.870000e+00	4.662547e+07	7.055541e+06	7.055541e+06
-2.870000e+00	-2.800000e+00	6.108240e+07	7.949008e+06	7.949008e+06
-2.800000e+00	-2.730000e+00	7.928006e+07	1.054037e+07	1.054037e+07
-2.730000e+00	-2.660000e+00	8.434263e+07	1.008181e+07	1.008181e+07
-2.660000e+00	-2.590000e+00	8.434091e+07	1.472933e+07	1.472933e+07
-2.590000e+00	-2.520000e+00	1.425763e+08	2.140258e+07	2.140258e+07
-2.520000e+00	-2.450000e+00	1.755453e+08	1.757131e+07	1.757131e+07
-2.450000e+00	-2.380000e+00	1.653184e+08	2.647660e+07	2.647660e+07
-2.380000e+00	-2.310000e+00	2.012576e+08	2.098462e+07	2.098462e+07
-2.310000e+00	-2.240000e+00	2.951927e+08	2.436333e+07	2.436333e+07
-2.240000e+00	-2.170000e+00	3.421956e+08	2.324771e+07	2.324771e+07
-2.170000e+00	-2.100000e+00	4.181166e+08	2.374755e+07	2.374755e+07
-2.100000e+00	-2.030000e+00	5.860653e+08	4.238458e+07	4.238458e+07
-2.030000e+00	-1.960000e+00	1.395414e+09	6.051008e+07	6.051008e+07
-1.960000e+00	-1.890000e+00	2.263057e+09	7.542185e+07	7.542185e+07
-1.890000e+00	-1.820000e+00	2.598447e+09	7.168578e+07	7.168578e+07
-1.820000e+00	-1.750000e+00	2.653724e+09	7.560368e+07	7.560368e+07
-1.750000e+00	-1.680000e+00	2.954114e+09	9.731543e+07	9.731543e+07
-1.680000e+00	-1.610000e+00	3.057747e+09	5.119481e+08	5.119481e+08
-1.610000e+00	-1.540000e+00	4.147531e+09	1.027005e+08	1.027005e+08
-1.540000e+00	-1.470000e+00	4.798913e+09	1.245899e+08	1.245899e+08
-1.470000e+00	-1.400000e+00	5.122333e+09	1.709065e+08	1.709065e+08
-1.400000e+00	-1.330000e+00	5.723850e+09	1.294355e+08	1.294355e+08
-1.330000e+00	-1.260000e+00	6.424306e+09	1.338193e+08	1.338193e+08
-1.260000e+00	-1.190000e+00	7.059949e+09	2.452772e+08	2.452772e+08
-1.190000e+00	-1.120000e+00	7.097731e+09	1.716013e+08	1.716013e+08
-1.120000e+00	-1.050000e+00	7.304547e+09	1.296219e+08	1.296219e+08
-1.050000e+00	-9.800000e-01	7.386040e+09	1.546093e+08	1.546093e+08
-9.800000e-01	-9.100000e-01	7.155146e+09	1.128669e+08	1.128669e+08
-9.100000e-01	-8.400000e-01	6.882259e+09	1.204468e+08	1.204468e+08
-8.400000e-01	-7.700000e-01	6.544499e+09	1.163433e+08	1.163433e+08
-7.700000e-01	-7.000000e-01	6.018429e+09	1.001160e+08	1.001160e+08
-7.000000e-01	-6.300000e-01	5.417770e+09	1.105968e+08	1.105968e+08
-6.300000e-01	-5.600000e-01	4.993789e+09	9.947049e+07	9.947049e+07
-5.600000e-01	-4.900000e-01	4.264726e+09	1.139467e+08	1.139467e+08
-4.900000e-01	-4.200000e-01	3.385039e+09	8.252546e+07	8.252546e+07
-4.200000e-01	-3.500000e-01	2.594219e+09	7.251328e+07	7.251328e+07
-3.500000e-01	-2.800000e-01	1.255430e+09	5.967476e+07	5.967476e+07
-2.800000e-01	-2.100000e-01	4.271969e+08	2.384585e+07	2.384585e+07
-2.100000e-01	-1.400000e-01	7.105080e+07	8.308962e+06	8.308962e+06
-1.400000e-01	-7.000000e-02	6.446154e+06	1.777150e+06	1.777150e+06
-7.000000e-02	0.000000e+00	6.077556e+05	6.014309e+05	6.014309e+05
# END HISTO1D

