# BEGIN PLOT
LegendOnly=/zj_ps_nlo_mer_mur2_muf2_R8.yoda/PAPER_FIN_R8_CH/lin_SD_l10_pT_88_120
DrawOnly=/zj_ps_nlo_mer_mur2_muf2_R8.yoda/PAPER_FIN_R8_CH/lin_SD_l10_pT_88_120
Legend=1
LogY=1
# END PLOT

# BEGIN HISTO1D /zj_ps_nlo_mer_mur2_muf2_R8.yoda/PAPER_FIN_R8_CH/lin_SD_l10_pT_88_120
LineColor=red
LineStyle=solid
Path=/zj_ps_nlo_mer_mur2_muf2_R8.yoda/PAPER_FIN_R8_CH/lin_SD_l10_pT_88_120
Title=zj_ps_nlo_mer_mur2_muf2_R8
XLabel=~
YLabel=~
# xlow	 xhigh	 val	 errminus	 errplus
0.000000e+00	1.250000e-02	4.740329e+11	4.289847e+09	4.289847e+09
1.250000e-02	2.250000e-02	1.559342e+11	2.815329e+09	2.815329e+09
2.250000e-02	3.500000e-02	1.352118e+11	2.082117e+09	2.082117e+09
3.500000e-02	5.000000e-02	9.604120e+10	1.535756e+09	1.535756e+09
5.000000e-02	7.000000e-02	7.150570e+10	9.553180e+08	9.553180e+08
7.000000e-02	9.500000e-02	5.533652e+10	9.470960e+08	9.470960e+08
9.500000e-02	1.280000e-01	4.523055e+10	5.763797e+08	5.763797e+08
1.280000e-01	1.700000e-01	3.422369e+10	8.393065e+08	8.393065e+08
1.700000e-01	2.250000e-01	2.605700e+10	4.538158e+08	4.538158e+08
2.250000e-01	2.900000e-01	1.663908e+10	2.693204e+08	2.693204e+08
2.900000e-01	3.650000e-01	1.094683e+10	1.637850e+08	1.637850e+08
3.650000e-01	4.500000e-01	6.190854e+09	2.399936e+08	2.399936e+08
4.500000e-01	1.000000e+00	5.006364e+08	1.014045e+07	1.014045e+07
# END HISTO1D

