# BEGIN PLOT
LegendOnly=/zj_ps_nlo_mer_cent_R8.yoda/PAPER_FIN_R8/l05_pT_88_120
DrawOnly=/zj_ps_nlo_mer_cent_R8.yoda/PAPER_FIN_R8/l05_pT_88_120
Legend=1
LogY=1
# END PLOT

# BEGIN HISTO1D /zj_ps_nlo_mer_cent_R8.yoda/PAPER_FIN_R8/l05_pT_88_120
LineColor=red
LineStyle=solid
Path=/zj_ps_nlo_mer_cent_R8.yoda/PAPER_FIN_R8/l05_pT_88_120
Title=zj_ps_nlo_mer_cent_R8
XLabel=~
YLabel=~
# xlow	 xhigh	 val	 errminus	 errplus
-7.000000e+00	-6.930000e+00	0.000000e+00	0.000000e+00	0.000000e+00
-6.930000e+00	-6.860000e+00	0.000000e+00	0.000000e+00	0.000000e+00
-6.860000e+00	-6.790000e+00	0.000000e+00	0.000000e+00	0.000000e+00
-6.790000e+00	-6.720000e+00	0.000000e+00	0.000000e+00	0.000000e+00
-6.720000e+00	-6.650000e+00	0.000000e+00	0.000000e+00	0.000000e+00
-6.650000e+00	-6.580000e+00	0.000000e+00	0.000000e+00	0.000000e+00
-6.580000e+00	-6.510000e+00	0.000000e+00	0.000000e+00	0.000000e+00
-6.510000e+00	-6.440000e+00	0.000000e+00	0.000000e+00	0.000000e+00
-6.440000e+00	-6.370000e+00	0.000000e+00	0.000000e+00	0.000000e+00
-6.370000e+00	-6.300000e+00	0.000000e+00	0.000000e+00	0.000000e+00
-6.300000e+00	-6.230000e+00	0.000000e+00	0.000000e+00	0.000000e+00
-6.230000e+00	-6.160000e+00	0.000000e+00	0.000000e+00	0.000000e+00
-6.160000e+00	-6.090000e+00	0.000000e+00	0.000000e+00	0.000000e+00
-6.090000e+00	-6.020000e+00	0.000000e+00	0.000000e+00	0.000000e+00
-6.020000e+00	-5.950000e+00	0.000000e+00	0.000000e+00	0.000000e+00
-5.950000e+00	-5.880000e+00	0.000000e+00	0.000000e+00	0.000000e+00
-5.880000e+00	-5.810000e+00	0.000000e+00	0.000000e+00	0.000000e+00
-5.810000e+00	-5.740000e+00	0.000000e+00	0.000000e+00	0.000000e+00
-5.740000e+00	-5.670000e+00	0.000000e+00	0.000000e+00	0.000000e+00
-5.670000e+00	-5.600000e+00	0.000000e+00	0.000000e+00	0.000000e+00
-5.600000e+00	-5.530000e+00	0.000000e+00	0.000000e+00	0.000000e+00
-5.530000e+00	-5.460000e+00	0.000000e+00	0.000000e+00	0.000000e+00
-5.460000e+00	-5.390000e+00	0.000000e+00	0.000000e+00	0.000000e+00
-5.390000e+00	-5.320000e+00	0.000000e+00	0.000000e+00	0.000000e+00
-5.320000e+00	-5.250000e+00	0.000000e+00	0.000000e+00	0.000000e+00
-5.250000e+00	-5.180000e+00	0.000000e+00	0.000000e+00	0.000000e+00
-5.180000e+00	-5.110000e+00	0.000000e+00	0.000000e+00	0.000000e+00
-5.110000e+00	-5.040000e+00	0.000000e+00	0.000000e+00	0.000000e+00
-5.040000e+00	-4.970000e+00	0.000000e+00	0.000000e+00	0.000000e+00
-4.970000e+00	-4.900000e+00	0.000000e+00	0.000000e+00	0.000000e+00
-4.900000e+00	-4.830000e+00	0.000000e+00	0.000000e+00	0.000000e+00
-4.830000e+00	-4.760000e+00	0.000000e+00	0.000000e+00	0.000000e+00
-4.760000e+00	-4.690000e+00	0.000000e+00	0.000000e+00	0.000000e+00
-4.690000e+00	-4.620000e+00	0.000000e+00	0.000000e+00	0.000000e+00
-4.620000e+00	-4.550000e+00	0.000000e+00	0.000000e+00	0.000000e+00
-4.550000e+00	-4.480000e+00	0.000000e+00	0.000000e+00	0.000000e+00
-4.480000e+00	-4.410000e+00	0.000000e+00	0.000000e+00	0.000000e+00
-4.410000e+00	-4.340000e+00	0.000000e+00	0.000000e+00	0.000000e+00
-4.340000e+00	-4.270000e+00	0.000000e+00	0.000000e+00	0.000000e+00
-4.270000e+00	-4.200000e+00	0.000000e+00	0.000000e+00	0.000000e+00
-4.200000e+00	-4.130000e+00	0.000000e+00	0.000000e+00	0.000000e+00
-4.130000e+00	-4.060000e+00	0.000000e+00	0.000000e+00	0.000000e+00
-4.060000e+00	-3.990000e+00	0.000000e+00	0.000000e+00	0.000000e+00
-3.990000e+00	-3.920000e+00	0.000000e+00	0.000000e+00	0.000000e+00
-3.920000e+00	-3.850000e+00	0.000000e+00	0.000000e+00	0.000000e+00
-3.850000e+00	-3.780000e+00	0.000000e+00	0.000000e+00	0.000000e+00
-3.780000e+00	-3.710000e+00	0.000000e+00	0.000000e+00	0.000000e+00
-3.710000e+00	-3.640000e+00	0.000000e+00	0.000000e+00	0.000000e+00
-3.640000e+00	-3.570000e+00	0.000000e+00	0.000000e+00	0.000000e+00
-3.570000e+00	-3.500000e+00	0.000000e+00	0.000000e+00	0.000000e+00
-3.500000e+00	-3.430000e+00	0.000000e+00	0.000000e+00	0.000000e+00
-3.430000e+00	-3.360000e+00	0.000000e+00	0.000000e+00	0.000000e+00
-3.360000e+00	-3.290000e+00	0.000000e+00	0.000000e+00	0.000000e+00
-3.290000e+00	-3.220000e+00	0.000000e+00	0.000000e+00	0.000000e+00
-3.220000e+00	-3.150000e+00	0.000000e+00	0.000000e+00	0.000000e+00
-3.150000e+00	-3.080000e+00	0.000000e+00	0.000000e+00	0.000000e+00
-3.080000e+00	-3.010000e+00	3.101597e+04	3.101597e+04	3.101597e+04
-3.010000e+00	-2.940000e+00	0.000000e+00	0.000000e+00	0.000000e+00
-2.940000e+00	-2.870000e+00	0.000000e+00	0.000000e+00	0.000000e+00
-2.870000e+00	-2.800000e+00	0.000000e+00	0.000000e+00	0.000000e+00
-2.800000e+00	-2.730000e+00	0.000000e+00	0.000000e+00	0.000000e+00
-2.730000e+00	-2.660000e+00	0.000000e+00	0.000000e+00	0.000000e+00
-2.660000e+00	-2.590000e+00	0.000000e+00	0.000000e+00	0.000000e+00
-2.590000e+00	-2.520000e+00	0.000000e+00	0.000000e+00	0.000000e+00
-2.520000e+00	-2.450000e+00	0.000000e+00	0.000000e+00	0.000000e+00
-2.450000e+00	-2.380000e+00	8.489286e+02	8.489286e+02	8.489286e+02
-2.380000e+00	-2.310000e+00	0.000000e+00	0.000000e+00	0.000000e+00
-2.310000e+00	-2.240000e+00	-7.840927e-01	7.321831e-01	7.321831e-01
-2.240000e+00	-2.170000e+00	3.358503e+00	3.356954e+00	3.356954e+00
-2.170000e+00	-2.100000e+00	4.568249e+04	5.277426e+04	5.277426e+04
-2.100000e+00	-2.030000e+00	2.135314e+05	2.203321e+05	2.203321e+05
-2.030000e+00	-1.960000e+00	3.987241e+04	3.229048e+04	3.229048e+04
-1.960000e+00	-1.890000e+00	3.021659e+05	1.702916e+05	1.702916e+05
-1.890000e+00	-1.820000e+00	2.446814e+05	9.761292e+04	9.761292e+04
-1.820000e+00	-1.750000e+00	8.536641e+05	3.079274e+05	3.079274e+05
-1.750000e+00	-1.680000e+00	1.527320e+06	7.580524e+05	7.580524e+05
-1.680000e+00	-1.610000e+00	4.441940e+06	1.288473e+06	1.288473e+06
-1.610000e+00	-1.540000e+00	4.081654e+06	1.383169e+06	1.383169e+06
-1.540000e+00	-1.470000e+00	1.747924e+07	4.584987e+06	4.584987e+06
-1.470000e+00	-1.400000e+00	2.110994e+07	4.665706e+06	4.665706e+06
-1.400000e+00	-1.330000e+00	4.401014e+07	6.021651e+06	6.021651e+06
-1.330000e+00	-1.260000e+00	8.167233e+07	7.802655e+06	7.802655e+06
-1.260000e+00	-1.190000e+00	1.767654e+08	1.077706e+07	1.077706e+07
-1.190000e+00	-1.120000e+00	3.836904e+08	3.099739e+07	3.099739e+07
-1.120000e+00	-1.050000e+00	8.738977e+08	3.717265e+07	3.717265e+07
-1.050000e+00	-9.800000e-01	2.008440e+09	4.032724e+07	4.032724e+07
-9.800000e-01	-9.100000e-01	4.365056e+09	7.045817e+07	7.045817e+07
-9.100000e-01	-8.400000e-01	8.593503e+09	4.564723e+08	4.564723e+08
-8.400000e-01	-7.700000e-01	1.741253e+10	1.794751e+08	1.794751e+08
-7.700000e-01	-7.000000e-01	2.763467e+10	2.284850e+08	2.284850e+08
-7.000000e-01	-6.300000e-01	3.919791e+10	1.697657e+09	1.697657e+09
-6.300000e-01	-5.600000e-01	4.133887e+10	2.703647e+08	2.703647e+08
-5.600000e-01	-4.900000e-01	3.881153e+10	2.540766e+08	2.540766e+08
-4.900000e-01	-4.200000e-01	3.324447e+10	2.224104e+08	2.224104e+08
-4.200000e-01	-3.500000e-01	2.583330e+10	1.724887e+08	1.724887e+08
-3.500000e-01	-2.800000e-01	1.807280e+10	1.426128e+08	1.426128e+08
-2.800000e-01	-2.100000e-01	9.286191e+09	1.208332e+08	1.208332e+08
-2.100000e-01	-1.400000e-01	2.470739e+09	5.281800e+07	5.281800e+07
-1.400000e-01	-7.000000e-02	1.959097e+08	3.674877e+07	3.674877e+07
-7.000000e-02	0.000000e+00	5.303303e+05	3.789787e+05	3.789787e+05
# END HISTO1D

