# BEGIN PLOT
LegendOnly=/zj_ps_nlo_mer_cent_R8.yoda/PAPER_FIN_R8/lin_SD_l05_pT_120_150
DrawOnly=/zj_ps_nlo_mer_cent_R8.yoda/PAPER_FIN_R8/lin_SD_l05_pT_120_150
Legend=1
LogY=1
# END PLOT

# BEGIN HISTO1D /zj_ps_nlo_mer_cent_R8.yoda/PAPER_FIN_R8/lin_SD_l05_pT_120_150
LineColor=red
LineStyle=solid
Path=/zj_ps_nlo_mer_cent_R8.yoda/PAPER_FIN_R8/lin_SD_l05_pT_120_150
Title=zj_ps_nlo_mer_cent_R8
XLabel=~
YLabel=~
# xlow	 xhigh	 val	 errminus	 errplus
0.000000e+00	1.000000e-01	1.494414e+10	1.642140e+08	1.642140e+08
1.000000e-01	1.800000e-01	3.287625e+10	1.555669e+08	1.555669e+08
1.800000e-01	2.600000e-01	2.022251e+10	1.363106e+08	1.363106e+08
2.600000e-01	3.400000e-01	1.489267e+10	1.030010e+08	1.030010e+08
3.400000e-01	4.200000e-01	1.071033e+10	7.668797e+07	7.668797e+07
4.200000e-01	5.000000e-01	7.091871e+09	7.442281e+07	7.442281e+07
5.000000e-01	5.700000e-01	4.151553e+09	6.270792e+07	6.270792e+07
5.700000e-01	6.400000e-01	1.998056e+09	4.533584e+07	4.533584e+07
6.400000e-01	1.000000e+00	1.278561e+08	7.432244e+06	7.432244e+06
# END HISTO1D

