# BEGIN PLOT
LegendOnly=/pythia_ps_pt50_s1_1e3.yoda/PAPER_FIN_R8/lin_SD_l05_pT_120_150
DrawOnly=/pythia_ps_pt50_s1_1e3.yoda/PAPER_FIN_R8/lin_SD_l05_pT_120_150
Legend=1
LogY=1
# END PLOT

# BEGIN HISTO1D /pythia_ps_pt50_s1_1e3.yoda/PAPER_FIN_R8/lin_SD_l05_pT_120_150
LineColor=red
LineStyle=solid
Path=/pythia_ps_pt50_s1_1e3.yoda/PAPER_FIN_R8/lin_SD_l05_pT_120_150
Title=pythia_ps_pt50_s1_1e3
XLabel=~
YLabel=~
# xlow	 xhigh	 val	 errminus	 errplus
0.000000e+00	1.000000e-01	1.840159e+07	1.356525e+04	1.356525e+04
1.000000e-01	1.800000e-01	1.076025e+07	1.159755e+04	1.159755e+04
1.800000e-01	2.600000e-01	7.675087e+06	9.794825e+03	9.794825e+03
2.600000e-01	3.400000e-01	5.254450e+06	8.104358e+03	8.104358e+03
3.400000e-01	4.200000e-01	3.373038e+06	6.493302e+03	6.493302e+03
4.200000e-01	5.000000e-01	1.976925e+06	4.971073e+03	4.971073e+03
5.000000e-01	5.700000e-01	1.007300e+06	3.793415e+03	3.793415e+03
5.700000e-01	6.400000e-01	4.012143e+05	2.394083e+03	2.394083e+03
6.400000e-01	1.000000e+00	2.326111e+04	2.541932e+02	2.541932e+02
# END HISTO1D

