# BEGIN PLOT
LegendOnly=/pythia_ps_pt50_s1_1e3.yoda/PAPER_FIN_R4/l05_pT_65_88
DrawOnly=/pythia_ps_pt50_s1_1e3.yoda/PAPER_FIN_R4/l05_pT_65_88
Legend=1
LogY=1
# END PLOT

# BEGIN HISTO1D /pythia_ps_pt50_s1_1e3.yoda/PAPER_FIN_R4/l05_pT_65_88
LineColor=red
LineStyle=solid
Path=/pythia_ps_pt50_s1_1e3.yoda/PAPER_FIN_R4/l05_pT_65_88
Title=pythia_ps_pt50_s1_1e3
XLabel=~
YLabel=~
# xlow	 xhigh	 val	 errminus	 errplus
-7.000000e+00	-6.930000e+00	2.428571e+02	5.890151e+01	5.890151e+01
-6.930000e+00	-6.860000e+00	1.295171e+07	1.360237e+04	1.360237e+04
-6.860000e+00	-6.790000e+00	3.142857e+02	6.700594e+01	6.700594e+01
-6.790000e+00	-6.720000e+00	2.000000e+02	5.345225e+01	5.345225e+01
-6.720000e+00	-6.650000e+00	2.857143e+02	6.388766e+01	6.388766e+01
-6.650000e+00	-6.580000e+00	3.428571e+02	6.998542e+01	6.998542e+01
-6.580000e+00	-6.510000e+00	2.285714e+02	5.714286e+01	5.714286e+01
-6.510000e+00	-6.440000e+00	2.428571e+02	5.890151e+01	5.890151e+01
-6.440000e+00	-6.370000e+00	3.142857e+02	6.700594e+01	6.700594e+01
-6.370000e+00	-6.300000e+00	2.428571e+02	5.890151e+01	5.890151e+01
-6.300000e+00	-6.230000e+00	2.571429e+02	6.060915e+01	6.060915e+01
-6.230000e+00	-6.160000e+00	1.714286e+02	4.948717e+01	4.948717e+01
-6.160000e+00	-6.090000e+00	2.714286e+02	6.226998e+01	6.226998e+01
-6.090000e+00	-6.020000e+00	3.142857e+02	6.700594e+01	6.700594e+01
-6.020000e+00	-5.950000e+00	3.571429e+02	7.142857e+01	7.142857e+01
-5.950000e+00	-5.880000e+00	4.142857e+02	7.693093e+01	7.693093e+01
-5.880000e+00	-5.810000e+00	4.142857e+02	7.693093e+01	7.693093e+01
-5.810000e+00	-5.740000e+00	3.428571e+02	6.998542e+01	6.998542e+01
-5.740000e+00	-5.670000e+00	3.428571e+02	6.998542e+01	6.998542e+01
-5.670000e+00	-5.600000e+00	2.285714e+02	5.714286e+01	5.714286e+01
-5.600000e+00	-5.530000e+00	3.285714e+02	6.851188e+01	6.851188e+01
-5.530000e+00	-5.460000e+00	2.857143e+02	6.388766e+01	6.388766e+01
-5.460000e+00	-5.390000e+00	4.571429e+02	8.081220e+01	8.081220e+01
-5.390000e+00	-5.320000e+00	3.714286e+02	7.284314e+01	7.284314e+01
-5.320000e+00	-5.250000e+00	3.857143e+02	7.423075e+01	7.423075e+01
-5.250000e+00	-5.180000e+00	3.571429e+02	7.142857e+01	7.142857e+01
-5.180000e+00	-5.110000e+00	3.000000e+02	6.546537e+01	6.546537e+01
-5.110000e+00	-5.040000e+00	4.142857e+02	7.693093e+01	7.693093e+01
-5.040000e+00	-4.970000e+00	5.142857e+02	8.571429e+01	8.571429e+01
-4.970000e+00	-4.900000e+00	3.428571e+02	6.998542e+01	6.998542e+01
-4.900000e+00	-4.830000e+00	3.142857e+02	6.700594e+01	6.700594e+01
-4.830000e+00	-4.760000e+00	4.000000e+02	7.559289e+01	7.559289e+01
-4.760000e+00	-4.690000e+00	2.571429e+02	6.060915e+01	6.060915e+01
-4.690000e+00	-4.620000e+00	3.285714e+02	6.851188e+01	6.851188e+01
-4.620000e+00	-4.550000e+00	3.857143e+02	7.423075e+01	7.423075e+01
-4.550000e+00	-4.480000e+00	2.714286e+02	6.226998e+01	6.226998e+01
-4.480000e+00	-4.410000e+00	3.857143e+02	7.423075e+01	7.423075e+01
-4.410000e+00	-4.340000e+00	3.142857e+02	6.700594e+01	6.700594e+01
-4.340000e+00	-4.270000e+00	5.142857e+02	8.571429e+01	8.571429e+01
-4.270000e+00	-4.200000e+00	4.142857e+02	7.693093e+01	7.693093e+01
-4.200000e+00	-4.130000e+00	3.857143e+02	7.423075e+01	7.423075e+01
-4.130000e+00	-4.060000e+00	3.714286e+02	7.284314e+01	7.284314e+01
-4.060000e+00	-3.990000e+00	4.285714e+02	7.824608e+01	7.824608e+01
-3.990000e+00	-3.920000e+00	4.000000e+02	7.559289e+01	7.559289e+01
-3.920000e+00	-3.850000e+00	6.857143e+02	9.897433e+01	9.897433e+01
-3.850000e+00	-3.780000e+00	6.000000e+02	9.258201e+01	9.258201e+01
-3.780000e+00	-3.710000e+00	8.714286e+02	1.115750e+02	1.115750e+02
-3.710000e+00	-3.640000e+00	8.571429e+02	1.106567e+02	1.106567e+02
-3.640000e+00	-3.570000e+00	9.000000e+02	1.133893e+02	1.133893e+02
-3.570000e+00	-3.500000e+00	1.485714e+03	1.456863e+02	1.456863e+02
-3.500000e+00	-3.430000e+00	1.614286e+03	1.518592e+02	1.518592e+02
-3.430000e+00	-3.360000e+00	1.900000e+03	1.647509e+02	1.647509e+02
-3.360000e+00	-3.290000e+00	2.942857e+03	2.050386e+02	2.050386e+02
-3.290000e+00	-3.220000e+00	3.757143e+03	2.316754e+02	2.316754e+02
-3.220000e+00	-3.150000e+00	5.285714e+03	2.747912e+02	2.747912e+02
-3.150000e+00	-3.080000e+00	7.200000e+03	3.207135e+02	3.207135e+02
-3.080000e+00	-3.010000e+00	8.971429e+03	3.579990e+02	3.579990e+02
-3.010000e+00	-2.940000e+00	1.127143e+04	4.012735e+02	4.012735e+02
-2.940000e+00	-2.870000e+00	1.535714e+04	4.683885e+02	4.683885e+02
-2.870000e+00	-2.800000e+00	2.117143e+04	5.499536e+02	5.499536e+02
-2.800000e+00	-2.730000e+00	2.650000e+04	6.152816e+02	6.152816e+02
-2.730000e+00	-2.660000e+00	3.331429e+04	6.898684e+02	6.898684e+02
-2.660000e+00	-2.590000e+00	4.532857e+04	8.047055e+02	8.047055e+02
-2.590000e+00	-2.520000e+00	6.130000e+04	9.357961e+02	9.357961e+02
-2.520000e+00	-2.450000e+00	7.644286e+04	1.045008e+03	1.045008e+03
-2.450000e+00	-2.380000e+00	9.704286e+04	1.177424e+03	1.177424e+03
-2.380000e+00	-2.310000e+00	1.209857e+05	1.314674e+03	1.314674e+03
-2.310000e+00	-2.240000e+00	1.554286e+05	1.490103e+03	1.490103e+03
-2.240000e+00	-2.170000e+00	1.898286e+05	1.646766e+03	1.646766e+03
-2.170000e+00	-2.100000e+00	2.414571e+05	1.857253e+03	1.857253e+03
-2.100000e+00	-2.030000e+00	3.154143e+05	2.122715e+03	2.122715e+03
-2.030000e+00	-1.960000e+00	4.133000e+05	2.429874e+03	2.429874e+03
-1.960000e+00	-1.890000e+00	5.557143e+05	2.817583e+03	2.817583e+03
-1.890000e+00	-1.820000e+00	7.736286e+05	3.324430e+03	3.324430e+03
-1.820000e+00	-1.750000e+00	1.071857e+06	3.913086e+03	3.913086e+03
-1.750000e+00	-1.680000e+00	1.463743e+06	4.572812e+03	4.572812e+03
-1.680000e+00	-1.610000e+00	1.893271e+06	5.200648e+03	5.200648e+03
-1.610000e+00	-1.540000e+00	2.313171e+06	5.748505e+03	5.748505e+03
-1.540000e+00	-1.470000e+00	2.669700e+06	6.175643e+03	6.175643e+03
-1.470000e+00	-1.400000e+00	3.037729e+06	6.587573e+03	6.587573e+03
-1.400000e+00	-1.330000e+00	3.460600e+06	7.031155e+03	7.031155e+03
-1.330000e+00	-1.260000e+00	4.039686e+06	7.596696e+03	7.596696e+03
-1.260000e+00	-1.190000e+00	4.862471e+06	8.334499e+03	8.334499e+03
-1.190000e+00	-1.120000e+00	5.907443e+06	9.186514e+03	9.186514e+03
-1.120000e+00	-1.050000e+00	7.109129e+06	1.007765e+04	1.007765e+04
-1.050000e+00	-9.800000e-01	8.501886e+06	1.102069e+04	1.102069e+04
-9.800000e-01	-9.100000e-01	1.011437e+07	1.202044e+04	1.202044e+04
-9.100000e-01	-8.400000e-01	1.185494e+07	1.301370e+04	1.301370e+04
-8.400000e-01	-7.700000e-01	1.348016e+07	1.387709e+04	1.387709e+04
-7.700000e-01	-7.000000e-01	1.485577e+07	1.456795e+04	1.456795e+04
-7.000000e-01	-6.300000e-01	1.573954e+07	1.499502e+04	1.499502e+04
-6.300000e-01	-5.600000e-01	1.595530e+07	1.509745e+04	1.509745e+04
-5.600000e-01	-4.900000e-01	1.526731e+07	1.476836e+04	1.476836e+04
-4.900000e-01	-4.200000e-01	1.361824e+07	1.394799e+04	1.394799e+04
-4.200000e-01	-3.500000e-01	1.091000e+07	1.248428e+04	1.248428e+04
-3.500000e-01	-2.800000e-01	7.344729e+06	1.024328e+04	1.024328e+04
-2.800000e-01	-2.100000e-01	3.512986e+06	7.084173e+03	7.084173e+03
-2.100000e-01	-1.400000e-01	7.648857e+05	3.305592e+03	3.305592e+03
-1.400000e-01	-7.000000e-02	3.455714e+04	7.026190e+02	7.026190e+02
-7.000000e-02	0.000000e+00	5.714286e+01	2.857143e+01	2.857143e+01
# END HISTO1D

