# BEGIN PLOT
LegendOnly=/pythia_ps_pt50_s1_1e3.yoda/PAPER_FIN_R4/ch_lin_l05_pT_186_254
DrawOnly=/pythia_ps_pt50_s1_1e3.yoda/PAPER_FIN_R4/ch_lin_l05_pT_186_254
Legend=1
LogY=1
# END PLOT

# BEGIN HISTO1D /pythia_ps_pt50_s1_1e3.yoda/PAPER_FIN_R4/ch_lin_l05_pT_186_254
LineColor=red
LineStyle=solid
Path=/pythia_ps_pt50_s1_1e3.yoda/PAPER_FIN_R4/ch_lin_l05_pT_186_254
Title=pythia_ps_pt50_s1_1e3
XLabel=~
YLabel=~
# xlow	 xhigh	 val	 errminus	 errplus
0.000000e+00	6.000000e-02	1.874067e+07	1.767327e+04	1.767327e+04
6.000000e-02	1.100000e-01	1.982500e+06	6.296825e+03	6.296825e+03
1.100000e-01	1.500000e-01	1.514750e+06	6.153759e+03	6.153759e+03
1.500000e-01	1.900000e-01	1.152550e+06	5.367844e+03	5.367844e+03
1.900000e-01	2.300000e-01	8.969000e+05	4.735240e+03	4.735240e+03
2.300000e-01	2.700000e-01	6.884750e+05	4.148720e+03	4.148720e+03
2.700000e-01	3.100000e-01	5.252750e+05	3.623793e+03	3.623793e+03
3.100000e-01	3.500000e-01	3.931500e+05	3.135084e+03	3.135084e+03
3.500000e-01	3.900000e-01	2.764750e+05	2.629045e+03	2.629045e+03
3.900000e-01	4.400000e-01	1.880400e+05	1.939278e+03	1.939278e+03
4.400000e-01	4.900000e-01	1.009400e+05	1.420845e+03	1.420845e+03
4.900000e-01	5.400000e-01	4.288000e+04	9.260670e+02	9.260670e+02
5.400000e-01	6.000000e-01	1.721667e+04	5.356720e+02	5.356720e+02
6.000000e-01	1.000000e+00	6.725000e+02	4.100305e+01	4.100305e+01
# END HISTO1D

