# BEGIN PLOT
LegendOnly=/pythia_ps_pt50_s1_1e3.yoda/PAPER_FIN_R4/lin_l20_pT_150_186
DrawOnly=/pythia_ps_pt50_s1_1e3.yoda/PAPER_FIN_R4/lin_l20_pT_150_186
Legend=1
LogY=1
# END PLOT

# BEGIN HISTO1D /pythia_ps_pt50_s1_1e3.yoda/PAPER_FIN_R4/lin_l20_pT_150_186
LineColor=red
LineStyle=solid
Path=/pythia_ps_pt50_s1_1e3.yoda/PAPER_FIN_R4/lin_l20_pT_150_186
Title=pythia_ps_pt50_s1_1e3
XLabel=~
YLabel=~
# xlow	 xhigh	 val	 errminus	 errplus
0.000000e+00	5.000000e-02	3.035380e+07	2.463891e+04	2.463891e+04
5.000000e-02	9.000000e-02	7.531550e+06	1.372183e+04	1.372183e+04
9.000000e-02	1.500000e-01	2.999200e+06	7.070125e+03	7.070125e+03
1.500000e-01	2.050000e-01	1.258382e+06	4.783270e+03	4.783270e+03
2.050000e-01	1.000000e+00	5.393711e+04	2.604715e+02	2.604715e+02
# END HISTO1D

