# BEGIN PLOT
LegendOnly=/pythia_ps_pt50_s1_1e3.yoda/PAPER_FIN_R4/ch_SD_l05_pT_88_120
DrawOnly=/pythia_ps_pt50_s1_1e3.yoda/PAPER_FIN_R4/ch_SD_l05_pT_88_120
Legend=1
LogY=1
# END PLOT

# BEGIN HISTO1D /pythia_ps_pt50_s1_1e3.yoda/PAPER_FIN_R4/ch_SD_l05_pT_88_120
LineColor=red
LineStyle=solid
Path=/pythia_ps_pt50_s1_1e3.yoda/PAPER_FIN_R4/ch_SD_l05_pT_88_120
Title=pythia_ps_pt50_s1_1e3
XLabel=~
YLabel=~
# xlow	 xhigh	 val	 errminus	 errplus
-7.000000e+00	-6.930000e+00	0.000000e+00	0.000000e+00	0.000000e+00
-6.930000e+00	-6.860000e+00	9.338287e+07	3.652453e+04	3.652453e+04
-6.860000e+00	-6.790000e+00	0.000000e+00	0.000000e+00	0.000000e+00
-6.790000e+00	-6.720000e+00	0.000000e+00	0.000000e+00	0.000000e+00
-6.720000e+00	-6.650000e+00	0.000000e+00	0.000000e+00	0.000000e+00
-6.650000e+00	-6.580000e+00	0.000000e+00	0.000000e+00	0.000000e+00
-6.580000e+00	-6.510000e+00	0.000000e+00	0.000000e+00	0.000000e+00
-6.510000e+00	-6.440000e+00	0.000000e+00	0.000000e+00	0.000000e+00
-6.440000e+00	-6.370000e+00	0.000000e+00	0.000000e+00	0.000000e+00
-6.370000e+00	-6.300000e+00	0.000000e+00	0.000000e+00	0.000000e+00
-6.300000e+00	-6.230000e+00	0.000000e+00	0.000000e+00	0.000000e+00
-6.230000e+00	-6.160000e+00	0.000000e+00	0.000000e+00	0.000000e+00
-6.160000e+00	-6.090000e+00	0.000000e+00	0.000000e+00	0.000000e+00
-6.090000e+00	-6.020000e+00	0.000000e+00	0.000000e+00	0.000000e+00
-6.020000e+00	-5.950000e+00	0.000000e+00	0.000000e+00	0.000000e+00
-5.950000e+00	-5.880000e+00	0.000000e+00	0.000000e+00	0.000000e+00
-5.880000e+00	-5.810000e+00	0.000000e+00	0.000000e+00	0.000000e+00
-5.810000e+00	-5.740000e+00	0.000000e+00	0.000000e+00	0.000000e+00
-5.740000e+00	-5.670000e+00	0.000000e+00	0.000000e+00	0.000000e+00
-5.670000e+00	-5.600000e+00	0.000000e+00	0.000000e+00	0.000000e+00
-5.600000e+00	-5.530000e+00	0.000000e+00	0.000000e+00	0.000000e+00
-5.530000e+00	-5.460000e+00	0.000000e+00	0.000000e+00	0.000000e+00
-5.460000e+00	-5.390000e+00	0.000000e+00	0.000000e+00	0.000000e+00
-5.390000e+00	-5.320000e+00	0.000000e+00	0.000000e+00	0.000000e+00
-5.320000e+00	-5.250000e+00	0.000000e+00	0.000000e+00	0.000000e+00
-5.250000e+00	-5.180000e+00	0.000000e+00	0.000000e+00	0.000000e+00
-5.180000e+00	-5.110000e+00	0.000000e+00	0.000000e+00	0.000000e+00
-5.110000e+00	-5.040000e+00	0.000000e+00	0.000000e+00	0.000000e+00
-5.040000e+00	-4.970000e+00	0.000000e+00	0.000000e+00	0.000000e+00
-4.970000e+00	-4.900000e+00	0.000000e+00	0.000000e+00	0.000000e+00
-4.900000e+00	-4.830000e+00	0.000000e+00	0.000000e+00	0.000000e+00
-4.830000e+00	-4.760000e+00	0.000000e+00	0.000000e+00	0.000000e+00
-4.760000e+00	-4.690000e+00	0.000000e+00	0.000000e+00	0.000000e+00
-4.690000e+00	-4.620000e+00	0.000000e+00	0.000000e+00	0.000000e+00
-4.620000e+00	-4.550000e+00	0.000000e+00	0.000000e+00	0.000000e+00
-4.550000e+00	-4.480000e+00	0.000000e+00	0.000000e+00	0.000000e+00
-4.480000e+00	-4.410000e+00	0.000000e+00	0.000000e+00	0.000000e+00
-4.410000e+00	-4.340000e+00	0.000000e+00	0.000000e+00	0.000000e+00
-4.340000e+00	-4.270000e+00	0.000000e+00	0.000000e+00	0.000000e+00
-4.270000e+00	-4.200000e+00	0.000000e+00	0.000000e+00	0.000000e+00
-4.200000e+00	-4.130000e+00	0.000000e+00	0.000000e+00	0.000000e+00
-4.130000e+00	-4.060000e+00	0.000000e+00	0.000000e+00	0.000000e+00
-4.060000e+00	-3.990000e+00	0.000000e+00	0.000000e+00	0.000000e+00
-3.990000e+00	-3.920000e+00	0.000000e+00	0.000000e+00	0.000000e+00
-3.920000e+00	-3.850000e+00	0.000000e+00	0.000000e+00	0.000000e+00
-3.850000e+00	-3.780000e+00	0.000000e+00	0.000000e+00	0.000000e+00
-3.780000e+00	-3.710000e+00	0.000000e+00	0.000000e+00	0.000000e+00
-3.710000e+00	-3.640000e+00	0.000000e+00	0.000000e+00	0.000000e+00
-3.640000e+00	-3.570000e+00	0.000000e+00	0.000000e+00	0.000000e+00
-3.570000e+00	-3.500000e+00	0.000000e+00	0.000000e+00	0.000000e+00
-3.500000e+00	-3.430000e+00	0.000000e+00	0.000000e+00	0.000000e+00
-3.430000e+00	-3.360000e+00	0.000000e+00	0.000000e+00	0.000000e+00
-3.360000e+00	-3.290000e+00	0.000000e+00	0.000000e+00	0.000000e+00
-3.290000e+00	-3.220000e+00	0.000000e+00	0.000000e+00	0.000000e+00
-3.220000e+00	-3.150000e+00	0.000000e+00	0.000000e+00	0.000000e+00
-3.150000e+00	-3.080000e+00	0.000000e+00	0.000000e+00	0.000000e+00
-3.080000e+00	-3.010000e+00	0.000000e+00	0.000000e+00	0.000000e+00
-3.010000e+00	-2.940000e+00	0.000000e+00	0.000000e+00	0.000000e+00
-2.940000e+00	-2.870000e+00	0.000000e+00	0.000000e+00	0.000000e+00
-2.870000e+00	-2.800000e+00	2.857143e+01	2.020305e+01	2.020305e+01
-2.800000e+00	-2.730000e+00	0.000000e+00	0.000000e+00	0.000000e+00
-2.730000e+00	-2.660000e+00	0.000000e+00	0.000000e+00	0.000000e+00
-2.660000e+00	-2.590000e+00	2.857143e+01	2.020305e+01	2.020305e+01
-2.590000e+00	-2.520000e+00	0.000000e+00	0.000000e+00	0.000000e+00
-2.520000e+00	-2.450000e+00	2.857143e+01	2.020305e+01	2.020305e+01
-2.450000e+00	-2.380000e+00	1.428571e+01	1.428571e+01	1.428571e+01
-2.380000e+00	-2.310000e+00	5.714286e+01	2.857143e+01	2.857143e+01
-2.310000e+00	-2.240000e+00	4.285714e+01	2.474358e+01	2.474358e+01
-2.240000e+00	-2.170000e+00	1.571429e+02	4.738035e+01	4.738035e+01
-2.170000e+00	-2.100000e+00	1.428571e+02	4.517540e+01	4.517540e+01
-2.100000e+00	-2.030000e+00	4.142857e+02	7.693093e+01	7.693093e+01
-2.030000e+00	-1.960000e+00	6.285714e+02	9.476071e+01	9.476071e+01
-1.960000e+00	-1.890000e+00	1.185714e+03	1.301491e+02	1.301491e+02
-1.890000e+00	-1.820000e+00	2.085714e+03	1.726149e+02	1.726149e+02
-1.820000e+00	-1.750000e+00	3.685714e+03	2.294625e+02	2.294625e+02
-1.750000e+00	-1.680000e+00	7.728571e+03	3.322772e+02	3.322772e+02
-1.680000e+00	-1.610000e+00	1.428571e+04	4.517540e+02	4.517540e+02
-1.610000e+00	-1.540000e+00	2.782857e+04	6.305165e+02	6.305165e+02
-1.540000e+00	-1.470000e+00	5.740000e+04	9.055385e+02	9.055385e+02
-1.470000e+00	-1.400000e+00	1.110714e+05	1.259657e+03	1.259657e+03
-1.400000e+00	-1.330000e+00	1.927286e+05	1.659297e+03	1.659297e+03
-1.330000e+00	-1.260000e+00	3.239571e+05	2.151269e+03	2.151269e+03
-1.260000e+00	-1.190000e+00	4.795429e+05	2.617367e+03	2.617367e+03
-1.190000e+00	-1.120000e+00	6.861286e+05	3.130789e+03	3.130789e+03
-1.120000e+00	-1.050000e+00	9.657000e+05	3.714258e+03	3.714258e+03
-1.050000e+00	-9.800000e-01	1.298686e+06	4.307279e+03	4.307279e+03
-9.800000e-01	-9.100000e-01	1.542757e+06	4.694613e+03	4.694613e+03
-9.100000e-01	-8.400000e-01	1.716357e+06	4.951706e+03	4.951706e+03
-8.400000e-01	-7.700000e-01	1.860229e+06	5.155065e+03	5.155065e+03
-7.700000e-01	-7.000000e-01	1.913843e+06	5.228825e+03	5.228825e+03
-7.000000e-01	-6.300000e-01	1.900129e+06	5.210057e+03	5.210057e+03
-6.300000e-01	-5.600000e-01	1.781400e+06	5.044658e+03	5.044658e+03
-5.600000e-01	-4.900000e-01	1.579243e+06	4.749801e+03	4.749801e+03
-4.900000e-01	-4.200000e-01	1.278729e+06	4.274056e+03	4.274056e+03
-4.200000e-01	-3.500000e-01	8.767857e+05	3.539140e+03	3.539140e+03
-3.500000e-01	-2.800000e-01	3.902714e+05	2.361209e+03	2.361209e+03
-2.800000e-01	-2.100000e-01	1.043857e+05	1.221157e+03	1.221157e+03
-2.100000e-01	-1.400000e-01	9.814286e+03	3.744384e+02	3.744384e+02
-1.400000e-01	-7.000000e-02	1.142857e+02	4.040610e+01	4.040610e+01
-7.000000e-02	0.000000e+00	0.000000e+00	0.000000e+00	0.000000e+00
# END HISTO1D

