# BEGIN PLOT
LegendOnly=/pythia_ps_pt50_s1_1e3.yoda/PAPER_FIN_R4/ch_l10_pT_150_186
DrawOnly=/pythia_ps_pt50_s1_1e3.yoda/PAPER_FIN_R4/ch_l10_pT_150_186
Legend=1
LogY=1
# END PLOT

# BEGIN HISTO1D /pythia_ps_pt50_s1_1e3.yoda/PAPER_FIN_R4/ch_l10_pT_150_186
LineColor=red
LineStyle=solid
Path=/pythia_ps_pt50_s1_1e3.yoda/PAPER_FIN_R4/ch_l10_pT_150_186
Title=pythia_ps_pt50_s1_1e3
XLabel=~
YLabel=~
# xlow	 xhigh	 val	 errminus	 errplus
-7.000000e+00	-6.930000e+00	0.000000e+00	0.000000e+00	0.000000e+00
-6.930000e+00	-6.860000e+00	2.003264e+07	1.691687e+04	1.691687e+04
-6.860000e+00	-6.790000e+00	0.000000e+00	0.000000e+00	0.000000e+00
-6.790000e+00	-6.720000e+00	0.000000e+00	0.000000e+00	0.000000e+00
-6.720000e+00	-6.650000e+00	0.000000e+00	0.000000e+00	0.000000e+00
-6.650000e+00	-6.580000e+00	0.000000e+00	0.000000e+00	0.000000e+00
-6.580000e+00	-6.510000e+00	0.000000e+00	0.000000e+00	0.000000e+00
-6.510000e+00	-6.440000e+00	0.000000e+00	0.000000e+00	0.000000e+00
-6.440000e+00	-6.370000e+00	0.000000e+00	0.000000e+00	0.000000e+00
-6.370000e+00	-6.300000e+00	0.000000e+00	0.000000e+00	0.000000e+00
-6.300000e+00	-6.230000e+00	0.000000e+00	0.000000e+00	0.000000e+00
-6.230000e+00	-6.160000e+00	0.000000e+00	0.000000e+00	0.000000e+00
-6.160000e+00	-6.090000e+00	0.000000e+00	0.000000e+00	0.000000e+00
-6.090000e+00	-6.020000e+00	0.000000e+00	0.000000e+00	0.000000e+00
-6.020000e+00	-5.950000e+00	0.000000e+00	0.000000e+00	0.000000e+00
-5.950000e+00	-5.880000e+00	0.000000e+00	0.000000e+00	0.000000e+00
-5.880000e+00	-5.810000e+00	1.428571e+01	1.428571e+01	1.428571e+01
-5.810000e+00	-5.740000e+00	0.000000e+00	0.000000e+00	0.000000e+00
-5.740000e+00	-5.670000e+00	0.000000e+00	0.000000e+00	0.000000e+00
-5.670000e+00	-5.600000e+00	0.000000e+00	0.000000e+00	0.000000e+00
-5.600000e+00	-5.530000e+00	0.000000e+00	0.000000e+00	0.000000e+00
-5.530000e+00	-5.460000e+00	0.000000e+00	0.000000e+00	0.000000e+00
-5.460000e+00	-5.390000e+00	0.000000e+00	0.000000e+00	0.000000e+00
-5.390000e+00	-5.320000e+00	0.000000e+00	0.000000e+00	0.000000e+00
-5.320000e+00	-5.250000e+00	0.000000e+00	0.000000e+00	0.000000e+00
-5.250000e+00	-5.180000e+00	0.000000e+00	0.000000e+00	0.000000e+00
-5.180000e+00	-5.110000e+00	1.428571e+01	1.428571e+01	1.428571e+01
-5.110000e+00	-5.040000e+00	0.000000e+00	0.000000e+00	0.000000e+00
-5.040000e+00	-4.970000e+00	0.000000e+00	0.000000e+00	0.000000e+00
-4.970000e+00	-4.900000e+00	0.000000e+00	0.000000e+00	0.000000e+00
-4.900000e+00	-4.830000e+00	0.000000e+00	0.000000e+00	0.000000e+00
-4.830000e+00	-4.760000e+00	0.000000e+00	0.000000e+00	0.000000e+00
-4.760000e+00	-4.690000e+00	1.428571e+01	1.428571e+01	1.428571e+01
-4.690000e+00	-4.620000e+00	0.000000e+00	0.000000e+00	0.000000e+00
-4.620000e+00	-4.550000e+00	2.857143e+01	2.020305e+01	2.020305e+01
-4.550000e+00	-4.480000e+00	1.428571e+01	1.428571e+01	1.428571e+01
-4.480000e+00	-4.410000e+00	7.142857e+01	3.194383e+01	3.194383e+01
-4.410000e+00	-4.340000e+00	0.000000e+00	0.000000e+00	0.000000e+00
-4.340000e+00	-4.270000e+00	2.857143e+01	2.020305e+01	2.020305e+01
-4.270000e+00	-4.200000e+00	4.285714e+01	2.474358e+01	2.474358e+01
-4.200000e+00	-4.130000e+00	4.285714e+01	2.474358e+01	2.474358e+01
-4.130000e+00	-4.060000e+00	1.428571e+02	4.517540e+01	4.517540e+01
-4.060000e+00	-3.990000e+00	1.285714e+02	4.285714e+01	4.285714e+01
-3.990000e+00	-3.920000e+00	1.142857e+02	4.040610e+01	4.040610e+01
-3.920000e+00	-3.850000e+00	1.142857e+02	4.040610e+01	4.040610e+01
-3.850000e+00	-3.780000e+00	3.714286e+02	7.284314e+01	7.284314e+01
-3.780000e+00	-3.710000e+00	2.428571e+02	5.890151e+01	5.890151e+01
-3.710000e+00	-3.640000e+00	5.285714e+02	8.689661e+01	8.689661e+01
-3.640000e+00	-3.570000e+00	7.285714e+02	1.020204e+02	1.020204e+02
-3.570000e+00	-3.500000e+00	7.142857e+02	1.010153e+02	1.010153e+02
-3.500000e+00	-3.430000e+00	1.271429e+03	1.347712e+02	1.347712e+02
-3.430000e+00	-3.360000e+00	1.442857e+03	1.435697e+02	1.435697e+02
-3.360000e+00	-3.290000e+00	2.142857e+03	1.749636e+02	1.749636e+02
-3.290000e+00	-3.220000e+00	2.242857e+03	1.789995e+02	1.789995e+02
-3.220000e+00	-3.150000e+00	2.842857e+03	2.015248e+02	2.015248e+02
-3.150000e+00	-3.080000e+00	3.657143e+03	2.285714e+02	2.285714e+02
-3.080000e+00	-3.010000e+00	4.814286e+03	2.622509e+02	2.622509e+02
-3.010000e+00	-2.940000e+00	5.757143e+03	2.867837e+02	2.867837e+02
-2.940000e+00	-2.870000e+00	8.100000e+03	3.401680e+02	3.401680e+02
-2.870000e+00	-2.800000e+00	1.018571e+04	3.814580e+02	3.814580e+02
-2.800000e+00	-2.730000e+00	1.271429e+04	4.261838e+02	4.261838e+02
-2.730000e+00	-2.660000e+00	1.475714e+04	4.591474e+02	4.591474e+02
-2.660000e+00	-2.590000e+00	1.791429e+04	5.058837e+02	5.058837e+02
-2.590000e+00	-2.520000e+00	2.381429e+04	5.832702e+02	5.832702e+02
-2.520000e+00	-2.450000e+00	2.960000e+04	6.502747e+02	6.502747e+02
-2.450000e+00	-2.380000e+00	3.342857e+04	6.910507e+02	6.910507e+02
-2.380000e+00	-2.310000e+00	4.120000e+04	7.671841e+02	7.671841e+02
-2.310000e+00	-2.240000e+00	5.112857e+04	8.546392e+02	8.546392e+02
-2.240000e+00	-2.170000e+00	6.372857e+04	9.541531e+02	9.541531e+02
-2.170000e+00	-2.100000e+00	7.484286e+04	1.034013e+03	1.034013e+03
-2.100000e+00	-2.030000e+00	8.902857e+04	1.127757e+03	1.127757e+03
-2.030000e+00	-1.960000e+00	1.089429e+05	1.247528e+03	1.247528e+03
-1.960000e+00	-1.890000e+00	1.361429e+05	1.394596e+03	1.394596e+03
-1.890000e+00	-1.820000e+00	1.734286e+05	1.574024e+03	1.574024e+03
-1.820000e+00	-1.750000e+00	2.229571e+05	1.784685e+03	1.784685e+03
-1.750000e+00	-1.680000e+00	2.690000e+05	1.960321e+03	1.960321e+03
-1.680000e+00	-1.610000e+00	3.172000e+05	2.128715e+03	2.128715e+03
-1.610000e+00	-1.540000e+00	3.590286e+05	2.264725e+03	2.264725e+03
-1.540000e+00	-1.470000e+00	3.936429e+05	2.371386e+03	2.371386e+03
-1.470000e+00	-1.400000e+00	4.257714e+05	2.466262e+03	2.466262e+03
-1.400000e+00	-1.330000e+00	4.440143e+05	2.518543e+03	2.518543e+03
-1.330000e+00	-1.260000e+00	4.564857e+05	2.553669e+03	2.553669e+03
-1.260000e+00	-1.190000e+00	4.643286e+05	2.575513e+03	2.575513e+03
-1.190000e+00	-1.120000e+00	4.660429e+05	2.580263e+03	2.580263e+03
-1.120000e+00	-1.050000e+00	4.596429e+05	2.562484e+03	2.562484e+03
-1.050000e+00	-9.800000e-01	4.523429e+05	2.542054e+03	2.542054e+03
-9.800000e-01	-9.100000e-01	4.347286e+05	2.492069e+03	2.492069e+03
-9.100000e-01	-8.400000e-01	4.156000e+05	2.436625e+03	2.436625e+03
-8.400000e-01	-7.700000e-01	3.833429e+05	2.340155e+03	2.340155e+03
-7.700000e-01	-7.000000e-01	3.494000e+05	2.234151e+03	2.234151e+03
-7.000000e-01	-6.300000e-01	3.122429e+05	2.112016e+03	2.112016e+03
-6.300000e-01	-5.600000e-01	2.690571e+05	1.960529e+03	1.960529e+03
-5.600000e-01	-4.900000e-01	2.148714e+05	1.752025e+03	1.752025e+03
-4.900000e-01	-4.200000e-01	1.588286e+05	1.506313e+03	1.506313e+03
-4.200000e-01	-3.500000e-01	9.740000e+04	1.179588e+03	1.179588e+03
-3.500000e-01	-2.800000e-01	3.670000e+04	7.240758e+02	7.240758e+02
-2.800000e-01	-2.100000e-01	8.014286e+03	3.383634e+02	3.383634e+02
-2.100000e-01	-1.400000e-01	5.714286e+02	9.035079e+01	9.035079e+01
-1.400000e-01	-7.000000e-02	4.285714e+01	2.474358e+01	2.474358e+01
-7.000000e-02	0.000000e+00	0.000000e+00	0.000000e+00	0.000000e+00
# END HISTO1D

