# BEGIN PLOT
LegendOnly=/pythia_ps_pt50_s1_1e3.yoda/PAPER_FIN_R4/lin_SD_l05_pT_65_88
DrawOnly=/pythia_ps_pt50_s1_1e3.yoda/PAPER_FIN_R4/lin_SD_l05_pT_65_88
Legend=1
LogY=1
# END PLOT

# BEGIN HISTO1D /pythia_ps_pt50_s1_1e3.yoda/PAPER_FIN_R4/lin_SD_l05_pT_65_88
LineColor=red
LineStyle=solid
Path=/pythia_ps_pt50_s1_1e3.yoda/PAPER_FIN_R4/lin_SD_l05_pT_65_88
Title=pythia_ps_pt50_s1_1e3
XLabel=~
YLabel=~
# xlow	 xhigh	 val	 errminus	 errplus
0.000000e+00	1.000000e-01	5.391159e+07	2.321887e+04	2.321887e+04
1.000000e-01	1.800000e-01	3.449598e+07	2.076535e+04	2.076535e+04
1.800000e-01	2.600000e-01	2.636176e+07	1.815274e+04	1.815274e+04
2.600000e-01	3.400000e-01	1.868762e+07	1.528383e+04	1.528383e+04
3.400000e-01	4.200000e-01	1.229886e+07	1.239902e+04	1.239902e+04
4.200000e-01	5.000000e-01	7.256375e+06	9.523901e+03	9.523901e+03
5.000000e-01	5.700000e-01	3.707800e+06	7.277951e+03	7.277951e+03
5.700000e-01	6.400000e-01	1.519371e+06	4.658895e+03	4.658895e+03
6.400000e-01	1.000000e+00	8.578889e+04	4.881623e+02	4.881623e+02
# END HISTO1D

