# BEGIN PLOT
LegendOnly=/zj_ps_nlo_mer_mur1_muf0.5_R8.yoda/PAPER_FIN_R8_CH/lin_l05_pT_254_326
DrawOnly=/zj_ps_nlo_mer_mur1_muf0.5_R8.yoda/PAPER_FIN_R8_CH/lin_l05_pT_254_326
Legend=1
LogY=1
# END PLOT

# BEGIN HISTO1D /zj_ps_nlo_mer_mur1_muf0.5_R8.yoda/PAPER_FIN_R8_CH/lin_l05_pT_254_326
LineColor=red
LineStyle=solid
Path=/zj_ps_nlo_mer_mur1_muf0.5_R8.yoda/PAPER_FIN_R8_CH/lin_l05_pT_254_326
Title=zj_ps_nlo_mer_mur1_muf0.5_R8
XLabel=~
YLabel=~
# xlow	 xhigh	 val	 errminus	 errplus
0.000000e+00	6.000000e-02	5.685803e+09	1.099708e+08	1.099708e+08
6.000000e-02	1.100000e-01	6.094462e+09	1.754226e+08	1.754226e+08
1.100000e-01	1.500000e-01	5.221803e+09	1.060692e+08	1.060692e+08
1.500000e-01	1.900000e-01	4.343917e+09	1.535557e+08	1.535557e+08
1.900000e-01	2.300000e-01	3.546037e+09	8.324448e+07	8.324448e+07
2.300000e-01	2.700000e-01	2.899332e+09	1.134606e+08	1.134606e+08
2.700000e-01	3.100000e-01	2.897830e+09	4.153465e+08	4.153465e+08
3.100000e-01	3.500000e-01	1.844055e+09	6.789211e+07	6.789211e+07
3.500000e-01	3.900000e-01	1.592405e+09	7.424927e+07	7.424927e+07
3.900000e-01	4.400000e-01	1.233411e+09	4.075054e+07	4.075054e+07
4.400000e-01	4.900000e-01	8.236796e+08	3.103692e+07	3.103692e+07
4.900000e-01	5.400000e-01	5.329016e+08	2.859137e+07	2.859137e+07
5.400000e-01	6.000000e-01	2.385150e+08	1.647862e+07	1.647862e+07
6.000000e-01	1.000000e+00	1.454802e+07	1.299253e+06	1.299253e+06
# END HISTO1D

