# BEGIN PLOT
LegendOnly=/zj_ps_nlo_mer_mur1_muf0.5_R8.yoda/PAPER_FIN_R8/SD_l05_pT_120_150
DrawOnly=/zj_ps_nlo_mer_mur1_muf0.5_R8.yoda/PAPER_FIN_R8/SD_l05_pT_120_150
Legend=1
LogY=1
# END PLOT

# BEGIN HISTO1D /zj_ps_nlo_mer_mur1_muf0.5_R8.yoda/PAPER_FIN_R8/SD_l05_pT_120_150
LineColor=red
LineStyle=solid
Path=/zj_ps_nlo_mer_mur1_muf0.5_R8.yoda/PAPER_FIN_R8/SD_l05_pT_120_150
Title=zj_ps_nlo_mer_mur1_muf0.5_R8
XLabel=~
YLabel=~
# xlow	 xhigh	 val	 errminus	 errplus
-7.000000e+00	-6.930000e+00	0.000000e+00	0.000000e+00	0.000000e+00
-6.930000e+00	-6.860000e+00	3.437089e+10	1.440652e+09	1.440652e+09
-6.860000e+00	-6.790000e+00	0.000000e+00	0.000000e+00	0.000000e+00
-6.790000e+00	-6.720000e+00	0.000000e+00	0.000000e+00	0.000000e+00
-6.720000e+00	-6.650000e+00	0.000000e+00	0.000000e+00	0.000000e+00
-6.650000e+00	-6.580000e+00	0.000000e+00	0.000000e+00	0.000000e+00
-6.580000e+00	-6.510000e+00	0.000000e+00	0.000000e+00	0.000000e+00
-6.510000e+00	-6.440000e+00	0.000000e+00	0.000000e+00	0.000000e+00
-6.440000e+00	-6.370000e+00	0.000000e+00	0.000000e+00	0.000000e+00
-6.370000e+00	-6.300000e+00	0.000000e+00	0.000000e+00	0.000000e+00
-6.300000e+00	-6.230000e+00	0.000000e+00	0.000000e+00	0.000000e+00
-6.230000e+00	-6.160000e+00	0.000000e+00	0.000000e+00	0.000000e+00
-6.160000e+00	-6.090000e+00	0.000000e+00	0.000000e+00	0.000000e+00
-6.090000e+00	-6.020000e+00	0.000000e+00	0.000000e+00	0.000000e+00
-6.020000e+00	-5.950000e+00	0.000000e+00	0.000000e+00	0.000000e+00
-5.950000e+00	-5.880000e+00	0.000000e+00	0.000000e+00	0.000000e+00
-5.880000e+00	-5.810000e+00	0.000000e+00	0.000000e+00	0.000000e+00
-5.810000e+00	-5.740000e+00	0.000000e+00	0.000000e+00	0.000000e+00
-5.740000e+00	-5.670000e+00	0.000000e+00	0.000000e+00	0.000000e+00
-5.670000e+00	-5.600000e+00	0.000000e+00	0.000000e+00	0.000000e+00
-5.600000e+00	-5.530000e+00	0.000000e+00	0.000000e+00	0.000000e+00
-5.530000e+00	-5.460000e+00	0.000000e+00	0.000000e+00	0.000000e+00
-5.460000e+00	-5.390000e+00	0.000000e+00	0.000000e+00	0.000000e+00
-5.390000e+00	-5.320000e+00	0.000000e+00	0.000000e+00	0.000000e+00
-5.320000e+00	-5.250000e+00	0.000000e+00	0.000000e+00	0.000000e+00
-5.250000e+00	-5.180000e+00	0.000000e+00	0.000000e+00	0.000000e+00
-5.180000e+00	-5.110000e+00	0.000000e+00	0.000000e+00	0.000000e+00
-5.110000e+00	-5.040000e+00	0.000000e+00	0.000000e+00	0.000000e+00
-5.040000e+00	-4.970000e+00	0.000000e+00	0.000000e+00	0.000000e+00
-4.970000e+00	-4.900000e+00	0.000000e+00	0.000000e+00	0.000000e+00
-4.900000e+00	-4.830000e+00	0.000000e+00	0.000000e+00	0.000000e+00
-4.830000e+00	-4.760000e+00	0.000000e+00	0.000000e+00	0.000000e+00
-4.760000e+00	-4.690000e+00	0.000000e+00	0.000000e+00	0.000000e+00
-4.690000e+00	-4.620000e+00	0.000000e+00	0.000000e+00	0.000000e+00
-4.620000e+00	-4.550000e+00	0.000000e+00	0.000000e+00	0.000000e+00
-4.550000e+00	-4.480000e+00	0.000000e+00	0.000000e+00	0.000000e+00
-4.480000e+00	-4.410000e+00	0.000000e+00	0.000000e+00	0.000000e+00
-4.410000e+00	-4.340000e+00	0.000000e+00	0.000000e+00	0.000000e+00
-4.340000e+00	-4.270000e+00	0.000000e+00	0.000000e+00	0.000000e+00
-4.270000e+00	-4.200000e+00	0.000000e+00	0.000000e+00	0.000000e+00
-4.200000e+00	-4.130000e+00	0.000000e+00	0.000000e+00	0.000000e+00
-4.130000e+00	-4.060000e+00	0.000000e+00	0.000000e+00	0.000000e+00
-4.060000e+00	-3.990000e+00	0.000000e+00	0.000000e+00	0.000000e+00
-3.990000e+00	-3.920000e+00	0.000000e+00	0.000000e+00	0.000000e+00
-3.920000e+00	-3.850000e+00	0.000000e+00	0.000000e+00	0.000000e+00
-3.850000e+00	-3.780000e+00	0.000000e+00	0.000000e+00	0.000000e+00
-3.780000e+00	-3.710000e+00	0.000000e+00	0.000000e+00	0.000000e+00
-3.710000e+00	-3.640000e+00	0.000000e+00	0.000000e+00	0.000000e+00
-3.640000e+00	-3.570000e+00	0.000000e+00	0.000000e+00	0.000000e+00
-3.570000e+00	-3.500000e+00	0.000000e+00	0.000000e+00	0.000000e+00
-3.500000e+00	-3.430000e+00	0.000000e+00	0.000000e+00	0.000000e+00
-3.430000e+00	-3.360000e+00	0.000000e+00	0.000000e+00	0.000000e+00
-3.360000e+00	-3.290000e+00	0.000000e+00	0.000000e+00	0.000000e+00
-3.290000e+00	-3.220000e+00	0.000000e+00	0.000000e+00	0.000000e+00
-3.220000e+00	-3.150000e+00	0.000000e+00	0.000000e+00	0.000000e+00
-3.150000e+00	-3.080000e+00	0.000000e+00	0.000000e+00	0.000000e+00
-3.080000e+00	-3.010000e+00	-1.392479e+01	1.392479e+01	1.392479e+01
-3.010000e+00	-2.940000e+00	0.000000e+00	0.000000e+00	0.000000e+00
-2.940000e+00	-2.870000e+00	0.000000e+00	0.000000e+00	0.000000e+00
-2.870000e+00	-2.800000e+00	-1.637970e+01	1.604586e+01	1.604586e+01
-2.800000e+00	-2.730000e+00	2.688401e+04	2.688021e+04	2.688021e+04
-2.730000e+00	-2.660000e+00	-2.721129e+02	2.517251e+02	2.517251e+02
-2.660000e+00	-2.590000e+00	1.254039e+02	1.444443e+02	1.444443e+02
-2.590000e+00	-2.520000e+00	-8.098797e+01	1.352571e+02	1.352571e+02
-2.520000e+00	-2.450000e+00	-1.104177e+04	1.273463e+04	1.273463e+04
-2.450000e+00	-2.380000e+00	-7.252849e+06	7.263566e+06	7.263566e+06
-2.380000e+00	-2.310000e+00	9.072193e+06	7.487579e+06	7.487579e+06
-2.310000e+00	-2.240000e+00	4.443331e+06	2.998388e+06	2.998388e+06
-2.240000e+00	-2.170000e+00	2.139630e+06	4.100878e+06	4.100878e+06
-2.170000e+00	-2.100000e+00	3.807777e+06	2.161648e+06	2.161648e+06
-2.100000e+00	-2.030000e+00	1.748517e+07	8.254574e+06	8.254574e+06
-2.030000e+00	-1.960000e+00	1.259770e+07	7.304705e+06	7.304705e+06
-1.960000e+00	-1.890000e+00	1.230092e+07	4.906318e+06	4.906318e+06
-1.890000e+00	-1.820000e+00	3.835057e+07	1.675032e+07	1.675032e+07
-1.820000e+00	-1.750000e+00	-9.059577e+06	4.473167e+07	4.473167e+07
-1.750000e+00	-1.680000e+00	-2.442786e+08	2.938680e+08	2.938680e+08
-1.680000e+00	-1.610000e+00	1.191336e+08	2.243362e+07	2.243362e+07
-1.610000e+00	-1.540000e+00	2.991500e+08	2.053335e+07	2.053335e+07
-1.540000e+00	-1.470000e+00	5.605759e+08	3.902969e+07	3.902969e+07
-1.470000e+00	-1.400000e+00	1.475241e+09	5.878019e+07	5.878019e+07
-1.400000e+00	-1.330000e+00	2.952551e+09	2.582268e+08	2.582268e+08
-1.330000e+00	-1.260000e+00	3.518127e+09	1.302768e+08	1.302768e+08
-1.260000e+00	-1.190000e+00	4.517431e+09	1.085477e+08	1.085477e+08
-1.190000e+00	-1.120000e+00	5.092350e+09	1.872483e+08	1.872483e+08
-1.120000e+00	-1.050000e+00	5.691716e+09	3.211120e+08	3.211120e+08
-1.050000e+00	-9.800000e-01	6.026980e+09	1.247257e+08	1.247257e+08
-9.800000e-01	-9.100000e-01	6.495130e+09	1.349614e+08	1.349614e+08
-9.100000e-01	-8.400000e-01	7.034670e+09	5.357272e+08	5.357272e+08
-8.400000e-01	-7.700000e-01	7.903776e+09	2.086054e+08	2.086054e+08
-7.700000e-01	-7.000000e-01	7.974051e+09	1.944785e+08	1.944785e+08
-7.000000e-01	-6.300000e-01	8.115061e+09	1.407025e+08	1.407025e+08
-6.300000e-01	-5.600000e-01	8.047090e+09	1.384920e+08	1.384920e+08
-5.600000e-01	-4.900000e-01	7.969863e+09	1.818481e+08	1.818481e+08
-4.900000e-01	-4.200000e-01	7.064830e+09	1.314866e+08	1.314866e+08
-4.200000e-01	-3.500000e-01	6.260709e+09	1.301084e+08	1.301084e+08
-3.500000e-01	-2.800000e-01	4.225643e+09	8.719754e+07	8.719754e+07
-2.800000e-01	-2.100000e-01	2.020029e+09	5.953416e+07	5.953416e+07
-2.100000e-01	-1.400000e-01	3.624093e+08	2.146266e+07	2.146266e+07
-1.400000e-01	-7.000000e-02	2.016389e+07	4.539469e+06	4.539469e+06
-7.000000e-02	0.000000e+00	8.776757e+03	8.291067e+03	8.291067e+03
# END HISTO1D

