# BEGIN PLOT
LegendOnly=/zj_ps_nlo_mer_mur0.5_muf0.5_R4.yoda/PAPER_FIN_R4/ch_l20_pT_186_254
DrawOnly=/zj_ps_nlo_mer_mur0.5_muf0.5_R4.yoda/PAPER_FIN_R4/ch_l20_pT_186_254
Legend=1
LogY=1
# END PLOT

# BEGIN HISTO1D /zj_ps_nlo_mer_mur0.5_muf0.5_R4.yoda/PAPER_FIN_R4/ch_l20_pT_186_254
LineColor=red
LineStyle=solid
Path=/zj_ps_nlo_mer_mur0.5_muf0.5_R4.yoda/PAPER_FIN_R4/ch_l20_pT_186_254
Title=zj_ps_nlo_mer_mur0.5_muf0.5_R4
XLabel=~
YLabel=~
# xlow	 xhigh	 val	 errminus	 errplus
-7.000000e+00	-6.930000e+00	0.000000e+00	0.000000e+00	0.000000e+00
-6.930000e+00	-6.860000e+00	4.897590e+07	9.985697e+06	9.985697e+06
-6.860000e+00	-6.790000e+00	0.000000e+00	0.000000e+00	0.000000e+00
-6.790000e+00	-6.720000e+00	0.000000e+00	0.000000e+00	0.000000e+00
-6.720000e+00	-6.650000e+00	2.237529e+04	2.230863e+04	2.230863e+04
-6.650000e+00	-6.580000e+00	8.151676e+02	8.151676e+02	8.151676e+02
-6.580000e+00	-6.510000e+00	0.000000e+00	0.000000e+00	0.000000e+00
-6.510000e+00	-6.440000e+00	1.222499e+04	1.219894e+04	1.219894e+04
-6.440000e+00	-6.370000e+00	-2.183136e+03	3.215778e+03	3.215778e+03
-6.370000e+00	-6.300000e+00	2.603639e+01	2.480029e+01	2.480029e+01
-6.300000e+00	-6.230000e+00	9.777453e+02	1.021759e+03	1.021759e+03
-6.230000e+00	-6.160000e+00	-3.851707e+03	3.509210e+03	3.509210e+03
-6.160000e+00	-6.090000e+00	2.278631e+04	2.152143e+04	2.152143e+04
-6.090000e+00	-6.020000e+00	-6.864877e+04	9.649431e+04	9.649431e+04
-6.020000e+00	-5.950000e+00	2.547383e+04	2.222128e+04	2.222128e+04
-5.950000e+00	-5.880000e+00	9.871506e+03	8.389098e+03	8.389098e+03
-5.880000e+00	-5.810000e+00	-4.840770e+05	4.050461e+05	4.050461e+05
-5.810000e+00	-5.740000e+00	3.716720e+03	1.383446e+04	1.383446e+04
-5.740000e+00	-5.670000e+00	1.144413e+04	6.411221e+03	6.411221e+03
-5.670000e+00	-5.600000e+00	2.230989e+06	1.631009e+06	1.631009e+06
-5.600000e+00	-5.530000e+00	4.245276e+05	2.954049e+05	2.954049e+05
-5.530000e+00	-5.460000e+00	-6.020417e+04	5.974715e+04	5.974715e+04
-5.460000e+00	-5.390000e+00	-9.812521e+03	4.994948e+05	4.994948e+05
-5.390000e+00	-5.320000e+00	1.257732e+06	1.072779e+06	1.072779e+06
-5.320000e+00	-5.250000e+00	-5.455679e+06	5.349455e+06	5.349455e+06
-5.250000e+00	-5.180000e+00	-4.609474e+04	1.265253e+05	1.265253e+05
-5.180000e+00	-5.110000e+00	8.074796e+05	6.484072e+05	6.484072e+05
-5.110000e+00	-5.040000e+00	1.276253e+06	1.279412e+06	1.279412e+06
-5.040000e+00	-4.970000e+00	-2.873069e+05	9.744050e+05	9.744050e+05
-4.970000e+00	-4.900000e+00	1.624810e+06	1.223267e+06	1.223267e+06
-4.900000e+00	-4.830000e+00	2.492543e+05	8.200543e+05	8.200543e+05
-4.830000e+00	-4.760000e+00	6.204797e+05	4.129198e+05	4.129198e+05
-4.760000e+00	-4.690000e+00	2.171136e+05	4.784697e+06	4.784697e+06
-4.690000e+00	-4.620000e+00	1.391557e+06	1.061125e+06	1.061125e+06
-4.620000e+00	-4.550000e+00	4.312371e+05	1.556382e+06	1.556382e+06
-4.550000e+00	-4.480000e+00	-5.890716e+06	9.492896e+06	9.492896e+06
-4.480000e+00	-4.410000e+00	-6.964441e+06	8.261346e+06	8.261346e+06
-4.410000e+00	-4.340000e+00	2.615059e+05	8.823591e+05	8.823591e+05
-4.340000e+00	-4.270000e+00	3.402023e+05	9.054662e+05	9.054662e+05
-4.270000e+00	-4.200000e+00	3.035773e+06	1.683661e+06	1.683661e+06
-4.200000e+00	-4.130000e+00	-3.442851e+06	6.527937e+06	6.527937e+06
-4.130000e+00	-4.060000e+00	4.201430e+06	2.058773e+06	2.058773e+06
-4.060000e+00	-3.990000e+00	-1.869946e+06	7.291880e+06	7.291880e+06
-3.990000e+00	-3.920000e+00	5.929809e+06	2.567002e+06	2.567002e+06
-3.920000e+00	-3.850000e+00	1.117658e+07	3.184609e+06	3.184609e+06
-3.850000e+00	-3.780000e+00	8.943164e+06	9.040751e+06	9.040751e+06
-3.780000e+00	-3.710000e+00	7.210167e+06	3.270056e+06	3.270056e+06
-3.710000e+00	-3.640000e+00	6.091007e+06	9.193442e+06	9.193442e+06
-3.640000e+00	-3.570000e+00	2.180133e+07	5.104086e+06	5.104086e+06
-3.570000e+00	-3.500000e+00	3.385363e+06	8.401292e+06	8.401292e+06
-3.500000e+00	-3.430000e+00	2.720501e+07	5.911103e+06	5.911103e+06
-3.430000e+00	-3.360000e+00	1.043586e+07	8.407593e+06	8.407593e+06
-3.360000e+00	-3.290000e+00	2.502481e+07	5.481496e+06	5.481496e+06
-3.290000e+00	-3.220000e+00	3.241921e+07	9.794959e+06	9.794959e+06
-3.220000e+00	-3.150000e+00	4.184461e+07	9.653339e+06	9.653339e+06
-3.150000e+00	-3.080000e+00	6.099636e+07	1.283480e+07	1.283480e+07
-3.080000e+00	-3.010000e+00	4.911949e+07	1.359186e+07	1.359186e+07
-3.010000e+00	-2.940000e+00	7.413939e+07	1.305845e+07	1.305845e+07
-2.940000e+00	-2.870000e+00	6.528799e+07	2.137244e+07	2.137244e+07
-2.870000e+00	-2.800000e+00	1.002226e+08	1.484980e+07	1.484980e+07
-2.800000e+00	-2.730000e+00	1.320622e+08	2.220054e+07	2.220054e+07
-2.730000e+00	-2.660000e+00	1.791431e+08	2.597557e+07	2.597557e+07
-2.660000e+00	-2.590000e+00	2.431824e+08	3.882123e+07	3.882123e+07
-2.590000e+00	-2.520000e+00	2.442089e+08	5.645721e+07	5.645721e+07
-2.520000e+00	-2.450000e+00	4.151656e+08	4.081469e+07	4.081469e+07
-2.450000e+00	-2.380000e+00	4.501994e+08	6.860664e+07	6.860664e+07
-2.380000e+00	-2.310000e+00	6.076809e+08	4.368010e+07	4.368010e+07
-2.310000e+00	-2.240000e+00	7.823443e+08	6.688670e+07	6.688670e+07
-2.240000e+00	-2.170000e+00	9.816420e+08	6.528950e+07	6.528950e+07
-2.170000e+00	-2.100000e+00	1.250342e+09	6.193827e+07	6.193827e+07
-2.100000e+00	-2.030000e+00	1.500420e+09	7.577115e+07	7.577115e+07
-2.030000e+00	-1.960000e+00	1.792657e+09	8.827878e+07	8.827878e+07
-1.960000e+00	-1.890000e+00	2.014090e+09	1.485148e+08	1.485148e+08
-1.890000e+00	-1.820000e+00	2.487570e+09	1.147190e+08	1.147190e+08
-1.820000e+00	-1.750000e+00	2.272719e+09	1.464373e+08	1.464373e+08
-1.750000e+00	-1.680000e+00	2.544369e+09	1.169051e+08	1.169051e+08
-1.680000e+00	-1.610000e+00	2.820911e+09	1.264881e+08	1.264881e+08
-1.610000e+00	-1.540000e+00	2.959317e+09	1.066439e+08	1.066439e+08
-1.540000e+00	-1.470000e+00	2.870856e+09	1.055650e+08	1.055650e+08
-1.470000e+00	-1.400000e+00	2.923231e+09	9.635695e+07	9.635695e+07
-1.400000e+00	-1.330000e+00	2.663386e+09	1.211355e+08	1.211355e+08
-1.330000e+00	-1.260000e+00	2.631409e+09	8.545462e+07	8.545462e+07
-1.260000e+00	-1.190000e+00	2.518009e+09	8.935727e+07	8.935727e+07
-1.190000e+00	-1.120000e+00	2.267464e+09	1.234723e+08	1.234723e+08
-1.120000e+00	-1.050000e+00	2.041457e+09	1.252799e+08	1.252799e+08
-1.050000e+00	-9.800000e-01	1.880891e+09	8.907729e+07	8.907729e+07
-9.800000e-01	-9.100000e-01	1.556970e+09	6.499364e+07	6.499364e+07
-9.100000e-01	-8.400000e-01	1.439200e+09	5.111402e+07	5.111402e+07
-8.400000e-01	-7.700000e-01	1.100108e+09	1.056550e+08	1.056550e+08
-7.700000e-01	-7.000000e-01	9.866883e+08	6.196090e+07	6.196090e+07
-7.000000e-01	-6.300000e-01	6.263491e+08	5.021972e+07	5.021972e+07
-6.300000e-01	-5.600000e-01	4.767127e+08	3.594114e+07	3.594114e+07
-5.600000e-01	-4.900000e-01	2.138599e+08	4.464428e+07	4.464428e+07
-4.900000e-01	-4.200000e-01	2.434131e+07	7.412103e+06	7.412103e+06
-4.200000e-01	-3.500000e-01	2.303889e+06	8.018242e+05	8.018242e+05
-3.500000e-01	-2.800000e-01	9.329876e+04	7.470512e+04	7.470512e+04
-2.800000e-01	-2.100000e-01	0.000000e+00	0.000000e+00	0.000000e+00
-2.100000e-01	-1.400000e-01	0.000000e+00	0.000000e+00	0.000000e+00
-1.400000e-01	-7.000000e-02	0.000000e+00	0.000000e+00	0.000000e+00
-7.000000e-02	0.000000e+00	0.000000e+00	0.000000e+00	0.000000e+00
# END HISTO1D

