# BEGIN PLOT
LegendOnly=/zj_ps_nlo_mer_mur0.5_muf0.5_R4.yoda/PAPER_FIN_R4/ch_SD_l10_pT_150_186
DrawOnly=/zj_ps_nlo_mer_mur0.5_muf0.5_R4.yoda/PAPER_FIN_R4/ch_SD_l10_pT_150_186
Legend=1
LogY=1
# END PLOT

# BEGIN HISTO1D /zj_ps_nlo_mer_mur0.5_muf0.5_R4.yoda/PAPER_FIN_R4/ch_SD_l10_pT_150_186
LineColor=red
LineStyle=solid
Path=/zj_ps_nlo_mer_mur0.5_muf0.5_R4.yoda/PAPER_FIN_R4/ch_SD_l10_pT_150_186
Title=zj_ps_nlo_mer_mur0.5_muf0.5_R4
XLabel=~
YLabel=~
# xlow	 xhigh	 val	 errminus	 errplus
-7.000000e+00	-6.930000e+00	0.000000e+00	0.000000e+00	0.000000e+00
-6.930000e+00	-6.860000e+00	1.229721e+09	8.819587e+07	8.819587e+07
-6.860000e+00	-6.790000e+00	0.000000e+00	0.000000e+00	0.000000e+00
-6.790000e+00	-6.720000e+00	0.000000e+00	0.000000e+00	0.000000e+00
-6.720000e+00	-6.650000e+00	0.000000e+00	0.000000e+00	0.000000e+00
-6.650000e+00	-6.580000e+00	0.000000e+00	0.000000e+00	0.000000e+00
-6.580000e+00	-6.510000e+00	0.000000e+00	0.000000e+00	0.000000e+00
-6.510000e+00	-6.440000e+00	0.000000e+00	0.000000e+00	0.000000e+00
-6.440000e+00	-6.370000e+00	0.000000e+00	0.000000e+00	0.000000e+00
-6.370000e+00	-6.300000e+00	0.000000e+00	0.000000e+00	0.000000e+00
-6.300000e+00	-6.230000e+00	0.000000e+00	0.000000e+00	0.000000e+00
-6.230000e+00	-6.160000e+00	0.000000e+00	0.000000e+00	0.000000e+00
-6.160000e+00	-6.090000e+00	0.000000e+00	0.000000e+00	0.000000e+00
-6.090000e+00	-6.020000e+00	0.000000e+00	0.000000e+00	0.000000e+00
-6.020000e+00	-5.950000e+00	0.000000e+00	0.000000e+00	0.000000e+00
-5.950000e+00	-5.880000e+00	0.000000e+00	0.000000e+00	0.000000e+00
-5.880000e+00	-5.810000e+00	-2.527860e+02	2.527861e+02	2.527861e+02
-5.810000e+00	-5.740000e+00	0.000000e+00	0.000000e+00	0.000000e+00
-5.740000e+00	-5.670000e+00	0.000000e+00	0.000000e+00	0.000000e+00
-5.670000e+00	-5.600000e+00	0.000000e+00	0.000000e+00	0.000000e+00
-5.600000e+00	-5.530000e+00	0.000000e+00	0.000000e+00	0.000000e+00
-5.530000e+00	-5.460000e+00	0.000000e+00	0.000000e+00	0.000000e+00
-5.460000e+00	-5.390000e+00	0.000000e+00	0.000000e+00	0.000000e+00
-5.390000e+00	-5.320000e+00	0.000000e+00	0.000000e+00	0.000000e+00
-5.320000e+00	-5.250000e+00	0.000000e+00	0.000000e+00	0.000000e+00
-5.250000e+00	-5.180000e+00	0.000000e+00	0.000000e+00	0.000000e+00
-5.180000e+00	-5.110000e+00	0.000000e+00	0.000000e+00	0.000000e+00
-5.110000e+00	-5.040000e+00	0.000000e+00	0.000000e+00	0.000000e+00
-5.040000e+00	-4.970000e+00	0.000000e+00	0.000000e+00	0.000000e+00
-4.970000e+00	-4.900000e+00	0.000000e+00	0.000000e+00	0.000000e+00
-4.900000e+00	-4.830000e+00	4.972824e-06	4.972824e-06	4.972824e-06
-4.830000e+00	-4.760000e+00	7.394429e-01	7.394428e-01	7.394428e-01
-4.760000e+00	-4.690000e+00	0.000000e+00	0.000000e+00	0.000000e+00
-4.690000e+00	-4.620000e+00	0.000000e+00	0.000000e+00	0.000000e+00
-4.620000e+00	-4.550000e+00	-1.049381e+00	1.049381e+00	1.049381e+00
-4.550000e+00	-4.480000e+00	-1.658804e+02	1.624745e+02	1.624745e+02
-4.480000e+00	-4.410000e+00	7.012221e+04	6.660266e+04	6.660266e+04
-4.410000e+00	-4.340000e+00	5.143371e+03	1.346589e+04	1.346589e+04
-4.340000e+00	-4.270000e+00	-3.509027e+04	3.322644e+04	3.322644e+04
-4.270000e+00	-4.200000e+00	1.913764e+05	1.587801e+05	1.587801e+05
-4.200000e+00	-4.130000e+00	1.195189e+06	1.059673e+06	1.059673e+06
-4.130000e+00	-4.060000e+00	5.003889e+04	5.630699e+04	5.630699e+04
-4.060000e+00	-3.990000e+00	3.140409e+04	7.056452e+04	7.056452e+04
-3.990000e+00	-3.920000e+00	4.897800e+04	2.075900e+05	2.075900e+05
-3.920000e+00	-3.850000e+00	-3.047319e+06	2.493479e+06	2.493479e+06
-3.850000e+00	-3.780000e+00	-5.142340e+05	6.344704e+05	6.344704e+05
-3.780000e+00	-3.710000e+00	1.926429e+06	1.037643e+06	1.037643e+06
-3.710000e+00	-3.640000e+00	6.967651e+05	3.983867e+05	3.983867e+05
-3.640000e+00	-3.570000e+00	4.088181e+06	2.544960e+06	2.544960e+06
-3.570000e+00	-3.500000e+00	1.374960e+06	1.138320e+06	1.138320e+06
-3.500000e+00	-3.430000e+00	1.520731e+06	7.978907e+05	7.978907e+05
-3.430000e+00	-3.360000e+00	3.615791e+06	2.974823e+06	2.974823e+06
-3.360000e+00	-3.290000e+00	3.217816e+06	1.094153e+06	1.094153e+06
-3.290000e+00	-3.220000e+00	5.934254e+06	1.621184e+06	1.621184e+06
-3.220000e+00	-3.150000e+00	2.403710e+06	2.658231e+06	2.658231e+06
-3.150000e+00	-3.080000e+00	9.197661e+06	3.654794e+06	3.654794e+06
-3.080000e+00	-3.010000e+00	-1.080238e+07	1.462753e+07	1.462753e+07
-3.010000e+00	-2.940000e+00	3.638904e+07	1.980300e+07	1.980300e+07
-2.940000e+00	-2.870000e+00	1.146383e+07	1.081240e+07	1.081240e+07
-2.870000e+00	-2.800000e+00	2.605284e+07	8.135735e+06	8.135735e+06
-2.800000e+00	-2.730000e+00	4.079521e+07	1.100033e+07	1.100033e+07
-2.730000e+00	-2.660000e+00	5.253951e+07	1.276687e+07	1.276687e+07
-2.660000e+00	-2.590000e+00	7.306297e+07	1.302666e+07	1.302666e+07
-2.590000e+00	-2.520000e+00	1.016765e+08	1.505241e+07	1.505241e+07
-2.520000e+00	-2.450000e+00	1.358552e+08	1.935443e+07	1.935443e+07
-2.450000e+00	-2.380000e+00	1.622141e+08	4.728934e+07	4.728934e+07
-2.380000e+00	-2.310000e+00	1.807690e+08	5.683781e+07	5.683781e+07
-2.310000e+00	-2.240000e+00	2.812734e+08	3.365430e+07	3.365430e+07
-2.240000e+00	-2.170000e+00	1.652394e+08	2.419872e+08	2.419872e+08
-2.170000e+00	-2.100000e+00	5.257169e+08	6.561859e+07	6.561859e+07
-2.100000e+00	-2.030000e+00	7.407827e+08	6.020255e+07	6.020255e+07
-2.030000e+00	-1.960000e+00	7.605994e+08	8.042333e+07	8.042333e+07
-1.960000e+00	-1.890000e+00	8.979763e+08	1.222603e+08	1.222603e+08
-1.890000e+00	-1.820000e+00	1.339047e+09	9.357564e+07	9.357564e+07
-1.820000e+00	-1.750000e+00	1.589964e+09	1.110984e+08	1.110984e+08
-1.750000e+00	-1.680000e+00	1.957230e+09	1.450822e+08	1.450822e+08
-1.680000e+00	-1.610000e+00	2.433797e+09	1.241742e+08	1.241742e+08
-1.610000e+00	-1.540000e+00	2.805494e+09	1.371166e+08	1.371166e+08
-1.540000e+00	-1.470000e+00	2.968293e+09	1.147265e+08	1.147265e+08
-1.470000e+00	-1.400000e+00	3.125333e+09	1.539474e+08	1.539474e+08
-1.400000e+00	-1.330000e+00	3.081216e+09	4.732775e+08	4.732775e+08
-1.330000e+00	-1.260000e+00	3.534117e+09	2.290101e+08	2.290101e+08
-1.260000e+00	-1.190000e+00	3.708594e+09	1.734355e+08	1.734355e+08
-1.190000e+00	-1.120000e+00	3.485930e+09	1.771552e+08	1.771552e+08
-1.120000e+00	-1.050000e+00	3.319359e+09	1.413880e+08	1.413880e+08
-1.050000e+00	-9.800000e-01	2.890501e+09	1.150438e+08	1.150438e+08
-9.800000e-01	-9.100000e-01	3.130987e+09	1.357300e+08	1.357300e+08
-9.100000e-01	-8.400000e-01	3.081687e+09	1.303408e+08	1.303408e+08
-8.400000e-01	-7.700000e-01	2.712880e+09	2.429207e+08	2.429207e+08
-7.700000e-01	-7.000000e-01	3.108909e+09	1.005374e+08	1.005374e+08
-7.000000e-01	-6.300000e-01	2.994097e+09	1.200086e+08	1.200086e+08
-6.300000e-01	-5.600000e-01	2.612861e+09	1.003800e+08	1.003800e+08
-5.600000e-01	-4.900000e-01	2.121789e+09	1.151741e+08	1.151741e+08
-4.900000e-01	-4.200000e-01	1.956314e+09	1.360681e+08	1.360681e+08
-4.200000e-01	-3.500000e-01	1.333758e+09	5.788470e+07	5.788470e+07
-3.500000e-01	-2.800000e-01	7.988423e+08	5.127376e+07	5.127376e+07
-2.800000e-01	-2.100000e-01	3.303686e+08	2.646421e+07	2.646421e+07
-2.100000e-01	-1.400000e-01	5.760327e+07	1.840406e+07	1.840406e+07
-1.400000e-01	-7.000000e-02	1.628561e+06	1.945556e+06	1.945556e+06
-7.000000e-02	0.000000e+00	5.013276e+04	2.731758e+04	2.731758e+04
# END HISTO1D

