# BEGIN PLOT
LegendOnly=/zj_ps_nlo_mer_mur2_muf1_R8.yoda/PAPER_FIN_R8_CH/lin_l05_pT_408_1500
DrawOnly=/zj_ps_nlo_mer_mur2_muf1_R8.yoda/PAPER_FIN_R8_CH/lin_l05_pT_408_1500
Legend=1
LogY=1
# END PLOT

# BEGIN HISTO1D /zj_ps_nlo_mer_mur2_muf1_R8.yoda/PAPER_FIN_R8_CH/lin_l05_pT_408_1500
LineColor=red
LineStyle=solid
Path=/zj_ps_nlo_mer_mur2_muf1_R8.yoda/PAPER_FIN_R8_CH/lin_l05_pT_408_1500
Title=zj_ps_nlo_mer_mur2_muf1_R8
XLabel=~
YLabel=~
# xlow	 xhigh	 val	 errminus	 errplus
0.000000e+00	6.000000e-02	1.938422e+09	1.002658e+07	1.002658e+07
6.000000e-02	1.100000e-01	1.993886e+09	1.398281e+07	1.398281e+07
1.100000e-01	1.500000e-01	1.611222e+09	1.005593e+07	1.005593e+07
1.500000e-01	1.900000e-01	1.271086e+09	9.800552e+06	9.800552e+06
1.900000e-01	2.300000e-01	1.014391e+09	1.862606e+07	1.862606e+07
2.300000e-01	2.700000e-01	8.281750e+08	7.047588e+06	7.047588e+06
2.700000e-01	3.100000e-01	6.384493e+08	8.938072e+06	8.938072e+06
3.100000e-01	3.500000e-01	5.228620e+08	6.836909e+06	6.836909e+06
3.500000e-01	3.900000e-01	4.157955e+08	4.555875e+06	4.555875e+06
3.900000e-01	4.400000e-01	3.360988e+08	1.746651e+07	1.746651e+07
4.400000e-01	4.900000e-01	2.053552e+08	2.797833e+06	2.797833e+06
4.900000e-01	5.400000e-01	1.249764e+08	1.927362e+06	1.927362e+06
5.400000e-01	6.000000e-01	5.768038e+07	1.156395e+06	1.156395e+06
6.000000e-01	1.000000e+00	3.841222e+06	1.263279e+05	1.263279e+05
# END HISTO1D

