# BEGIN PLOT
LegendOnly=/zj_ps_nlo_mer_mur2_muf1_R8.yoda/PAPER_FIN_R8/lin_l20_pT_88_120
DrawOnly=/zj_ps_nlo_mer_mur2_muf1_R8.yoda/PAPER_FIN_R8/lin_l20_pT_88_120
Legend=1
LogY=1
# END PLOT

# BEGIN HISTO1D /zj_ps_nlo_mer_mur2_muf1_R8.yoda/PAPER_FIN_R8/lin_l20_pT_88_120
LineColor=red
LineStyle=solid
Path=/zj_ps_nlo_mer_mur2_muf1_R8.yoda/PAPER_FIN_R8/lin_l20_pT_88_120
Title=zj_ps_nlo_mer_mur2_muf1_R8
XLabel=~
YLabel=~
# xlow	 xhigh	 val	 errminus	 errplus
0.000000e+00	5.000000e-02	7.157142e+07	1.801970e+07	1.801970e+07
5.000000e-02	9.000000e-02	3.617740e+07	3.162842e+06	3.162842e+06
9.000000e-02	1.500000e-01	1.600946e+07	2.122023e+06	2.122023e+06
1.500000e-01	2.050000e-01	6.148887e+06	1.190127e+06	1.190127e+06
2.050000e-01	1.000000e+00	2.907581e+05	5.611734e+04	5.611734e+04
# END HISTO1D

