# BEGIN PLOT
LegendOnly=/zj_ps_nlo_mer_mur2_muf1_R8.yoda/PAPER_FIN_R8/ch_lin_l05_pT_150_186
DrawOnly=/zj_ps_nlo_mer_mur2_muf1_R8.yoda/PAPER_FIN_R8/ch_lin_l05_pT_150_186
Legend=1
LogY=1
# END PLOT

# BEGIN HISTO1D /zj_ps_nlo_mer_mur2_muf1_R8.yoda/PAPER_FIN_R8/ch_lin_l05_pT_150_186
LineColor=red
LineStyle=solid
Path=/zj_ps_nlo_mer_mur2_muf1_R8.yoda/PAPER_FIN_R8/ch_lin_l05_pT_150_186
Title=zj_ps_nlo_mer_mur2_muf1_R8
XLabel=~
YLabel=~
# xlow	 xhigh	 val	 errminus	 errplus
0.000000e+00	6.000000e-02	1.475937e+09	1.136882e+08	1.136882e+08
6.000000e-02	1.100000e-01	3.058774e+08	8.590553e+06	8.590553e+06
1.100000e-01	1.500000e-01	2.327625e+08	1.159171e+07	1.159171e+07
1.500000e-01	1.900000e-01	1.893764e+08	8.762997e+06	8.762997e+06
1.900000e-01	2.300000e-01	1.576702e+08	6.080993e+06	6.080993e+06
2.300000e-01	2.700000e-01	1.295568e+08	7.513737e+06	7.513737e+06
2.700000e-01	3.100000e-01	9.747125e+07	1.174743e+07	1.174743e+07
3.100000e-01	3.500000e-01	6.867120e+07	6.399923e+06	6.399923e+06
3.500000e-01	3.900000e-01	4.910180e+07	9.797056e+06	9.797056e+06
3.900000e-01	4.400000e-01	3.905330e+07	3.898021e+06	3.898021e+06
4.400000e-01	4.900000e-01	2.089628e+07	2.122872e+06	2.122872e+06
4.900000e-01	5.400000e-01	6.646600e+06	1.699758e+06	1.699758e+06
5.400000e-01	6.000000e-01	3.066737e+06	5.724987e+05	5.724987e+05
6.000000e-01	1.000000e+00	1.372590e+05	3.671592e+04	3.671592e+04
# END HISTO1D

