# BEGIN PLOT
LegendOnly=/zj_ps_nlo_mer_mur2_muf1_R8.yoda/PAPER_FIN_R8/ch_SD_l10_pT_150_186
DrawOnly=/zj_ps_nlo_mer_mur2_muf1_R8.yoda/PAPER_FIN_R8/ch_SD_l10_pT_150_186
Legend=1
LogY=1
# END PLOT

# BEGIN HISTO1D /zj_ps_nlo_mer_mur2_muf1_R8.yoda/PAPER_FIN_R8/ch_SD_l10_pT_150_186
LineColor=red
LineStyle=solid
Path=/zj_ps_nlo_mer_mur2_muf1_R8.yoda/PAPER_FIN_R8/ch_SD_l10_pT_150_186
Title=zj_ps_nlo_mer_mur2_muf1_R8
XLabel=~
YLabel=~
# xlow	 xhigh	 val	 errminus	 errplus
-7.000000e+00	-6.930000e+00	0.000000e+00	0.000000e+00	0.000000e+00
-6.930000e+00	-6.860000e+00	1.248415e+09	9.738401e+07	9.738401e+07
-6.860000e+00	-6.790000e+00	0.000000e+00	0.000000e+00	0.000000e+00
-6.790000e+00	-6.720000e+00	0.000000e+00	0.000000e+00	0.000000e+00
-6.720000e+00	-6.650000e+00	0.000000e+00	0.000000e+00	0.000000e+00
-6.650000e+00	-6.580000e+00	0.000000e+00	0.000000e+00	0.000000e+00
-6.580000e+00	-6.510000e+00	0.000000e+00	0.000000e+00	0.000000e+00
-6.510000e+00	-6.440000e+00	0.000000e+00	0.000000e+00	0.000000e+00
-6.440000e+00	-6.370000e+00	0.000000e+00	0.000000e+00	0.000000e+00
-6.370000e+00	-6.300000e+00	0.000000e+00	0.000000e+00	0.000000e+00
-6.300000e+00	-6.230000e+00	0.000000e+00	0.000000e+00	0.000000e+00
-6.230000e+00	-6.160000e+00	0.000000e+00	0.000000e+00	0.000000e+00
-6.160000e+00	-6.090000e+00	0.000000e+00	0.000000e+00	0.000000e+00
-6.090000e+00	-6.020000e+00	0.000000e+00	0.000000e+00	0.000000e+00
-6.020000e+00	-5.950000e+00	0.000000e+00	0.000000e+00	0.000000e+00
-5.950000e+00	-5.880000e+00	0.000000e+00	0.000000e+00	0.000000e+00
-5.880000e+00	-5.810000e+00	0.000000e+00	0.000000e+00	0.000000e+00
-5.810000e+00	-5.740000e+00	0.000000e+00	0.000000e+00	0.000000e+00
-5.740000e+00	-5.670000e+00	0.000000e+00	0.000000e+00	0.000000e+00
-5.670000e+00	-5.600000e+00	0.000000e+00	0.000000e+00	0.000000e+00
-5.600000e+00	-5.530000e+00	0.000000e+00	0.000000e+00	0.000000e+00
-5.530000e+00	-5.460000e+00	0.000000e+00	0.000000e+00	0.000000e+00
-5.460000e+00	-5.390000e+00	0.000000e+00	0.000000e+00	0.000000e+00
-5.390000e+00	-5.320000e+00	0.000000e+00	0.000000e+00	0.000000e+00
-5.320000e+00	-5.250000e+00	0.000000e+00	0.000000e+00	0.000000e+00
-5.250000e+00	-5.180000e+00	0.000000e+00	0.000000e+00	0.000000e+00
-5.180000e+00	-5.110000e+00	0.000000e+00	0.000000e+00	0.000000e+00
-5.110000e+00	-5.040000e+00	0.000000e+00	0.000000e+00	0.000000e+00
-5.040000e+00	-4.970000e+00	0.000000e+00	0.000000e+00	0.000000e+00
-4.970000e+00	-4.900000e+00	5.151950e-01	5.151950e-01	5.151950e-01
-4.900000e+00	-4.830000e+00	0.000000e+00	0.000000e+00	0.000000e+00
-4.830000e+00	-4.760000e+00	0.000000e+00	0.000000e+00	0.000000e+00
-4.760000e+00	-4.690000e+00	0.000000e+00	0.000000e+00	0.000000e+00
-4.690000e+00	-4.620000e+00	0.000000e+00	0.000000e+00	0.000000e+00
-4.620000e+00	-4.550000e+00	0.000000e+00	0.000000e+00	0.000000e+00
-4.550000e+00	-4.480000e+00	0.000000e+00	0.000000e+00	0.000000e+00
-4.480000e+00	-4.410000e+00	0.000000e+00	0.000000e+00	0.000000e+00
-4.410000e+00	-4.340000e+00	8.710211e+01	8.710211e+01	8.710211e+01
-4.340000e+00	-4.270000e+00	-9.638364e-04	9.638364e-04	9.638364e-04
-4.270000e+00	-4.200000e+00	-2.431553e+00	1.909415e+00	1.909415e+00
-4.200000e+00	-4.130000e+00	0.000000e+00	0.000000e+00	0.000000e+00
-4.130000e+00	-4.060000e+00	-9.892164e+01	9.912548e+01	9.912548e+01
-4.060000e+00	-3.990000e+00	5.478680e+03	5.517937e+03	5.517937e+03
-3.990000e+00	-3.920000e+00	6.008027e+01	6.007777e+01	6.007777e+01
-3.920000e+00	-3.850000e+00	4.871093e+02	4.650763e+02	4.650763e+02
-3.850000e+00	-3.780000e+00	-4.734567e+00	3.436368e+00	3.436368e+00
-3.780000e+00	-3.710000e+00	8.172803e+03	8.029567e+03	8.029567e+03
-3.710000e+00	-3.640000e+00	4.957180e+02	3.964546e+02	3.964546e+02
-3.640000e+00	-3.570000e+00	-2.659847e+04	1.675125e+04	1.675125e+04
-3.570000e+00	-3.500000e+00	-2.589037e+02	3.263590e+02	3.263590e+02
-3.500000e+00	-3.430000e+00	1.627364e+04	1.248564e+04	1.248564e+04
-3.430000e+00	-3.360000e+00	-1.116851e+04	1.242477e+04	1.242477e+04
-3.360000e+00	-3.290000e+00	8.347327e+02	6.388526e+03	6.388526e+03
-3.290000e+00	-3.220000e+00	2.590083e+04	1.580180e+04	1.580180e+04
-3.220000e+00	-3.150000e+00	3.496056e+04	1.352554e+04	1.352554e+04
-3.150000e+00	-3.080000e+00	3.226926e+04	2.145318e+04	2.145318e+04
-3.080000e+00	-3.010000e+00	8.094870e+04	8.286846e+04	8.286846e+04
-3.010000e+00	-2.940000e+00	9.685397e+04	6.928063e+04	6.928063e+04
-2.940000e+00	-2.870000e+00	1.039298e+05	5.707609e+04	5.707609e+04
-2.870000e+00	-2.800000e+00	2.698654e+04	2.919443e+04	2.919443e+04
-2.800000e+00	-2.730000e+00	5.264076e+04	5.561638e+04	5.561638e+04
-2.730000e+00	-2.660000e+00	1.384002e+05	9.286723e+04	9.286723e+04
-2.660000e+00	-2.590000e+00	3.437181e+05	1.706647e+05	1.706647e+05
-2.590000e+00	-2.520000e+00	3.582676e+05	2.793558e+05	2.793558e+05
-2.520000e+00	-2.450000e+00	1.580473e+06	5.081678e+05	5.081678e+05
-2.450000e+00	-2.380000e+00	1.456667e+06	5.004967e+05	5.004967e+05
-2.380000e+00	-2.310000e+00	1.956996e+06	4.994213e+05	4.994213e+05
-2.310000e+00	-2.240000e+00	3.148319e+06	1.161080e+06	1.161080e+06
-2.240000e+00	-2.170000e+00	5.016274e+06	7.707551e+05	7.707551e+05
-2.170000e+00	-2.100000e+00	6.859429e+06	1.110936e+06	1.110936e+06
-2.100000e+00	-2.030000e+00	1.102925e+07	8.625211e+05	8.625211e+05
-2.030000e+00	-1.960000e+00	1.054717e+07	1.010548e+06	1.010548e+06
-1.960000e+00	-1.890000e+00	1.267693e+07	1.563666e+06	1.563666e+06
-1.890000e+00	-1.820000e+00	1.759403e+07	4.880356e+06	4.880356e+06
-1.820000e+00	-1.750000e+00	1.906313e+07	1.831508e+06	1.831508e+06
-1.750000e+00	-1.680000e+00	1.884476e+07	2.577730e+06	2.577730e+06
-1.680000e+00	-1.610000e+00	2.390863e+07	1.568114e+06	1.568114e+06
-1.610000e+00	-1.540000e+00	2.762430e+07	1.668773e+06	1.668773e+06
-1.540000e+00	-1.470000e+00	2.775447e+07	2.394040e+06	2.394040e+06
-1.470000e+00	-1.400000e+00	2.891049e+07	1.730673e+06	1.730673e+06
-1.400000e+00	-1.330000e+00	3.257644e+07	2.308277e+06	2.308277e+06
-1.330000e+00	-1.260000e+00	3.446776e+07	2.639737e+06	2.639737e+06
-1.260000e+00	-1.190000e+00	3.511787e+07	3.428689e+06	3.428689e+06
-1.190000e+00	-1.120000e+00	4.043509e+07	3.849244e+06	3.849244e+06
-1.120000e+00	-1.050000e+00	4.616631e+07	2.778889e+06	2.778889e+06
-1.050000e+00	-9.800000e-01	4.422061e+07	3.760791e+06	3.760791e+06
-9.800000e-01	-9.100000e-01	4.813784e+07	2.222025e+06	2.222025e+06
-9.100000e-01	-8.400000e-01	5.385216e+07	2.848879e+06	2.848879e+06
-8.400000e-01	-7.700000e-01	5.264523e+07	2.074797e+06	2.074797e+06
-7.700000e-01	-7.000000e-01	4.836061e+07	4.192112e+06	4.192112e+06
-7.000000e-01	-6.300000e-01	4.424419e+07	3.504966e+06	3.504966e+06
-6.300000e-01	-5.600000e-01	3.984653e+07	6.695375e+06	6.695375e+06
-5.600000e-01	-4.900000e-01	3.310339e+07	2.260843e+06	2.260843e+06
-4.900000e-01	-4.200000e-01	2.185110e+07	5.786198e+06	5.786198e+06
-4.200000e-01	-3.500000e-01	1.311329e+07	1.738830e+06	1.738830e+06
-3.500000e-01	-2.800000e-01	5.893224e+06	6.630146e+05	6.630146e+05
-2.800000e-01	-2.100000e-01	1.126174e+06	2.624827e+05	2.624827e+05
-2.100000e-01	-1.400000e-01	8.409386e+04	5.584571e+04	5.584571e+04
-1.400000e-01	-7.000000e-02	-1.389507e+04	1.358310e+04	1.358310e+04
-7.000000e-02	0.000000e+00	0.000000e+00	0.000000e+00	0.000000e+00
# END HISTO1D

