# BEGIN PLOT
LegendOnly=/zj_ps_nlo_mer_mur1_muf1_R8.yoda/PAPER_FIN_R8/lin_SD_l05_pT_326_408
DrawOnly=/zj_ps_nlo_mer_mur1_muf1_R8.yoda/PAPER_FIN_R8/lin_SD_l05_pT_326_408
Legend=1
LogY=1
# END PLOT

# BEGIN HISTO1D /zj_ps_nlo_mer_mur1_muf1_R8.yoda/PAPER_FIN_R8/lin_SD_l05_pT_326_408
LineColor=red
LineStyle=solid
Path=/zj_ps_nlo_mer_mur1_muf1_R8.yoda/PAPER_FIN_R8/lin_SD_l05_pT_326_408
Title=zj_ps_nlo_mer_mur1_muf1_R8
XLabel=~
YLabel=~
# xlow	 xhigh	 val	 errminus	 errplus
0.000000e+00	1.000000e-01	2.435617e+09	4.417356e+07	4.417356e+07
1.000000e-01	1.800000e-01	2.078080e+09	6.240081e+07	6.240081e+07
1.800000e-01	2.600000e-01	1.413891e+09	2.865714e+07	2.865714e+07
2.600000e-01	3.400000e-01	1.155032e+09	1.379411e+08	1.379411e+08
3.400000e-01	4.200000e-01	7.068500e+08	2.360682e+07	2.360682e+07
4.200000e-01	5.000000e-01	4.468895e+08	1.977935e+07	1.977935e+07
5.000000e-01	5.700000e-01	2.474436e+08	1.405912e+07	1.405912e+07
5.700000e-01	6.400000e-01	1.061634e+08	1.789918e+07	1.789918e+07
6.400000e-01	1.000000e+00	6.620128e+06	8.018122e+05	8.018122e+05
# END HISTO1D

