pt, eta, phi
0.960384,1.16853,1.04325
1.86411,0.923571,1.09175
6.24117,0.991934,0.94082
2.09723,0.531893,0.938006
3.97784,0.766351,0.670582
6.18795,0.724439,0.723599
5.65324,0.473232,0.508831
4.32997,0.456167,0.53424
4.43817,0.71985,0.555667
4.09893,0.475439,0.699081
1.62841,0.596121,0.497817
5.65868,0.686052,0.639279
12.4596,0.640234,0.680312
11.4867,0.545254,0.551254
17.5196,0.517731,0.615711
13.191,0.629542,0.62403
17.8926,0.602757,0.592991
9.28093,0.583438,0.641738
426.996,0.584966,0.615133
26.9162,0.574129,0.608852
