# BEGIN PLOT
# END PLOT

# BEGIN HISTO1D
LineColor=red
LineStyle=solid
Title=Z+Jet RES+NP
# Sigma = 3.107179e+00 pb
# xlow	xhigh	val	errminus	errplus
0.000000e+00	6.000000e-02	1.305123e-02	1.210820e-02	1.270335e-02
6.000000e-02	1.100000e-01	6.889801e-01	1.793070e-01	1.637490e-01
1.100000e-01	1.500000e-01	2.667990e+00	4.566771e-01	4.938670e-01
1.500000e-01	1.900000e-01	4.559834e+00	7.013157e-01	7.722021e-01
1.900000e-01	2.300000e-01	4.726740e+00	8.381889e-01	1.012650e+00
2.300000e-01	2.700000e-01	3.898724e+00	7.333167e-01	9.582582e-01
2.700000e-01	3.100000e-01	2.846540e+00	5.827352e-01	7.931760e-01
3.100000e-01	3.500000e-01	2.133579e+00	4.374498e-01	6.296153e-01
3.500000e-01	3.900000e-01	1.554652e+00	3.379497e-01	4.956450e-01
3.900000e-01	4.400000e-01	1.074637e+00	2.453468e-01	3.687605e-01
4.400000e-01	4.900000e-01	6.853702e-01	1.696107e-01	2.635323e-01
4.900000e-01	5.400000e-01	3.462773e-01	1.113973e-01	1.786917e-01
5.400000e-01	6.000000e-01	1.510581e-01	6.818189e-02	1.082115e-01
6.000000e-01	1.000000e+00	9.110621e-03	4.996629e-03	7.481795e-03
# END HISTO1D