# BEGIN PLOT
# END PLOT

# BEGIN HISTO1D
LineColor=red
LineStyle=solid
Title=Z+Jet SHERPA MESP@NLO+NP
# Sigma = 2.005554e+00 pb
# xlow	xhigh	val	errminus	errplus
0.000000e+00	1.000000e-01	4.164952e+00	5.243214e-02	4.469118e-01
1.000000e-01	1.800000e-01	7.295506e+00	2.449432e-01	4.405881e-01
1.800000e-01	2.600000e-01	4.212516e+00	2.594036e-01	1.956039e-01
2.600000e-01	3.400000e-01	3.256905e+00	2.311946e-01	2.042451e-01
3.400000e-01	4.200000e-01	2.285045e+00	1.982598e-01	1.644632e-01
4.200000e-01	5.000000e-01	1.530206e+00	1.683059e-01	1.232685e-01
5.000000e-01	5.700000e-01	8.723507e-01	9.422190e-02	1.255148e-01
5.700000e-01	6.400000e-01	4.414399e-01	5.264628e-02	3.877269e-02
6.400000e-01	1.000000e+00	2.966325e-02	4.172847e-03	2.418952e-03
# END HISTO1D