# BEGIN PLOT
LegendOnly=/zj_ps_nlo_mer_mur0.5_muf0.5_R8.yoda/PAPER_FIN_R8/l10_pT_186_254
DrawOnly=/zj_ps_nlo_mer_mur0.5_muf0.5_R8.yoda/PAPER_FIN_R8/l10_pT_186_254
Legend=1
LogY=1
# END PLOT

# BEGIN HISTO1D /zj_ps_nlo_mer_mur0.5_muf0.5_R8.yoda/PAPER_FIN_R8/l10_pT_186_254
LineColor=red
LineStyle=solid
Path=/zj_ps_nlo_mer_mur0.5_muf0.5_R8.yoda/PAPER_FIN_R8/l10_pT_186_254
Title=zj_ps_nlo_mer_mur0.5_muf0.5_R8
XLabel=~
YLabel=~
# xlow	 xhigh	 val	 errminus	 errplus
-7.000000e+00	-6.930000e+00	-8.717577e-02	8.718532e-02	8.718532e-02
-6.930000e+00	-6.860000e+00	2.470691e+09	1.210773e+08	1.210773e+08
-6.860000e+00	-6.790000e+00	-2.062587e+02	2.063264e+02	2.063264e+02
-6.790000e+00	-6.720000e+00	-1.741244e-02	1.791944e-02	1.791944e-02
-6.720000e+00	-6.650000e+00	2.600426e+04	4.133756e+04	4.133756e+04
-6.650000e+00	-6.580000e+00	7.465866e-01	7.419688e-01	7.419688e-01
-6.580000e+00	-6.510000e+00	-9.785349e+00	1.347659e+01	1.347659e+01
-6.510000e+00	-6.440000e+00	-6.311489e+00	5.999464e+00	5.999464e+00
-6.440000e+00	-6.370000e+00	-1.204910e-01	8.554676e-02	8.554676e-02
-6.370000e+00	-6.300000e+00	6.168403e+02	8.203582e+02	8.203582e+02
-6.300000e+00	-6.230000e+00	-1.284161e+04	1.338399e+04	1.338399e+04
-6.230000e+00	-6.160000e+00	-3.427833e+04	3.436084e+04	3.436084e+04
-6.160000e+00	-6.090000e+00	7.813730e+04	7.934342e+04	7.934342e+04
-6.090000e+00	-6.020000e+00	2.325164e+04	2.085572e+04	2.085572e+04
-6.020000e+00	-5.950000e+00	-2.688341e+03	6.485651e+03	6.485651e+03
-5.950000e+00	-5.880000e+00	1.090612e+04	8.431757e+03	8.431757e+03
-5.880000e+00	-5.810000e+00	1.126932e+04	7.868238e+03	7.868238e+03
-5.810000e+00	-5.740000e+00	3.086759e+03	1.577326e+03	1.577326e+03
-5.740000e+00	-5.670000e+00	-2.475223e+04	2.649180e+04	2.649180e+04
-5.670000e+00	-5.600000e+00	2.199094e+04	2.009009e+04	2.009009e+04
-5.600000e+00	-5.530000e+00	3.144251e+04	2.955486e+04	2.955486e+04
-5.530000e+00	-5.460000e+00	-2.683757e+04	1.778484e+04	1.778484e+04
-5.460000e+00	-5.390000e+00	-9.921446e+04	1.951403e+05	1.951403e+05
-5.390000e+00	-5.320000e+00	-7.593639e+04	7.772600e+04	7.772600e+04
-5.320000e+00	-5.250000e+00	7.318244e+02	1.027360e+05	1.027360e+05
-5.250000e+00	-5.180000e+00	-1.217901e+04	1.693788e+04	1.693788e+04
-5.180000e+00	-5.110000e+00	-8.969659e+04	1.790381e+05	1.790381e+05
-5.110000e+00	-5.040000e+00	-5.421171e+04	4.374279e+04	4.374279e+04
-5.040000e+00	-4.970000e+00	2.652557e+03	2.959902e+04	2.959902e+04
-4.970000e+00	-4.900000e+00	-3.920837e+04	4.318335e+04	4.318335e+04
-4.900000e+00	-4.830000e+00	1.090384e+04	1.859961e+04	1.859961e+04
-4.830000e+00	-4.760000e+00	5.575457e+04	3.603036e+04	3.603036e+04
-4.760000e+00	-4.690000e+00	7.245114e+04	5.539268e+04	5.539268e+04
-4.690000e+00	-4.620000e+00	8.661729e+04	1.049935e+05	1.049935e+05
-4.620000e+00	-4.550000e+00	-1.429551e+06	1.459500e+06	1.459500e+06
-4.550000e+00	-4.480000e+00	9.338746e+05	8.515346e+05	8.515346e+05
-4.480000e+00	-4.410000e+00	1.306654e+04	4.462811e+04	4.462811e+04
-4.410000e+00	-4.340000e+00	1.116778e+05	1.640055e+05	1.640055e+05
-4.340000e+00	-4.270000e+00	-5.683116e+05	5.115008e+05	5.115008e+05
-4.270000e+00	-4.200000e+00	-7.670899e+05	1.106970e+06	1.106970e+06
-4.200000e+00	-4.130000e+00	3.624783e+05	3.002302e+05	3.002302e+05
-4.130000e+00	-4.060000e+00	4.598160e+06	3.846584e+06	3.846584e+06
-4.060000e+00	-3.990000e+00	1.549436e+06	1.127641e+06	1.127641e+06
-3.990000e+00	-3.920000e+00	2.490407e+06	1.162800e+06	1.162800e+06
-3.920000e+00	-3.850000e+00	-2.789476e+07	2.915202e+07	2.915202e+07
-3.850000e+00	-3.780000e+00	5.162251e+06	3.028841e+06	3.028841e+06
-3.780000e+00	-3.710000e+00	8.834780e+06	5.039884e+06	5.039884e+06
-3.710000e+00	-3.640000e+00	4.658407e+06	1.686002e+06	1.686002e+06
-3.640000e+00	-3.570000e+00	5.852479e+06	2.283180e+06	2.283180e+06
-3.570000e+00	-3.500000e+00	8.669144e+06	2.863684e+06	2.863684e+06
-3.500000e+00	-3.430000e+00	9.601916e+06	3.471465e+06	3.471465e+06
-3.430000e+00	-3.360000e+00	5.836694e+06	3.843886e+06	3.843886e+06
-3.360000e+00	-3.290000e+00	1.142099e+07	5.034191e+06	5.034191e+06
-3.290000e+00	-3.220000e+00	9.729346e+06	4.290540e+06	4.290540e+06
-3.220000e+00	-3.150000e+00	8.686007e+05	4.928824e+06	4.928824e+06
-3.150000e+00	-3.080000e+00	1.397815e+07	4.812698e+06	4.812698e+06
-3.080000e+00	-3.010000e+00	2.166230e+07	4.542951e+06	4.542951e+06
-3.010000e+00	-2.940000e+00	2.230907e+07	5.208222e+06	5.208222e+06
-2.940000e+00	-2.870000e+00	1.368098e+07	9.809707e+06	9.809707e+06
-2.870000e+00	-2.800000e+00	5.754461e+07	1.088499e+07	1.088499e+07
-2.800000e+00	-2.730000e+00	3.850796e+07	1.228415e+07	1.228415e+07
-2.730000e+00	-2.660000e+00	6.755624e+07	9.332436e+06	9.332436e+06
-2.660000e+00	-2.590000e+00	3.568330e+07	1.828071e+07	1.828071e+07
-2.590000e+00	-2.520000e+00	7.875826e+07	1.010874e+07	1.010874e+07
-2.520000e+00	-2.450000e+00	1.200586e+08	1.547653e+07	1.547653e+07
-2.450000e+00	-2.380000e+00	9.923517e+07	1.584989e+07	1.584989e+07
-2.380000e+00	-2.310000e+00	1.184489e+08	1.705343e+07	1.705343e+07
-2.310000e+00	-2.240000e+00	1.946233e+08	2.759508e+07	2.759508e+07
-2.240000e+00	-2.170000e+00	4.417091e+08	3.711056e+07	3.711056e+07
-2.170000e+00	-2.100000e+00	7.488813e+08	6.965217e+07	6.965217e+07
-2.100000e+00	-2.030000e+00	9.608830e+08	5.564167e+07	5.564167e+07
-2.030000e+00	-1.960000e+00	9.424887e+08	6.259223e+07	6.259223e+07
-1.960000e+00	-1.890000e+00	1.004245e+09	5.460336e+07	5.460336e+07
-1.890000e+00	-1.820000e+00	1.278266e+09	6.411227e+07	6.411227e+07
-1.820000e+00	-1.750000e+00	1.552540e+09	7.248335e+07	7.248335e+07
-1.750000e+00	-1.680000e+00	2.070283e+09	9.026963e+07	9.026963e+07
-1.680000e+00	-1.610000e+00	1.946729e+09	8.878713e+07	8.878713e+07
-1.610000e+00	-1.540000e+00	2.419047e+09	9.991256e+07	9.991256e+07
-1.540000e+00	-1.470000e+00	2.873247e+09	1.007741e+08	1.007741e+08
-1.470000e+00	-1.400000e+00	3.092474e+09	9.322386e+07	9.322386e+07
-1.400000e+00	-1.330000e+00	3.322676e+09	1.211982e+08	1.211982e+08
-1.330000e+00	-1.260000e+00	3.304564e+09	9.513994e+07	9.513994e+07
-1.260000e+00	-1.190000e+00	3.286139e+09	1.739668e+08	1.739668e+08
-1.190000e+00	-1.120000e+00	3.697501e+09	9.925469e+07	9.925469e+07
-1.120000e+00	-1.050000e+00	3.937376e+09	1.133934e+08	1.133934e+08
-1.050000e+00	-9.800000e-01	3.749074e+09	1.351814e+08	1.351814e+08
-9.800000e-01	-9.100000e-01	3.575136e+09	9.019435e+07	9.019435e+07
-9.100000e-01	-8.400000e-01	3.701249e+09	1.360061e+08	1.360061e+08
-8.400000e-01	-7.700000e-01	3.389674e+09	1.171948e+08	1.171948e+08
-7.700000e-01	-7.000000e-01	3.135743e+09	1.012756e+08	1.012756e+08
-7.000000e-01	-6.300000e-01	3.098977e+09	7.708739e+07	7.708739e+07
-6.300000e-01	-5.600000e-01	2.777241e+09	8.533802e+07	8.533802e+07
-5.600000e-01	-4.900000e-01	2.416729e+09	8.728217e+07	8.728217e+07
-4.900000e-01	-4.200000e-01	1.977789e+09	9.098704e+07	9.098704e+07
-4.200000e-01	-3.500000e-01	1.381132e+09	4.703787e+07	4.703787e+07
-3.500000e-01	-2.800000e-01	6.933109e+08	4.085775e+07	4.085775e+07
-2.800000e-01	-2.100000e-01	2.452926e+08	1.942315e+07	1.942315e+07
-2.100000e-01	-1.400000e-01	3.152443e+07	6.990305e+06	6.990305e+06
-1.400000e-01	-7.000000e-02	1.814923e+06	6.212583e+05	6.212583e+05
-7.000000e-02	0.000000e+00	1.107401e+04	2.955565e+04	2.955565e+04
# END HISTO1D

