# BEGIN PLOT
LegendOnly=/zj_ps_nlo_mer_mur0.5_muf0.5_R8.yoda/PAPER_FIN_R8/ch_l05_pT_120_150
DrawOnly=/zj_ps_nlo_mer_mur0.5_muf0.5_R8.yoda/PAPER_FIN_R8/ch_l05_pT_120_150
Legend=1
LogY=1
# END PLOT

# BEGIN HISTO1D /zj_ps_nlo_mer_mur0.5_muf0.5_R8.yoda/PAPER_FIN_R8/ch_l05_pT_120_150
LineColor=red
LineStyle=solid
Path=/zj_ps_nlo_mer_mur0.5_muf0.5_R8.yoda/PAPER_FIN_R8/ch_l05_pT_120_150
Title=zj_ps_nlo_mer_mur0.5_muf0.5_R8
XLabel=~
YLabel=~
# xlow	 xhigh	 val	 errminus	 errplus
-7.000000e+00	-6.930000e+00	0.000000e+00	0.000000e+00	0.000000e+00
-6.930000e+00	-6.860000e+00	8.486300e+10	2.901897e+09	2.901897e+09
-6.860000e+00	-6.790000e+00	0.000000e+00	0.000000e+00	0.000000e+00
-6.790000e+00	-6.720000e+00	-2.772636e+01	2.765063e+01	2.765063e+01
-6.720000e+00	-6.650000e+00	6.660203e-04	6.660203e-04	6.660203e-04
-6.650000e+00	-6.580000e+00	-2.235339e+01	2.234900e+01	2.234900e+01
-6.580000e+00	-6.510000e+00	4.231159e-02	4.231158e-02	4.231158e-02
-6.510000e+00	-6.440000e+00	-6.127929e+00	5.658806e+00	5.658806e+00
-6.440000e+00	-6.370000e+00	0.000000e+00	0.000000e+00	0.000000e+00
-6.370000e+00	-6.300000e+00	-3.998111e-01	3.998117e-01	3.998117e-01
-6.300000e+00	-6.230000e+00	2.627031e+00	3.174427e+00	3.174427e+00
-6.230000e+00	-6.160000e+00	-3.346150e+01	3.349107e+01	3.349107e+01
-6.160000e+00	-6.090000e+00	1.572971e+00	5.641685e+00	5.641685e+00
-6.090000e+00	-6.020000e+00	-1.661136e+02	1.653902e+02	1.653902e+02
-6.020000e+00	-5.950000e+00	5.641126e-01	6.048046e-01	6.048046e-01
-5.950000e+00	-5.880000e+00	-6.660023e+02	3.869272e+02	3.869272e+02
-5.880000e+00	-5.810000e+00	3.650404e+00	1.874904e+01	1.874904e+01
-5.810000e+00	-5.740000e+00	1.492119e+02	1.624540e+02	1.624540e+02
-5.740000e+00	-5.670000e+00	-6.811114e+01	4.830078e+01	4.830078e+01
-5.670000e+00	-5.600000e+00	-4.361477e+01	3.726269e+01	3.726269e+01
-5.600000e+00	-5.530000e+00	9.395094e+01	1.055342e+02	1.055342e+02
-5.530000e+00	-5.460000e+00	-2.549486e+00	2.171805e+01	2.171805e+01
-5.460000e+00	-5.390000e+00	-2.263506e+02	1.732255e+02	1.732255e+02
-5.390000e+00	-5.320000e+00	-4.208486e+01	3.524012e+01	3.524012e+01
-5.320000e+00	-5.250000e+00	-2.350719e+02	3.076717e+02	3.076717e+02
-5.250000e+00	-5.180000e+00	-3.264853e+02	3.052444e+02	3.052444e+02
-5.180000e+00	-5.110000e+00	-6.160599e+01	8.210681e+01	8.210681e+01
-5.110000e+00	-5.040000e+00	-2.498097e+01	3.564361e+01	3.564361e+01
-5.040000e+00	-4.970000e+00	-4.275911e+03	3.708086e+03	3.708086e+03
-4.970000e+00	-4.900000e+00	-1.623219e+02	2.579618e+02	2.579618e+02
-4.900000e+00	-4.830000e+00	-4.990456e+00	4.855912e+02	4.855912e+02
-4.830000e+00	-4.760000e+00	9.819796e+03	1.241122e+04	1.241122e+04
-4.760000e+00	-4.690000e+00	-9.405309e+02	6.494839e+02	6.494839e+02
-4.690000e+00	-4.620000e+00	1.028263e+04	1.473039e+04	1.473039e+04
-4.620000e+00	-4.550000e+00	-9.251267e+03	5.494381e+03	5.494381e+03
-4.550000e+00	-4.480000e+00	-9.642137e+02	1.593360e+03	1.593360e+03
-4.480000e+00	-4.410000e+00	3.646000e+04	2.939733e+04	2.939733e+04
-4.410000e+00	-4.340000e+00	4.504344e+04	1.802987e+05	1.802987e+05
-4.340000e+00	-4.270000e+00	5.401346e+05	5.992701e+05	5.992701e+05
-4.270000e+00	-4.200000e+00	3.101716e+05	2.085904e+05	2.085904e+05
-4.200000e+00	-4.130000e+00	3.169543e+05	2.628838e+05	2.628838e+05
-4.130000e+00	-4.060000e+00	2.541003e+06	2.261351e+06	2.261351e+06
-4.060000e+00	-3.990000e+00	2.799464e+06	1.589045e+06	1.589045e+06
-3.990000e+00	-3.920000e+00	2.591219e+06	2.731776e+06	2.731776e+06
-3.920000e+00	-3.850000e+00	5.750697e+06	3.320388e+06	3.320388e+06
-3.850000e+00	-3.780000e+00	1.081884e+07	3.092954e+06	3.092954e+06
-3.780000e+00	-3.710000e+00	-1.362829e+07	1.551175e+07	1.551175e+07
-3.710000e+00	-3.640000e+00	1.053960e+07	3.821523e+06	3.821523e+06
-3.640000e+00	-3.570000e+00	1.106158e+07	7.947294e+06	7.947294e+06
-3.570000e+00	-3.500000e+00	7.983646e+06	3.139705e+06	3.139705e+06
-3.500000e+00	-3.430000e+00	1.086573e+07	5.056602e+06	5.056602e+06
-3.430000e+00	-3.360000e+00	1.048495e+07	2.828127e+06	2.828127e+06
-3.360000e+00	-3.290000e+00	1.928219e+07	5.236516e+06	5.236516e+06
-3.290000e+00	-3.220000e+00	1.724673e+07	6.088898e+06	6.088898e+06
-3.220000e+00	-3.150000e+00	2.293180e+07	4.239793e+06	4.239793e+06
-3.150000e+00	-3.080000e+00	2.156613e+07	1.009386e+07	1.009386e+07
-3.080000e+00	-3.010000e+00	3.157256e+07	1.083892e+07	1.083892e+07
-3.010000e+00	-2.940000e+00	3.329960e+07	1.328206e+07	1.328206e+07
-2.940000e+00	-2.870000e+00	5.354043e+07	1.178510e+07	1.178510e+07
-2.870000e+00	-2.800000e+00	7.903889e+07	1.481602e+07	1.481602e+07
-2.800000e+00	-2.730000e+00	7.142979e+07	1.099467e+07	1.099467e+07
-2.730000e+00	-2.660000e+00	1.015153e+08	1.417429e+07	1.417429e+07
-2.660000e+00	-2.590000e+00	1.069498e+08	2.998636e+07	2.998636e+07
-2.590000e+00	-2.520000e+00	2.085184e+08	2.388220e+07	2.388220e+07
-2.520000e+00	-2.450000e+00	1.280642e+08	2.743437e+07	2.743437e+07
-2.450000e+00	-2.380000e+00	2.596977e+08	5.878029e+07	5.878029e+07
-2.380000e+00	-2.310000e+00	2.543344e+08	2.304643e+07	2.304643e+07
-2.310000e+00	-2.240000e+00	2.786366e+08	2.709562e+07	2.709562e+07
-2.240000e+00	-2.170000e+00	3.013430e+08	3.928784e+07	3.928784e+07
-2.170000e+00	-2.100000e+00	6.596086e+08	2.384303e+08	2.384303e+08
-2.100000e+00	-2.030000e+00	4.180853e+08	3.527904e+07	3.527904e+07
-2.030000e+00	-1.960000e+00	5.066216e+08	4.555647e+07	4.555647e+07
-1.960000e+00	-1.890000e+00	5.483200e+08	3.967368e+07	3.967368e+07
-1.890000e+00	-1.820000e+00	5.766684e+08	5.174354e+07	5.174354e+07
-1.820000e+00	-1.750000e+00	7.016310e+08	7.038850e+07	7.038850e+07
-1.750000e+00	-1.680000e+00	8.088197e+08	4.388238e+07	4.388238e+07
-1.680000e+00	-1.610000e+00	1.017525e+09	7.710119e+07	7.710119e+07
-1.610000e+00	-1.540000e+00	1.085200e+09	5.978079e+07	5.978079e+07
-1.540000e+00	-1.470000e+00	1.117457e+09	5.959064e+07	5.959064e+07
-1.470000e+00	-1.400000e+00	1.503291e+09	1.616743e+08	1.616743e+08
-1.400000e+00	-1.330000e+00	1.952791e+09	2.287148e+08	2.287148e+08
-1.330000e+00	-1.260000e+00	1.751254e+09	8.342774e+07	8.342774e+07
-1.260000e+00	-1.190000e+00	2.158091e+09	7.755964e+07	7.755964e+07
-1.190000e+00	-1.120000e+00	2.491844e+09	8.928485e+07	8.928485e+07
-1.120000e+00	-1.050000e+00	3.385821e+09	4.537636e+08	4.537636e+08
-1.050000e+00	-9.800000e-01	3.018703e+09	1.023517e+08	1.023517e+08
-9.800000e-01	-9.100000e-01	3.207233e+09	1.083856e+08	1.083856e+08
-9.100000e-01	-8.400000e-01	3.398826e+09	1.158132e+08	1.158132e+08
-8.400000e-01	-7.700000e-01	3.520086e+09	1.598008e+08	1.598008e+08
-7.700000e-01	-7.000000e-01	3.429941e+09	1.166093e+08	1.166093e+08
-7.000000e-01	-6.300000e-01	3.022864e+09	1.091219e+08	1.091219e+08
-6.300000e-01	-5.600000e-01	2.860783e+09	1.065280e+08	1.065280e+08
-5.600000e-01	-4.900000e-01	2.785953e+09	7.750234e+07	7.750234e+07
-4.900000e-01	-4.200000e-01	2.313427e+09	7.913386e+07	7.913386e+07
-4.200000e-01	-3.500000e-01	1.705510e+09	6.391753e+07	6.391753e+07
-3.500000e-01	-2.800000e-01	8.068173e+08	3.723748e+07	3.723748e+07
-2.800000e-01	-2.100000e-01	1.867363e+08	1.917091e+07	1.917091e+07
-2.100000e-01	-1.400000e-01	1.727643e+06	9.602804e+06	9.602804e+06
-1.400000e-01	-7.000000e-02	-4.310519e+04	7.373957e+04	7.373957e+04
-7.000000e-02	0.000000e+00	0.000000e+00	0.000000e+00	0.000000e+00
# END HISTO1D

