# BEGIN PLOT
LegendOnly=/zj_ps_nlo_mer_mur0.5_muf0.5_R8.yoda/PAPER_FIN_R8/ch_l05_pT_88_120
DrawOnly=/zj_ps_nlo_mer_mur0.5_muf0.5_R8.yoda/PAPER_FIN_R8/ch_l05_pT_88_120
Legend=1
LogY=1
# END PLOT

# BEGIN HISTO1D /zj_ps_nlo_mer_mur0.5_muf0.5_R8.yoda/PAPER_FIN_R8/ch_l05_pT_88_120
LineColor=red
LineStyle=solid
Path=/zj_ps_nlo_mer_mur0.5_muf0.5_R8.yoda/PAPER_FIN_R8/ch_l05_pT_88_120
Title=zj_ps_nlo_mer_mur0.5_muf0.5_R8
XLabel=~
YLabel=~
# xlow	 xhigh	 val	 errminus	 errplus
-7.000000e+00	-6.930000e+00	0.000000e+00	0.000000e+00	0.000000e+00
-6.930000e+00	-6.860000e+00	1.925849e+11	3.188321e+09	3.188321e+09
-6.860000e+00	-6.790000e+00	0.000000e+00	0.000000e+00	0.000000e+00
-6.790000e+00	-6.720000e+00	-3.469666e-03	3.632735e-03	3.632735e-03
-6.720000e+00	-6.650000e+00	-1.504856e-02	1.504856e-02	1.504856e-02
-6.650000e+00	-6.580000e+00	-7.430893e-01	7.418826e-01	7.418826e-01
-6.580000e+00	-6.510000e+00	-4.582463e+00	4.582462e+00	4.582462e+00
-6.510000e+00	-6.440000e+00	7.231923e-03	7.231923e-03	7.231923e-03
-6.440000e+00	-6.370000e+00	-1.236152e+01	1.236717e+01	1.236717e+01
-6.370000e+00	-6.300000e+00	-2.048420e+01	1.343507e+01	1.343507e+01
-6.300000e+00	-6.230000e+00	-1.044213e+00	1.217047e+00	1.217047e+00
-6.230000e+00	-6.160000e+00	-4.691461e+00	1.336115e+01	1.336115e+01
-6.160000e+00	-6.090000e+00	-2.780317e+02	2.626277e+02	2.626277e+02
-6.090000e+00	-6.020000e+00	-1.745317e+02	1.616076e+02	1.616076e+02
-6.020000e+00	-5.950000e+00	-4.247469e+01	4.777261e+01	4.777261e+01
-5.950000e+00	-5.880000e+00	-1.915914e+02	1.444712e+02	1.444712e+02
-5.880000e+00	-5.810000e+00	-4.924156e+01	4.578954e+01	4.578954e+01
-5.810000e+00	-5.740000e+00	-5.726301e+01	1.057537e+02	1.057537e+02
-5.740000e+00	-5.670000e+00	-6.071191e+00	6.379092e+00	6.379092e+00
-5.670000e+00	-5.600000e+00	-5.063324e+01	2.604102e+01	2.604102e+01
-5.600000e+00	-5.530000e+00	4.356119e+02	1.288596e+03	1.288596e+03
-5.530000e+00	-5.460000e+00	-1.118434e+03	8.213650e+02	8.213650e+02
-5.460000e+00	-5.390000e+00	-1.221775e+03	1.234822e+03	1.234822e+03
-5.390000e+00	-5.320000e+00	-2.367250e+01	7.397889e+01	7.397889e+01
-5.320000e+00	-5.250000e+00	-1.871327e+02	1.487085e+02	1.487085e+02
-5.250000e+00	-5.180000e+00	-1.374638e+04	1.453299e+04	1.453299e+04
-5.180000e+00	-5.110000e+00	-2.233643e+03	1.890059e+03	1.890059e+03
-5.110000e+00	-5.040000e+00	-3.378011e+02	1.982305e+02	1.982305e+02
-5.040000e+00	-4.970000e+00	-1.134519e+03	6.896416e+02	6.896416e+02
-4.970000e+00	-4.900000e+00	-1.228801e+03	8.946322e+02	8.946322e+02
-4.900000e+00	-4.830000e+00	-3.721440e+03	3.702487e+03	3.702487e+03
-4.830000e+00	-4.760000e+00	-3.193454e+03	2.620359e+03	2.620359e+03
-4.760000e+00	-4.690000e+00	-4.461540e+03	3.089675e+03	3.089675e+03
-4.690000e+00	-4.620000e+00	1.126979e+05	1.114612e+05	1.114612e+05
-4.620000e+00	-4.550000e+00	-3.085616e+05	3.071849e+05	3.071849e+05
-4.550000e+00	-4.480000e+00	-5.248643e+03	3.377070e+03	3.377070e+03
-4.480000e+00	-4.410000e+00	-2.240773e+03	6.825424e+03	6.825424e+03
-4.410000e+00	-4.340000e+00	-7.179786e+04	4.869822e+04	4.869822e+04
-4.340000e+00	-4.270000e+00	2.711424e+03	1.898990e+05	1.898990e+05
-4.270000e+00	-4.200000e+00	5.537203e+04	5.601654e+04	5.601654e+04
-4.200000e+00	-4.130000e+00	-5.711724e+05	1.018172e+06	1.018172e+06
-4.130000e+00	-4.060000e+00	1.355304e+06	6.732547e+05	6.732547e+05
-4.060000e+00	-3.990000e+00	1.609910e+06	2.166065e+06	2.166065e+06
-3.990000e+00	-3.920000e+00	1.187877e+06	2.381211e+06	2.381211e+06
-3.920000e+00	-3.850000e+00	2.134931e+05	3.534119e+06	3.534119e+06
-3.850000e+00	-3.780000e+00	-5.135490e+07	4.884260e+07	4.884260e+07
-3.780000e+00	-3.710000e+00	7.914173e+06	3.403505e+06	3.403505e+06
-3.710000e+00	-3.640000e+00	1.385513e+07	6.407852e+06	6.407852e+06
-3.640000e+00	-3.570000e+00	5.325870e+06	6.002787e+06	6.002787e+06
-3.570000e+00	-3.500000e+00	3.692300e+07	8.757052e+06	8.757052e+06
-3.500000e+00	-3.430000e+00	2.856019e+07	1.020808e+07	1.020808e+07
-3.430000e+00	-3.360000e+00	2.737547e+07	6.139815e+06	6.139815e+06
-3.360000e+00	-3.290000e+00	7.668156e+06	1.446579e+07	1.446579e+07
-3.290000e+00	-3.220000e+00	2.851086e+07	8.796397e+06	8.796397e+06
-3.220000e+00	-3.150000e+00	2.137230e+07	1.094502e+07	1.094502e+07
-3.150000e+00	-3.080000e+00	8.160590e+06	1.188130e+07	1.188130e+07
-3.080000e+00	-3.010000e+00	5.541910e+07	1.141848e+07	1.141848e+07
-3.010000e+00	-2.940000e+00	7.287086e+07	1.878658e+07	1.878658e+07
-2.940000e+00	-2.870000e+00	2.949280e+07	4.625499e+07	4.625499e+07
-2.870000e+00	-2.800000e+00	8.949956e+07	1.349439e+07	1.349439e+07
-2.800000e+00	-2.730000e+00	1.517071e+08	1.817397e+07	1.817397e+07
-2.730000e+00	-2.660000e+00	1.516067e+08	1.936986e+07	1.936986e+07
-2.660000e+00	-2.590000e+00	1.853010e+08	2.763929e+07	2.763929e+07
-2.590000e+00	-2.520000e+00	1.841274e+08	4.079650e+07	4.079650e+07
-2.520000e+00	-2.450000e+00	3.265719e+08	3.555595e+07	3.555595e+07
-2.450000e+00	-2.380000e+00	3.414267e+08	4.533888e+07	4.533888e+07
-2.380000e+00	-2.310000e+00	3.867204e+08	6.808785e+07	6.808785e+07
-2.310000e+00	-2.240000e+00	5.129121e+08	4.321076e+07	4.321076e+07
-2.240000e+00	-2.170000e+00	6.036186e+08	7.788749e+07	7.788749e+07
-2.170000e+00	-2.100000e+00	6.851107e+08	6.233219e+07	6.233219e+07
-2.100000e+00	-2.030000e+00	7.078681e+08	1.476446e+08	1.476446e+08
-2.030000e+00	-1.960000e+00	9.122054e+08	6.310451e+07	6.310451e+07
-1.960000e+00	-1.890000e+00	9.036861e+08	9.568095e+07	9.568095e+07
-1.890000e+00	-1.820000e+00	1.283932e+09	8.036615e+07	8.036615e+07
-1.820000e+00	-1.750000e+00	1.210837e+09	1.032379e+08	1.032379e+08
-1.750000e+00	-1.680000e+00	1.656377e+09	9.990193e+07	9.990193e+07
-1.680000e+00	-1.610000e+00	1.610821e+09	9.742029e+07	9.742029e+07
-1.610000e+00	-1.540000e+00	2.110416e+09	9.789413e+07	9.789413e+07
-1.540000e+00	-1.470000e+00	2.378121e+09	2.185241e+08	2.185241e+08
-1.470000e+00	-1.400000e+00	2.692526e+09	1.453035e+08	1.453035e+08
-1.400000e+00	-1.330000e+00	2.888580e+09	1.576795e+08	1.576795e+08
-1.330000e+00	-1.260000e+00	3.702586e+09	1.517591e+08	1.517591e+08
-1.260000e+00	-1.190000e+00	3.827733e+09	1.599361e+08	1.599361e+08
-1.190000e+00	-1.120000e+00	4.850301e+09	1.375371e+08	1.375371e+08
-1.120000e+00	-1.050000e+00	5.466274e+09	1.831155e+08	1.831155e+08
-1.050000e+00	-9.800000e-01	6.158484e+09	1.694213e+08	1.694213e+08
-9.800000e-01	-9.100000e-01	6.725506e+09	2.659067e+08	2.659067e+08
-9.100000e-01	-8.400000e-01	6.483509e+09	3.907407e+08	3.907407e+08
-8.400000e-01	-7.700000e-01	6.860274e+09	2.237082e+08	2.237082e+08
-7.700000e-01	-7.000000e-01	6.521769e+09	2.524036e+08	2.524036e+08
-7.000000e-01	-6.300000e-01	7.546240e+09	4.182581e+08	4.182581e+08
-6.300000e-01	-5.600000e-01	6.403801e+09	1.719247e+08	1.719247e+08
-5.600000e-01	-4.900000e-01	5.628946e+09	1.838573e+08	1.838573e+08
-4.900000e-01	-4.200000e-01	4.716234e+09	1.292694e+08	1.292694e+08
-4.200000e-01	-3.500000e-01	3.350171e+09	1.047838e+08	1.047838e+08
-3.500000e-01	-2.800000e-01	1.517264e+09	9.178449e+07	9.178449e+07
-2.800000e-01	-2.100000e-01	4.468727e+08	3.426689e+07	3.426689e+07
-2.100000e-01	-1.400000e-01	4.047846e+07	8.492259e+06	8.492259e+06
-1.400000e-01	-7.000000e-02	-1.363809e+05	2.377586e+05	2.377586e+05
-7.000000e-02	0.000000e+00	0.000000e+00	0.000000e+00	0.000000e+00
# END HISTO1D

