# BEGIN PLOT
LegendOnly=/zj_ps_nlo_mer_mur1_muf1_R4.yoda/PAPER_FIN_R4_CH/lin_l20_pT_50_65
DrawOnly=/zj_ps_nlo_mer_mur1_muf1_R4.yoda/PAPER_FIN_R4_CH/lin_l20_pT_50_65
Legend=1
LogY=1
# END PLOT

# BEGIN HISTO1D /zj_ps_nlo_mer_mur1_muf1_R4.yoda/PAPER_FIN_R4_CH/lin_l20_pT_50_65
LineColor=red
LineStyle=solid
Path=/zj_ps_nlo_mer_mur1_muf1_R4.yoda/PAPER_FIN_R4_CH/lin_l20_pT_50_65
Title=zj_ps_nlo_mer_mur1_muf1_R4
XLabel=~
YLabel=~
# xlow	 xhigh	 val	 errminus	 errplus
0.000000e+00	5.000000e-03	2.776566e+10	3.603363e+09	3.603363e+09
5.000000e-03	1.250000e-02	5.826347e+09	2.003163e+09	2.003163e+09
1.250000e-02	2.250000e-02	3.054745e+09	2.646002e+09	2.646002e+09
2.250000e-02	3.500000e-02	4.673349e+09	1.160573e+09	1.160573e+09
3.500000e-02	5.000000e-02	3.883741e+09	5.108913e+08	5.108913e+08
5.000000e-02	7.000000e-02	2.697496e+09	5.425664e+08	5.425664e+08
7.000000e-02	9.250000e-02	4.653022e+09	2.796034e+09	2.796034e+09
9.250000e-02	1.200000e-01	1.945283e+09	5.985020e+08	5.985020e+08
1.200000e-01	1.520000e-01	1.447020e+09	1.786737e+08	1.786737e+08
1.520000e-01	1.880000e-01	3.617014e+08	2.169671e+08	2.169671e+08
1.880000e-01	2.280000e-01	5.338805e+08	1.080668e+08	1.080668e+08
2.280000e-01	1.000000e+00	1.472487e+07	4.622331e+06	4.622331e+06
# END HISTO1D

