# BEGIN PLOT
LegendOnly=/zj_ps_nlo_mer_mur1_muf1_R4.yoda/PAPER_FIN_R4/SD_l05_pT_88_120
DrawOnly=/zj_ps_nlo_mer_mur1_muf1_R4.yoda/PAPER_FIN_R4/SD_l05_pT_88_120
Legend=1
LogY=1
# END PLOT

# BEGIN HISTO1D /zj_ps_nlo_mer_mur1_muf1_R4.yoda/PAPER_FIN_R4/SD_l05_pT_88_120
LineColor=red
LineStyle=solid
Path=/zj_ps_nlo_mer_mur1_muf1_R4.yoda/PAPER_FIN_R4/SD_l05_pT_88_120
Title=zj_ps_nlo_mer_mur1_muf1_R4
XLabel=~
YLabel=~
# xlow	 xhigh	 val	 errminus	 errplus
-7.000000e+00	-6.930000e+00	0.000000e+00	0.000000e+00	0.000000e+00
-6.930000e+00	-6.860000e+00	7.529536e+10	5.576957e+08	5.576957e+08
-6.860000e+00	-6.790000e+00	0.000000e+00	0.000000e+00	0.000000e+00
-6.790000e+00	-6.720000e+00	0.000000e+00	0.000000e+00	0.000000e+00
-6.720000e+00	-6.650000e+00	0.000000e+00	0.000000e+00	0.000000e+00
-6.650000e+00	-6.580000e+00	0.000000e+00	0.000000e+00	0.000000e+00
-6.580000e+00	-6.510000e+00	0.000000e+00	0.000000e+00	0.000000e+00
-6.510000e+00	-6.440000e+00	0.000000e+00	0.000000e+00	0.000000e+00
-6.440000e+00	-6.370000e+00	0.000000e+00	0.000000e+00	0.000000e+00
-6.370000e+00	-6.300000e+00	0.000000e+00	0.000000e+00	0.000000e+00
-6.300000e+00	-6.230000e+00	0.000000e+00	0.000000e+00	0.000000e+00
-6.230000e+00	-6.160000e+00	0.000000e+00	0.000000e+00	0.000000e+00
-6.160000e+00	-6.090000e+00	0.000000e+00	0.000000e+00	0.000000e+00
-6.090000e+00	-6.020000e+00	0.000000e+00	0.000000e+00	0.000000e+00
-6.020000e+00	-5.950000e+00	0.000000e+00	0.000000e+00	0.000000e+00
-5.950000e+00	-5.880000e+00	0.000000e+00	0.000000e+00	0.000000e+00
-5.880000e+00	-5.810000e+00	0.000000e+00	0.000000e+00	0.000000e+00
-5.810000e+00	-5.740000e+00	0.000000e+00	0.000000e+00	0.000000e+00
-5.740000e+00	-5.670000e+00	0.000000e+00	0.000000e+00	0.000000e+00
-5.670000e+00	-5.600000e+00	0.000000e+00	0.000000e+00	0.000000e+00
-5.600000e+00	-5.530000e+00	0.000000e+00	0.000000e+00	0.000000e+00
-5.530000e+00	-5.460000e+00	0.000000e+00	0.000000e+00	0.000000e+00
-5.460000e+00	-5.390000e+00	0.000000e+00	0.000000e+00	0.000000e+00
-5.390000e+00	-5.320000e+00	0.000000e+00	0.000000e+00	0.000000e+00
-5.320000e+00	-5.250000e+00	0.000000e+00	0.000000e+00	0.000000e+00
-5.250000e+00	-5.180000e+00	0.000000e+00	0.000000e+00	0.000000e+00
-5.180000e+00	-5.110000e+00	0.000000e+00	0.000000e+00	0.000000e+00
-5.110000e+00	-5.040000e+00	0.000000e+00	0.000000e+00	0.000000e+00
-5.040000e+00	-4.970000e+00	0.000000e+00	0.000000e+00	0.000000e+00
-4.970000e+00	-4.900000e+00	0.000000e+00	0.000000e+00	0.000000e+00
-4.900000e+00	-4.830000e+00	0.000000e+00	0.000000e+00	0.000000e+00
-4.830000e+00	-4.760000e+00	0.000000e+00	0.000000e+00	0.000000e+00
-4.760000e+00	-4.690000e+00	0.000000e+00	0.000000e+00	0.000000e+00
-4.690000e+00	-4.620000e+00	0.000000e+00	0.000000e+00	0.000000e+00
-4.620000e+00	-4.550000e+00	0.000000e+00	0.000000e+00	0.000000e+00
-4.550000e+00	-4.480000e+00	0.000000e+00	0.000000e+00	0.000000e+00
-4.480000e+00	-4.410000e+00	0.000000e+00	0.000000e+00	0.000000e+00
-4.410000e+00	-4.340000e+00	0.000000e+00	0.000000e+00	0.000000e+00
-4.340000e+00	-4.270000e+00	0.000000e+00	0.000000e+00	0.000000e+00
-4.270000e+00	-4.200000e+00	0.000000e+00	0.000000e+00	0.000000e+00
-4.200000e+00	-4.130000e+00	0.000000e+00	0.000000e+00	0.000000e+00
-4.130000e+00	-4.060000e+00	0.000000e+00	0.000000e+00	0.000000e+00
-4.060000e+00	-3.990000e+00	0.000000e+00	0.000000e+00	0.000000e+00
-3.990000e+00	-3.920000e+00	0.000000e+00	0.000000e+00	0.000000e+00
-3.920000e+00	-3.850000e+00	0.000000e+00	0.000000e+00	0.000000e+00
-3.850000e+00	-3.780000e+00	0.000000e+00	0.000000e+00	0.000000e+00
-3.780000e+00	-3.710000e+00	0.000000e+00	0.000000e+00	0.000000e+00
-3.710000e+00	-3.640000e+00	0.000000e+00	0.000000e+00	0.000000e+00
-3.640000e+00	-3.570000e+00	0.000000e+00	0.000000e+00	0.000000e+00
-3.570000e+00	-3.500000e+00	0.000000e+00	0.000000e+00	0.000000e+00
-3.500000e+00	-3.430000e+00	0.000000e+00	0.000000e+00	0.000000e+00
-3.430000e+00	-3.360000e+00	0.000000e+00	0.000000e+00	0.000000e+00
-3.360000e+00	-3.290000e+00	0.000000e+00	0.000000e+00	0.000000e+00
-3.290000e+00	-3.220000e+00	0.000000e+00	0.000000e+00	0.000000e+00
-3.220000e+00	-3.150000e+00	0.000000e+00	0.000000e+00	0.000000e+00
-3.150000e+00	-3.080000e+00	0.000000e+00	0.000000e+00	0.000000e+00
-3.080000e+00	-3.010000e+00	0.000000e+00	0.000000e+00	0.000000e+00
-3.010000e+00	-2.940000e+00	0.000000e+00	0.000000e+00	0.000000e+00
-2.940000e+00	-2.870000e+00	0.000000e+00	0.000000e+00	0.000000e+00
-2.870000e+00	-2.800000e+00	9.189764e+00	9.189765e+00	9.189765e+00
-2.800000e+00	-2.730000e+00	2.425966e+01	1.965898e+01	1.965898e+01
-2.730000e+00	-2.660000e+00	-4.323823e+00	4.687748e+00	4.687748e+00
-2.660000e+00	-2.590000e+00	-6.707379e+02	6.707547e+02	6.707547e+02
-2.590000e+00	-2.520000e+00	2.022791e+04	2.023616e+04	2.023616e+04
-2.520000e+00	-2.450000e+00	6.373329e+04	6.841214e+04	6.841214e+04
-2.450000e+00	-2.380000e+00	-3.739001e+05	3.852250e+05	3.852250e+05
-2.380000e+00	-2.310000e+00	1.793324e+05	1.964887e+05	1.964887e+05
-2.310000e+00	-2.240000e+00	4.875223e+05	5.971299e+05	5.971299e+05
-2.240000e+00	-2.170000e+00	-1.572920e+04	3.264560e+05	3.264560e+05
-2.170000e+00	-2.100000e+00	1.431629e+06	7.541608e+05	7.541608e+05
-2.100000e+00	-2.030000e+00	-8.763387e+06	9.375422e+06	9.375422e+06
-2.030000e+00	-1.960000e+00	1.836511e+06	1.749581e+06	1.749581e+06
-1.960000e+00	-1.890000e+00	4.144110e+06	2.597498e+06	2.597498e+06
-1.890000e+00	-1.820000e+00	3.340401e+06	3.284069e+06	3.284069e+06
-1.820000e+00	-1.750000e+00	8.179839e+06	5.217359e+06	5.217359e+06
-1.750000e+00	-1.680000e+00	1.896521e+07	3.661825e+06	3.661825e+06
-1.680000e+00	-1.610000e+00	2.579537e+07	7.719141e+06	7.719141e+06
-1.610000e+00	-1.540000e+00	6.339244e+07	6.202432e+06	6.202432e+06
-1.540000e+00	-1.470000e+00	1.121645e+08	1.502757e+07	1.502757e+07
-1.470000e+00	-1.400000e+00	3.873570e+08	3.986954e+07	3.986954e+07
-1.400000e+00	-1.330000e+00	5.515286e+08	4.520556e+07	4.520556e+07
-1.330000e+00	-1.260000e+00	1.269902e+09	4.130494e+07	4.130494e+07
-1.260000e+00	-1.190000e+00	3.576931e+09	8.376539e+07	8.376539e+07
-1.190000e+00	-1.120000e+00	6.347173e+09	1.107265e+08	1.107265e+08
-1.120000e+00	-1.050000e+00	8.777051e+09	1.131208e+08	1.131208e+08
-1.050000e+00	-9.800000e-01	1.004939e+10	1.278521e+08	1.278521e+08
-9.800000e-01	-9.100000e-01	1.165304e+10	1.440278e+08	1.440278e+08
-9.100000e-01	-8.400000e-01	1.282376e+10	2.184435e+08	2.184435e+08
-8.400000e-01	-7.700000e-01	1.324427e+10	1.520788e+08	1.520788e+08
-7.700000e-01	-7.000000e-01	1.331219e+10	1.619677e+08	1.619677e+08
-7.000000e-01	-6.300000e-01	1.382038e+10	1.732256e+08	1.732256e+08
-6.300000e-01	-5.600000e-01	1.327934e+10	1.361559e+08	1.361559e+08
-5.600000e-01	-4.900000e-01	1.201107e+10	1.276929e+08	1.276929e+08
-4.900000e-01	-4.200000e-01	1.015190e+10	1.410312e+08	1.410312e+08
-4.200000e-01	-3.500000e-01	7.562153e+09	1.163207e+08	1.163207e+08
-3.500000e-01	-2.800000e-01	4.608016e+09	8.226998e+07	8.226998e+07
-2.800000e-01	-2.100000e-01	1.952213e+09	5.442462e+07	5.442462e+07
-2.100000e-01	-1.400000e-01	2.649786e+08	1.731628e+07	1.731628e+07
-1.400000e-01	-7.000000e-02	1.000351e+07	2.217840e+06	2.217840e+06
-7.000000e-02	0.000000e+00	3.795274e+04	3.793360e+04	3.793360e+04
# END HISTO1D

