# BEGIN PLOT
LegendOnly=/zj_ps_nlo_mer_mur1_muf1_R4.yoda/PAPER_FIN_R4/ch_lin_l20_pT_150_186
DrawOnly=/zj_ps_nlo_mer_mur1_muf1_R4.yoda/PAPER_FIN_R4/ch_lin_l20_pT_150_186
Legend=1
LogY=1
# END PLOT

# BEGIN HISTO1D /zj_ps_nlo_mer_mur1_muf1_R4.yoda/PAPER_FIN_R4/ch_lin_l20_pT_150_186
LineColor=red
LineStyle=solid
Path=/zj_ps_nlo_mer_mur1_muf1_R4.yoda/PAPER_FIN_R4/ch_lin_l20_pT_150_186
Title=zj_ps_nlo_mer_mur1_muf1_R4
XLabel=~
YLabel=~
# xlow	 xhigh	 val	 errminus	 errplus
0.000000e+00	5.000000e-03	5.468814e+11	3.524915e+10	3.524915e+10
5.000000e-03	1.250000e-02	2.458657e+10	5.019459e+08	5.019459e+08
1.250000e-02	2.250000e-02	1.488097e+10	2.493384e+08	2.493384e+08
2.250000e-02	3.500000e-02	1.004468e+10	2.199737e+08	2.199737e+08
3.500000e-02	5.000000e-02	6.602010e+09	1.483392e+08	1.483392e+08
5.000000e-02	7.000000e-02	4.407877e+09	1.043152e+08	1.043152e+08
7.000000e-02	9.250000e-02	2.964523e+09	1.392442e+08	1.392442e+08
9.250000e-02	1.200000e-01	1.903612e+09	5.263739e+07	5.263739e+07
1.200000e-01	1.520000e-01	1.252367e+09	3.892715e+07	3.892715e+07
1.520000e-01	1.880000e-01	8.117711e+08	4.348048e+07	4.348048e+07
1.880000e-01	2.280000e-01	4.289875e+08	2.073093e+07	2.073093e+07
2.280000e-01	1.000000e+00	7.681570e+06	7.370559e+05	7.370559e+05
# END HISTO1D

