# BEGIN PLOT
LegendOnly=/herwig_ps_lo_r4_pt150_s1_1e3.yoda/PAPER_FIN_R4/ch_SD_l05_pT_88_120
DrawOnly=/herwig_ps_lo_r4_pt150_s1_1e3.yoda/PAPER_FIN_R4/ch_SD_l05_pT_88_120
Legend=1
LogY=1
# END PLOT

# BEGIN HISTO1D /herwig_ps_lo_r4_pt150_s1_1e3.yoda/PAPER_FIN_R4/ch_SD_l05_pT_88_120
LineColor=red
LineStyle=solid
Path=/herwig_ps_lo_r4_pt150_s1_1e3.yoda/PAPER_FIN_R4/ch_SD_l05_pT_88_120
Title=herwig_ps_lo_r4_pt150_s1_1e3
XLabel=~
YLabel=~
# xlow	 xhigh	 val	 errminus	 errplus
-7.000000e+00	-6.930000e+00	0.000000e+00	0.000000e+00	0.000000e+00
-6.930000e+00	-6.860000e+00	1.006731e+09	1.203535e+05	1.203535e+05
-6.860000e+00	-6.790000e+00	0.000000e+00	0.000000e+00	0.000000e+00
-6.790000e+00	-6.720000e+00	0.000000e+00	0.000000e+00	0.000000e+00
-6.720000e+00	-6.650000e+00	0.000000e+00	0.000000e+00	0.000000e+00
-6.650000e+00	-6.580000e+00	0.000000e+00	0.000000e+00	0.000000e+00
-6.580000e+00	-6.510000e+00	0.000000e+00	0.000000e+00	0.000000e+00
-6.510000e+00	-6.440000e+00	0.000000e+00	0.000000e+00	0.000000e+00
-6.440000e+00	-6.370000e+00	0.000000e+00	0.000000e+00	0.000000e+00
-6.370000e+00	-6.300000e+00	0.000000e+00	0.000000e+00	0.000000e+00
-6.300000e+00	-6.230000e+00	0.000000e+00	0.000000e+00	0.000000e+00
-6.230000e+00	-6.160000e+00	0.000000e+00	0.000000e+00	0.000000e+00
-6.160000e+00	-6.090000e+00	0.000000e+00	0.000000e+00	0.000000e+00
-6.090000e+00	-6.020000e+00	0.000000e+00	0.000000e+00	0.000000e+00
-6.020000e+00	-5.950000e+00	0.000000e+00	0.000000e+00	0.000000e+00
-5.950000e+00	-5.880000e+00	0.000000e+00	0.000000e+00	0.000000e+00
-5.880000e+00	-5.810000e+00	0.000000e+00	0.000000e+00	0.000000e+00
-5.810000e+00	-5.740000e+00	0.000000e+00	0.000000e+00	0.000000e+00
-5.740000e+00	-5.670000e+00	0.000000e+00	0.000000e+00	0.000000e+00
-5.670000e+00	-5.600000e+00	0.000000e+00	0.000000e+00	0.000000e+00
-5.600000e+00	-5.530000e+00	0.000000e+00	0.000000e+00	0.000000e+00
-5.530000e+00	-5.460000e+00	0.000000e+00	0.000000e+00	0.000000e+00
-5.460000e+00	-5.390000e+00	0.000000e+00	0.000000e+00	0.000000e+00
-5.390000e+00	-5.320000e+00	0.000000e+00	0.000000e+00	0.000000e+00
-5.320000e+00	-5.250000e+00	0.000000e+00	0.000000e+00	0.000000e+00
-5.250000e+00	-5.180000e+00	0.000000e+00	0.000000e+00	0.000000e+00
-5.180000e+00	-5.110000e+00	0.000000e+00	0.000000e+00	0.000000e+00
-5.110000e+00	-5.040000e+00	0.000000e+00	0.000000e+00	0.000000e+00
-5.040000e+00	-4.970000e+00	0.000000e+00	0.000000e+00	0.000000e+00
-4.970000e+00	-4.900000e+00	0.000000e+00	0.000000e+00	0.000000e+00
-4.900000e+00	-4.830000e+00	0.000000e+00	0.000000e+00	0.000000e+00
-4.830000e+00	-4.760000e+00	0.000000e+00	0.000000e+00	0.000000e+00
-4.760000e+00	-4.690000e+00	0.000000e+00	0.000000e+00	0.000000e+00
-4.690000e+00	-4.620000e+00	0.000000e+00	0.000000e+00	0.000000e+00
-4.620000e+00	-4.550000e+00	0.000000e+00	0.000000e+00	0.000000e+00
-4.550000e+00	-4.480000e+00	0.000000e+00	0.000000e+00	0.000000e+00
-4.480000e+00	-4.410000e+00	0.000000e+00	0.000000e+00	0.000000e+00
-4.410000e+00	-4.340000e+00	0.000000e+00	0.000000e+00	0.000000e+00
-4.340000e+00	-4.270000e+00	0.000000e+00	0.000000e+00	0.000000e+00
-4.270000e+00	-4.200000e+00	0.000000e+00	0.000000e+00	0.000000e+00
-4.200000e+00	-4.130000e+00	0.000000e+00	0.000000e+00	0.000000e+00
-4.130000e+00	-4.060000e+00	0.000000e+00	0.000000e+00	0.000000e+00
-4.060000e+00	-3.990000e+00	0.000000e+00	0.000000e+00	0.000000e+00
-3.990000e+00	-3.920000e+00	0.000000e+00	0.000000e+00	0.000000e+00
-3.920000e+00	-3.850000e+00	0.000000e+00	0.000000e+00	0.000000e+00
-3.850000e+00	-3.780000e+00	0.000000e+00	0.000000e+00	0.000000e+00
-3.780000e+00	-3.710000e+00	0.000000e+00	0.000000e+00	0.000000e+00
-3.710000e+00	-3.640000e+00	0.000000e+00	0.000000e+00	0.000000e+00
-3.640000e+00	-3.570000e+00	0.000000e+00	0.000000e+00	0.000000e+00
-3.570000e+00	-3.500000e+00	0.000000e+00	0.000000e+00	0.000000e+00
-3.500000e+00	-3.430000e+00	0.000000e+00	0.000000e+00	0.000000e+00
-3.430000e+00	-3.360000e+00	0.000000e+00	0.000000e+00	0.000000e+00
-3.360000e+00	-3.290000e+00	0.000000e+00	0.000000e+00	0.000000e+00
-3.290000e+00	-3.220000e+00	0.000000e+00	0.000000e+00	0.000000e+00
-3.220000e+00	-3.150000e+00	0.000000e+00	0.000000e+00	0.000000e+00
-3.150000e+00	-3.080000e+00	0.000000e+00	0.000000e+00	0.000000e+00
-3.080000e+00	-3.010000e+00	0.000000e+00	0.000000e+00	0.000000e+00
-3.010000e+00	-2.940000e+00	0.000000e+00	0.000000e+00	0.000000e+00
-2.940000e+00	-2.870000e+00	0.000000e+00	0.000000e+00	0.000000e+00
-2.870000e+00	-2.800000e+00	0.000000e+00	0.000000e+00	0.000000e+00
-2.800000e+00	-2.730000e+00	0.000000e+00	0.000000e+00	0.000000e+00
-2.730000e+00	-2.660000e+00	0.000000e+00	0.000000e+00	0.000000e+00
-2.660000e+00	-2.590000e+00	0.000000e+00	0.000000e+00	0.000000e+00
-2.590000e+00	-2.520000e+00	0.000000e+00	0.000000e+00	0.000000e+00
-2.520000e+00	-2.450000e+00	0.000000e+00	0.000000e+00	0.000000e+00
-2.450000e+00	-2.380000e+00	0.000000e+00	0.000000e+00	0.000000e+00
-2.380000e+00	-2.310000e+00	1.428571e+01	1.428571e+01	1.428571e+01
-2.310000e+00	-2.240000e+00	1.428571e+01	1.428571e+01	1.428571e+01
-2.240000e+00	-2.170000e+00	2.857143e+01	2.020305e+01	2.020305e+01
-2.170000e+00	-2.100000e+00	0.000000e+00	0.000000e+00	0.000000e+00
-2.100000e+00	-2.030000e+00	1.428571e+01	1.428571e+01	1.428571e+01
-2.030000e+00	-1.960000e+00	2.857143e+01	2.020305e+01	2.020305e+01
-1.960000e+00	-1.890000e+00	8.571429e+01	3.499271e+01	3.499271e+01
-1.890000e+00	-1.820000e+00	1.142857e+02	4.040610e+01	4.040610e+01
-1.820000e+00	-1.750000e+00	2.285714e+02	5.714286e+01	5.714286e+01
-1.750000e+00	-1.680000e+00	5.714286e+02	9.035079e+01	9.035079e+01
-1.680000e+00	-1.610000e+00	9.142857e+02	1.142857e+02	1.142857e+02
-1.610000e+00	-1.540000e+00	1.814286e+03	1.609918e+02	1.609918e+02
-1.540000e+00	-1.470000e+00	3.757143e+03	2.316754e+02	2.316754e+02
-1.470000e+00	-1.400000e+00	7.716399e+03	3.320677e+02	3.320677e+02
-1.400000e+00	-1.330000e+00	1.418571e+04	4.501700e+02	4.501700e+02
-1.330000e+00	-1.260000e+00	5.078571e+04	8.517689e+02	8.517689e+02
-1.260000e+00	-1.190000e+00	2.765393e+05	1.987655e+03	1.987655e+03
-1.190000e+00	-1.120000e+00	7.470781e+05	3.267161e+03	3.267161e+03
-1.120000e+00	-1.050000e+00	1.416320e+06	4.498444e+03	4.498444e+03
-1.050000e+00	-9.800000e-01	2.267573e+06	5.693564e+03	5.693564e+03
-9.800000e-01	-9.100000e-01	2.862980e+06	6.396970e+03	6.396970e+03
-9.100000e-01	-8.400000e-01	3.436593e+06	7.009721e+03	7.009721e+03
-8.400000e-01	-7.700000e-01	4.078419e+06	7.637862e+03	7.637862e+03
-7.700000e-01	-7.000000e-01	4.609784e+06	8.116134e+03	8.116134e+03
-7.000000e-01	-6.300000e-01	4.974146e+06	8.435885e+03	8.435885e+03
-6.300000e-01	-5.600000e-01	5.080370e+06	8.825496e+03	8.825496e+03
-5.600000e-01	-4.900000e-01	4.824560e+06	8.304525e+03	8.304525e+03
-4.900000e-01	-4.200000e-01	4.072321e+06	7.629276e+03	7.629276e+03
-4.200000e-01	-3.500000e-01	2.826047e+06	6.357162e+03	6.357162e+03
-3.500000e-01	-2.800000e-01	1.248557e+06	4.225206e+03	4.225206e+03
-2.800000e-01	-2.100000e-01	3.182500e+05	2.133961e+03	2.133961e+03
-2.100000e-01	-1.400000e-01	2.080000e+04	5.451081e+02	5.451081e+02
-1.400000e-01	-7.000000e-02	2.142857e+02	5.532833e+01	5.532833e+01
-7.000000e-02	0.000000e+00	0.000000e+00	0.000000e+00	0.000000e+00
# END HISTO1D

