# BEGIN PLOT
LegendOnly=/merge.yoda/PAPER_FIN_R4/lin_l10_pT_186_254
DrawOnly=/merge.yoda/PAPER_FIN_R4/lin_l10_pT_186_254
Legend=1
LogY=1
# END PLOT

# BEGIN HISTO1D /merge.yoda/PAPER_FIN_R4/lin_l10_pT_186_254
LineColor=red
LineStyle=solid
Path=/merge.yoda/PAPER_FIN_R4/lin_l10_pT_186_254
Title=merge
XLabel=~
YLabel=~
# xlow	 xhigh	 val	 errminus	 errplus
0.000000e+00	1.050000e-01	1.103979e+08	3.242543e+04	3.242543e+04
1.050000e-01	1.650000e-01	8.107903e+07	3.676027e+04	3.676027e+04
1.650000e-01	2.300000e-01	4.909157e+07	2.748190e+04	2.748190e+04
2.300000e-01	3.050000e-01	2.800284e+07	1.932282e+04	1.932282e+04
3.050000e-01	3.800000e-01	1.525491e+07	1.426179e+04	1.426179e+04
3.800000e-01	4.600000e-01	7.742712e+06	9.837881e+03	9.837881e+03
4.600000e-01	5.500000e-01	3.056322e+06	5.827447e+03	5.827447e+03
5.500000e-01	1.000000e+00	1.823111e+05	6.365028e+02	6.365028e+02
# END HISTO1D

