# BEGIN PLOT
LegendOnly=/central.yoda/PAPER_FIN_R8/XS_CUTS_pT_50_65
DrawOnly=/central.yoda/PAPER_FIN_R8/XS_CUTS_pT_50_65
Legend=1
LogY=1
# END PLOT

# BEGIN HISTO1D /central.yoda/PAPER_FIN_R8/XS_CUTS_pT_50_65
LineColor=red
LineStyle=solid
Path=/central.yoda/PAPER_FIN_R8/XS_CUTS_pT_50_65
ScaledBy=1.00000000000000000e+00
Title=central
XLabel=~
YLabel=~
# xlow	 xhigh	 val	 errminus	 errplus
-5.000000e-01	5.000000e-01	1.971244e-06	1.971244e-06	1.971244e-06
# END HISTO1D

