# BEGIN PLOT
LegendOnly=/zj_ps_nlo_mer_mur2_muf1_R8.yoda/PAPER_FIN_R8/ch_SD_l05_pT_326_408
DrawOnly=/zj_ps_nlo_mer_mur2_muf1_R8.yoda/PAPER_FIN_R8/ch_SD_l05_pT_326_408
Legend=1
LogY=1
# END PLOT

# BEGIN HISTO1D /zj_ps_nlo_mer_mur2_muf1_R8.yoda/PAPER_FIN_R8/ch_SD_l05_pT_326_408
LineColor=red
LineStyle=solid
Path=/zj_ps_nlo_mer_mur2_muf1_R8.yoda/PAPER_FIN_R8/ch_SD_l05_pT_326_408
Title=zj_ps_nlo_mer_mur2_muf1_R8
XLabel=~
YLabel=~
# xlow	 xhigh	 val	 errminus	 errplus
-7.000000e+00	-6.930000e+00	0.000000e+00	0.000000e+00	0.000000e+00
-6.930000e+00	-6.860000e+00	1.220149e+08	6.987536e+06	6.987536e+06
-6.860000e+00	-6.790000e+00	0.000000e+00	0.000000e+00	0.000000e+00
-6.790000e+00	-6.720000e+00	0.000000e+00	0.000000e+00	0.000000e+00
-6.720000e+00	-6.650000e+00	0.000000e+00	0.000000e+00	0.000000e+00
-6.650000e+00	-6.580000e+00	0.000000e+00	0.000000e+00	0.000000e+00
-6.580000e+00	-6.510000e+00	0.000000e+00	0.000000e+00	0.000000e+00
-6.510000e+00	-6.440000e+00	0.000000e+00	0.000000e+00	0.000000e+00
-6.440000e+00	-6.370000e+00	0.000000e+00	0.000000e+00	0.000000e+00
-6.370000e+00	-6.300000e+00	0.000000e+00	0.000000e+00	0.000000e+00
-6.300000e+00	-6.230000e+00	0.000000e+00	0.000000e+00	0.000000e+00
-6.230000e+00	-6.160000e+00	0.000000e+00	0.000000e+00	0.000000e+00
-6.160000e+00	-6.090000e+00	0.000000e+00	0.000000e+00	0.000000e+00
-6.090000e+00	-6.020000e+00	0.000000e+00	0.000000e+00	0.000000e+00
-6.020000e+00	-5.950000e+00	0.000000e+00	0.000000e+00	0.000000e+00
-5.950000e+00	-5.880000e+00	0.000000e+00	0.000000e+00	0.000000e+00
-5.880000e+00	-5.810000e+00	0.000000e+00	0.000000e+00	0.000000e+00
-5.810000e+00	-5.740000e+00	0.000000e+00	0.000000e+00	0.000000e+00
-5.740000e+00	-5.670000e+00	0.000000e+00	0.000000e+00	0.000000e+00
-5.670000e+00	-5.600000e+00	0.000000e+00	0.000000e+00	0.000000e+00
-5.600000e+00	-5.530000e+00	0.000000e+00	0.000000e+00	0.000000e+00
-5.530000e+00	-5.460000e+00	0.000000e+00	0.000000e+00	0.000000e+00
-5.460000e+00	-5.390000e+00	0.000000e+00	0.000000e+00	0.000000e+00
-5.390000e+00	-5.320000e+00	0.000000e+00	0.000000e+00	0.000000e+00
-5.320000e+00	-5.250000e+00	0.000000e+00	0.000000e+00	0.000000e+00
-5.250000e+00	-5.180000e+00	0.000000e+00	0.000000e+00	0.000000e+00
-5.180000e+00	-5.110000e+00	0.000000e+00	0.000000e+00	0.000000e+00
-5.110000e+00	-5.040000e+00	0.000000e+00	0.000000e+00	0.000000e+00
-5.040000e+00	-4.970000e+00	0.000000e+00	0.000000e+00	0.000000e+00
-4.970000e+00	-4.900000e+00	0.000000e+00	0.000000e+00	0.000000e+00
-4.900000e+00	-4.830000e+00	0.000000e+00	0.000000e+00	0.000000e+00
-4.830000e+00	-4.760000e+00	0.000000e+00	0.000000e+00	0.000000e+00
-4.760000e+00	-4.690000e+00	0.000000e+00	0.000000e+00	0.000000e+00
-4.690000e+00	-4.620000e+00	0.000000e+00	0.000000e+00	0.000000e+00
-4.620000e+00	-4.550000e+00	0.000000e+00	0.000000e+00	0.000000e+00
-4.550000e+00	-4.480000e+00	0.000000e+00	0.000000e+00	0.000000e+00
-4.480000e+00	-4.410000e+00	0.000000e+00	0.000000e+00	0.000000e+00
-4.410000e+00	-4.340000e+00	0.000000e+00	0.000000e+00	0.000000e+00
-4.340000e+00	-4.270000e+00	0.000000e+00	0.000000e+00	0.000000e+00
-4.270000e+00	-4.200000e+00	0.000000e+00	0.000000e+00	0.000000e+00
-4.200000e+00	-4.130000e+00	0.000000e+00	0.000000e+00	0.000000e+00
-4.130000e+00	-4.060000e+00	0.000000e+00	0.000000e+00	0.000000e+00
-4.060000e+00	-3.990000e+00	0.000000e+00	0.000000e+00	0.000000e+00
-3.990000e+00	-3.920000e+00	0.000000e+00	0.000000e+00	0.000000e+00
-3.920000e+00	-3.850000e+00	0.000000e+00	0.000000e+00	0.000000e+00
-3.850000e+00	-3.780000e+00	0.000000e+00	0.000000e+00	0.000000e+00
-3.780000e+00	-3.710000e+00	0.000000e+00	0.000000e+00	0.000000e+00
-3.710000e+00	-3.640000e+00	0.000000e+00	0.000000e+00	0.000000e+00
-3.640000e+00	-3.570000e+00	0.000000e+00	0.000000e+00	0.000000e+00
-3.570000e+00	-3.500000e+00	0.000000e+00	0.000000e+00	0.000000e+00
-3.500000e+00	-3.430000e+00	0.000000e+00	0.000000e+00	0.000000e+00
-3.430000e+00	-3.360000e+00	0.000000e+00	0.000000e+00	0.000000e+00
-3.360000e+00	-3.290000e+00	0.000000e+00	0.000000e+00	0.000000e+00
-3.290000e+00	-3.220000e+00	0.000000e+00	0.000000e+00	0.000000e+00
-3.220000e+00	-3.150000e+00	0.000000e+00	0.000000e+00	0.000000e+00
-3.150000e+00	-3.080000e+00	0.000000e+00	0.000000e+00	0.000000e+00
-3.080000e+00	-3.010000e+00	-1.668593e+00	1.316128e+00	1.316128e+00
-3.010000e+00	-2.940000e+00	3.306050e+03	2.393181e+03	2.393181e+03
-2.940000e+00	-2.870000e+00	3.003800e+02	2.895636e+02	2.895636e+02
-2.870000e+00	-2.800000e+00	6.574963e+04	5.730808e+04	5.730808e+04
-2.800000e+00	-2.730000e+00	9.941024e+04	8.618202e+04	8.618202e+04
-2.730000e+00	-2.660000e+00	2.972407e+04	3.263939e+04	3.263939e+04
-2.660000e+00	-2.590000e+00	5.601366e+04	3.099510e+04	3.099510e+04
-2.590000e+00	-2.520000e+00	2.112497e+04	2.170938e+04	2.170938e+04
-2.520000e+00	-2.450000e+00	1.114740e+05	8.969785e+04	8.969785e+04
-2.450000e+00	-2.380000e+00	9.042751e+04	8.003368e+04	8.003368e+04
-2.380000e+00	-2.310000e+00	4.852819e+05	1.465704e+05	1.465704e+05
-2.310000e+00	-2.240000e+00	5.846261e+05	1.392807e+05	1.392807e+05
-2.240000e+00	-2.170000e+00	9.663080e+05	3.953275e+05	3.953275e+05
-2.170000e+00	-2.100000e+00	5.971651e+06	1.647606e+06	1.647606e+06
-2.100000e+00	-2.030000e+00	8.673467e+06	1.157145e+06	1.157145e+06
-2.030000e+00	-1.960000e+00	1.388432e+07	2.598610e+06	2.598610e+06
-1.960000e+00	-1.890000e+00	2.035217e+07	2.025334e+06	2.025334e+06
-1.890000e+00	-1.820000e+00	2.806340e+07	1.990527e+06	1.990527e+06
-1.820000e+00	-1.750000e+00	3.776459e+07	2.755756e+06	2.755756e+06
-1.750000e+00	-1.680000e+00	5.670477e+07	6.730303e+06	6.730303e+06
-1.680000e+00	-1.610000e+00	7.125127e+07	3.770605e+06	3.770605e+06
-1.610000e+00	-1.540000e+00	1.095347e+08	4.347789e+06	4.347789e+06
-1.540000e+00	-1.470000e+00	1.345656e+08	7.117514e+06	7.117514e+06
-1.470000e+00	-1.400000e+00	1.848171e+08	5.799551e+06	5.799551e+06
-1.400000e+00	-1.330000e+00	2.522926e+08	8.531582e+06	8.531582e+06
-1.330000e+00	-1.260000e+00	3.163134e+08	1.441278e+07	1.441278e+07
-1.260000e+00	-1.190000e+00	4.148859e+08	2.083126e+07	2.083126e+07
-1.190000e+00	-1.120000e+00	4.602527e+08	1.057634e+07	1.057634e+07
-1.120000e+00	-1.050000e+00	5.153476e+08	1.248147e+07	1.248147e+07
-1.050000e+00	-9.800000e-01	5.245353e+08	1.360147e+07	1.360147e+07
-9.800000e-01	-9.100000e-01	5.070729e+08	1.479490e+07	1.479490e+07
-9.100000e-01	-8.400000e-01	4.789509e+08	1.244841e+07	1.244841e+07
-8.400000e-01	-7.700000e-01	5.120213e+08	1.072155e+07	1.072155e+07
-7.700000e-01	-7.000000e-01	5.276437e+08	1.314204e+07	1.314204e+07
-7.000000e-01	-6.300000e-01	5.667680e+08	1.382836e+07	1.382836e+07
-6.300000e-01	-5.600000e-01	5.777683e+08	1.125691e+07	1.125691e+07
-5.600000e-01	-4.900000e-01	5.411441e+08	2.076844e+07	2.076844e+07
-4.900000e-01	-4.200000e-01	5.379326e+08	1.163856e+07	1.163856e+07
-4.200000e-01	-3.500000e-01	4.331349e+08	1.224853e+07	1.224853e+07
-3.500000e-01	-2.800000e-01	3.063566e+08	8.911926e+06	8.911926e+06
-2.800000e-01	-2.100000e-01	1.609974e+08	7.768516e+06	7.768516e+06
-2.100000e-01	-1.400000e-01	3.272554e+07	3.182175e+06	3.182175e+06
-1.400000e-01	-7.000000e-02	1.339180e+06	4.643312e+05	4.643312e+05
-7.000000e-02	0.000000e+00	9.129173e+01	9.090766e+01	9.090766e+01
# END HISTO1D

