# BEGIN PLOT
LegendOnly=/zj_ps_nlo_mer_mur2_muf1_R8.yoda/PAPER_FIN_R8/ch_SD_l10_pT_88_120
DrawOnly=/zj_ps_nlo_mer_mur2_muf1_R8.yoda/PAPER_FIN_R8/ch_SD_l10_pT_88_120
Legend=1
LogY=1
# END PLOT

# BEGIN HISTO1D /zj_ps_nlo_mer_mur2_muf1_R8.yoda/PAPER_FIN_R8/ch_SD_l10_pT_88_120
LineColor=red
LineStyle=solid
Path=/zj_ps_nlo_mer_mur2_muf1_R8.yoda/PAPER_FIN_R8/ch_SD_l10_pT_88_120
Title=zj_ps_nlo_mer_mur2_muf1_R8
XLabel=~
YLabel=~
# xlow	 xhigh	 val	 errminus	 errplus
-7.000000e+00	-6.930000e+00	0.000000e+00	0.000000e+00	0.000000e+00
-6.930000e+00	-6.860000e+00	3.969910e+09	5.001139e+07	5.001139e+07
-6.860000e+00	-6.790000e+00	0.000000e+00	0.000000e+00	0.000000e+00
-6.790000e+00	-6.720000e+00	0.000000e+00	0.000000e+00	0.000000e+00
-6.720000e+00	-6.650000e+00	0.000000e+00	0.000000e+00	0.000000e+00
-6.650000e+00	-6.580000e+00	0.000000e+00	0.000000e+00	0.000000e+00
-6.580000e+00	-6.510000e+00	0.000000e+00	0.000000e+00	0.000000e+00
-6.510000e+00	-6.440000e+00	0.000000e+00	0.000000e+00	0.000000e+00
-6.440000e+00	-6.370000e+00	0.000000e+00	0.000000e+00	0.000000e+00
-6.370000e+00	-6.300000e+00	0.000000e+00	0.000000e+00	0.000000e+00
-6.300000e+00	-6.230000e+00	0.000000e+00	0.000000e+00	0.000000e+00
-6.230000e+00	-6.160000e+00	0.000000e+00	0.000000e+00	0.000000e+00
-6.160000e+00	-6.090000e+00	0.000000e+00	0.000000e+00	0.000000e+00
-6.090000e+00	-6.020000e+00	0.000000e+00	0.000000e+00	0.000000e+00
-6.020000e+00	-5.950000e+00	0.000000e+00	0.000000e+00	0.000000e+00
-5.950000e+00	-5.880000e+00	0.000000e+00	0.000000e+00	0.000000e+00
-5.880000e+00	-5.810000e+00	0.000000e+00	0.000000e+00	0.000000e+00
-5.810000e+00	-5.740000e+00	0.000000e+00	0.000000e+00	0.000000e+00
-5.740000e+00	-5.670000e+00	5.969783e+02	5.969783e+02	5.969783e+02
-5.670000e+00	-5.600000e+00	-2.528344e-02	2.528344e-02	2.528344e-02
-5.600000e+00	-5.530000e+00	0.000000e+00	0.000000e+00	0.000000e+00
-5.530000e+00	-5.460000e+00	0.000000e+00	0.000000e+00	0.000000e+00
-5.460000e+00	-5.390000e+00	0.000000e+00	0.000000e+00	0.000000e+00
-5.390000e+00	-5.320000e+00	0.000000e+00	0.000000e+00	0.000000e+00
-5.320000e+00	-5.250000e+00	0.000000e+00	0.000000e+00	0.000000e+00
-5.250000e+00	-5.180000e+00	0.000000e+00	0.000000e+00	0.000000e+00
-5.180000e+00	-5.110000e+00	7.513811e+03	7.513810e+03	7.513810e+03
-5.110000e+00	-5.040000e+00	4.481750e+02	4.481750e+02	4.481750e+02
-5.040000e+00	-4.970000e+00	-1.079420e+02	1.131079e+02	1.131079e+02
-4.970000e+00	-4.900000e+00	1.178917e+03	1.165069e+03	1.165069e+03
-4.900000e+00	-4.830000e+00	9.063134e+02	8.156943e+02	8.156943e+02
-4.830000e+00	-4.760000e+00	1.030227e+03	1.024414e+03	1.024414e+03
-4.760000e+00	-4.690000e+00	2.504140e+03	3.113343e+03	3.113343e+03
-4.690000e+00	-4.620000e+00	1.351166e+05	1.481249e+05	1.481249e+05
-4.620000e+00	-4.550000e+00	8.821079e+04	8.604327e+04	8.604327e+04
-4.550000e+00	-4.480000e+00	-2.981247e+04	1.617314e+05	1.617314e+05
-4.480000e+00	-4.410000e+00	-5.108023e+03	1.009928e+04	1.009928e+04
-4.410000e+00	-4.340000e+00	4.018706e+05	3.956885e+05	3.956885e+05
-4.340000e+00	-4.270000e+00	-6.004147e+05	7.840042e+05	7.840042e+05
-4.270000e+00	-4.200000e+00	-7.453409e+04	2.364365e+05	2.364365e+05
-4.200000e+00	-4.130000e+00	-1.034888e+04	5.519788e+04	5.519788e+04
-4.130000e+00	-4.060000e+00	4.715906e+05	3.435352e+05	3.435352e+05
-4.060000e+00	-3.990000e+00	3.148199e+05	4.473767e+05	4.473767e+05
-3.990000e+00	-3.920000e+00	4.676284e+05	5.241329e+05	5.241329e+05
-3.920000e+00	-3.850000e+00	3.329231e+05	4.094601e+05	4.094601e+05
-3.850000e+00	-3.780000e+00	1.648546e+06	5.997499e+05	5.997499e+05
-3.780000e+00	-3.710000e+00	2.227977e+06	8.443221e+05	8.443221e+05
-3.710000e+00	-3.640000e+00	3.136807e+06	1.190488e+06	1.190488e+06
-3.640000e+00	-3.570000e+00	2.437969e+06	9.909420e+05	9.909420e+05
-3.570000e+00	-3.500000e+00	5.658799e+06	1.536569e+06	1.536569e+06
-3.500000e+00	-3.430000e+00	7.083607e+06	1.406866e+06	1.406866e+06
-3.430000e+00	-3.360000e+00	-1.289079e+07	2.270972e+07	2.270972e+07
-3.360000e+00	-3.290000e+00	1.399095e+07	2.418990e+06	2.418990e+06
-3.290000e+00	-3.220000e+00	1.921543e+07	2.502298e+06	2.502298e+06
-3.220000e+00	-3.150000e+00	2.586691e+07	3.556399e+06	3.556399e+06
-3.150000e+00	-3.080000e+00	3.648426e+07	3.682754e+06	3.682754e+06
-3.080000e+00	-3.010000e+00	4.182447e+07	5.568644e+06	5.568644e+06
-3.010000e+00	-2.940000e+00	5.970143e+07	7.204565e+06	7.204565e+06
-2.940000e+00	-2.870000e+00	8.443973e+07	1.025399e+07	1.025399e+07
-2.870000e+00	-2.800000e+00	1.175142e+08	1.016599e+07	1.016599e+07
-2.800000e+00	-2.730000e+00	1.596219e+08	1.484317e+07	1.484317e+07
-2.730000e+00	-2.660000e+00	2.332091e+08	1.529919e+07	1.529919e+07
-2.660000e+00	-2.590000e+00	3.147663e+08	1.564930e+07	1.564930e+07
-2.590000e+00	-2.520000e+00	4.308797e+08	1.820609e+07	1.820609e+07
-2.520000e+00	-2.450000e+00	6.012404e+08	2.080648e+07	2.080648e+07
-2.450000e+00	-2.380000e+00	7.872547e+08	2.822519e+07	2.822519e+07
-2.380000e+00	-2.310000e+00	1.154891e+09	7.810917e+07	7.810917e+07
-2.310000e+00	-2.240000e+00	1.413728e+09	2.883568e+07	2.883568e+07
-2.240000e+00	-2.170000e+00	1.786836e+09	3.909201e+07	3.909201e+07
-2.170000e+00	-2.100000e+00	2.334839e+09	4.614724e+07	4.614724e+07
-2.100000e+00	-2.030000e+00	2.922487e+09	4.774928e+07	4.774928e+07
-2.030000e+00	-1.960000e+00	3.694680e+09	5.606842e+07	5.606842e+07
-1.960000e+00	-1.890000e+00	4.514306e+09	5.653096e+07	5.653096e+07
-1.890000e+00	-1.820000e+00	5.435703e+09	5.825661e+07	5.825661e+07
-1.820000e+00	-1.750000e+00	6.869951e+09	1.091503e+08	1.091503e+08
-1.750000e+00	-1.680000e+00	7.238000e+09	3.786997e+08	3.786997e+08
-1.680000e+00	-1.610000e+00	9.075293e+09	1.002228e+08	1.002228e+08
-1.610000e+00	-1.540000e+00	1.009428e+10	8.228285e+07	8.228285e+07
-1.540000e+00	-1.470000e+00	1.078021e+10	1.200655e+08	1.200655e+08
-1.470000e+00	-1.400000e+00	1.133930e+10	1.307232e+08	1.307232e+08
-1.400000e+00	-1.330000e+00	1.274121e+10	1.261688e+09	1.261688e+09
-1.330000e+00	-1.260000e+00	1.159865e+10	9.625378e+07	9.625378e+07
-1.260000e+00	-1.190000e+00	1.153698e+10	1.163793e+08	1.163793e+08
-1.190000e+00	-1.120000e+00	1.091667e+10	8.822184e+07	8.822184e+07
-1.120000e+00	-1.050000e+00	1.053490e+10	8.275364e+07	8.275364e+07
-1.050000e+00	-9.800000e-01	1.050851e+10	8.336287e+07	8.336287e+07
-9.800000e-01	-9.100000e-01	1.073128e+10	1.940018e+08	1.940018e+08
-9.100000e-01	-8.400000e-01	1.167453e+10	1.085345e+08	1.085345e+08
-8.400000e-01	-7.700000e-01	1.237813e+10	1.030095e+08	1.030095e+08
-7.700000e-01	-7.000000e-01	1.264735e+10	1.437658e+08	1.437658e+08
-7.000000e-01	-6.300000e-01	1.238737e+10	1.133258e+08	1.133258e+08
-6.300000e-01	-5.600000e-01	1.162913e+10	8.656261e+07	8.656261e+07
-5.600000e-01	-4.900000e-01	1.024641e+10	1.150157e+08	1.150157e+08
-4.900000e-01	-4.200000e-01	8.214359e+09	9.215352e+07	9.215352e+07
-4.200000e-01	-3.500000e-01	5.833004e+09	7.309009e+07	7.309009e+07
-3.500000e-01	-2.800000e-01	3.249854e+09	8.245409e+07	8.245409e+07
-2.800000e-01	-2.100000e-01	1.209748e+09	2.950475e+07	2.950475e+07
-2.100000e-01	-1.400000e-01	2.321216e+08	1.108028e+07	1.108028e+07
-1.400000e-01	-7.000000e-02	2.342374e+07	3.289268e+06	3.289268e+06
-7.000000e-02	0.000000e+00	6.713289e+05	3.687527e+05	3.687527e+05
# END HISTO1D

