# BEGIN PLOT
LegendOnly=/zj_ps_nlo_mer_mur2_muf1_R8.yoda/PAPER_FIN_R8/SD_l05_pT_326_408
DrawOnly=/zj_ps_nlo_mer_mur2_muf1_R8.yoda/PAPER_FIN_R8/SD_l05_pT_326_408
Legend=1
LogY=1
# END PLOT

# BEGIN HISTO1D /zj_ps_nlo_mer_mur2_muf1_R8.yoda/PAPER_FIN_R8/SD_l05_pT_326_408
LineColor=red
LineStyle=solid
Path=/zj_ps_nlo_mer_mur2_muf1_R8.yoda/PAPER_FIN_R8/SD_l05_pT_326_408
Title=zj_ps_nlo_mer_mur2_muf1_R8
XLabel=~
YLabel=~
# xlow	 xhigh	 val	 errminus	 errplus
-7.000000e+00	-6.930000e+00	0.000000e+00	0.000000e+00	0.000000e+00
-6.930000e+00	-6.860000e+00	1.140628e+07	1.971488e+06	1.971488e+06
-6.860000e+00	-6.790000e+00	0.000000e+00	0.000000e+00	0.000000e+00
-6.790000e+00	-6.720000e+00	0.000000e+00	0.000000e+00	0.000000e+00
-6.720000e+00	-6.650000e+00	0.000000e+00	0.000000e+00	0.000000e+00
-6.650000e+00	-6.580000e+00	0.000000e+00	0.000000e+00	0.000000e+00
-6.580000e+00	-6.510000e+00	0.000000e+00	0.000000e+00	0.000000e+00
-6.510000e+00	-6.440000e+00	0.000000e+00	0.000000e+00	0.000000e+00
-6.440000e+00	-6.370000e+00	0.000000e+00	0.000000e+00	0.000000e+00
-6.370000e+00	-6.300000e+00	0.000000e+00	0.000000e+00	0.000000e+00
-6.300000e+00	-6.230000e+00	0.000000e+00	0.000000e+00	0.000000e+00
-6.230000e+00	-6.160000e+00	0.000000e+00	0.000000e+00	0.000000e+00
-6.160000e+00	-6.090000e+00	0.000000e+00	0.000000e+00	0.000000e+00
-6.090000e+00	-6.020000e+00	0.000000e+00	0.000000e+00	0.000000e+00
-6.020000e+00	-5.950000e+00	0.000000e+00	0.000000e+00	0.000000e+00
-5.950000e+00	-5.880000e+00	0.000000e+00	0.000000e+00	0.000000e+00
-5.880000e+00	-5.810000e+00	0.000000e+00	0.000000e+00	0.000000e+00
-5.810000e+00	-5.740000e+00	0.000000e+00	0.000000e+00	0.000000e+00
-5.740000e+00	-5.670000e+00	0.000000e+00	0.000000e+00	0.000000e+00
-5.670000e+00	-5.600000e+00	0.000000e+00	0.000000e+00	0.000000e+00
-5.600000e+00	-5.530000e+00	0.000000e+00	0.000000e+00	0.000000e+00
-5.530000e+00	-5.460000e+00	0.000000e+00	0.000000e+00	0.000000e+00
-5.460000e+00	-5.390000e+00	0.000000e+00	0.000000e+00	0.000000e+00
-5.390000e+00	-5.320000e+00	0.000000e+00	0.000000e+00	0.000000e+00
-5.320000e+00	-5.250000e+00	0.000000e+00	0.000000e+00	0.000000e+00
-5.250000e+00	-5.180000e+00	0.000000e+00	0.000000e+00	0.000000e+00
-5.180000e+00	-5.110000e+00	0.000000e+00	0.000000e+00	0.000000e+00
-5.110000e+00	-5.040000e+00	0.000000e+00	0.000000e+00	0.000000e+00
-5.040000e+00	-4.970000e+00	0.000000e+00	0.000000e+00	0.000000e+00
-4.970000e+00	-4.900000e+00	0.000000e+00	0.000000e+00	0.000000e+00
-4.900000e+00	-4.830000e+00	0.000000e+00	0.000000e+00	0.000000e+00
-4.830000e+00	-4.760000e+00	0.000000e+00	0.000000e+00	0.000000e+00
-4.760000e+00	-4.690000e+00	0.000000e+00	0.000000e+00	0.000000e+00
-4.690000e+00	-4.620000e+00	0.000000e+00	0.000000e+00	0.000000e+00
-4.620000e+00	-4.550000e+00	0.000000e+00	0.000000e+00	0.000000e+00
-4.550000e+00	-4.480000e+00	0.000000e+00	0.000000e+00	0.000000e+00
-4.480000e+00	-4.410000e+00	0.000000e+00	0.000000e+00	0.000000e+00
-4.410000e+00	-4.340000e+00	0.000000e+00	0.000000e+00	0.000000e+00
-4.340000e+00	-4.270000e+00	0.000000e+00	0.000000e+00	0.000000e+00
-4.270000e+00	-4.200000e+00	0.000000e+00	0.000000e+00	0.000000e+00
-4.200000e+00	-4.130000e+00	0.000000e+00	0.000000e+00	0.000000e+00
-4.130000e+00	-4.060000e+00	0.000000e+00	0.000000e+00	0.000000e+00
-4.060000e+00	-3.990000e+00	0.000000e+00	0.000000e+00	0.000000e+00
-3.990000e+00	-3.920000e+00	0.000000e+00	0.000000e+00	0.000000e+00
-3.920000e+00	-3.850000e+00	0.000000e+00	0.000000e+00	0.000000e+00
-3.850000e+00	-3.780000e+00	0.000000e+00	0.000000e+00	0.000000e+00
-3.780000e+00	-3.710000e+00	0.000000e+00	0.000000e+00	0.000000e+00
-3.710000e+00	-3.640000e+00	0.000000e+00	0.000000e+00	0.000000e+00
-3.640000e+00	-3.570000e+00	0.000000e+00	0.000000e+00	0.000000e+00
-3.570000e+00	-3.500000e+00	0.000000e+00	0.000000e+00	0.000000e+00
-3.500000e+00	-3.430000e+00	0.000000e+00	0.000000e+00	0.000000e+00
-3.430000e+00	-3.360000e+00	0.000000e+00	0.000000e+00	0.000000e+00
-3.360000e+00	-3.290000e+00	0.000000e+00	0.000000e+00	0.000000e+00
-3.290000e+00	-3.220000e+00	0.000000e+00	0.000000e+00	0.000000e+00
-3.220000e+00	-3.150000e+00	0.000000e+00	0.000000e+00	0.000000e+00
-3.150000e+00	-3.080000e+00	0.000000e+00	0.000000e+00	0.000000e+00
-3.080000e+00	-3.010000e+00	0.000000e+00	0.000000e+00	0.000000e+00
-3.010000e+00	-2.940000e+00	-8.626104e-01	8.626104e-01	8.626104e-01
-2.940000e+00	-2.870000e+00	4.404514e+03	4.098189e+03	4.098189e+03
-2.870000e+00	-2.800000e+00	5.943889e+04	5.661340e+04	5.661340e+04
-2.800000e+00	-2.730000e+00	1.531454e+03	1.644531e+03	1.644531e+03
-2.730000e+00	-2.660000e+00	3.327290e+04	3.332856e+04	3.332856e+04
-2.660000e+00	-2.590000e+00	3.187910e+04	2.711105e+04	2.711105e+04
-2.590000e+00	-2.520000e+00	4.487207e+04	6.675323e+04	6.675323e+04
-2.520000e+00	-2.450000e+00	5.327779e+04	6.639634e+04	6.639634e+04
-2.450000e+00	-2.380000e+00	1.680787e+05	1.008807e+05	1.008807e+05
-2.380000e+00	-2.310000e+00	7.044271e+05	5.699022e+05	5.699022e+05
-2.310000e+00	-2.240000e+00	2.808364e+05	1.357198e+05	1.357198e+05
-2.240000e+00	-2.170000e+00	1.082631e+06	3.499533e+05	3.499533e+05
-2.170000e+00	-2.100000e+00	3.669247e+06	1.603300e+06	1.603300e+06
-2.100000e+00	-2.030000e+00	4.310686e+06	9.753115e+05	9.753115e+05
-2.030000e+00	-1.960000e+00	3.695196e+06	1.778211e+06	1.778211e+06
-1.960000e+00	-1.890000e+00	9.073914e+06	1.179067e+06	1.179067e+06
-1.890000e+00	-1.820000e+00	1.305715e+07	1.307074e+06	1.307074e+06
-1.820000e+00	-1.750000e+00	2.041461e+07	2.443184e+06	2.443184e+06
-1.750000e+00	-1.680000e+00	3.135240e+07	2.784077e+06	2.784077e+06
-1.680000e+00	-1.610000e+00	4.230626e+07	4.994977e+06	4.994977e+06
-1.610000e+00	-1.540000e+00	7.380137e+07	4.734366e+06	4.734366e+06
-1.540000e+00	-1.470000e+00	9.556984e+07	4.387286e+06	4.387286e+06
-1.470000e+00	-1.400000e+00	1.569896e+08	5.841414e+06	5.841414e+06
-1.400000e+00	-1.330000e+00	2.304516e+08	8.954904e+06	8.954904e+06
-1.330000e+00	-1.260000e+00	3.105069e+08	9.337532e+06	9.337532e+06
-1.260000e+00	-1.190000e+00	4.475251e+08	1.755396e+07	1.755396e+07
-1.190000e+00	-1.120000e+00	5.196901e+08	1.413421e+07	1.413421e+07
-1.120000e+00	-1.050000e+00	5.912273e+08	1.659790e+07	1.659790e+07
-1.050000e+00	-9.800000e-01	5.589741e+08	1.541086e+07	1.541086e+07
-9.800000e-01	-9.100000e-01	5.403297e+08	1.251174e+07	1.251174e+07
-9.100000e-01	-8.400000e-01	5.052206e+08	1.457915e+07	1.457915e+07
-8.400000e-01	-7.700000e-01	4.984131e+08	1.200623e+07	1.200623e+07
-7.700000e-01	-7.000000e-01	5.294427e+08	2.056112e+07	2.056112e+07
-7.000000e-01	-6.300000e-01	5.795723e+08	1.417989e+07	1.417989e+07
-6.300000e-01	-5.600000e-01	6.060279e+08	1.332519e+07	1.332519e+07
-5.600000e-01	-4.900000e-01	5.708317e+08	1.427912e+07	1.427912e+07
-4.900000e-01	-4.200000e-01	5.339234e+08	1.046855e+07	1.046855e+07
-4.200000e-01	-3.500000e-01	4.367091e+08	1.284773e+07	1.284773e+07
-3.500000e-01	-2.800000e-01	3.294040e+08	8.541782e+06	8.541782e+06
-2.800000e-01	-2.100000e-01	1.630221e+08	7.407857e+06	7.407857e+06
-2.100000e-01	-1.400000e-01	4.195147e+07	3.650425e+06	3.650425e+06
-1.400000e-01	-7.000000e-02	2.251757e+06	6.861841e+05	6.861841e+05
-7.000000e-02	0.000000e+00	2.459026e+02	1.535397e+02	1.535397e+02
# END HISTO1D

