# BEGIN PLOT
LegendOnly=/zj_ps_nlo_mer_mur2_muf1_R8.yoda/PAPER_FIN_R8/SD_l20_pT_150_186
DrawOnly=/zj_ps_nlo_mer_mur2_muf1_R8.yoda/PAPER_FIN_R8/SD_l20_pT_150_186
Legend=1
LogY=1
# END PLOT

# BEGIN HISTO1D /zj_ps_nlo_mer_mur2_muf1_R8.yoda/PAPER_FIN_R8/SD_l20_pT_150_186
LineColor=red
LineStyle=solid
Path=/zj_ps_nlo_mer_mur2_muf1_R8.yoda/PAPER_FIN_R8/SD_l20_pT_150_186
Title=zj_ps_nlo_mer_mur2_muf1_R8
XLabel=~
YLabel=~
# xlow	 xhigh	 val	 errminus	 errplus
-7.000000e+00	-6.930000e+00	8.787293e+05	3.351978e+05	3.351978e+05
-6.930000e+00	-6.860000e+00	1.386096e+08	7.392551e+06	7.392551e+06
-6.860000e+00	-6.790000e+00	1.944060e+06	5.386548e+05	5.386548e+05
-6.790000e+00	-6.720000e+00	1.164030e+06	4.307977e+05	4.307977e+05
-6.720000e+00	-6.650000e+00	9.763201e+05	4.908666e+05	4.908666e+05
-6.650000e+00	-6.580000e+00	1.566193e+06	4.187648e+05	4.187648e+05
-6.580000e+00	-6.510000e+00	7.937941e+05	4.500351e+05	4.500351e+05
-6.510000e+00	-6.440000e+00	3.115404e+06	7.778942e+05	7.778942e+05
-6.440000e+00	-6.370000e+00	2.064894e+06	5.043521e+05	5.043521e+05
-6.370000e+00	-6.300000e+00	1.996057e+06	5.038993e+05	5.038993e+05
-6.300000e+00	-6.230000e+00	1.638696e+06	6.006605e+05	6.006605e+05
-6.230000e+00	-6.160000e+00	-1.169019e+06	3.103203e+06	3.103203e+06
-6.160000e+00	-6.090000e+00	4.517361e+06	8.319387e+05	8.319387e+05
-6.090000e+00	-6.020000e+00	4.239640e+06	6.926879e+05	6.926879e+05
-6.020000e+00	-5.950000e+00	6.321756e+06	1.677670e+06	1.677670e+06
-5.950000e+00	-5.880000e+00	7.560727e+06	1.169742e+06	1.169742e+06
-5.880000e+00	-5.810000e+00	8.006660e+06	1.523463e+06	1.523463e+06
-5.810000e+00	-5.740000e+00	1.466093e+07	1.643521e+06	1.643521e+06
-5.740000e+00	-5.670000e+00	1.337378e+07	1.900079e+06	1.900079e+06
-5.670000e+00	-5.600000e+00	1.551197e+07	1.867247e+06	1.867247e+06
-5.600000e+00	-5.530000e+00	1.528153e+07	2.271385e+06	2.271385e+06
-5.530000e+00	-5.460000e+00	1.396086e+07	2.234583e+06	2.234583e+06
-5.460000e+00	-5.390000e+00	2.128960e+07	2.186928e+06	2.186928e+06
-5.390000e+00	-5.320000e+00	2.227883e+07	2.476673e+06	2.476673e+06
-5.320000e+00	-5.250000e+00	2.235753e+07	4.020295e+06	4.020295e+06
-5.250000e+00	-5.180000e+00	3.260049e+07	2.695781e+06	2.695781e+06
-5.180000e+00	-5.110000e+00	3.255630e+07	3.716198e+06	3.716198e+06
-5.110000e+00	-5.040000e+00	4.133707e+07	5.212436e+06	5.212436e+06
-5.040000e+00	-4.970000e+00	4.557274e+07	4.106297e+06	4.106297e+06
-4.970000e+00	-4.900000e+00	6.136280e+07	5.485709e+06	5.485709e+06
-4.900000e+00	-4.830000e+00	8.150414e+07	5.362506e+06	5.362506e+06
-4.830000e+00	-4.760000e+00	9.243103e+07	5.455669e+06	5.455669e+06
-4.760000e+00	-4.690000e+00	1.335899e+08	6.713632e+06	6.713632e+06
-4.690000e+00	-4.620000e+00	1.554337e+08	9.123617e+06	9.123617e+06
-4.620000e+00	-4.550000e+00	2.019821e+08	1.087575e+07	1.087575e+07
-4.550000e+00	-4.480000e+00	2.356454e+08	1.117548e+07	1.117548e+07
-4.480000e+00	-4.410000e+00	2.870949e+08	9.965178e+06	9.965178e+06
-4.410000e+00	-4.340000e+00	3.305159e+08	1.296951e+07	1.296951e+07
-4.340000e+00	-4.270000e+00	4.077619e+08	1.493916e+07	1.493916e+07
-4.270000e+00	-4.200000e+00	4.321886e+08	1.204371e+07	1.204371e+07
-4.200000e+00	-4.130000e+00	5.343283e+08	1.761305e+07	1.761305e+07
-4.130000e+00	-4.060000e+00	5.553081e+08	2.763010e+07	2.763010e+07
-4.060000e+00	-3.990000e+00	6.602686e+08	1.906786e+07	1.906786e+07
-3.990000e+00	-3.920000e+00	7.347451e+08	2.548022e+07	2.548022e+07
-3.920000e+00	-3.850000e+00	8.716256e+08	1.874580e+07	1.874580e+07
-3.850000e+00	-3.780000e+00	9.912499e+08	1.875321e+07	1.875321e+07
-3.780000e+00	-3.710000e+00	1.063067e+09	2.016315e+07	2.016315e+07
-3.710000e+00	-3.640000e+00	1.225782e+09	2.064555e+07	2.064555e+07
-3.640000e+00	-3.570000e+00	1.322405e+09	2.567243e+07	2.567243e+07
-3.570000e+00	-3.500000e+00	1.410143e+09	3.213955e+07	3.213955e+07
-3.500000e+00	-3.430000e+00	1.477629e+09	7.147911e+07	7.147911e+07
-3.430000e+00	-3.360000e+00	1.600326e+09	2.642572e+07	2.642572e+07
-3.360000e+00	-3.290000e+00	1.712937e+09	3.992017e+07	3.992017e+07
-3.290000e+00	-3.220000e+00	1.757936e+09	2.939866e+07	2.939866e+07
-3.220000e+00	-3.150000e+00	1.726266e+09	2.936267e+07	2.936267e+07
-3.150000e+00	-3.080000e+00	1.716316e+09	3.717501e+07	3.717501e+07
-3.080000e+00	-3.010000e+00	1.703064e+09	2.632289e+07	2.632289e+07
-3.010000e+00	-2.940000e+00	1.794791e+09	2.707077e+07	2.707077e+07
-2.940000e+00	-2.870000e+00	1.719296e+09	2.720380e+07	2.720380e+07
-2.870000e+00	-2.800000e+00	1.643411e+09	2.962244e+07	2.962244e+07
-2.800000e+00	-2.730000e+00	1.543821e+09	3.279731e+07	3.279731e+07
-2.730000e+00	-2.660000e+00	1.496406e+09	4.668310e+07	4.668310e+07
-2.660000e+00	-2.590000e+00	1.425462e+09	2.312397e+07	2.312397e+07
-2.590000e+00	-2.520000e+00	1.307867e+09	2.347590e+07	2.347590e+07
-2.520000e+00	-2.450000e+00	1.237282e+09	2.438458e+07	2.438458e+07
-2.450000e+00	-2.380000e+00	1.181491e+09	2.113109e+07	2.113109e+07
-2.380000e+00	-2.310000e+00	1.116201e+09	2.630616e+07	2.630616e+07
-2.310000e+00	-2.240000e+00	1.057091e+09	2.138125e+07	2.138125e+07
-2.240000e+00	-2.170000e+00	1.063206e+09	3.008476e+07	3.008476e+07
-2.170000e+00	-2.100000e+00	1.109712e+09	2.059813e+07	2.059813e+07
-2.100000e+00	-2.030000e+00	1.089327e+09	4.032977e+07	4.032977e+07
-2.030000e+00	-1.960000e+00	1.070686e+09	2.780472e+07	2.780472e+07
-1.960000e+00	-1.890000e+00	1.105786e+09	2.087093e+07	2.087093e+07
-1.890000e+00	-1.820000e+00	1.086699e+09	1.998666e+07	1.998666e+07
-1.820000e+00	-1.750000e+00	1.123919e+09	1.875803e+07	1.875803e+07
-1.750000e+00	-1.680000e+00	1.133557e+09	2.574119e+07	2.574119e+07
-1.680000e+00	-1.610000e+00	1.129598e+09	1.924952e+07	1.924952e+07
-1.610000e+00	-1.540000e+00	1.182049e+09	2.113113e+07	2.113113e+07
-1.540000e+00	-1.470000e+00	1.203048e+09	1.923639e+07	1.923639e+07
-1.470000e+00	-1.400000e+00	1.203424e+09	3.210362e+07	3.210362e+07
-1.400000e+00	-1.330000e+00	1.298331e+09	3.816881e+07	3.816881e+07
-1.330000e+00	-1.260000e+00	1.425179e+09	2.635696e+07	2.635696e+07
-1.260000e+00	-1.190000e+00	1.555643e+09	4.638849e+07	4.638849e+07
-1.190000e+00	-1.120000e+00	1.630880e+09	2.952384e+07	2.952384e+07
-1.120000e+00	-1.050000e+00	1.788306e+09	2.761043e+07	2.761043e+07
-1.050000e+00	-9.800000e-01	1.881379e+09	2.822550e+07	2.822550e+07
-9.800000e-01	-9.100000e-01	1.956999e+09	2.708609e+07	2.708609e+07
-9.100000e-01	-8.400000e-01	1.983531e+09	2.506316e+07	2.506316e+07
-8.400000e-01	-7.700000e-01	1.837784e+09	5.424972e+07	5.424972e+07
-7.700000e-01	-7.000000e-01	1.647553e+09	2.637027e+07	2.637027e+07
-7.000000e-01	-6.300000e-01	1.352848e+09	2.195564e+07	2.195564e+07
-6.300000e-01	-5.600000e-01	9.384381e+08	2.119016e+07	2.119016e+07
-5.600000e-01	-4.900000e-01	4.069441e+08	1.367021e+07	1.367021e+07
-4.900000e-01	-4.200000e-01	1.041334e+08	8.036971e+06	8.036971e+06
-4.200000e-01	-3.500000e-01	1.735000e+07	1.805691e+06	1.805691e+06
-3.500000e-01	-2.800000e-01	5.484124e+05	2.869492e+05	2.869492e+05
-2.800000e-01	-2.100000e-01	1.796740e+03	1.435111e+03	1.435111e+03
-2.100000e-01	-1.400000e-01	0.000000e+00	0.000000e+00	0.000000e+00
-1.400000e-01	-7.000000e-02	0.000000e+00	0.000000e+00	0.000000e+00
-7.000000e-02	0.000000e+00	0.000000e+00	0.000000e+00	0.000000e+00
# END HISTO1D

