# BEGIN PLOT
LegendOnly=/zj_ps_nlo_mer_mur2_muf1_R8.yoda/PAPER_FIN_R8/ch_lin_SD_l20_pT_254_326
DrawOnly=/zj_ps_nlo_mer_mur2_muf1_R8.yoda/PAPER_FIN_R8/ch_lin_SD_l20_pT_254_326
Legend=1
LogY=1
# END PLOT

# BEGIN HISTO1D /zj_ps_nlo_mer_mur2_muf1_R8.yoda/PAPER_FIN_R8/ch_lin_SD_l20_pT_254_326
LineColor=red
LineStyle=solid
Path=/zj_ps_nlo_mer_mur2_muf1_R8.yoda/PAPER_FIN_R8/ch_lin_SD_l20_pT_254_326
Title=zj_ps_nlo_mer_mur2_muf1_R8
XLabel=~
YLabel=~
# xlow	 xhigh	 val	 errminus	 errplus
0.000000e+00	2.500000e-03	2.767208e+11	1.572040e+09	1.572040e+09
2.500000e-03	5.000000e-03	3.433620e+10	7.084001e+08	7.084001e+08
5.000000e-03	7.500000e-03	1.967486e+10	3.884033e+08	3.884033e+08
7.500000e-03	1.250000e-02	1.311381e+10	2.525816e+08	2.525816e+08
1.250000e-02	2.000000e-02	8.204635e+09	1.457309e+08	1.457309e+08
2.000000e-02	3.250000e-02	5.656766e+09	1.152780e+08	1.152780e+08
3.250000e-02	5.000000e-02	3.966185e+09	6.331086e+07	6.331086e+07
5.000000e-02	7.750000e-02	3.016517e+09	6.401579e+07	6.401579e+07
7.750000e-02	1.150000e-01	2.380005e+09	3.371767e+07	3.371767e+07
1.150000e-01	1.600000e-01	1.677219e+09	4.803926e+07	4.803926e+07
1.600000e-01	2.100000e-01	9.842500e+08	2.056438e+07	2.056438e+07
2.100000e-01	1.000000e+00	4.217541e+07	8.810508e+05	8.810508e+05
# END HISTO1D

