# BEGIN PLOT
LegendOnly=/scale_5.yoda/MC_XS/pmN
DrawOnly=/scale_5.yoda/MC_XS/pmN
Title=Number of positive and negative weighted events
XMajorTickMarks=20
LogY=0
XLabel=$\pm$
ShowZero=0
XMax=1
YLabel=$N_\pm$
XMin=-1
XMinorTickMarks=0
Legend=1
# END PLOT

# BEGIN HISTO1D /scale_5.yoda/MC_XS/pmN
LineColor=red
LineStyle=solid
Path=/scale_5.yoda/MC_XS/pmN
Title=scale_5
XLabel=~
YLabel=~
# xlow	 xhigh	 val	 errminus	 errplus
-1.000000e+00	0.000000e+00	8.441598e+08	2.905443e+04	2.905443e+04
0.000000e+00	1.000000e+00	1.155840e+09	3.399765e+04	3.399765e+04
# END HISTO1D

