# BEGIN PLOT
LegendOnly=/pythia_np_pt150_s1_1e3.yoda/PAPER_FIN_R4_CH/XS_CUTS_pT_150_186
DrawOnly=/pythia_np_pt150_s1_1e3.yoda/PAPER_FIN_R4_CH/XS_CUTS_pT_150_186
Legend=1
LogY=1
# END PLOT

# BEGIN HISTO1D /pythia_np_pt150_s1_1e3.yoda/PAPER_FIN_R4_CH/XS_CUTS_pT_150_186
LineColor=red
LineStyle=solid
Path=/pythia_np_pt150_s1_1e3.yoda/PAPER_FIN_R4_CH/XS_CUTS_pT_150_186
Title=pythia_np_pt150_s1_1e3
XLabel=~
YLabel=~
# xlow	 xhigh	 val	 errminus	 errplus
-5.000000e-01	5.000000e-01	9.255966e+02	2.927072e+01	2.927072e+01
# END HISTO1D

