# BEGIN PLOT
LegendOnly=/pythia_np_pt150_s1_1e3.yoda/PAPER_FIN_R4/ch_lin_SD_l05_pT_254_326
DrawOnly=/pythia_np_pt150_s1_1e3.yoda/PAPER_FIN_R4/ch_lin_SD_l05_pT_254_326
Legend=1
LogY=1
# END PLOT

# BEGIN HISTO1D /pythia_np_pt150_s1_1e3.yoda/PAPER_FIN_R4/ch_lin_SD_l05_pT_254_326
LineColor=red
LineStyle=solid
Path=/pythia_np_pt150_s1_1e3.yoda/PAPER_FIN_R4/ch_lin_SD_l05_pT_254_326
Title=pythia_np_pt150_s1_1e3
XLabel=~
YLabel=~
# xlow	 xhigh	 val	 errminus	 errplus
0.000000e+00	6.000000e-02	8.617233e+06	1.198418e+04	1.198418e+04
6.000000e-02	9.000000e-02	1.772980e+07	2.431035e+04	2.431035e+04
9.000000e-02	1.200000e-01	2.023880e+07	2.597358e+04	2.597358e+04
1.200000e-01	1.500000e-01	1.784633e+07	2.439012e+04	2.439012e+04
1.500000e-01	1.900000e-01	1.401477e+07	1.871816e+04	1.871816e+04
1.900000e-01	2.300000e-01	1.075035e+07	1.639386e+04	1.639386e+04
2.300000e-01	2.700000e-01	8.541025e+06	1.461252e+04	1.461252e+04
2.700000e-01	3.200000e-01	6.777900e+06	1.164294e+04	1.164294e+04
3.200000e-01	3.700000e-01	5.126500e+06	1.012571e+04	1.012571e+04
3.700000e-01	4.200000e-01	3.792480e+06	8.709168e+03	8.709168e+03
4.200000e-01	4.800000e-01	2.618883e+06	6.606668e+03	6.606668e+03
4.800000e-01	5.400000e-01	1.622317e+06	5.199866e+03	5.199866e+03
5.400000e-01	6.000000e-01	8.667333e+05	3.800731e+03	3.800731e+03
6.000000e-01	1.000000e+00	6.810500e+04	4.126288e+02	4.126288e+02
# END HISTO1D

