# BEGIN PLOT
LegendOnly=/pythia_np_pt150_s1_1e3.yoda/PAPER_FIN_R4_CH/lin_SD_l10_pT_120_150
DrawOnly=/pythia_np_pt150_s1_1e3.yoda/PAPER_FIN_R4_CH/lin_SD_l10_pT_120_150
Legend=1
LogY=1
# END PLOT

# BEGIN HISTO1D /pythia_np_pt150_s1_1e3.yoda/PAPER_FIN_R4_CH/lin_SD_l10_pT_120_150
LineColor=red
LineStyle=solid
Path=/pythia_np_pt150_s1_1e3.yoda/PAPER_FIN_R4_CH/lin_SD_l10_pT_120_150
Title=pythia_np_pt150_s1_1e3
XLabel=~
YLabel=~
# xlow	 xhigh	 val	 errminus	 errplus
0.000000e+00	1.250000e-02	9.139320e+07	8.550705e+04	8.550705e+04
1.250000e-02	2.250000e-02	2.015128e+08	1.419552e+05	1.419552e+05
2.250000e-02	3.500000e-02	3.028649e+08	1.556573e+05	1.556573e+05
3.500000e-02	5.000000e-02	3.152756e+08	1.449771e+05	1.449771e+05
5.000000e-02	7.000000e-02	2.328936e+08	1.079105e+05	1.079105e+05
7.000000e-02	9.500000e-02	1.461087e+08	7.644833e+04	7.644833e+04
9.500000e-02	1.280000e-01	9.136806e+07	5.261871e+04	5.261871e+04
1.280000e-01	1.700000e-01	6.174629e+07	3.834253e+04	3.834253e+04
1.700000e-01	2.250000e-01	4.372247e+07	2.819493e+04	2.819493e+04
2.250000e-01	2.900000e-01	2.871169e+07	2.101710e+04	2.101710e+04
2.900000e-01	3.650000e-01	1.744272e+07	1.525023e+04	1.525023e+04
3.650000e-01	4.500000e-01	9.784529e+06	1.072903e+04	1.072903e+04
4.500000e-01	1.000000e+00	1.075171e+06	1.398162e+03	1.398162e+03
# END HISTO1D

