# BEGIN PLOT
LegendOnly=/pythia_np_pt150_s1_1e3.yoda/PAPER_FIN_R4_CH/lin_l10_pT_408_1500
DrawOnly=/pythia_np_pt150_s1_1e3.yoda/PAPER_FIN_R4_CH/lin_l10_pT_408_1500
Legend=1
LogY=1
# END PLOT

# BEGIN HISTO1D /pythia_np_pt150_s1_1e3.yoda/PAPER_FIN_R4_CH/lin_l10_pT_408_1500
LineColor=red
LineStyle=solid
Path=/pythia_np_pt150_s1_1e3.yoda/PAPER_FIN_R4_CH/lin_l10_pT_408_1500
Title=pythia_np_pt150_s1_1e3
XLabel=~
YLabel=~
# xlow	 xhigh	 val	 errminus	 errplus
0.000000e+00	2.250000e-02	2.932000e+06	1.141539e+04	1.141539e+04
2.250000e-02	4.000000e-02	1.548217e+07	2.974383e+04	2.974383e+04
4.000000e-02	5.750000e-02	1.219874e+07	2.640210e+04	2.640210e+04
5.750000e-02	7.750000e-02	8.063450e+06	2.007916e+04	2.007916e+04
7.750000e-02	1.000000e-01	5.570711e+06	1.573490e+04	1.573490e+04
1.000000e-01	1.250000e-01	3.857080e+06	1.242108e+04	1.242108e+04
1.250000e-01	1.520000e-01	2.760778e+06	1.011193e+04	1.011193e+04
1.520000e-01	1.850000e-01	1.943970e+06	7.675166e+03	7.675166e+03
1.850000e-01	2.200000e-01	1.372543e+06	6.262229e+03	6.262229e+03
2.200000e-01	2.600000e-01	9.643250e+05	4.910003e+03	4.910003e+03
2.600000e-01	3.070000e-01	6.646596e+05	3.760544e+03	3.760544e+03
3.070000e-01	3.620000e-01	4.343273e+05	2.810135e+03	2.810135e+03
3.620000e-01	4.250000e-01	2.596825e+05	2.030257e+03	2.030257e+03
4.250000e-01	4.970000e-01	1.349722e+05	1.369166e+03	1.369166e+03
4.970000e-01	1.000000e+00	9.870775e+03	1.400850e+02	1.400850e+02
# END HISTO1D

