# BEGIN PLOT
LegendOnly=/pythia_np_pt150_s1_1e3.yoda/PAPER_FIN_R4_CH/lin_l20_pT_65_88
DrawOnly=/pythia_np_pt150_s1_1e3.yoda/PAPER_FIN_R4_CH/lin_l20_pT_65_88
Legend=1
LogY=1
# END PLOT

# BEGIN HISTO1D /pythia_np_pt150_s1_1e3.yoda/PAPER_FIN_R4_CH/lin_l20_pT_65_88
LineColor=red
LineStyle=solid
Path=/pythia_np_pt150_s1_1e3.yoda/PAPER_FIN_R4_CH/lin_l20_pT_65_88
Title=pythia_np_pt150_s1_1e3
XLabel=~
YLabel=~
# xlow	 xhigh	 val	 errminus	 errplus
0.000000e+00	5.000000e-03	2.617040e+07	7.234694e+04	7.234694e+04
5.000000e-03	1.250000e-02	1.395995e+08	1.364304e+05	1.364304e+05
1.250000e-02	2.250000e-02	4.030451e+08	2.007598e+05	2.007598e+05
2.250000e-02	3.500000e-02	6.931922e+08	2.354896e+05	2.354896e+05
3.500000e-02	5.000000e-02	7.770753e+08	2.276072e+05	2.276072e+05
5.000000e-02	7.000000e-02	6.299225e+08	1.774715e+05	1.774715e+05
7.000000e-02	9.250000e-02	4.258698e+08	1.375774e+05	1.375774e+05
9.250000e-02	1.200000e-01	2.683245e+08	9.877882e+04	9.877882e+04
1.200000e-01	1.520000e-01	1.604849e+08	7.081775e+04	7.081775e+04
1.520000e-01	1.880000e-01	9.340569e+07	5.093724e+04	5.093724e+04
1.880000e-01	2.280000e-01	5.318437e+07	3.646381e+04	3.646381e+04
2.280000e-01	1.000000e+00	2.899057e+06	1.937848e+03	1.937848e+03
# END HISTO1D

