# BEGIN PLOT
LegendOnly=/pythia_np_pt150_s1_1e3.yoda/PAPER_FIN_R4/l20_pT_254_326
DrawOnly=/pythia_np_pt150_s1_1e3.yoda/PAPER_FIN_R4/l20_pT_254_326
Legend=1
LogY=1
# END PLOT

# BEGIN HISTO1D /pythia_np_pt150_s1_1e3.yoda/PAPER_FIN_R4/l20_pT_254_326
LineColor=red
LineStyle=solid
Path=/pythia_np_pt150_s1_1e3.yoda/PAPER_FIN_R4/l20_pT_254_326
Title=pythia_np_pt150_s1_1e3
XLabel=~
YLabel=~
# xlow	 xhigh	 val	 errminus	 errplus
-7.000000e+00	-6.930000e+00	0.000000e+00	0.000000e+00	0.000000e+00
-6.930000e+00	-6.860000e+00	2.628571e+03	1.937809e+02	1.937809e+02
-6.860000e+00	-6.790000e+00	0.000000e+00	0.000000e+00	0.000000e+00
-6.790000e+00	-6.720000e+00	0.000000e+00	0.000000e+00	0.000000e+00
-6.720000e+00	-6.650000e+00	0.000000e+00	0.000000e+00	0.000000e+00
-6.650000e+00	-6.580000e+00	0.000000e+00	0.000000e+00	0.000000e+00
-6.580000e+00	-6.510000e+00	0.000000e+00	0.000000e+00	0.000000e+00
-6.510000e+00	-6.440000e+00	0.000000e+00	0.000000e+00	0.000000e+00
-6.440000e+00	-6.370000e+00	0.000000e+00	0.000000e+00	0.000000e+00
-6.370000e+00	-6.300000e+00	0.000000e+00	0.000000e+00	0.000000e+00
-6.300000e+00	-6.230000e+00	0.000000e+00	0.000000e+00	0.000000e+00
-6.230000e+00	-6.160000e+00	0.000000e+00	0.000000e+00	0.000000e+00
-6.160000e+00	-6.090000e+00	0.000000e+00	0.000000e+00	0.000000e+00
-6.090000e+00	-6.020000e+00	0.000000e+00	0.000000e+00	0.000000e+00
-6.020000e+00	-5.950000e+00	0.000000e+00	0.000000e+00	0.000000e+00
-5.950000e+00	-5.880000e+00	1.428571e+01	1.428571e+01	1.428571e+01
-5.880000e+00	-5.810000e+00	0.000000e+00	0.000000e+00	0.000000e+00
-5.810000e+00	-5.740000e+00	0.000000e+00	0.000000e+00	0.000000e+00
-5.740000e+00	-5.670000e+00	0.000000e+00	0.000000e+00	0.000000e+00
-5.670000e+00	-5.600000e+00	1.428571e+01	1.428571e+01	1.428571e+01
-5.600000e+00	-5.530000e+00	1.428571e+01	1.428571e+01	1.428571e+01
-5.530000e+00	-5.460000e+00	1.428571e+01	1.428571e+01	1.428571e+01
-5.460000e+00	-5.390000e+00	2.857143e+01	2.020305e+01	2.020305e+01
-5.390000e+00	-5.320000e+00	0.000000e+00	0.000000e+00	0.000000e+00
-5.320000e+00	-5.250000e+00	1.428571e+01	1.428571e+01	1.428571e+01
-5.250000e+00	-5.180000e+00	0.000000e+00	0.000000e+00	0.000000e+00
-5.180000e+00	-5.110000e+00	2.857143e+01	2.020305e+01	2.020305e+01
-5.110000e+00	-5.040000e+00	1.428571e+01	1.428571e+01	1.428571e+01
-5.040000e+00	-4.970000e+00	0.000000e+00	0.000000e+00	0.000000e+00
-4.970000e+00	-4.900000e+00	1.428571e+01	1.428571e+01	1.428571e+01
-4.900000e+00	-4.830000e+00	4.285714e+01	2.474358e+01	2.474358e+01
-4.830000e+00	-4.760000e+00	1.428571e+01	1.428571e+01	1.428571e+01
-4.760000e+00	-4.690000e+00	1.428571e+01	1.428571e+01	1.428571e+01
-4.690000e+00	-4.620000e+00	2.857143e+01	2.020305e+01	2.020305e+01
-4.620000e+00	-4.550000e+00	7.142857e+01	3.194383e+01	3.194383e+01
-4.550000e+00	-4.480000e+00	7.142857e+01	3.194383e+01	3.194383e+01
-4.480000e+00	-4.410000e+00	4.285714e+01	2.474358e+01	2.474358e+01
-4.410000e+00	-4.340000e+00	8.571429e+01	3.499271e+01	3.499271e+01
-4.340000e+00	-4.270000e+00	1.142857e+02	4.040610e+01	4.040610e+01
-4.270000e+00	-4.200000e+00	1.000000e+02	3.779645e+01	3.779645e+01
-4.200000e+00	-4.130000e+00	1.142857e+02	4.040610e+01	4.040610e+01
-4.130000e+00	-4.060000e+00	1.000000e+02	3.779645e+01	3.779645e+01
-4.060000e+00	-3.990000e+00	1.714286e+02	4.948717e+01	4.948717e+01
-3.990000e+00	-3.920000e+00	1.857143e+02	5.150788e+01	5.150788e+01
-3.920000e+00	-3.850000e+00	2.857143e+02	6.388766e+01	6.388766e+01
-3.850000e+00	-3.780000e+00	4.285714e+02	7.824608e+01	7.824608e+01
-3.780000e+00	-3.710000e+00	3.428571e+02	6.998542e+01	6.998542e+01
-3.710000e+00	-3.640000e+00	4.857143e+02	8.329931e+01	8.329931e+01
-3.640000e+00	-3.570000e+00	6.285714e+02	9.476071e+01	9.476071e+01
-3.570000e+00	-3.500000e+00	8.285714e+02	1.087968e+02	1.087968e+02
-3.500000e+00	-3.430000e+00	1.128571e+03	1.269742e+02	1.269742e+02
-3.430000e+00	-3.360000e+00	1.400000e+03	1.414214e+02	1.414214e+02
-3.360000e+00	-3.290000e+00	1.714286e+03	1.564922e+02	1.564922e+02
-3.290000e+00	-3.220000e+00	2.557143e+03	1.911298e+02	1.911298e+02
-3.220000e+00	-3.150000e+00	3.328571e+03	2.180620e+02	2.180620e+02
-3.150000e+00	-3.080000e+00	4.800000e+03	2.618615e+02	2.618615e+02
-3.080000e+00	-3.010000e+00	6.828571e+03	3.123316e+02	3.123316e+02
-3.010000e+00	-2.940000e+00	1.025714e+04	3.827932e+02	3.827932e+02
-2.940000e+00	-2.870000e+00	1.515714e+04	4.653285e+02	4.653285e+02
-2.870000e+00	-2.800000e+00	2.388571e+04	5.841442e+02	5.841442e+02
-2.800000e+00	-2.730000e+00	3.542857e+04	7.114228e+02	7.114228e+02
-2.730000e+00	-2.660000e+00	5.542857e+04	8.898521e+02	8.898521e+02
-2.660000e+00	-2.590000e+00	8.737143e+04	1.117212e+03	1.117212e+03
-2.590000e+00	-2.520000e+00	1.391143e+05	1.409733e+03	1.409733e+03
-2.520000e+00	-2.450000e+00	2.207429e+05	1.775801e+03	1.775801e+03
-2.450000e+00	-2.380000e+00	3.409286e+05	2.206900e+03	2.206900e+03
-2.380000e+00	-2.310000e+00	5.330286e+05	2.759473e+03	2.759473e+03
-2.310000e+00	-2.240000e+00	8.069857e+05	3.395345e+03	3.395345e+03
-2.240000e+00	-2.170000e+00	1.192200e+06	4.126915e+03	4.126915e+03
-2.170000e+00	-2.100000e+00	1.707900e+06	4.939491e+03	4.939491e+03
-2.100000e+00	-2.030000e+00	2.338686e+06	5.780121e+03	5.780121e+03
-2.030000e+00	-1.960000e+00	3.033529e+06	6.583018e+03	6.583018e+03
-1.960000e+00	-1.890000e+00	3.723000e+06	7.292854e+03	7.292854e+03
-1.890000e+00	-1.820000e+00	4.251143e+06	7.792985e+03	7.792985e+03
-1.820000e+00	-1.750000e+00	4.561186e+06	8.072162e+03	8.072162e+03
-1.750000e+00	-1.680000e+00	4.629329e+06	8.132236e+03	8.132236e+03
-1.680000e+00	-1.610000e+00	4.503229e+06	8.020713e+03	8.020713e+03
-1.610000e+00	-1.540000e+00	4.266486e+06	7.807035e+03	7.807035e+03
-1.540000e+00	-1.470000e+00	3.983900e+06	7.544061e+03	7.544061e+03
-1.470000e+00	-1.400000e+00	3.682757e+06	7.253331e+03	7.253331e+03
-1.400000e+00	-1.330000e+00	3.381557e+06	6.950393e+03	6.950393e+03
-1.330000e+00	-1.260000e+00	3.044771e+06	6.595205e+03	6.595205e+03
-1.260000e+00	-1.190000e+00	2.746686e+06	6.264054e+03	6.264054e+03
-1.190000e+00	-1.120000e+00	2.442314e+06	5.906793e+03	5.906793e+03
-1.120000e+00	-1.050000e+00	2.144557e+06	5.535028e+03	5.535028e+03
-1.050000e+00	-9.800000e-01	1.887486e+06	5.192695e+03	5.192695e+03
-9.800000e-01	-9.100000e-01	1.624129e+06	4.816828e+03	4.816828e+03
-9.100000e-01	-8.400000e-01	1.385029e+06	4.448159e+03	4.448159e+03
-8.400000e-01	-7.700000e-01	1.151671e+06	4.056162e+03	4.056162e+03
-7.700000e-01	-7.000000e-01	9.350143e+05	3.654770e+03	3.654770e+03
-7.000000e-01	-6.300000e-01	7.044714e+05	3.172362e+03	3.172362e+03
-6.300000e-01	-5.600000e-01	4.647857e+05	2.576780e+03	2.576780e+03
-5.600000e-01	-4.900000e-01	1.900143e+05	1.647571e+03	1.647571e+03
-4.900000e-01	-4.200000e-01	4.682857e+04	8.179117e+02	8.179117e+02
-4.200000e-01	-3.500000e-01	6.928571e+03	3.146102e+02	3.146102e+02
-3.500000e-01	-2.800000e-01	5.428571e+02	8.806306e+01	8.806306e+01
-2.800000e-01	-2.100000e-01	0.000000e+00	0.000000e+00	0.000000e+00
-2.100000e-01	-1.400000e-01	0.000000e+00	0.000000e+00	0.000000e+00
-1.400000e-01	-7.000000e-02	0.000000e+00	0.000000e+00	0.000000e+00
-7.000000e-02	0.000000e+00	0.000000e+00	0.000000e+00	0.000000e+00
# END HISTO1D

