# BEGIN PLOT
LegendOnly=/pythia_np_pt150_s1_1e3.yoda/PAPER_FIN_R4/lin_SD_l05_pT_120_150
DrawOnly=/pythia_np_pt150_s1_1e3.yoda/PAPER_FIN_R4/lin_SD_l05_pT_120_150
Legend=1
LogY=1
# END PLOT

# BEGIN HISTO1D /pythia_np_pt150_s1_1e3.yoda/PAPER_FIN_R4/lin_SD_l05_pT_120_150
LineColor=red
LineStyle=solid
Path=/pythia_np_pt150_s1_1e3.yoda/PAPER_FIN_R4/lin_SD_l05_pT_120_150
Title=pythia_np_pt150_s1_1e3
XLabel=~
YLabel=~
# xlow	 xhigh	 val	 errminus	 errplus
0.000000e+00	1.000000e-01	3.097728e+07	1.760036e+04	1.760036e+04
1.000000e-01	1.800000e-01	1.179455e+08	3.839686e+04	3.839686e+04
1.800000e-01	2.600000e-01	1.046689e+08	3.617128e+04	3.617128e+04
2.600000e-01	3.400000e-01	6.228687e+07	2.790315e+04	2.790315e+04
3.400000e-01	4.200000e-01	3.903234e+07	2.208855e+04	2.208855e+04
4.200000e-01	5.000000e-01	2.392205e+07	1.729236e+04	1.729236e+04
5.000000e-01	5.700000e-01	1.381370e+07	1.404772e+04	1.404772e+04
5.700000e-01	6.400000e-01	7.037800e+06	1.002696e+04	1.002696e+04
6.400000e-01	1.000000e+00	5.778111e+05	1.266898e+03	1.266898e+03
# END HISTO1D

