# BEGIN PLOT
LegendOnly=/pythia_ps_pt50_s1_1e3.yoda/PAPER_FIN_R8/lin_l05_pT_326_408
DrawOnly=/pythia_ps_pt50_s1_1e3.yoda/PAPER_FIN_R8/lin_l05_pT_326_408
Legend=1
LogY=1
# END PLOT

# BEGIN HISTO1D /pythia_ps_pt50_s1_1e3.yoda/PAPER_FIN_R8/lin_l05_pT_326_408
LineColor=red
LineStyle=solid
Path=/pythia_ps_pt50_s1_1e3.yoda/PAPER_FIN_R8/lin_l05_pT_326_408
Title=pythia_ps_pt50_s1_1e3
XLabel=~
YLabel=~
# xlow	 xhigh	 val	 errminus	 errplus
0.000000e+00	1.700000e-01	8.710294e+05	2.263560e+03	2.263560e+03
1.700000e-01	2.500000e-01	5.540500e+05	2.631658e+03	2.631658e+03
2.500000e-01	3.200000e-01	3.351286e+05	2.188047e+03	2.188047e+03
3.200000e-01	3.800000e-01	2.118333e+05	1.878977e+03	1.878977e+03
3.800000e-01	4.500000e-01	1.343286e+05	1.385272e+03	1.385272e+03
4.500000e-01	5.200000e-01	7.240000e+04	1.016998e+03	1.016998e+03
5.200000e-01	5.900000e-01	3.424286e+04	6.994167e+02	6.994167e+02
5.900000e-01	1.000000e+00	2.209756e+03	7.341423e+01	7.341423e+01
# END HISTO1D

