# BEGIN PLOT
LegendOnly=/pythia_ps_pt50_s1_1e3.yoda/PAPER_FIN_R4/l20_pT_65_88
DrawOnly=/pythia_ps_pt50_s1_1e3.yoda/PAPER_FIN_R4/l20_pT_65_88
Legend=1
LogY=1
# END PLOT

# BEGIN HISTO1D /pythia_ps_pt50_s1_1e3.yoda/PAPER_FIN_R4/l20_pT_65_88
LineColor=red
LineStyle=solid
Path=/pythia_ps_pt50_s1_1e3.yoda/PAPER_FIN_R4/l20_pT_65_88
Title=pythia_ps_pt50_s1_1e3
XLabel=~
YLabel=~
# xlow	 xhigh	 val	 errminus	 errplus
-7.000000e+00	-6.930000e+00	2.000000e+02	5.345225e+01	5.345225e+01
-6.930000e+00	-6.860000e+00	1.295187e+07	1.360245e+04	1.360245e+04
-6.860000e+00	-6.790000e+00	1.857143e+02	5.150788e+01	5.150788e+01
-6.790000e+00	-6.720000e+00	4.285714e+02	7.824608e+01	7.824608e+01
-6.720000e+00	-6.650000e+00	3.285714e+02	6.851188e+01	6.851188e+01
-6.650000e+00	-6.580000e+00	3.000000e+02	6.546537e+01	6.546537e+01
-6.580000e+00	-6.510000e+00	3.428571e+02	6.998542e+01	6.998542e+01
-6.510000e+00	-6.440000e+00	4.000000e+02	7.559289e+01	7.559289e+01
-6.440000e+00	-6.370000e+00	3.142857e+02	6.700594e+01	6.700594e+01
-6.370000e+00	-6.300000e+00	3.571429e+02	7.142857e+01	7.142857e+01
-6.300000e+00	-6.230000e+00	4.714286e+02	8.206518e+01	8.206518e+01
-6.230000e+00	-6.160000e+00	3.571429e+02	7.142857e+01	7.142857e+01
-6.160000e+00	-6.090000e+00	4.571429e+02	8.081220e+01	8.081220e+01
-6.090000e+00	-6.020000e+00	5.285714e+02	8.689661e+01	8.689661e+01
-6.020000e+00	-5.950000e+00	4.714286e+02	8.206518e+01	8.206518e+01
-5.950000e+00	-5.880000e+00	5.142857e+02	8.571429e+01	8.571429e+01
-5.880000e+00	-5.810000e+00	5.428571e+02	8.806306e+01	8.806306e+01
-5.810000e+00	-5.740000e+00	6.571429e+02	9.689043e+01	9.689043e+01
-5.740000e+00	-5.670000e+00	5.714286e+02	9.035079e+01	9.035079e+01
-5.670000e+00	-5.600000e+00	5.857143e+02	9.147320e+01	9.147320e+01
-5.600000e+00	-5.530000e+00	7.857143e+02	1.059457e+02	1.059457e+02
-5.530000e+00	-5.460000e+00	7.000000e+02	1.000000e+02	1.000000e+02
-5.460000e+00	-5.390000e+00	8.714286e+02	1.115750e+02	1.115750e+02
-5.390000e+00	-5.320000e+00	1.114286e+03	1.261680e+02	1.261680e+02
-5.320000e+00	-5.250000e+00	9.000000e+02	1.133893e+02	1.133893e+02
-5.250000e+00	-5.180000e+00	9.714286e+02	1.178030e+02	1.178030e+02
-5.180000e+00	-5.110000e+00	1.471429e+03	1.449842e+02	1.449842e+02
-5.110000e+00	-5.040000e+00	1.514286e+03	1.470804e+02	1.470804e+02
-5.040000e+00	-4.970000e+00	1.842857e+03	1.622545e+02	1.622545e+02
-4.970000e+00	-4.900000e+00	2.185714e+03	1.767045e+02	1.767045e+02
-4.900000e+00	-4.830000e+00	2.442857e+03	1.868100e+02	1.868100e+02
-4.830000e+00	-4.760000e+00	2.928571e+03	2.045403e+02	2.045403e+02
-4.760000e+00	-4.690000e+00	3.842857e+03	2.343031e+02	2.343031e+02
-4.690000e+00	-4.620000e+00	4.157143e+03	2.436960e+02	2.436960e+02
-4.620000e+00	-4.550000e+00	4.657143e+03	2.579353e+02	2.579353e+02
-4.550000e+00	-4.480000e+00	5.871429e+03	2.896162e+02	2.896162e+02
-4.480000e+00	-4.410000e+00	6.342857e+03	3.010187e+02	3.010187e+02
-4.410000e+00	-4.340000e+00	7.871429e+03	3.353341e+02	3.353341e+02
-4.340000e+00	-4.270000e+00	1.008571e+04	3.795809e+02	3.795809e+02
-4.270000e+00	-4.200000e+00	1.085714e+04	3.938300e+02	3.938300e+02
-4.200000e+00	-4.130000e+00	1.342857e+04	4.379917e+02	4.379917e+02
-4.130000e+00	-4.060000e+00	1.490000e+04	4.613644e+02	4.613644e+02
-4.060000e+00	-3.990000e+00	1.927143e+04	5.246962e+02	5.246962e+02
-3.990000e+00	-3.920000e+00	2.344286e+04	5.787037e+02	5.787037e+02
-3.920000e+00	-3.850000e+00	2.655714e+04	6.159446e+02	6.159446e+02
-3.850000e+00	-3.780000e+00	3.100000e+04	6.654751e+02	6.654751e+02
-3.780000e+00	-3.710000e+00	3.844286e+04	7.410693e+02	7.410693e+02
-3.710000e+00	-3.640000e+00	4.400000e+04	7.928250e+02	7.928250e+02
-3.640000e+00	-3.570000e+00	5.302857e+04	8.703741e+02	8.703741e+02
-3.570000e+00	-3.500000e+00	6.231429e+04	9.435063e+02	9.435063e+02
-3.500000e+00	-3.430000e+00	7.580000e+04	1.040604e+03	1.040604e+03
-3.430000e+00	-3.360000e+00	8.728571e+04	1.116664e+03	1.116664e+03
-3.360000e+00	-3.290000e+00	1.055571e+05	1.227990e+03	1.227990e+03
-3.290000e+00	-3.220000e+00	1.272571e+05	1.348317e+03	1.348317e+03
-3.220000e+00	-3.150000e+00	1.506286e+05	1.466914e+03	1.466914e+03
-3.150000e+00	-3.080000e+00	1.802857e+05	1.604840e+03	1.604840e+03
-3.080000e+00	-3.010000e+00	2.207286e+05	1.775744e+03	1.775744e+03
-3.010000e+00	-2.940000e+00	2.972857e+05	2.060810e+03	2.060810e+03
-2.940000e+00	-2.870000e+00	4.179714e+05	2.443567e+03	2.443567e+03
-2.870000e+00	-2.800000e+00	5.944286e+05	2.914076e+03	2.914076e+03
-2.800000e+00	-2.730000e+00	8.193000e+05	3.421153e+03	3.421153e+03
-2.730000e+00	-2.660000e+00	1.022757e+06	3.822410e+03	3.822410e+03
-2.660000e+00	-2.590000e+00	1.245057e+06	4.217408e+03	4.217408e+03
-2.590000e+00	-2.520000e+00	1.491443e+06	4.615878e+03	4.615878e+03
-2.520000e+00	-2.450000e+00	1.744100e+06	4.991564e+03	4.991564e+03
-2.450000e+00	-2.380000e+00	2.048200e+06	5.409251e+03	5.409251e+03
-2.380000e+00	-2.310000e+00	2.382643e+06	5.834188e+03	5.834188e+03
-2.310000e+00	-2.240000e+00	2.760300e+06	6.279559e+03	6.279559e+03
-2.240000e+00	-2.170000e+00	3.212071e+06	6.773975e+03	6.773975e+03
-2.170000e+00	-2.100000e+00	3.694543e+06	7.264928e+03	7.264928e+03
-2.100000e+00	-2.030000e+00	4.251671e+06	7.793469e+03	7.793469e+03
-2.030000e+00	-1.960000e+00	4.877543e+06	8.347406e+03	8.347406e+03
-1.960000e+00	-1.890000e+00	5.555414e+06	8.908595e+03	8.908595e+03
-1.890000e+00	-1.820000e+00	6.296686e+06	9.484337e+03	9.484337e+03
-1.820000e+00	-1.750000e+00	7.073857e+06	1.005262e+04	1.005262e+04
-1.750000e+00	-1.680000e+00	7.817414e+06	1.056775e+04	1.056775e+04
-1.680000e+00	-1.610000e+00	8.523500e+06	1.103469e+04	1.103469e+04
-1.610000e+00	-1.540000e+00	9.158386e+06	1.143827e+04	1.143827e+04
-1.540000e+00	-1.470000e+00	9.696814e+06	1.176970e+04	1.176970e+04
-1.470000e+00	-1.400000e+00	1.008749e+07	1.200445e+04	1.200445e+04
-1.400000e+00	-1.330000e+00	1.023744e+07	1.209335e+04	1.209335e+04
-1.330000e+00	-1.260000e+00	1.021399e+07	1.207949e+04	1.207949e+04
-1.260000e+00	-1.190000e+00	9.963329e+06	1.193035e+04	1.193035e+04
-1.190000e+00	-1.120000e+00	9.529586e+06	1.166777e+04	1.166777e+04
-1.120000e+00	-1.050000e+00	8.912557e+06	1.128372e+04	1.128372e+04
-1.050000e+00	-9.800000e-01	8.157486e+06	1.079516e+04	1.079516e+04
-9.800000e-01	-9.100000e-01	7.294600e+06	1.020826e+04	1.020826e+04
-9.100000e-01	-8.400000e-01	6.358014e+06	9.530413e+03	9.530413e+03
-8.400000e-01	-7.700000e-01	5.345657e+06	8.738795e+03	8.738795e+03
-7.700000e-01	-7.000000e-01	4.266600e+06	7.807140e+03	7.807140e+03
-7.000000e-01	-6.300000e-01	3.166514e+06	6.725765e+03	6.725765e+03
-6.300000e-01	-5.600000e-01	2.014171e+06	5.364129e+03	5.364129e+03
-5.600000e-01	-4.900000e-01	8.605286e+05	3.506175e+03	3.506175e+03
-4.900000e-01	-4.200000e-01	2.170714e+05	1.760971e+03	1.760971e+03
-4.200000e-01	-3.500000e-01	2.614286e+04	6.111214e+02	6.111214e+02
-3.500000e-01	-2.800000e-01	9.000000e+02	1.133893e+02	1.133893e+02
-2.800000e-01	-2.100000e-01	2.857143e+01	2.020305e+01	2.020305e+01
-2.100000e-01	-1.400000e-01	0.000000e+00	0.000000e+00	0.000000e+00
-1.400000e-01	-7.000000e-02	0.000000e+00	0.000000e+00	0.000000e+00
-7.000000e-02	0.000000e+00	0.000000e+00	0.000000e+00	0.000000e+00
# END HISTO1D

