# BEGIN PLOT
LegendOnly=/pythia_ps_pt50_s1_1e3.yoda/PAPER_FIN_R8/lin_l10_pT_254_326
DrawOnly=/pythia_ps_pt50_s1_1e3.yoda/PAPER_FIN_R8/lin_l10_pT_254_326
Legend=1
LogY=1
# END PLOT

# BEGIN HISTO1D /pythia_ps_pt50_s1_1e3.yoda/PAPER_FIN_R8/lin_l10_pT_254_326
LineColor=red
LineStyle=solid
Path=/pythia_ps_pt50_s1_1e3.yoda/PAPER_FIN_R8/lin_l10_pT_254_326
Title=pythia_ps_pt50_s1_1e3
XLabel=~
YLabel=~
# xlow	 xhigh	 val	 errminus	 errplus
0.000000e+00	1.050000e-01	4.056829e+06	6.215824e+03	6.215824e+03
1.050000e-01	1.650000e-01	1.378133e+06	4.792587e+03	4.792587e+03
1.650000e-01	2.300000e-01	7.357385e+05	3.364380e+03	3.364380e+03
2.300000e-01	3.050000e-01	4.068133e+05	2.328986e+03	2.328986e+03
3.050000e-01	3.800000e-01	2.222267e+05	1.721343e+03	1.721343e+03
3.800000e-01	4.600000e-01	1.139375e+05	1.193406e+03	1.193406e+03
4.600000e-01	5.500000e-01	4.296667e+04	6.909467e+02	6.909467e+02
5.500000e-01	1.000000e+00	2.048889e+03	6.747656e+01	6.747656e+01
# END HISTO1D

