# BEGIN PLOT
LegendOnly=/pythia_ps_pt50_s1_1e3.yoda/PAPER_FIN_R4/ch_SD_l05_pT_186_254
DrawOnly=/pythia_ps_pt50_s1_1e3.yoda/PAPER_FIN_R4/ch_SD_l05_pT_186_254
Legend=1
LogY=1
# END PLOT

# BEGIN HISTO1D /pythia_ps_pt50_s1_1e3.yoda/PAPER_FIN_R4/ch_SD_l05_pT_186_254
LineColor=red
LineStyle=solid
Path=/pythia_ps_pt50_s1_1e3.yoda/PAPER_FIN_R4/ch_SD_l05_pT_186_254
Title=pythia_ps_pt50_s1_1e3
XLabel=~
YLabel=~
# xlow	 xhigh	 val	 errminus	 errplus
-7.000000e+00	-6.930000e+00	0.000000e+00	0.000000e+00	0.000000e+00
-6.930000e+00	-6.860000e+00	1.625537e+07	1.523875e+04	1.523875e+04
-6.860000e+00	-6.790000e+00	0.000000e+00	0.000000e+00	0.000000e+00
-6.790000e+00	-6.720000e+00	0.000000e+00	0.000000e+00	0.000000e+00
-6.720000e+00	-6.650000e+00	0.000000e+00	0.000000e+00	0.000000e+00
-6.650000e+00	-6.580000e+00	0.000000e+00	0.000000e+00	0.000000e+00
-6.580000e+00	-6.510000e+00	0.000000e+00	0.000000e+00	0.000000e+00
-6.510000e+00	-6.440000e+00	0.000000e+00	0.000000e+00	0.000000e+00
-6.440000e+00	-6.370000e+00	0.000000e+00	0.000000e+00	0.000000e+00
-6.370000e+00	-6.300000e+00	0.000000e+00	0.000000e+00	0.000000e+00
-6.300000e+00	-6.230000e+00	0.000000e+00	0.000000e+00	0.000000e+00
-6.230000e+00	-6.160000e+00	0.000000e+00	0.000000e+00	0.000000e+00
-6.160000e+00	-6.090000e+00	0.000000e+00	0.000000e+00	0.000000e+00
-6.090000e+00	-6.020000e+00	0.000000e+00	0.000000e+00	0.000000e+00
-6.020000e+00	-5.950000e+00	0.000000e+00	0.000000e+00	0.000000e+00
-5.950000e+00	-5.880000e+00	0.000000e+00	0.000000e+00	0.000000e+00
-5.880000e+00	-5.810000e+00	0.000000e+00	0.000000e+00	0.000000e+00
-5.810000e+00	-5.740000e+00	0.000000e+00	0.000000e+00	0.000000e+00
-5.740000e+00	-5.670000e+00	0.000000e+00	0.000000e+00	0.000000e+00
-5.670000e+00	-5.600000e+00	0.000000e+00	0.000000e+00	0.000000e+00
-5.600000e+00	-5.530000e+00	0.000000e+00	0.000000e+00	0.000000e+00
-5.530000e+00	-5.460000e+00	0.000000e+00	0.000000e+00	0.000000e+00
-5.460000e+00	-5.390000e+00	0.000000e+00	0.000000e+00	0.000000e+00
-5.390000e+00	-5.320000e+00	0.000000e+00	0.000000e+00	0.000000e+00
-5.320000e+00	-5.250000e+00	0.000000e+00	0.000000e+00	0.000000e+00
-5.250000e+00	-5.180000e+00	0.000000e+00	0.000000e+00	0.000000e+00
-5.180000e+00	-5.110000e+00	0.000000e+00	0.000000e+00	0.000000e+00
-5.110000e+00	-5.040000e+00	0.000000e+00	0.000000e+00	0.000000e+00
-5.040000e+00	-4.970000e+00	0.000000e+00	0.000000e+00	0.000000e+00
-4.970000e+00	-4.900000e+00	0.000000e+00	0.000000e+00	0.000000e+00
-4.900000e+00	-4.830000e+00	0.000000e+00	0.000000e+00	0.000000e+00
-4.830000e+00	-4.760000e+00	0.000000e+00	0.000000e+00	0.000000e+00
-4.760000e+00	-4.690000e+00	0.000000e+00	0.000000e+00	0.000000e+00
-4.690000e+00	-4.620000e+00	0.000000e+00	0.000000e+00	0.000000e+00
-4.620000e+00	-4.550000e+00	0.000000e+00	0.000000e+00	0.000000e+00
-4.550000e+00	-4.480000e+00	0.000000e+00	0.000000e+00	0.000000e+00
-4.480000e+00	-4.410000e+00	0.000000e+00	0.000000e+00	0.000000e+00
-4.410000e+00	-4.340000e+00	0.000000e+00	0.000000e+00	0.000000e+00
-4.340000e+00	-4.270000e+00	0.000000e+00	0.000000e+00	0.000000e+00
-4.270000e+00	-4.200000e+00	0.000000e+00	0.000000e+00	0.000000e+00
-4.200000e+00	-4.130000e+00	0.000000e+00	0.000000e+00	0.000000e+00
-4.130000e+00	-4.060000e+00	0.000000e+00	0.000000e+00	0.000000e+00
-4.060000e+00	-3.990000e+00	0.000000e+00	0.000000e+00	0.000000e+00
-3.990000e+00	-3.920000e+00	0.000000e+00	0.000000e+00	0.000000e+00
-3.920000e+00	-3.850000e+00	0.000000e+00	0.000000e+00	0.000000e+00
-3.850000e+00	-3.780000e+00	0.000000e+00	0.000000e+00	0.000000e+00
-3.780000e+00	-3.710000e+00	0.000000e+00	0.000000e+00	0.000000e+00
-3.710000e+00	-3.640000e+00	0.000000e+00	0.000000e+00	0.000000e+00
-3.640000e+00	-3.570000e+00	0.000000e+00	0.000000e+00	0.000000e+00
-3.570000e+00	-3.500000e+00	0.000000e+00	0.000000e+00	0.000000e+00
-3.500000e+00	-3.430000e+00	0.000000e+00	0.000000e+00	0.000000e+00
-3.430000e+00	-3.360000e+00	0.000000e+00	0.000000e+00	0.000000e+00
-3.360000e+00	-3.290000e+00	0.000000e+00	0.000000e+00	0.000000e+00
-3.290000e+00	-3.220000e+00	0.000000e+00	0.000000e+00	0.000000e+00
-3.220000e+00	-3.150000e+00	0.000000e+00	0.000000e+00	0.000000e+00
-3.150000e+00	-3.080000e+00	0.000000e+00	0.000000e+00	0.000000e+00
-3.080000e+00	-3.010000e+00	0.000000e+00	0.000000e+00	0.000000e+00
-3.010000e+00	-2.940000e+00	0.000000e+00	0.000000e+00	0.000000e+00
-2.940000e+00	-2.870000e+00	1.428571e+01	1.428571e+01	1.428571e+01
-2.870000e+00	-2.800000e+00	0.000000e+00	0.000000e+00	0.000000e+00
-2.800000e+00	-2.730000e+00	0.000000e+00	0.000000e+00	0.000000e+00
-2.730000e+00	-2.660000e+00	2.857143e+01	2.020305e+01	2.020305e+01
-2.660000e+00	-2.590000e+00	2.857143e+01	2.020305e+01	2.020305e+01
-2.590000e+00	-2.520000e+00	0.000000e+00	0.000000e+00	0.000000e+00
-2.520000e+00	-2.450000e+00	0.000000e+00	0.000000e+00	0.000000e+00
-2.450000e+00	-2.380000e+00	0.000000e+00	0.000000e+00	0.000000e+00
-2.380000e+00	-2.310000e+00	1.428571e+01	1.428571e+01	1.428571e+01
-2.310000e+00	-2.240000e+00	4.285714e+01	2.474358e+01	2.474358e+01
-2.240000e+00	-2.170000e+00	2.857143e+01	2.020305e+01	2.020305e+01
-2.170000e+00	-2.100000e+00	7.142857e+01	3.194383e+01	3.194383e+01
-2.100000e+00	-2.030000e+00	1.857143e+02	5.150788e+01	5.150788e+01
-2.030000e+00	-1.960000e+00	4.000000e+02	7.559289e+01	7.559289e+01
-1.960000e+00	-1.890000e+00	7.714286e+02	1.049781e+02	1.049781e+02
-1.890000e+00	-1.820000e+00	1.600000e+03	1.511858e+02	1.511858e+02
-1.820000e+00	-1.750000e+00	2.685714e+03	1.958758e+02	1.958758e+02
-1.750000e+00	-1.680000e+00	5.628571e+03	2.835633e+02	2.835633e+02
-1.680000e+00	-1.610000e+00	1.058571e+04	3.888759e+02	3.888759e+02
-1.610000e+00	-1.540000e+00	1.967143e+04	5.301136e+02	5.301136e+02
-1.540000e+00	-1.470000e+00	3.474286e+04	7.045045e+02	7.045045e+02
-1.470000e+00	-1.400000e+00	5.671429e+04	9.001134e+02	9.001134e+02
-1.400000e+00	-1.330000e+00	8.284286e+04	1.087874e+03	1.087874e+03
-1.330000e+00	-1.260000e+00	1.172714e+05	1.294336e+03	1.294336e+03
-1.260000e+00	-1.190000e+00	1.589429e+05	1.506855e+03	1.506855e+03
-1.190000e+00	-1.120000e+00	2.173714e+05	1.762188e+03	1.762188e+03
-1.120000e+00	-1.050000e+00	2.758857e+05	1.985252e+03	1.985252e+03
-1.050000e+00	-9.800000e-01	3.448571e+05	2.219579e+03	2.219579e+03
-9.800000e-01	-9.100000e-01	3.886857e+05	2.356407e+03	2.356407e+03
-9.100000e-01	-8.400000e-01	4.113286e+05	2.424071e+03	2.424071e+03
-8.400000e-01	-7.700000e-01	4.166714e+05	2.439764e+03	2.439764e+03
-7.700000e-01	-7.000000e-01	4.139143e+05	2.431679e+03	2.431679e+03
-7.000000e-01	-6.300000e-01	4.005429e+05	2.392079e+03	2.392079e+03
-6.300000e-01	-5.600000e-01	3.687714e+05	2.295248e+03	2.295248e+03
-5.600000e-01	-4.900000e-01	3.246286e+05	2.153497e+03	2.153497e+03
-4.900000e-01	-4.200000e-01	2.542429e+05	1.905791e+03	1.905791e+03
-4.200000e-01	-3.500000e-01	1.774714e+05	1.592264e+03	1.592264e+03
-3.500000e-01	-2.800000e-01	8.034286e+04	1.071333e+03	1.071333e+03
-2.800000e-01	-2.100000e-01	2.344286e+04	5.787037e+02	5.787037e+02
-2.100000e-01	-1.400000e-01	2.228571e+03	1.784285e+02	1.784285e+02
-1.400000e-01	-7.000000e-02	1.428571e+01	1.428571e+01	1.428571e+01
-7.000000e-02	0.000000e+00	0.000000e+00	0.000000e+00	0.000000e+00
# END HISTO1D

