# BEGIN PLOT
LegendOnly=/pythia_ps_pt50_s1_1e3.yoda/PAPER_FIN_R8/l10_pT_88_120
DrawOnly=/pythia_ps_pt50_s1_1e3.yoda/PAPER_FIN_R8/l10_pT_88_120
Legend=1
LogY=1
# END PLOT

# BEGIN HISTO1D /pythia_ps_pt50_s1_1e3.yoda/PAPER_FIN_R8/l10_pT_88_120
LineColor=red
LineStyle=solid
Path=/pythia_ps_pt50_s1_1e3.yoda/PAPER_FIN_R8/l10_pT_88_120
Title=pythia_ps_pt50_s1_1e3
XLabel=~
YLabel=~
# xlow	 xhigh	 val	 errminus	 errplus
-7.000000e+00	-6.930000e+00	1.857143e+02	5.150788e+01	5.150788e+01
-6.930000e+00	-6.860000e+00	2.015500e+06	5.365898e+03	5.365898e+03
-6.860000e+00	-6.790000e+00	1.571429e+02	4.738035e+01	4.738035e+01
-6.790000e+00	-6.720000e+00	1.142857e+02	4.040610e+01	4.040610e+01
-6.720000e+00	-6.650000e+00	1.571429e+02	4.738035e+01	4.738035e+01
-6.650000e+00	-6.580000e+00	1.285714e+02	4.285714e+01	4.285714e+01
-6.580000e+00	-6.510000e+00	1.285714e+02	4.285714e+01	4.285714e+01
-6.510000e+00	-6.440000e+00	8.571429e+01	3.499271e+01	3.499271e+01
-6.440000e+00	-6.370000e+00	1.428571e+02	4.517540e+01	4.517540e+01
-6.370000e+00	-6.300000e+00	1.000000e+02	3.779645e+01	3.779645e+01
-6.300000e+00	-6.230000e+00	1.428571e+02	4.517540e+01	4.517540e+01
-6.230000e+00	-6.160000e+00	1.142857e+02	4.040610e+01	4.040610e+01
-6.160000e+00	-6.090000e+00	1.000000e+02	3.779645e+01	3.779645e+01
-6.090000e+00	-6.020000e+00	1.142857e+02	4.040610e+01	4.040610e+01
-6.020000e+00	-5.950000e+00	1.571429e+02	4.738035e+01	4.738035e+01
-5.950000e+00	-5.880000e+00	1.571429e+02	4.738035e+01	4.738035e+01
-5.880000e+00	-5.810000e+00	1.142857e+02	4.040610e+01	4.040610e+01
-5.810000e+00	-5.740000e+00	2.000000e+02	5.345225e+01	5.345225e+01
-5.740000e+00	-5.670000e+00	1.000000e+02	3.779645e+01	3.779645e+01
-5.670000e+00	-5.600000e+00	1.428571e+02	4.517540e+01	4.517540e+01
-5.600000e+00	-5.530000e+00	2.857143e+01	2.020305e+01	2.020305e+01
-5.530000e+00	-5.460000e+00	1.142857e+02	4.040610e+01	4.040610e+01
-5.460000e+00	-5.390000e+00	1.857143e+02	5.150788e+01	5.150788e+01
-5.390000e+00	-5.320000e+00	1.285714e+02	4.285714e+01	4.285714e+01
-5.320000e+00	-5.250000e+00	1.142857e+02	4.040610e+01	4.040610e+01
-5.250000e+00	-5.180000e+00	1.285714e+02	4.285714e+01	4.285714e+01
-5.180000e+00	-5.110000e+00	1.571429e+02	4.738035e+01	4.738035e+01
-5.110000e+00	-5.040000e+00	1.571429e+02	4.738035e+01	4.738035e+01
-5.040000e+00	-4.970000e+00	1.142857e+02	4.040610e+01	4.040610e+01
-4.970000e+00	-4.900000e+00	1.571429e+02	4.738035e+01	4.738035e+01
-4.900000e+00	-4.830000e+00	1.000000e+02	3.779645e+01	3.779645e+01
-4.830000e+00	-4.760000e+00	7.142857e+01	3.194383e+01	3.194383e+01
-4.760000e+00	-4.690000e+00	2.000000e+02	5.345225e+01	5.345225e+01
-4.690000e+00	-4.620000e+00	1.857143e+02	5.150788e+01	5.150788e+01
-4.620000e+00	-4.550000e+00	2.428571e+02	5.890151e+01	5.890151e+01
-4.550000e+00	-4.480000e+00	2.000000e+02	5.345225e+01	5.345225e+01
-4.480000e+00	-4.410000e+00	1.857143e+02	5.150788e+01	5.150788e+01
-4.410000e+00	-4.340000e+00	2.428571e+02	5.890151e+01	5.890151e+01
-4.340000e+00	-4.270000e+00	3.714286e+02	7.284314e+01	7.284314e+01
-4.270000e+00	-4.200000e+00	2.285714e+02	5.714286e+01	5.714286e+01
-4.200000e+00	-4.130000e+00	2.285714e+02	5.714286e+01	5.714286e+01
-4.130000e+00	-4.060000e+00	4.571429e+02	8.081220e+01	8.081220e+01
-4.060000e+00	-3.990000e+00	5.857143e+02	9.147320e+01	9.147320e+01
-3.990000e+00	-3.920000e+00	7.571429e+02	1.040016e+02	1.040016e+02
-3.920000e+00	-3.850000e+00	1.214286e+03	1.317078e+02	1.317078e+02
-3.850000e+00	-3.780000e+00	1.042857e+03	1.220572e+02	1.220572e+02
-3.780000e+00	-3.710000e+00	1.614286e+03	1.518592e+02	1.518592e+02
-3.710000e+00	-3.640000e+00	1.742857e+03	1.577909e+02	1.577909e+02
-3.640000e+00	-3.570000e+00	2.485714e+03	1.884415e+02	1.884415e+02
-3.570000e+00	-3.500000e+00	3.385714e+03	2.199258e+02	2.199258e+02
-3.500000e+00	-3.430000e+00	4.071429e+03	2.411706e+02	2.411706e+02
-3.430000e+00	-3.360000e+00	5.542857e+03	2.813959e+02	2.813959e+02
-3.360000e+00	-3.290000e+00	7.500000e+03	3.273268e+02	3.273268e+02
-3.290000e+00	-3.220000e+00	8.800000e+03	3.545621e+02	3.545621e+02
-3.220000e+00	-3.150000e+00	1.178571e+04	4.103259e+02	4.103259e+02
-3.150000e+00	-3.080000e+00	1.547143e+04	4.701281e+02	4.701281e+02
-3.080000e+00	-3.010000e+00	1.994286e+04	5.337583e+02	5.337583e+02
-3.010000e+00	-2.940000e+00	2.627143e+04	6.126223e+02	6.126223e+02
-2.940000e+00	-2.870000e+00	3.521429e+04	7.092681e+02	7.092681e+02
-2.870000e+00	-2.800000e+00	4.378571e+04	7.908920e+02	7.908920e+02
-2.800000e+00	-2.730000e+00	5.450000e+04	8.823669e+02	8.823669e+02
-2.730000e+00	-2.660000e+00	7.220000e+04	1.015593e+03	1.015593e+03
-2.660000e+00	-2.590000e+00	9.120000e+04	1.141428e+03	1.141428e+03
-2.590000e+00	-2.520000e+00	1.174000e+05	1.295046e+03	1.295046e+03
-2.520000e+00	-2.450000e+00	1.541714e+05	1.484065e+03	1.484065e+03
-2.450000e+00	-2.380000e+00	2.037571e+05	1.706111e+03	1.706111e+03
-2.380000e+00	-2.310000e+00	2.786571e+05	1.995198e+03	1.995198e+03
-2.310000e+00	-2.240000e+00	3.903571e+05	2.361468e+03	2.361468e+03
-2.240000e+00	-2.170000e+00	5.483000e+05	2.798724e+03	2.798724e+03
-2.170000e+00	-2.100000e+00	7.527286e+05	3.279217e+03	3.279217e+03
-2.100000e+00	-2.030000e+00	9.339286e+05	3.652648e+03	3.652648e+03
-2.030000e+00	-1.960000e+00	1.107000e+06	3.976718e+03	3.976718e+03
-1.960000e+00	-1.890000e+00	1.380314e+06	4.440583e+03	4.440583e+03
-1.890000e+00	-1.820000e+00	1.820929e+06	5.100320e+03	5.100320e+03
-1.820000e+00	-1.750000e+00	2.379443e+06	5.830269e+03	5.830269e+03
-1.750000e+00	-1.680000e+00	3.001443e+06	6.548111e+03	6.548111e+03
-1.680000e+00	-1.610000e+00	3.716543e+06	7.286527e+03	7.286527e+03
-1.610000e+00	-1.540000e+00	4.508071e+06	8.025025e+03	8.025025e+03
-1.540000e+00	-1.470000e+00	5.360271e+06	8.750732e+03	8.750732e+03
-1.470000e+00	-1.400000e+00	6.214729e+06	9.422411e+03	9.422411e+03
-1.400000e+00	-1.330000e+00	6.986686e+06	9.990485e+03	9.990485e+03
-1.330000e+00	-1.260000e+00	7.665714e+06	1.046471e+04	1.046471e+04
-1.260000e+00	-1.190000e+00	8.231071e+06	1.084374e+04	1.084374e+04
-1.190000e+00	-1.120000e+00	8.610529e+06	1.109088e+04	1.109088e+04
-1.120000e+00	-1.050000e+00	8.888843e+06	1.126869e+04	1.126869e+04
-1.050000e+00	-9.800000e-01	8.932100e+06	1.129608e+04	1.129608e+04
-9.800000e-01	-9.100000e-01	8.795186e+06	1.120917e+04	1.120917e+04
-9.100000e-01	-8.400000e-01	8.493114e+06	1.101500e+04	1.101500e+04
-8.400000e-01	-7.700000e-01	7.995714e+06	1.068759e+04	1.068759e+04
-7.700000e-01	-7.000000e-01	7.378657e+06	1.026691e+04	1.026691e+04
-7.000000e-01	-6.300000e-01	6.627786e+06	9.730501e+03	9.730501e+03
-6.300000e-01	-5.600000e-01	5.760729e+06	9.071721e+03	9.071721e+03
-5.600000e-01	-4.900000e-01	4.835300e+06	8.311180e+03	8.311180e+03
-4.900000e-01	-4.200000e-01	3.801286e+06	7.369130e+03	7.369130e+03
-4.200000e-01	-3.500000e-01	2.661257e+06	6.165871e+03	6.165871e+03
-3.500000e-01	-2.800000e-01	1.490543e+06	4.614485e+03	4.614485e+03
-2.800000e-01	-2.100000e-01	5.173857e+05	2.718681e+03	2.718681e+03
-2.100000e-01	-1.400000e-01	9.504286e+04	1.165227e+03	1.165227e+03
-1.400000e-01	-7.000000e-02	7.471429e+03	3.267028e+02	3.267028e+02
-7.000000e-02	0.000000e+00	1.571429e+02	4.738035e+01	4.738035e+01
# END HISTO1D

