# BEGIN PLOT
LegendOnly=/pythia_ps_pt50_s1_1e3.yoda/PAPER_FIN_R8_CH/lin_l05_pT_408_1500
DrawOnly=/pythia_ps_pt50_s1_1e3.yoda/PAPER_FIN_R8_CH/lin_l05_pT_408_1500
Legend=1
LogY=1
# END PLOT

# BEGIN HISTO1D /pythia_ps_pt50_s1_1e3.yoda/PAPER_FIN_R8_CH/lin_l05_pT_408_1500
LineColor=red
LineStyle=solid
Path=/pythia_ps_pt50_s1_1e3.yoda/PAPER_FIN_R8_CH/lin_l05_pT_408_1500
Title=pythia_ps_pt50_s1_1e3
XLabel=~
YLabel=~
# xlow	 xhigh	 val	 errminus	 errplus
0.000000e+00	6.000000e-02	5.272000e+05	2.964231e+03	2.964231e+03
6.000000e-02	1.100000e-01	7.665600e+05	3.915508e+03	3.915508e+03
1.100000e-01	1.500000e-01	6.067000e+05	3.894547e+03	3.894547e+03
1.500000e-01	1.900000e-01	4.668000e+05	3.416138e+03	3.416138e+03
1.900000e-01	2.300000e-01	3.528500e+05	2.970059e+03	2.970059e+03
2.300000e-01	2.700000e-01	2.718750e+05	2.607082e+03	2.607082e+03
2.700000e-01	3.100000e-01	2.036000e+05	2.256103e+03	2.256103e+03
3.100000e-01	3.500000e-01	1.578250e+05	1.986360e+03	1.986360e+03
3.500000e-01	3.900000e-01	1.141500e+05	1.689305e+03	1.689305e+03
3.900000e-01	4.400000e-01	8.270000e+04	1.286079e+03	1.286079e+03
4.400000e-01	4.900000e-01	5.546000e+04	1.053186e+03	1.053186e+03
4.900000e-01	5.400000e-01	3.210000e+04	8.012490e+02	8.012490e+02
5.400000e-01	6.000000e-01	1.620000e+04	5.196152e+02	5.196152e+02
6.000000e-01	1.000000e+00	1.082500e+03	5.202163e+01	5.202163e+01
# END HISTO1D

