# BEGIN PLOT
LegendOnly=/pythia_ps_pt50_s1_1e3.yoda/PAPER_FIN_R4_CH/lin_SD_l05_pT_254_326
DrawOnly=/pythia_ps_pt50_s1_1e3.yoda/PAPER_FIN_R4_CH/lin_SD_l05_pT_254_326
Legend=1
LogY=1
# END PLOT

# BEGIN HISTO1D /pythia_ps_pt50_s1_1e3.yoda/PAPER_FIN_R4_CH/lin_SD_l05_pT_254_326
LineColor=red
LineStyle=solid
Path=/pythia_ps_pt50_s1_1e3.yoda/PAPER_FIN_R4_CH/lin_SD_l05_pT_254_326
Title=pythia_ps_pt50_s1_1e3
XLabel=~
YLabel=~
# xlow	 xhigh	 val	 errminus	 errplus
0.000000e+00	6.000000e-02	2.759233e+06	6.781388e+03	6.781388e+03
6.000000e-02	9.000000e-02	1.902133e+06	7.962691e+03	7.962691e+03
9.000000e-02	1.200000e-01	1.594233e+06	7.289795e+03	7.289795e+03
1.200000e-01	1.500000e-01	1.381933e+06	6.787079e+03	6.787079e+03
1.500000e-01	1.900000e-01	1.158425e+06	5.381508e+03	5.381508e+03
1.900000e-01	2.300000e-01	9.450000e+05	4.860556e+03	4.860556e+03
2.300000e-01	2.700000e-01	7.666750e+05	4.377999e+03	4.377999e+03
2.700000e-01	3.200000e-01	5.940600e+05	3.446912e+03	3.446912e+03
3.200000e-01	3.700000e-01	4.390400e+05	2.963241e+03	2.963241e+03
3.700000e-01	4.200000e-01	3.159400e+05	2.513722e+03	2.513722e+03
4.200000e-01	4.800000e-01	2.099500e+05	1.870606e+03	1.870606e+03
4.800000e-01	5.400000e-01	1.229833e+05	1.431685e+03	1.431685e+03
5.400000e-01	6.000000e-01	5.973333e+04	9.977753e+02	9.977753e+02
6.000000e-01	1.000000e+00	4.597500e+03	1.072089e+02	1.072089e+02
# END HISTO1D

