# BEGIN PLOT
LegendOnly=/pythia_ps_pt50_s1_1e3.yoda/PAPER_FIN_R8/SD_l05_pT_150_186
DrawOnly=/pythia_ps_pt50_s1_1e3.yoda/PAPER_FIN_R8/SD_l05_pT_150_186
Legend=1
LogY=1
# END PLOT

# BEGIN HISTO1D /pythia_ps_pt50_s1_1e3.yoda/PAPER_FIN_R8/SD_l05_pT_150_186
LineColor=red
LineStyle=solid
Path=/pythia_ps_pt50_s1_1e3.yoda/PAPER_FIN_R8/SD_l05_pT_150_186
Title=pythia_ps_pt50_s1_1e3
XLabel=~
YLabel=~
# xlow	 xhigh	 val	 errminus	 errplus
-7.000000e+00	-6.930000e+00	0.000000e+00	0.000000e+00	0.000000e+00
-6.930000e+00	-6.860000e+00	5.939586e+06	9.211472e+03	9.211472e+03
-6.860000e+00	-6.790000e+00	0.000000e+00	0.000000e+00	0.000000e+00
-6.790000e+00	-6.720000e+00	0.000000e+00	0.000000e+00	0.000000e+00
-6.720000e+00	-6.650000e+00	0.000000e+00	0.000000e+00	0.000000e+00
-6.650000e+00	-6.580000e+00	0.000000e+00	0.000000e+00	0.000000e+00
-6.580000e+00	-6.510000e+00	0.000000e+00	0.000000e+00	0.000000e+00
-6.510000e+00	-6.440000e+00	0.000000e+00	0.000000e+00	0.000000e+00
-6.440000e+00	-6.370000e+00	0.000000e+00	0.000000e+00	0.000000e+00
-6.370000e+00	-6.300000e+00	0.000000e+00	0.000000e+00	0.000000e+00
-6.300000e+00	-6.230000e+00	0.000000e+00	0.000000e+00	0.000000e+00
-6.230000e+00	-6.160000e+00	0.000000e+00	0.000000e+00	0.000000e+00
-6.160000e+00	-6.090000e+00	0.000000e+00	0.000000e+00	0.000000e+00
-6.090000e+00	-6.020000e+00	0.000000e+00	0.000000e+00	0.000000e+00
-6.020000e+00	-5.950000e+00	0.000000e+00	0.000000e+00	0.000000e+00
-5.950000e+00	-5.880000e+00	0.000000e+00	0.000000e+00	0.000000e+00
-5.880000e+00	-5.810000e+00	0.000000e+00	0.000000e+00	0.000000e+00
-5.810000e+00	-5.740000e+00	0.000000e+00	0.000000e+00	0.000000e+00
-5.740000e+00	-5.670000e+00	0.000000e+00	0.000000e+00	0.000000e+00
-5.670000e+00	-5.600000e+00	0.000000e+00	0.000000e+00	0.000000e+00
-5.600000e+00	-5.530000e+00	0.000000e+00	0.000000e+00	0.000000e+00
-5.530000e+00	-5.460000e+00	0.000000e+00	0.000000e+00	0.000000e+00
-5.460000e+00	-5.390000e+00	0.000000e+00	0.000000e+00	0.000000e+00
-5.390000e+00	-5.320000e+00	0.000000e+00	0.000000e+00	0.000000e+00
-5.320000e+00	-5.250000e+00	0.000000e+00	0.000000e+00	0.000000e+00
-5.250000e+00	-5.180000e+00	0.000000e+00	0.000000e+00	0.000000e+00
-5.180000e+00	-5.110000e+00	0.000000e+00	0.000000e+00	0.000000e+00
-5.110000e+00	-5.040000e+00	0.000000e+00	0.000000e+00	0.000000e+00
-5.040000e+00	-4.970000e+00	0.000000e+00	0.000000e+00	0.000000e+00
-4.970000e+00	-4.900000e+00	0.000000e+00	0.000000e+00	0.000000e+00
-4.900000e+00	-4.830000e+00	0.000000e+00	0.000000e+00	0.000000e+00
-4.830000e+00	-4.760000e+00	0.000000e+00	0.000000e+00	0.000000e+00
-4.760000e+00	-4.690000e+00	0.000000e+00	0.000000e+00	0.000000e+00
-4.690000e+00	-4.620000e+00	0.000000e+00	0.000000e+00	0.000000e+00
-4.620000e+00	-4.550000e+00	0.000000e+00	0.000000e+00	0.000000e+00
-4.550000e+00	-4.480000e+00	0.000000e+00	0.000000e+00	0.000000e+00
-4.480000e+00	-4.410000e+00	0.000000e+00	0.000000e+00	0.000000e+00
-4.410000e+00	-4.340000e+00	0.000000e+00	0.000000e+00	0.000000e+00
-4.340000e+00	-4.270000e+00	0.000000e+00	0.000000e+00	0.000000e+00
-4.270000e+00	-4.200000e+00	0.000000e+00	0.000000e+00	0.000000e+00
-4.200000e+00	-4.130000e+00	0.000000e+00	0.000000e+00	0.000000e+00
-4.130000e+00	-4.060000e+00	0.000000e+00	0.000000e+00	0.000000e+00
-4.060000e+00	-3.990000e+00	0.000000e+00	0.000000e+00	0.000000e+00
-3.990000e+00	-3.920000e+00	0.000000e+00	0.000000e+00	0.000000e+00
-3.920000e+00	-3.850000e+00	0.000000e+00	0.000000e+00	0.000000e+00
-3.850000e+00	-3.780000e+00	0.000000e+00	0.000000e+00	0.000000e+00
-3.780000e+00	-3.710000e+00	0.000000e+00	0.000000e+00	0.000000e+00
-3.710000e+00	-3.640000e+00	0.000000e+00	0.000000e+00	0.000000e+00
-3.640000e+00	-3.570000e+00	0.000000e+00	0.000000e+00	0.000000e+00
-3.570000e+00	-3.500000e+00	0.000000e+00	0.000000e+00	0.000000e+00
-3.500000e+00	-3.430000e+00	0.000000e+00	0.000000e+00	0.000000e+00
-3.430000e+00	-3.360000e+00	0.000000e+00	0.000000e+00	0.000000e+00
-3.360000e+00	-3.290000e+00	0.000000e+00	0.000000e+00	0.000000e+00
-3.290000e+00	-3.220000e+00	0.000000e+00	0.000000e+00	0.000000e+00
-3.220000e+00	-3.150000e+00	0.000000e+00	0.000000e+00	0.000000e+00
-3.150000e+00	-3.080000e+00	0.000000e+00	0.000000e+00	0.000000e+00
-3.080000e+00	-3.010000e+00	0.000000e+00	0.000000e+00	0.000000e+00
-3.010000e+00	-2.940000e+00	0.000000e+00	0.000000e+00	0.000000e+00
-2.940000e+00	-2.870000e+00	0.000000e+00	0.000000e+00	0.000000e+00
-2.870000e+00	-2.800000e+00	0.000000e+00	0.000000e+00	0.000000e+00
-2.800000e+00	-2.730000e+00	0.000000e+00	0.000000e+00	0.000000e+00
-2.730000e+00	-2.660000e+00	1.428571e+01	1.428571e+01	1.428571e+01
-2.660000e+00	-2.590000e+00	4.285714e+01	2.474358e+01	2.474358e+01
-2.590000e+00	-2.520000e+00	2.857143e+01	2.020305e+01	2.020305e+01
-2.520000e+00	-2.450000e+00	5.714286e+01	2.857143e+01	2.857143e+01
-2.450000e+00	-2.380000e+00	1.142857e+02	4.040610e+01	4.040610e+01
-2.380000e+00	-2.310000e+00	2.000000e+02	5.345225e+01	5.345225e+01
-2.310000e+00	-2.240000e+00	4.428571e+02	7.953949e+01	7.953949e+01
-2.240000e+00	-2.170000e+00	1.100000e+03	1.253566e+02	1.253566e+02
-2.170000e+00	-2.100000e+00	1.757143e+03	1.584362e+02	1.584362e+02
-2.100000e+00	-2.030000e+00	4.428571e+03	2.515260e+02	2.515260e+02
-2.030000e+00	-1.960000e+00	8.871429e+03	3.559982e+02	3.559982e+02
-1.960000e+00	-1.890000e+00	1.711429e+04	4.944591e+02	4.944591e+02
-1.890000e+00	-1.820000e+00	3.538571e+04	7.109924e+02	7.109924e+02
-1.820000e+00	-1.750000e+00	6.854286e+04	9.895371e+02	9.895371e+02
-1.750000e+00	-1.680000e+00	1.434000e+05	1.431283e+03	1.431283e+03
-1.680000e+00	-1.610000e+00	3.121714e+05	2.111775e+03	2.111775e+03
-1.610000e+00	-1.540000e+00	5.034143e+05	2.681722e+03	2.681722e+03
-1.540000e+00	-1.470000e+00	6.517857e+05	3.051430e+03	3.051430e+03
-1.470000e+00	-1.400000e+00	7.625286e+05	3.300495e+03	3.300495e+03
-1.400000e+00	-1.330000e+00	8.819571e+05	3.549562e+03	3.549562e+03
-1.330000e+00	-1.260000e+00	1.064600e+06	3.899817e+03	3.899817e+03
-1.260000e+00	-1.190000e+00	1.274100e+06	4.266313e+03	4.266313e+03
-1.190000e+00	-1.120000e+00	1.436986e+06	4.530824e+03	4.530824e+03
-1.120000e+00	-1.050000e+00	1.554557e+06	4.712532e+03	4.712532e+03
-1.050000e+00	-9.800000e-01	1.686614e+06	4.908614e+03	4.908614e+03
-9.800000e-01	-9.100000e-01	1.833271e+06	5.117577e+03	5.117577e+03
-9.100000e-01	-8.400000e-01	1.969229e+06	5.303945e+03	5.303945e+03
-8.400000e-01	-7.700000e-01	2.089486e+06	5.463497e+03	5.463497e+03
-7.700000e-01	-7.000000e-01	2.175386e+06	5.574669e+03	5.574669e+03
-7.000000e-01	-6.300000e-01	2.220829e+06	5.632595e+03	5.632595e+03
-6.300000e-01	-5.600000e-01	2.187729e+06	5.590462e+03	5.590462e+03
-5.600000e-01	-4.900000e-01	2.035386e+06	5.392304e+03	5.392304e+03
-4.900000e-01	-4.200000e-01	1.791786e+06	5.059342e+03	5.059342e+03
-4.200000e-01	-3.500000e-01	1.426457e+06	4.514195e+03	4.514195e+03
-3.500000e-01	-2.800000e-01	9.798714e+05	3.741412e+03	3.741412e+03
-2.800000e-01	-2.100000e-01	4.629857e+05	2.571786e+03	2.571786e+03
-2.100000e-01	-1.400000e-01	1.005714e+05	1.198639e+03	1.198639e+03
-1.400000e-01	-7.000000e-02	3.871429e+03	2.351725e+02	2.351725e+02
-7.000000e-02	0.000000e+00	0.000000e+00	0.000000e+00	0.000000e+00
# END HISTO1D

