# BEGIN PLOT
LegendOnly=/pythia_ps_pt50_s1_1e3.yoda/PAPER_FIN_R4/lin_l20_pT_186_254
DrawOnly=/pythia_ps_pt50_s1_1e3.yoda/PAPER_FIN_R4/lin_l20_pT_186_254
Legend=1
LogY=1
# END PLOT

# BEGIN HISTO1D /pythia_ps_pt50_s1_1e3.yoda/PAPER_FIN_R4/lin_l20_pT_186_254
LineColor=red
LineStyle=solid
Path=/pythia_ps_pt50_s1_1e3.yoda/PAPER_FIN_R4/lin_l20_pT_186_254
Title=pythia_ps_pt50_s1_1e3
XLabel=~
YLabel=~
# xlow	 xhigh	 val	 errminus	 errplus
0.000000e+00	5.000000e-02	2.284660e+07	2.137597e+04	2.137597e+04
5.000000e-02	9.000000e-02	5.098750e+06	1.129021e+04	1.129021e+04
9.000000e-02	1.500000e-01	2.018817e+06	5.800599e+03	5.800599e+03
1.500000e-01	2.050000e-01	8.450545e+05	3.919774e+03	3.919774e+03
2.050000e-01	1.000000e+00	3.533333e+04	2.108185e+02	2.108185e+02
# END HISTO1D

