# BEGIN PLOT
LegendOnly=/pythia_ps_pt50_s1_1e3.yoda/PAPER_FIN_R8/l05_pT_254_326
DrawOnly=/pythia_ps_pt50_s1_1e3.yoda/PAPER_FIN_R8/l05_pT_254_326
Legend=1
LogY=1
# END PLOT

# BEGIN HISTO1D /pythia_ps_pt50_s1_1e3.yoda/PAPER_FIN_R8/l05_pT_254_326
LineColor=red
LineStyle=solid
Path=/pythia_ps_pt50_s1_1e3.yoda/PAPER_FIN_R8/l05_pT_254_326
Title=pythia_ps_pt50_s1_1e3
XLabel=~
YLabel=~
# xlow	 xhigh	 val	 errminus	 errplus
-7.000000e+00	-6.930000e+00	0.000000e+00	0.000000e+00	0.000000e+00
-6.930000e+00	-6.860000e+00	2.460000e+04	5.928141e+02	5.928141e+02
-6.860000e+00	-6.790000e+00	0.000000e+00	0.000000e+00	0.000000e+00
-6.790000e+00	-6.720000e+00	0.000000e+00	0.000000e+00	0.000000e+00
-6.720000e+00	-6.650000e+00	0.000000e+00	0.000000e+00	0.000000e+00
-6.650000e+00	-6.580000e+00	0.000000e+00	0.000000e+00	0.000000e+00
-6.580000e+00	-6.510000e+00	0.000000e+00	0.000000e+00	0.000000e+00
-6.510000e+00	-6.440000e+00	0.000000e+00	0.000000e+00	0.000000e+00
-6.440000e+00	-6.370000e+00	0.000000e+00	0.000000e+00	0.000000e+00
-6.370000e+00	-6.300000e+00	0.000000e+00	0.000000e+00	0.000000e+00
-6.300000e+00	-6.230000e+00	0.000000e+00	0.000000e+00	0.000000e+00
-6.230000e+00	-6.160000e+00	0.000000e+00	0.000000e+00	0.000000e+00
-6.160000e+00	-6.090000e+00	1.428571e+01	1.428571e+01	1.428571e+01
-6.090000e+00	-6.020000e+00	0.000000e+00	0.000000e+00	0.000000e+00
-6.020000e+00	-5.950000e+00	0.000000e+00	0.000000e+00	0.000000e+00
-5.950000e+00	-5.880000e+00	1.428571e+01	1.428571e+01	1.428571e+01
-5.880000e+00	-5.810000e+00	0.000000e+00	0.000000e+00	0.000000e+00
-5.810000e+00	-5.740000e+00	0.000000e+00	0.000000e+00	0.000000e+00
-5.740000e+00	-5.670000e+00	0.000000e+00	0.000000e+00	0.000000e+00
-5.670000e+00	-5.600000e+00	0.000000e+00	0.000000e+00	0.000000e+00
-5.600000e+00	-5.530000e+00	0.000000e+00	0.000000e+00	0.000000e+00
-5.530000e+00	-5.460000e+00	0.000000e+00	0.000000e+00	0.000000e+00
-5.460000e+00	-5.390000e+00	0.000000e+00	0.000000e+00	0.000000e+00
-5.390000e+00	-5.320000e+00	0.000000e+00	0.000000e+00	0.000000e+00
-5.320000e+00	-5.250000e+00	0.000000e+00	0.000000e+00	0.000000e+00
-5.250000e+00	-5.180000e+00	0.000000e+00	0.000000e+00	0.000000e+00
-5.180000e+00	-5.110000e+00	0.000000e+00	0.000000e+00	0.000000e+00
-5.110000e+00	-5.040000e+00	0.000000e+00	0.000000e+00	0.000000e+00
-5.040000e+00	-4.970000e+00	0.000000e+00	0.000000e+00	0.000000e+00
-4.970000e+00	-4.900000e+00	0.000000e+00	0.000000e+00	0.000000e+00
-4.900000e+00	-4.830000e+00	0.000000e+00	0.000000e+00	0.000000e+00
-4.830000e+00	-4.760000e+00	0.000000e+00	0.000000e+00	0.000000e+00
-4.760000e+00	-4.690000e+00	0.000000e+00	0.000000e+00	0.000000e+00
-4.690000e+00	-4.620000e+00	0.000000e+00	0.000000e+00	0.000000e+00
-4.620000e+00	-4.550000e+00	1.428571e+01	1.428571e+01	1.428571e+01
-4.550000e+00	-4.480000e+00	0.000000e+00	0.000000e+00	0.000000e+00
-4.480000e+00	-4.410000e+00	0.000000e+00	0.000000e+00	0.000000e+00
-4.410000e+00	-4.340000e+00	0.000000e+00	0.000000e+00	0.000000e+00
-4.340000e+00	-4.270000e+00	0.000000e+00	0.000000e+00	0.000000e+00
-4.270000e+00	-4.200000e+00	0.000000e+00	0.000000e+00	0.000000e+00
-4.200000e+00	-4.130000e+00	0.000000e+00	0.000000e+00	0.000000e+00
-4.130000e+00	-4.060000e+00	0.000000e+00	0.000000e+00	0.000000e+00
-4.060000e+00	-3.990000e+00	2.857143e+01	2.020305e+01	2.020305e+01
-3.990000e+00	-3.920000e+00	2.857143e+01	2.020305e+01	2.020305e+01
-3.920000e+00	-3.850000e+00	1.428571e+01	1.428571e+01	1.428571e+01
-3.850000e+00	-3.780000e+00	2.857143e+01	2.020305e+01	2.020305e+01
-3.780000e+00	-3.710000e+00	1.428571e+01	1.428571e+01	1.428571e+01
-3.710000e+00	-3.640000e+00	5.714286e+01	2.857143e+01	2.857143e+01
-3.640000e+00	-3.570000e+00	1.428571e+02	4.517540e+01	4.517540e+01
-3.570000e+00	-3.500000e+00	1.000000e+02	3.779645e+01	3.779645e+01
-3.500000e+00	-3.430000e+00	1.285714e+02	4.285714e+01	4.285714e+01
-3.430000e+00	-3.360000e+00	1.428571e+02	4.517540e+01	4.517540e+01
-3.360000e+00	-3.290000e+00	3.000000e+02	6.546537e+01	6.546537e+01
-3.290000e+00	-3.220000e+00	3.142857e+02	6.700594e+01	6.700594e+01
-3.220000e+00	-3.150000e+00	4.285714e+02	7.824608e+01	7.824608e+01
-3.150000e+00	-3.080000e+00	5.428571e+02	8.806306e+01	8.806306e+01
-3.080000e+00	-3.010000e+00	6.428571e+02	9.583148e+01	9.583148e+01
-3.010000e+00	-2.940000e+00	8.857143e+02	1.124858e+02	1.124858e+02
-2.940000e+00	-2.870000e+00	1.085714e+03	1.245400e+02	1.245400e+02
-2.870000e+00	-2.800000e+00	1.257143e+03	1.340119e+02	1.340119e+02
-2.800000e+00	-2.730000e+00	1.285714e+03	1.355262e+02	1.355262e+02
-2.730000e+00	-2.660000e+00	1.971429e+03	1.678191e+02	1.678191e+02
-2.660000e+00	-2.590000e+00	2.514286e+03	1.895214e+02	1.895214e+02
-2.590000e+00	-2.520000e+00	3.442857e+03	2.217739e+02	2.217739e+02
-2.520000e+00	-2.450000e+00	4.357143e+03	2.494893e+02	2.494893e+02
-2.450000e+00	-2.380000e+00	6.114286e+03	2.955452e+02	2.955452e+02
-2.380000e+00	-2.310000e+00	7.214286e+03	3.210315e+02	3.210315e+02
-2.310000e+00	-2.240000e+00	9.514286e+03	3.686711e+02	3.686711e+02
-2.240000e+00	-2.170000e+00	1.162857e+04	4.075812e+02	4.075812e+02
-2.170000e+00	-2.100000e+00	1.425714e+04	4.513020e+02	4.513020e+02
-2.100000e+00	-2.030000e+00	1.731429e+04	4.973399e+02	4.973399e+02
-2.030000e+00	-1.960000e+00	2.110000e+04	5.490251e+02	5.490251e+02
-1.960000e+00	-1.890000e+00	2.982857e+04	6.527806e+02	6.527806e+02
-1.890000e+00	-1.820000e+00	3.720000e+04	7.289915e+02	7.289915e+02
-1.820000e+00	-1.750000e+00	4.685714e+04	8.181612e+02	8.181612e+02
-1.750000e+00	-1.680000e+00	6.161429e+04	9.381919e+02	9.381919e+02
-1.680000e+00	-1.610000e+00	8.010000e+04	1.069713e+03	1.069713e+03
-1.610000e+00	-1.540000e+00	1.044429e+05	1.221491e+03	1.221491e+03
-1.540000e+00	-1.470000e+00	1.331000e+05	1.378923e+03	1.378923e+03
-1.470000e+00	-1.400000e+00	1.735286e+05	1.574478e+03	1.574478e+03
-1.400000e+00	-1.330000e+00	2.167000e+05	1.759464e+03	1.759464e+03
-1.330000e+00	-1.260000e+00	2.754143e+05	1.983555e+03	1.983555e+03
-1.260000e+00	-1.190000e+00	3.484286e+05	2.231043e+03	2.231043e+03
-1.190000e+00	-1.120000e+00	4.208857e+05	2.452071e+03	2.452071e+03
-1.120000e+00	-1.050000e+00	5.027857e+05	2.680047e+03	2.680047e+03
-1.050000e+00	-9.800000e-01	5.684286e+05	2.849633e+03	2.849633e+03
-9.800000e-01	-9.100000e-01	6.306000e+05	3.001428e+03	3.001428e+03
-9.100000e-01	-8.400000e-01	6.749000e+05	3.105065e+03	3.105065e+03
-8.400000e-01	-7.700000e-01	6.993857e+05	3.160890e+03	3.160890e+03
-7.700000e-01	-7.000000e-01	7.019571e+05	3.166695e+03	3.166695e+03
-7.000000e-01	-6.300000e-01	6.723714e+05	3.099243e+03	3.099243e+03
-6.300000e-01	-5.600000e-01	6.232286e+05	2.983834e+03	2.983834e+03
-5.600000e-01	-4.900000e-01	5.502714e+05	2.803751e+03	2.803751e+03
-4.900000e-01	-4.200000e-01	4.516714e+05	2.540167e+03	2.540167e+03
-4.200000e-01	-3.500000e-01	3.453857e+05	2.221279e+03	2.221279e+03
-3.500000e-01	-2.800000e-01	2.209571e+05	1.776663e+03	1.776663e+03
-2.800000e-01	-2.100000e-01	1.006143e+05	1.198894e+03	1.198894e+03
-2.100000e-01	-1.400000e-01	1.931429e+04	5.252793e+02	5.252793e+02
-1.400000e-01	-7.000000e-02	8.142857e+02	1.078548e+02	1.078548e+02
-7.000000e-02	0.000000e+00	0.000000e+00	0.000000e+00	0.000000e+00
# END HISTO1D

