# BEGIN PLOT
LegendOnly=/pythia_ps_pt50_s1_1e3.yoda/PAPER_FIN_R8/lin_l20_pT_326_408
DrawOnly=/pythia_ps_pt50_s1_1e3.yoda/PAPER_FIN_R8/lin_l20_pT_326_408
Legend=1
LogY=1
# END PLOT

# BEGIN HISTO1D /pythia_ps_pt50_s1_1e3.yoda/PAPER_FIN_R8/lin_l20_pT_326_408
LineColor=red
LineStyle=solid
Path=/pythia_ps_pt50_s1_1e3.yoda/PAPER_FIN_R8/lin_l20_pT_326_408
Title=pythia_ps_pt50_s1_1e3
XLabel=~
YLabel=~
# xlow	 xhigh	 val	 errminus	 errplus
0.000000e+00	5.000000e-02	3.790440e+06	8.706825e+03	8.706825e+03
5.000000e-02	9.000000e-02	6.969000e+05	4.174027e+03	4.174027e+03
9.000000e-02	1.500000e-01	2.922500e+05	2.206996e+03	2.206996e+03
1.500000e-01	2.050000e-01	1.307455e+05	1.541814e+03	1.541814e+03
2.050000e-01	1.000000e+00	5.305660e+03	8.169325e+01	8.169325e+01
# END HISTO1D

