# BEGIN PLOT
LegendOnly=/zj_ps_nlo_mer_mur0.5_muf0.5_R8.yoda/MC_XS/N
DrawOnly=/zj_ps_nlo_mer_mur0.5_muf0.5_R8.yoda/MC_XS/N
Title=Number of generated events
XMajorTickMarks=20
LogY=0
XLabel=
XMinorTickMarks=0
YLabel=$N$
Legend=1
# END PLOT

# BEGIN HISTO1D /zj_ps_nlo_mer_mur0.5_muf0.5_R8.yoda/MC_XS/N
LineColor=red
LineStyle=solid
Path=/zj_ps_nlo_mer_mur0.5_muf0.5_R8.yoda/MC_XS/N
Title=zj_ps_nlo_mer_mur0.5_muf0.5_R8
XLabel=~
YLabel=~
# xlow	 xhigh	 val	 errminus	 errplus
0.000000e+00	1.000000e+00	9.990000e+08	3.160696e+04	3.160696e+04
# END HISTO1D

