# BEGIN PLOT
LegendOnly=/zj_ps_nlo_mer_mur2_muf1_R4.yoda/PAPER_FIN_R4/XS_CUTS_pT_88_120
DrawOnly=/zj_ps_nlo_mer_mur2_muf1_R4.yoda/PAPER_FIN_R4/XS_CUTS_pT_88_120
Legend=1
LogY=1
# END PLOT

# BEGIN HISTO1D /zj_ps_nlo_mer_mur2_muf1_R4.yoda/PAPER_FIN_R4/XS_CUTS_pT_88_120
LineColor=red
LineStyle=solid
Path=/zj_ps_nlo_mer_mur2_muf1_R4.yoda/PAPER_FIN_R4/XS_CUTS_pT_88_120
Title=zj_ps_nlo_mer_mur2_muf1_R4
XLabel=~
YLabel=~
# xlow	 xhigh	 val	 errminus	 errplus
-5.000000e-01	5.000000e-01	1.963804e+00	3.683812e-01	3.683812e-01
# END HISTO1D

