# BEGIN PLOT
LegendOnly=/zj_ps_nlo_mer_mur1_muf0.5_R8.yoda/PAPER_FIN_R8/l20_pT_150_186
DrawOnly=/zj_ps_nlo_mer_mur1_muf0.5_R8.yoda/PAPER_FIN_R8/l20_pT_150_186
Legend=1
LogY=1
# END PLOT

# BEGIN HISTO1D /zj_ps_nlo_mer_mur1_muf0.5_R8.yoda/PAPER_FIN_R8/l20_pT_150_186
LineColor=red
LineStyle=solid
Path=/zj_ps_nlo_mer_mur1_muf0.5_R8.yoda/PAPER_FIN_R8/l20_pT_150_186
Title=zj_ps_nlo_mer_mur1_muf0.5_R8
XLabel=~
YLabel=~
# xlow	 xhigh	 val	 errminus	 errplus
-7.000000e+00	-6.930000e+00	2.307634e+03	2.308613e+03	2.308613e+03
-6.930000e+00	-6.860000e+00	5.806377e+07	5.321382e+06	5.321382e+06
-6.860000e+00	-6.790000e+00	-4.304191e+02	3.320957e+02	3.320957e+02
-6.790000e+00	-6.720000e+00	-5.983341e+00	5.774776e+00	5.774776e+00
-6.720000e+00	-6.650000e+00	5.399639e+01	8.943044e+01	8.943044e+01
-6.650000e+00	-6.580000e+00	6.234129e+00	7.420992e+00	7.420992e+00
-6.580000e+00	-6.510000e+00	-5.097641e+01	3.375482e+01	3.375482e+01
-6.510000e+00	-6.440000e+00	-1.204811e+02	1.675078e+02	1.675078e+02
-6.440000e+00	-6.370000e+00	-4.536394e+02	8.513866e+02	8.513866e+02
-6.370000e+00	-6.300000e+00	-1.736719e+03	1.864044e+03	1.864044e+03
-6.300000e+00	-6.230000e+00	3.019823e+03	4.581567e+03	4.581567e+03
-6.230000e+00	-6.160000e+00	2.359544e+02	3.856921e+02	3.856921e+02
-6.160000e+00	-6.090000e+00	-2.070406e+03	1.958118e+03	1.958118e+03
-6.090000e+00	-6.020000e+00	1.682416e+04	1.465203e+04	1.465203e+04
-6.020000e+00	-5.950000e+00	-9.320483e+03	1.265569e+04	1.265569e+04
-5.950000e+00	-5.880000e+00	2.610276e+03	3.219469e+03	3.219469e+03
-5.880000e+00	-5.810000e+00	4.248427e+04	3.164651e+04	3.164651e+04
-5.810000e+00	-5.740000e+00	9.972544e+03	1.075542e+04	1.075542e+04
-5.740000e+00	-5.670000e+00	-1.649076e+03	9.502558e+03	9.502558e+03
-5.670000e+00	-5.600000e+00	-8.272931e+03	9.482453e+03	9.482453e+03
-5.600000e+00	-5.530000e+00	-8.398163e+03	6.775608e+03	6.775608e+03
-5.530000e+00	-5.460000e+00	4.743047e+03	1.407283e+04	1.407283e+04
-5.460000e+00	-5.390000e+00	4.110444e+03	1.168516e+04	1.168516e+04
-5.390000e+00	-5.320000e+00	7.918501e+03	1.574483e+04	1.574483e+04
-5.320000e+00	-5.250000e+00	-3.728563e+03	7.684438e+03	7.684438e+03
-5.250000e+00	-5.180000e+00	-1.050986e+05	7.741968e+04	7.741968e+04
-5.180000e+00	-5.110000e+00	5.523663e+04	3.154263e+04	3.154263e+04
-5.110000e+00	-5.040000e+00	1.835571e+04	1.498604e+04	1.498604e+04
-5.040000e+00	-4.970000e+00	-1.732816e+04	4.663560e+04	4.663560e+04
-4.970000e+00	-4.900000e+00	-5.259291e+05	5.691155e+05	5.691155e+05
-4.900000e+00	-4.830000e+00	-1.659510e+04	1.502666e+04	1.502666e+04
-4.830000e+00	-4.760000e+00	1.578593e+04	5.429539e+04	5.429539e+04
-4.760000e+00	-4.690000e+00	9.710780e+04	4.240247e+04	4.240247e+04
-4.690000e+00	-4.620000e+00	4.324640e+04	3.843087e+04	3.843087e+04
-4.620000e+00	-4.550000e+00	-6.777846e+04	5.561887e+04	5.561887e+04
-4.550000e+00	-4.480000e+00	2.014881e+05	1.162944e+05	1.162944e+05
-4.480000e+00	-4.410000e+00	6.754634e+04	5.904687e+04	5.904687e+04
-4.410000e+00	-4.340000e+00	4.758374e+04	7.727641e+04	7.727641e+04
-4.340000e+00	-4.270000e+00	1.473176e+05	1.098137e+05	1.098137e+05
-4.270000e+00	-4.200000e+00	3.554603e+04	1.580610e+05	1.580610e+05
-4.200000e+00	-4.130000e+00	5.041046e+04	2.551384e+05	2.551384e+05
-4.130000e+00	-4.060000e+00	-2.451103e+05	6.766813e+05	6.766813e+05
-4.060000e+00	-3.990000e+00	-1.902109e+05	5.126772e+05	5.126772e+05
-3.990000e+00	-3.920000e+00	1.083464e+06	3.521116e+05	3.521116e+05
-3.920000e+00	-3.850000e+00	9.147363e+05	4.858838e+05	4.858838e+05
-3.850000e+00	-3.780000e+00	1.295677e+06	4.503277e+05	4.503277e+05
-3.780000e+00	-3.710000e+00	1.960327e+06	5.249797e+05	5.249797e+05
-3.710000e+00	-3.640000e+00	2.547417e+06	5.129867e+05	5.129867e+05
-3.640000e+00	-3.570000e+00	3.228936e+06	5.538479e+05	5.538479e+05
-3.570000e+00	-3.500000e+00	4.270666e+06	7.955626e+05	7.955626e+05
-3.500000e+00	-3.430000e+00	-3.813797e+05	2.482229e+06	2.482229e+06
-3.430000e+00	-3.360000e+00	3.558304e+06	6.919981e+05	6.919981e+05
-3.360000e+00	-3.290000e+00	1.518624e+07	9.029654e+06	9.029654e+06
-3.290000e+00	-3.220000e+00	3.679991e+06	1.678767e+06	1.678767e+06
-3.220000e+00	-3.150000e+00	5.102107e+06	1.079059e+06	1.079059e+06
-3.150000e+00	-3.080000e+00	6.691491e+06	1.572614e+06	1.572614e+06
-3.080000e+00	-3.010000e+00	7.216031e+06	2.391074e+06	2.391074e+06
-3.010000e+00	-2.940000e+00	4.795164e+06	2.671362e+06	2.671362e+06
-2.940000e+00	-2.870000e+00	7.794854e+06	2.175907e+06	2.175907e+06
-2.870000e+00	-2.800000e+00	1.037777e+07	1.286536e+06	1.286536e+06
-2.800000e+00	-2.730000e+00	1.315256e+07	1.794555e+06	1.794555e+06
-2.730000e+00	-2.660000e+00	9.372256e+06	5.445187e+06	5.445187e+06
-2.660000e+00	-2.590000e+00	1.769774e+07	2.203450e+06	2.203450e+06
-2.590000e+00	-2.520000e+00	1.363751e+07	4.219679e+06	4.219679e+06
-2.520000e+00	-2.450000e+00	2.166530e+07	3.153027e+06	3.153027e+06
-2.450000e+00	-2.380000e+00	2.780389e+07	2.549397e+06	2.549397e+06
-2.380000e+00	-2.310000e+00	2.795621e+07	3.995122e+06	3.995122e+06
-2.310000e+00	-2.240000e+00	2.475727e+07	4.520064e+06	4.520064e+06
-2.240000e+00	-2.170000e+00	3.558329e+07	4.074726e+06	4.074726e+06
-2.170000e+00	-2.100000e+00	4.090973e+07	4.709500e+06	4.709500e+06
-2.100000e+00	-2.030000e+00	5.087554e+07	5.859421e+06	5.859421e+06
-2.030000e+00	-1.960000e+00	6.052949e+07	4.214994e+06	4.214994e+06
-1.960000e+00	-1.890000e+00	6.987299e+07	8.746280e+06	8.746280e+06
-1.890000e+00	-1.820000e+00	7.406503e+07	6.920380e+06	6.920380e+06
-1.820000e+00	-1.750000e+00	7.126009e+07	5.341847e+06	5.341847e+06
-1.750000e+00	-1.680000e+00	8.404033e+07	5.235263e+06	5.235263e+06
-1.680000e+00	-1.610000e+00	9.565110e+07	4.478735e+06	4.478735e+06
-1.610000e+00	-1.540000e+00	1.137370e+08	1.564667e+07	1.564667e+07
-1.540000e+00	-1.470000e+00	1.036502e+08	5.454380e+06	5.454380e+06
-1.470000e+00	-1.400000e+00	1.158472e+08	8.174582e+06	8.174582e+06
-1.400000e+00	-1.330000e+00	1.224604e+08	8.363011e+06	8.363011e+06
-1.330000e+00	-1.260000e+00	1.125528e+08	7.489952e+06	7.489952e+06
-1.260000e+00	-1.190000e+00	9.708874e+07	7.598646e+06	7.598646e+06
-1.190000e+00	-1.120000e+00	9.850710e+07	2.373358e+07	2.373358e+07
-1.120000e+00	-1.050000e+00	-2.402213e+06	1.251109e+08	1.251109e+08
-1.050000e+00	-9.800000e-01	1.218005e+08	7.633316e+06	7.633316e+06
-9.800000e-01	-9.100000e-01	9.792596e+07	1.402876e+07	1.402876e+07
-9.100000e-01	-8.400000e-01	9.710500e+07	7.714561e+06	7.714561e+06
-8.400000e-01	-7.700000e-01	8.265270e+07	6.796591e+06	6.796591e+06
-7.700000e-01	-7.000000e-01	6.801817e+07	5.100950e+06	5.100950e+06
-7.000000e-01	-6.300000e-01	5.838687e+07	1.032477e+07	1.032477e+07
-6.300000e-01	-5.600000e-01	3.162079e+07	3.018628e+06	3.018628e+06
-5.600000e-01	-4.900000e-01	4.001406e+06	5.081768e+06	5.081768e+06
-4.900000e-01	-4.200000e-01	2.307660e+06	5.861094e+05	5.861094e+05
-4.200000e-01	-3.500000e-01	-5.187961e+04	2.704190e+05	2.704190e+05
-3.500000e-01	-2.800000e-01	-2.893833e+03	2.560707e+03	2.560707e+03
-2.800000e-01	-2.100000e-01	-1.210647e+00	1.210647e+00	1.210647e+00
-2.100000e-01	-1.400000e-01	0.000000e+00	0.000000e+00	0.000000e+00
-1.400000e-01	-7.000000e-02	0.000000e+00	0.000000e+00	0.000000e+00
-7.000000e-02	0.000000e+00	0.000000e+00	0.000000e+00	0.000000e+00
# END HISTO1D

