# BEGIN PLOT
LegendOnly=/zj_ps_nlo_mer_mur1_muf0.5_R8.yoda/PAPER_FIN_R8/SD_l10_pT_150_186
DrawOnly=/zj_ps_nlo_mer_mur1_muf0.5_R8.yoda/PAPER_FIN_R8/SD_l10_pT_150_186
Legend=1
LogY=1
# END PLOT

# BEGIN HISTO1D /zj_ps_nlo_mer_mur1_muf0.5_R8.yoda/PAPER_FIN_R8/SD_l10_pT_150_186
LineColor=red
LineStyle=solid
Path=/zj_ps_nlo_mer_mur1_muf0.5_R8.yoda/PAPER_FIN_R8/SD_l10_pT_150_186
Title=zj_ps_nlo_mer_mur1_muf0.5_R8
XLabel=~
YLabel=~
# xlow	 xhigh	 val	 errminus	 errplus
-7.000000e+00	-6.930000e+00	0.000000e+00	0.000000e+00	0.000000e+00
-6.930000e+00	-6.860000e+00	2.610446e+08	1.279262e+08	1.279262e+08
-6.860000e+00	-6.790000e+00	0.000000e+00	0.000000e+00	0.000000e+00
-6.790000e+00	-6.720000e+00	0.000000e+00	0.000000e+00	0.000000e+00
-6.720000e+00	-6.650000e+00	0.000000e+00	0.000000e+00	0.000000e+00
-6.650000e+00	-6.580000e+00	0.000000e+00	0.000000e+00	0.000000e+00
-6.580000e+00	-6.510000e+00	0.000000e+00	0.000000e+00	0.000000e+00
-6.510000e+00	-6.440000e+00	0.000000e+00	0.000000e+00	0.000000e+00
-6.440000e+00	-6.370000e+00	0.000000e+00	0.000000e+00	0.000000e+00
-6.370000e+00	-6.300000e+00	0.000000e+00	0.000000e+00	0.000000e+00
-6.300000e+00	-6.230000e+00	0.000000e+00	0.000000e+00	0.000000e+00
-6.230000e+00	-6.160000e+00	0.000000e+00	0.000000e+00	0.000000e+00
-6.160000e+00	-6.090000e+00	0.000000e+00	0.000000e+00	0.000000e+00
-6.090000e+00	-6.020000e+00	0.000000e+00	0.000000e+00	0.000000e+00
-6.020000e+00	-5.950000e+00	0.000000e+00	0.000000e+00	0.000000e+00
-5.950000e+00	-5.880000e+00	0.000000e+00	0.000000e+00	0.000000e+00
-5.880000e+00	-5.810000e+00	0.000000e+00	0.000000e+00	0.000000e+00
-5.810000e+00	-5.740000e+00	0.000000e+00	0.000000e+00	0.000000e+00
-5.740000e+00	-5.670000e+00	0.000000e+00	0.000000e+00	0.000000e+00
-5.670000e+00	-5.600000e+00	0.000000e+00	0.000000e+00	0.000000e+00
-5.600000e+00	-5.530000e+00	0.000000e+00	0.000000e+00	0.000000e+00
-5.530000e+00	-5.460000e+00	0.000000e+00	0.000000e+00	0.000000e+00
-5.460000e+00	-5.390000e+00	0.000000e+00	0.000000e+00	0.000000e+00
-5.390000e+00	-5.320000e+00	0.000000e+00	0.000000e+00	0.000000e+00
-5.320000e+00	-5.250000e+00	0.000000e+00	0.000000e+00	0.000000e+00
-5.250000e+00	-5.180000e+00	0.000000e+00	0.000000e+00	0.000000e+00
-5.180000e+00	-5.110000e+00	0.000000e+00	0.000000e+00	0.000000e+00
-5.110000e+00	-5.040000e+00	0.000000e+00	0.000000e+00	0.000000e+00
-5.040000e+00	-4.970000e+00	0.000000e+00	0.000000e+00	0.000000e+00
-4.970000e+00	-4.900000e+00	6.545466e-01	6.545466e-01	6.545466e-01
-4.900000e+00	-4.830000e+00	0.000000e+00	0.000000e+00	0.000000e+00
-4.830000e+00	-4.760000e+00	-6.914327e+00	6.914327e+00	6.914327e+00
-4.760000e+00	-4.690000e+00	0.000000e+00	0.000000e+00	0.000000e+00
-4.690000e+00	-4.620000e+00	0.000000e+00	0.000000e+00	0.000000e+00
-4.620000e+00	-4.550000e+00	-7.999411e-01	8.001868e-01	8.001868e-01
-4.550000e+00	-4.480000e+00	0.000000e+00	0.000000e+00	0.000000e+00
-4.480000e+00	-4.410000e+00	-3.240741e-01	3.240741e-01	3.240741e-01
-4.410000e+00	-4.340000e+00	5.708560e-04	5.708560e-04	5.708560e-04
-4.340000e+00	-4.270000e+00	-6.543243e-03	1.145445e-02	1.145445e-02
-4.270000e+00	-4.200000e+00	4.290146e+03	4.162267e+03	4.162267e+03
-4.200000e+00	-4.130000e+00	6.021730e+01	5.517969e+01	5.517969e+01
-4.130000e+00	-4.060000e+00	1.059157e+03	1.246421e+03	1.246421e+03
-4.060000e+00	-3.990000e+00	-5.500689e+02	5.290627e+02	5.290627e+02
-3.990000e+00	-3.920000e+00	2.187371e+03	2.323484e+03	2.323484e+03
-3.920000e+00	-3.850000e+00	2.359687e+03	1.765979e+03	1.765979e+03
-3.850000e+00	-3.780000e+00	6.367817e+03	4.182434e+03	4.182434e+03
-3.780000e+00	-3.710000e+00	4.736504e+03	8.003636e+03	8.003636e+03
-3.710000e+00	-3.640000e+00	2.759216e+04	2.621564e+04	2.621564e+04
-3.640000e+00	-3.570000e+00	-9.346941e+03	1.341431e+04	1.341431e+04
-3.570000e+00	-3.500000e+00	1.487804e+04	1.009894e+04	1.009894e+04
-3.500000e+00	-3.430000e+00	1.312961e+04	1.262270e+04	1.262270e+04
-3.430000e+00	-3.360000e+00	-7.556377e+02	2.118856e+04	2.118856e+04
-3.360000e+00	-3.290000e+00	-1.591787e+04	4.883473e+04	4.883473e+04
-3.290000e+00	-3.220000e+00	1.653571e+04	3.138094e+04	3.138094e+04
-3.220000e+00	-3.150000e+00	1.341905e+05	5.314205e+04	5.314205e+04
-3.150000e+00	-3.080000e+00	2.979906e+04	3.627188e+04	3.627188e+04
-3.080000e+00	-3.010000e+00	-8.950564e+04	1.015185e+05	1.015185e+05
-3.010000e+00	-2.940000e+00	-2.392973e+04	9.443105e+04	9.443105e+04
-2.940000e+00	-2.870000e+00	2.006476e+05	6.116258e+04	6.116258e+04
-2.870000e+00	-2.800000e+00	6.577967e+04	1.074339e+05	1.074339e+05
-2.800000e+00	-2.730000e+00	3.643980e+05	1.187623e+05	1.187623e+05
-2.730000e+00	-2.660000e+00	3.481144e+05	1.803878e+05	1.803878e+05
-2.660000e+00	-2.590000e+00	8.465901e+05	2.095653e+05	2.095653e+05
-2.590000e+00	-2.520000e+00	9.516620e+05	3.191769e+05	3.191769e+05
-2.520000e+00	-2.450000e+00	1.453087e+06	4.335359e+05	4.335359e+05
-2.450000e+00	-2.380000e+00	-1.159829e+06	2.400258e+06	2.400258e+06
-2.380000e+00	-2.310000e+00	2.812809e+06	8.081790e+05	8.081790e+05
-2.310000e+00	-2.240000e+00	3.945063e+06	9.345338e+05	9.345338e+05
-2.240000e+00	-2.170000e+00	4.172044e+06	1.245785e+06	1.245785e+06
-2.170000e+00	-2.100000e+00	1.394892e+07	2.205229e+06	2.205229e+06
-2.100000e+00	-2.030000e+00	2.146116e+07	2.580632e+06	2.580632e+06
-2.030000e+00	-1.960000e+00	3.604987e+07	4.155446e+06	4.155446e+06
-1.960000e+00	-1.890000e+00	5.445793e+07	3.798354e+06	3.798354e+06
-1.890000e+00	-1.820000e+00	4.655029e+07	3.526756e+06	3.526756e+06
-1.820000e+00	-1.750000e+00	5.169811e+07	1.017083e+07	1.017083e+07
-1.750000e+00	-1.680000e+00	4.974986e+07	6.018138e+06	6.018138e+06
-1.680000e+00	-1.610000e+00	6.483266e+07	1.576988e+07	1.576988e+07
-1.610000e+00	-1.540000e+00	5.509329e+07	5.795547e+06	5.795547e+06
-1.540000e+00	-1.470000e+00	7.010611e+07	4.198867e+06	4.198867e+06
-1.470000e+00	-1.400000e+00	7.165327e+07	6.359447e+06	6.359447e+06
-1.400000e+00	-1.330000e+00	6.564247e+07	5.919571e+06	5.919571e+06
-1.330000e+00	-1.260000e+00	8.142941e+07	6.990768e+06	6.990768e+06
-1.260000e+00	-1.190000e+00	6.678313e+07	6.007823e+06	6.007823e+06
-1.190000e+00	-1.120000e+00	7.130746e+07	5.455102e+06	5.455102e+06
-1.120000e+00	-1.050000e+00	8.642914e+07	5.005797e+06	5.005797e+06
-1.050000e+00	-9.800000e-01	1.008311e+08	6.833531e+06	6.833531e+06
-9.800000e-01	-9.100000e-01	8.496131e+07	6.684090e+06	6.684090e+06
-9.100000e-01	-8.400000e-01	1.143970e+08	7.586028e+06	7.586028e+06
-8.400000e-01	-7.700000e-01	1.165941e+08	5.660005e+06	5.660005e+06
-7.700000e-01	-7.000000e-01	1.169792e+08	8.306619e+06	8.306619e+06
-7.000000e-01	-6.300000e-01	1.053068e+08	1.032998e+07	1.032998e+07
-6.300000e-01	-5.600000e-01	1.095175e+08	7.379985e+06	7.379985e+06
-5.600000e-01	-4.900000e-01	8.874683e+07	1.208147e+07	1.208147e+07
-4.900000e-01	-4.200000e-01	8.486273e+07	5.251527e+06	5.251527e+06
-4.200000e-01	-3.500000e-01	4.811679e+07	6.705436e+06	6.705436e+06
-3.500000e-01	-2.800000e-01	3.077236e+07	2.617055e+06	2.617055e+06
-2.800000e-01	-2.100000e-01	1.574593e+07	9.665528e+06	9.665528e+06
-2.100000e-01	-1.400000e-01	1.757941e+06	4.614131e+05	4.614131e+05
-1.400000e-01	-7.000000e-02	1.395654e+05	1.143843e+05	1.143843e+05
-7.000000e-02	0.000000e+00	6.307329e+03	7.724370e+03	7.724370e+03
# END HISTO1D

