# BEGIN PLOT
LegendOnly=/zj_ps_nlo_mer_mur1_muf0.5_R8.yoda/PAPER_FIN_R8/lin_SD_l10_pT_88_120
DrawOnly=/zj_ps_nlo_mer_mur1_muf0.5_R8.yoda/PAPER_FIN_R8/lin_SD_l10_pT_88_120
Legend=1
LogY=1
# END PLOT

# BEGIN HISTO1D /zj_ps_nlo_mer_mur1_muf0.5_R8.yoda/PAPER_FIN_R8/lin_SD_l10_pT_88_120
LineColor=red
LineStyle=solid
Path=/zj_ps_nlo_mer_mur1_muf0.5_R8.yoda/PAPER_FIN_R8/lin_SD_l10_pT_88_120
Title=zj_ps_nlo_mer_mur1_muf0.5_R8
XLabel=~
YLabel=~
# xlow	 xhigh	 val	 errminus	 errplus
0.000000e+00	2.000000e-02	5.495285e+07	5.402090e+07	5.402090e+07
2.000000e-02	5.000000e-02	2.730126e+07	4.165322e+06	4.165322e+06
5.000000e-02	9.500000e-02	2.014372e+07	5.967476e+06	5.967476e+06
9.500000e-02	1.470000e-01	1.498077e+07	2.313963e+06	2.313963e+06
1.470000e-01	2.250000e-01	7.202805e+06	2.534353e+06	2.534353e+06
2.250000e-01	3.070000e-01	7.163620e+06	1.643581e+06	1.643581e+06
3.070000e-01	3.880000e-01	4.109200e+06	1.070415e+06	1.070415e+06
3.880000e-01	4.680000e-01	1.569099e+06	6.677533e+05	6.677533e+05
4.680000e-01	1.000000e+00	1.388042e+05	5.750956e+04	5.750956e+04
# END HISTO1D

