# BEGIN PLOT
LegendOnly=/zj_ps_nlo_mer_mur1_muf0.5_R8.yoda/PAPER_FIN_R8/ch_lin_l10_pT_326_408
DrawOnly=/zj_ps_nlo_mer_mur1_muf0.5_R8.yoda/PAPER_FIN_R8/ch_lin_l10_pT_326_408
Legend=1
LogY=1
# END PLOT

# BEGIN HISTO1D /zj_ps_nlo_mer_mur1_muf0.5_R8.yoda/PAPER_FIN_R8/ch_lin_l10_pT_326_408
LineColor=red
LineStyle=solid
Path=/zj_ps_nlo_mer_mur1_muf0.5_R8.yoda/PAPER_FIN_R8/ch_lin_l10_pT_326_408
Title=zj_ps_nlo_mer_mur1_muf0.5_R8
XLabel=~
YLabel=~
# xlow	 xhigh	 val	 errminus	 errplus
0.000000e+00	2.250000e-02	1.919328e+10	1.105018e+08	1.105018e+08
2.250000e-02	4.000000e-02	3.020393e+09	2.721284e+07	2.721284e+07
4.000000e-02	5.750000e-02	2.084767e+09	2.825629e+07	2.825629e+07
5.750000e-02	7.750000e-02	1.473712e+09	1.613864e+07	1.613864e+07
7.750000e-02	1.000000e-01	1.101055e+09	2.126825e+07	2.126825e+07
1.000000e-01	1.250000e-01	8.491220e+08	1.414041e+07	1.414041e+07
1.250000e-01	1.520000e-01	6.627867e+08	1.199528e+07	1.199528e+07
1.520000e-01	1.850000e-01	4.944912e+08	1.310659e+07	1.310659e+07
1.850000e-01	2.200000e-01	3.836897e+08	1.326330e+07	1.326330e+07
2.200000e-01	2.600000e-01	2.906417e+08	5.478371e+06	5.478371e+06
2.600000e-01	3.070000e-01	2.096046e+08	5.285668e+06	5.285668e+06
3.070000e-01	3.620000e-01	1.354658e+08	4.027730e+06	4.027730e+06
3.620000e-01	4.250000e-01	8.226763e+07	1.652318e+06	1.652318e+06
4.250000e-01	4.970000e-01	3.315736e+07	1.135568e+06	1.135568e+06
4.970000e-01	1.000000e+00	1.298955e+06	9.826141e+04	9.826141e+04
# END HISTO1D

