# BEGIN PLOT
LegendOnly=/zj_ps_nlo_mer_mur1_muf2_R8.yoda/PAPER_FIN_R8_CH/lin_l10_pT_65_88
DrawOnly=/zj_ps_nlo_mer_mur1_muf2_R8.yoda/PAPER_FIN_R8_CH/lin_l10_pT_65_88
Legend=1
LogY=1
# END PLOT

# BEGIN HISTO1D /zj_ps_nlo_mer_mur1_muf2_R8.yoda/PAPER_FIN_R8_CH/lin_l10_pT_65_88
LineColor=red
LineStyle=solid
Path=/zj_ps_nlo_mer_mur1_muf2_R8.yoda/PAPER_FIN_R8_CH/lin_l10_pT_65_88
Title=zj_ps_nlo_mer_mur1_muf2_R8
XLabel=~
YLabel=~
# xlow	 xhigh	 val	 errminus	 errplus
0.000000e+00	2.250000e-02	1.043497e+09	7.122897e+07	7.122897e+07
2.250000e-02	4.000000e-02	1.239095e+10	1.436226e+09	1.436226e+09
4.000000e-02	5.750000e-02	3.211585e+10	6.100066e+08	6.100066e+08
5.750000e-02	7.750000e-02	5.808850e+10	9.759237e+08	9.759237e+08
7.750000e-02	1.000000e-01	6.936791e+10	1.500172e+09	1.500172e+09
1.000000e-01	1.250000e-01	6.784788e+10	1.181866e+09	1.181866e+09
1.250000e-01	1.520000e-01	5.675300e+10	1.295985e+09	1.295985e+09
1.520000e-01	1.850000e-01	4.167212e+10	6.356128e+08	6.356128e+08
1.850000e-01	2.200000e-01	2.940731e+10	4.613649e+08	4.613649e+08
2.200000e-01	2.600000e-01	2.056778e+10	4.271512e+08	4.271512e+08
2.600000e-01	3.070000e-01	1.475851e+10	3.812409e+08	3.812409e+08
3.070000e-01	3.620000e-01	9.168385e+09	1.813738e+08	1.813738e+08
3.620000e-01	4.250000e-01	5.282684e+09	3.266817e+08	3.266817e+08
4.250000e-01	4.970000e-01	2.933565e+09	9.558971e+07	9.558971e+07
4.970000e-01	1.000000e+00	2.546895e+08	8.875748e+06	8.875748e+06
# END HISTO1D

