# BEGIN PLOT
LegendOnly=/zj_ps_nlo_mer_mur1_muf2_R8.yoda/PAPER_FIN_R8_CH/lin_SD_l20_pT_65_88
DrawOnly=/zj_ps_nlo_mer_mur1_muf2_R8.yoda/PAPER_FIN_R8_CH/lin_SD_l20_pT_65_88
Legend=1
LogY=1
# END PLOT

# BEGIN HISTO1D /zj_ps_nlo_mer_mur1_muf2_R8.yoda/PAPER_FIN_R8_CH/lin_SD_l20_pT_65_88
LineColor=red
LineStyle=solid
Path=/zj_ps_nlo_mer_mur1_muf2_R8.yoda/PAPER_FIN_R8_CH/lin_SD_l20_pT_65_88
Title=zj_ps_nlo_mer_mur1_muf2_R8
XLabel=~
YLabel=~
# xlow	 xhigh	 val	 errminus	 errplus
0.000000e+00	2.500000e-03	1.364851e+12	1.633679e+10	1.633679e+10
2.500000e-03	5.000000e-03	5.541444e+11	1.440138e+10	1.440138e+10
5.000000e-03	7.500000e-03	3.384584e+11	7.802642e+09	7.802642e+09
7.500000e-03	1.250000e-02	1.900619e+11	3.989285e+09	3.989285e+09
1.250000e-02	2.000000e-02	9.898971e+10	2.163982e+09	2.163982e+09
2.000000e-02	3.250000e-02	5.817814e+10	2.307133e+09	2.307133e+09
3.250000e-02	5.000000e-02	3.642230e+10	7.828920e+08	7.828920e+08
5.000000e-02	7.750000e-02	2.883247e+10	5.720355e+08	5.720355e+08
7.750000e-02	1.150000e-01	2.300669e+10	4.551641e+08	4.551641e+08
1.150000e-01	1.600000e-01	1.458443e+10	4.976669e+08	4.976669e+08
1.600000e-01	2.100000e-01	9.366878e+09	2.134038e+08	2.134038e+08
2.100000e-01	1.000000e+00	4.675287e+08	1.203281e+07	1.203281e+07
# END HISTO1D

