# BEGIN PLOT
LegendOnly=/herwig_np_lo_r4_pt50_s1_1e3.yoda/PAPER_FIN_R4/lin_l20_pT_186_254
DrawOnly=/herwig_np_lo_r4_pt50_s1_1e3.yoda/PAPER_FIN_R4/lin_l20_pT_186_254
Legend=1
LogY=1
# END PLOT

# BEGIN HISTO1D /herwig_np_lo_r4_pt50_s1_1e3.yoda/PAPER_FIN_R4/lin_l20_pT_186_254
LineColor=red
LineStyle=solid
Path=/herwig_np_lo_r4_pt50_s1_1e3.yoda/PAPER_FIN_R4/lin_l20_pT_186_254
Title=herwig_np_lo_r4_pt50_s1_1e3
XLabel=~
YLabel=~
# xlow	 xhigh	 val	 errminus	 errplus
0.000000e+00	5.000000e-02	2.706628e+07	2.326657e+04	2.326657e+04
5.000000e-02	9.000000e-02	9.669915e+06	1.509510e+06	1.509510e+06
9.000000e-02	1.500000e-01	3.091095e+06	7.177724e+03	7.177724e+03
1.500000e-01	2.050000e-01	1.318416e+06	4.896073e+03	4.896073e+03
2.050000e-01	1.000000e+00	6.427604e+04	2.843438e+02	2.843438e+02
# END HISTO1D

