# BEGIN PLOT
LegendOnly=/herwig_np_lo_r4_pt50_s1_1e3.yoda/PAPER_FIN_R4/lin_SD_l05_pT_408_1500
DrawOnly=/herwig_np_lo_r4_pt50_s1_1e3.yoda/PAPER_FIN_R4/lin_SD_l05_pT_408_1500
Legend=1
LogY=1
# END PLOT

# BEGIN HISTO1D /herwig_np_lo_r4_pt50_s1_1e3.yoda/PAPER_FIN_R4/lin_SD_l05_pT_408_1500
LineColor=red
LineStyle=solid
Path=/herwig_np_lo_r4_pt50_s1_1e3.yoda/PAPER_FIN_R4/lin_SD_l05_pT_408_1500
Title=herwig_np_lo_r4_pt50_s1_1e3
XLabel=~
YLabel=~
# xlow	 xhigh	 val	 errminus	 errplus
0.000000e+00	1.000000e-01	5.677700e+05	2.382792e+03	2.382792e+03
1.000000e-01	1.800000e-01	6.336500e+05	2.814360e+03	2.814360e+03
1.800000e-01	2.600000e-01	3.633625e+05	2.131204e+03	2.131204e+03
2.600000e-01	3.400000e-01	2.460250e+05	1.753657e+03	1.753657e+03
3.400000e-01	4.200000e-01	1.527625e+05	1.381858e+03	1.381858e+03
4.200000e-01	5.000000e-01	8.778750e+04	1.047542e+03	1.047542e+03
5.000000e-01	5.700000e-01	4.727143e+04	8.217701e+02	8.217701e+02
5.700000e-01	6.400000e-01	1.952857e+04	5.281852e+02	5.281852e+02
6.400000e-01	1.000000e+00	1.225000e+03	5.833333e+01	5.833333e+01
# END HISTO1D

