# BEGIN PLOT
LegendOnly=/herwig_np_lo_r4_pt50_s1_1e3.yoda/PAPER_FIN_R4_CH/lin_SD_l05_pT_50_65
DrawOnly=/herwig_np_lo_r4_pt50_s1_1e3.yoda/PAPER_FIN_R4_CH/lin_SD_l05_pT_50_65
Legend=1
LogY=1
# END PLOT

# BEGIN HISTO1D /herwig_np_lo_r4_pt50_s1_1e3.yoda/PAPER_FIN_R4_CH/lin_SD_l05_pT_50_65
LineColor=red
LineStyle=solid
Path=/herwig_np_lo_r4_pt50_s1_1e3.yoda/PAPER_FIN_R4_CH/lin_SD_l05_pT_50_65
Title=herwig_np_lo_r4_pt50_s1_1e3
XLabel=~
YLabel=~
# xlow	 xhigh	 val	 errminus	 errplus
0.000000e+00	6.000000e-02	5.999152e+06	1.000444e+04	1.000444e+04
6.000000e-02	9.000000e-02	1.474573e+07	2.217358e+04	2.217358e+04
9.000000e-02	1.200000e-01	2.461656e+07	2.865166e+04	2.865166e+04
1.200000e-01	1.500000e-01	3.589207e+07	3.460249e+04	3.460249e+04
1.500000e-01	1.900000e-01	4.997962e+07	3.535520e+04	3.535520e+04
1.900000e-01	2.300000e-01	6.584257e+07	4.057782e+04	4.057782e+04
2.300000e-01	2.700000e-01	7.566557e+07	4.351409e+04	4.351409e+04
2.700000e-01	3.200000e-01	7.525672e+07	3.880900e+04	3.880900e+04
3.200000e-01	3.700000e-01	6.534816e+07	3.617005e+04	3.617005e+04
3.700000e-01	4.200000e-01	5.209014e+07	3.228678e+04	3.228678e+04
4.200000e-01	4.800000e-01	3.785123e+07	2.511922e+04	2.511922e+04
4.800000e-01	5.400000e-01	2.524407e+07	2.051350e+04	2.051350e+04
5.400000e-01	6.000000e-01	1.579863e+07	1.622835e+04	1.622835e+04
6.000000e-01	1.000000e+00	1.926610e+06	2.194849e+03	2.194849e+03
# END HISTO1D

