# BEGIN PLOT
LegendOnly=/zj_ps_nlo_mer_cent_R8.yoda/PAPER_FIN_R8/XS_CUTS_pT_408_1500
DrawOnly=/zj_ps_nlo_mer_cent_R8.yoda/PAPER_FIN_R8/XS_CUTS_pT_408_1500
Legend=1
LogY=1
# END PLOT

# BEGIN HISTO1D /zj_ps_nlo_mer_cent_R8.yoda/PAPER_FIN_R8/XS_CUTS_pT_408_1500
LineColor=red
LineStyle=solid
Path=/zj_ps_nlo_mer_cent_R8.yoda/PAPER_FIN_R8/XS_CUTS_pT_408_1500
Title=zj_ps_nlo_mer_cent_R8
XLabel=~
YLabel=~
# xlow	 xhigh	 val	 errminus	 errplus
-5.000000e-01	5.000000e-01	1.862741e+02	7.551055e+00	7.551055e+00
# END HISTO1D

