# BEGIN PLOT
LegendOnly=/zj_ps_nlo_mer_cent_R8.yoda/PAPER_FIN_R8/XS_CUTS_pT_50_65
DrawOnly=/zj_ps_nlo_mer_cent_R8.yoda/PAPER_FIN_R8/XS_CUTS_pT_50_65
Legend=1
LogY=1
# END PLOT

# BEGIN HISTO1D /zj_ps_nlo_mer_cent_R8.yoda/PAPER_FIN_R8/XS_CUTS_pT_50_65
LineColor=red
LineStyle=solid
Path=/zj_ps_nlo_mer_cent_R8.yoda/PAPER_FIN_R8/XS_CUTS_pT_50_65
Title=zj_ps_nlo_mer_cent_R8
XLabel=~
YLabel=~
# xlow	 xhigh	 val	 errminus	 errplus
-5.000000e-01	5.000000e-01	1.397564e+04	4.435589e+02	4.435589e+02
# END HISTO1D

