# BEGIN PLOT
# END PLOT

# BEGIN HISTO1D
LineColor=red
LineStyle=solid
Title=Z+Jet RES+NP
# Sigma = 1.685465e+00 pb
# xlow	xhigh	val	errminus	errplus
0.000000e+00	2.250000e-02	2.421056e-01	1.269760e-01	1.274386e-01
2.250000e-02	4.000000e-02	2.405502e+00	6.599853e-01	6.621325e-01
4.000000e-02	5.750000e-02	4.698302e+00	8.552452e-01	7.437336e-01
5.750000e-02	7.750000e-02	8.169334e+00	1.053019e+00	1.172592e+00
7.750000e-02	1.000000e-01	6.888623e+00	1.065320e+00	1.224776e+00
1.000000e-01	1.250000e-01	4.604854e+00	6.756067e-01	7.206860e-01
1.250000e-01	1.520000e-01	3.813637e+00	5.928783e-01	7.648172e-01
1.520000e-01	1.850000e-01	2.416589e+00	3.575602e-01	4.474077e-01
1.850000e-01	2.200000e-01	1.560996e+00	2.639884e-01	3.372960e-01
2.200000e-01	2.600000e-01	1.114134e+00	1.928648e-01	2.638175e-01
2.600000e-01	3.070000e-01	7.618524e-01	1.375393e-01	2.016440e-01
3.070000e-01	3.620000e-01	5.211861e-01	9.458493e-02	1.494990e-01
3.620000e-01	4.250000e-01	2.942405e-01	6.296467e-02	1.083137e-01
4.250000e-01	4.970000e-01	1.553682e-01	4.009890e-02	7.430431e-02
4.970000e-01	1.000000e+00	1.142516e-02	5.583167e-03	1.143086e-02
# END HISTO1D