# BEGIN PLOT
# END PLOT

# BEGIN HISTO1D
LineColor=red
LineStyle=solid
Title=Z+Jet RES+NP
# Sigma = 1.716487e-01 pb
# xlow	xhigh	val	errminus	errplus
0.000000e+00	5.000000e-03	9.045959e+00	2.890133e+00	2.807320e+00
5.000000e-03	1.250000e-02	3.199061e+01	4.452112e+00	4.659571e+00
1.250000e-02	2.250000e-02	2.156311e+01	3.011705e+00	3.558498e+00
2.250000e-02	3.500000e-02	1.167016e+01	1.842744e+00	2.247502e+00
3.500000e-02	5.000000e-02	6.646210e+00	1.008970e+00	1.265042e+00
5.000000e-02	7.000000e-02	4.091393e+00	6.344235e-01	8.052562e-01
7.000000e-02	9.250000e-02	2.861715e+00	4.960987e-01	6.215253e-01
9.250000e-02	1.200000e-01	1.607069e+00	2.626249e-01	3.308738e-01
1.200000e-01	1.520000e-01	1.070559e+00	1.784987e-01	2.212239e-01
1.520000e-01	1.880000e-01	6.789881e-01	1.342923e-01	1.805677e-01
1.880000e-01	2.280000e-01	3.836543e-01	8.967390e-02	1.320752e-01
2.280000e-01	1.000000e+00	1.645163e-02	6.740811e-03	1.236359e-02
# END HISTO1D