# BEGIN PLOT
# END PLOT

# BEGIN HISTO1D
LineColor=red
LineStyle=solid
Title=Z+Jet RES+NP
# Sigma = 1.342787e+00 pb
# xlow	xhigh	val	errminus	errplus
0.000000e+00	1.250000e-02	1.172414e+01	2.882548e+00	2.935521e+00
1.250000e-02	2.250000e-02	1.743448e+01	2.250216e+00	2.532896e+00
2.250000e-02	3.500000e-02	9.110409e+00	1.004542e+00	1.108101e+00
3.500000e-02	5.000000e-02	4.878962e+00	5.069798e-01	5.424328e-01
5.000000e-02	7.000000e-02	3.487578e+00	3.332280e-01	3.526325e-01
7.000000e-02	9.500000e-02	2.590685e+00	2.528267e-01	2.620096e-01
9.500000e-02	1.280000e-01	2.571242e+00	4.006003e-01	4.067391e-01
1.280000e-01	1.700000e-01	1.898829e+00	2.624818e-01	3.247031e-01
1.700000e-01	2.250000e-01	1.301377e+00	1.834687e-01	2.289055e-01
2.250000e-01	2.900000e-01	8.090592e-01	1.247609e-01	1.615297e-01
2.900000e-01	3.650000e-01	4.924825e-01	7.882368e-02	1.123194e-01
3.650000e-01	4.500000e-01	2.469584e-01	4.826252e-02	7.267757e-02
4.500000e-01	1.000000e+00	1.968402e-02	6.609295e-03	1.157376e-02
# END HISTO1D