# BEGIN PLOT
# END PLOT

# BEGIN HISTO1D
LineColor=red
LineStyle=solid
Title=Z+Jet SHERPA MESP@NLO+NP
# Sigma = 3.375167e+00 pb
# xlow	xhigh	val	errminus	errplus
0.000000e+00	2.500000e-03	1.591023e+02	3.896672e+00	1.250875e+01
2.500000e-03	1.000000e-02	2.153772e+01	1.493087e+00	1.225323e+00
1.000000e-02	2.500000e-02	6.235119e+00	4.961399e-01	2.999386e-01
2.500000e-02	6.000000e-02	2.854629e+00	2.324198e-01	1.618705e-01
6.000000e-02	1.200000e-01	1.905214e+00	1.574921e-01	1.524898e-01
1.200000e-01	1.770000e-01	1.189005e+00	1.226056e-01	1.031411e-01
1.770000e-01	2.300000e-01	7.082828e-01	1.006853e-01	1.008417e-01
2.300000e-01	1.000000e+00	3.590583e-02	4.317595e-03	6.864614e-03
# END HISTO1D