# BEGIN PLOT
# END PLOT

# BEGIN HISTO1D
LineColor=red
LineStyle=solid
Title=Z+Jet SHERPA MESP@NLO+NP
# Sigma = 1.267141e-01 pb
# xlow	xhigh	val	errminus	errplus
0.000000e+00	2.500000e-03	2.147763e+02	5.350090e+00	8.016555e+00
2.500000e-03	1.000000e-02	1.703501e+01	1.181374e+00	1.670079e-01
1.000000e-02	2.500000e-02	5.871717e+00	4.282564e-01	1.004966e-01
2.500000e-02	6.000000e-02	2.591465e+00	1.805785e-01	7.731216e-02
6.000000e-02	1.200000e-01	1.417287e+00	1.255561e-01	4.297398e-02
1.200000e-01	1.770000e-01	7.304242e-01	5.717430e-02	5.718715e-02
1.770000e-01	2.300000e-01	3.638262e-01	4.250181e-02	1.836867e-02
2.300000e-01	1.000000e+00	1.372151e-02	2.053450e-03	4.732994e-04
# END HISTO1D