# BEGIN PLOT
# END PLOT

# BEGIN HISTO1D
LineColor=red
LineStyle=solid
Title=Z+Jet SHERPA MESP@NLO+NP
# Sigma = 1.641770e-01 pb
# xlow	xhigh	val	errminus	errplus
0.000000e+00	1.050000e-01	6.064782e+00	2.657809e-01	2.745243e-01
1.050000e-01	1.650000e-01	2.402383e+00	2.080906e-01	1.442446e-01
1.650000e-01	2.300000e-01	1.416801e+00	1.475765e-01	9.979170e-02
2.300000e-01	3.050000e-01	8.308621e-01	9.176841e-02	5.955660e-02
3.050000e-01	3.800000e-01	4.709689e-01	4.968338e-02	2.123513e-02
3.800000e-01	4.600000e-01	2.427510e-01	2.490864e-02	2.022548e-02
4.600000e-01	5.500000e-01	8.935333e-02	1.020178e-02	6.591815e-03
5.500000e-01	1.000000e+00	4.141544e-03	5.369310e-04	2.697480e-04
# END HISTO1D