# BEGIN PLOT
# END PLOT

# BEGIN HISTO1D
LineColor=red
LineStyle=solid
Title=Z+Jet RES+NP
# Sigma = 1.855335e-01 pb
# xlow	xhigh	val	errminus	errplus
0.000000e+00	5.000000e-02	1.366237e+01	9.762597e-01	1.065563e+00
5.000000e-02	9.000000e-02	3.859024e+00	6.312497e-01	7.905721e-01
9.000000e-02	1.500000e-01	1.625037e+00	2.590364e-01	3.257393e-01
1.500000e-01	2.050000e-01	7.183424e-01	1.253361e-01	1.657049e-01
2.050000e-01	1.000000e+00	3.208713e-02	9.506445e-03	1.623318e-02
# END HISTO1D