# BEGIN PLOT
# END PLOT

# BEGIN HISTO1D
LineColor=red
LineStyle=solid
Title=Z+Jet RES+NP
# Sigma = 1.685465e+00 pb
# xlow	xhigh	val	errminus	errplus
0.000000e+00	2.500000e-03	1.227434e+02	1.919461e+01	1.868524e+01
2.500000e-03	1.000000e-02	2.916154e+01	3.177055e+00	3.433567e+00
1.000000e-02	2.500000e-02	7.530418e+00	8.125796e-01	8.872123e-01
2.500000e-02	6.000000e-02	3.157283e+00	3.350313e-01	3.819752e-01
6.000000e-02	1.200000e-01	2.573508e+00	7.778515e-01	7.966059e-01
1.200000e-01	1.770000e-01	9.824977e-01	1.764108e-01	2.417927e-01
1.770000e-01	2.300000e-01	4.978103e-01	1.057024e-01	1.687857e-01
2.300000e-01	1.000000e+00	1.840531e-02	6.891548e-03	1.371807e-02
# END HISTO1D