# BEGIN PLOT
# END PLOT

# BEGIN HISTO1D
LineColor=red
LineStyle=solid
Title=Z+Jet SHERPA MESP@NLO+NP
# Sigma = 4.321589e-01 pb
# xlow	xhigh	val	errminus	errplus
0.000000e+00	1.250000e-02	1.207072e+01	1.416475e-01	7.202391e-01
1.250000e-02	2.250000e-02	1.338401e+01	1.521565e-01	1.042971e+00
2.250000e-02	3.500000e-02	9.915309e+00	1.524989e-01	6.521194e-01
3.500000e-02	5.000000e-02	6.596533e+00	1.802007e-01	2.211138e-01
5.000000e-02	7.000000e-02	4.290896e+00	2.293164e-01	4.148638e-02
7.000000e-02	9.500000e-02	2.911231e+00	1.612906e-01	1.811813e-02
9.500000e-02	1.280000e-01	2.163545e+00	1.255864e-01	6.846033e-02
1.280000e-01	1.700000e-01	1.683996e+00	1.571705e-01	6.965609e-02
1.700000e-01	2.250000e-01	1.216183e+00	1.046975e-01	2.886681e-02
2.250000e-01	2.900000e-01	8.248502e-01	7.298684e-02	6.992246e-02
2.900000e-01	3.650000e-01	4.897432e-01	4.765832e-02	3.111232e-02
3.650000e-01	4.500000e-01	2.642512e-01	2.783944e-02	1.004632e-02
4.500000e-01	1.000000e+00	2.175568e-02	1.923400e-03	3.418206e-03
# END HISTO1D