# BEGIN PLOT
# END PLOT

# BEGIN HISTO1D
LineColor=red
LineStyle=solid
Title=Z+Jet SHERPA MESP@NLO+NP
# Sigma = 1.559765e+00 pb
# xlow	xhigh	val	errminus	errplus
0.000000e+00	2.500000e-03	1.337969e+02	2.347639e+00	1.293536e+01
2.500000e-03	5.000000e-03	5.355049e+01	2.000941e+00	5.092226e+00
5.000000e-03	7.500000e-03	2.534506e+01	8.897289e-01	4.380492e+00
7.500000e-03	1.250000e-02	1.541281e+01	9.611164e-01	6.931372e-01
1.250000e-02	2.000000e-02	8.366957e+00	5.748967e-01	4.566999e-01
2.000000e-02	3.250000e-02	4.728213e+00	3.487771e-01	1.536740e-01
3.250000e-02	5.000000e-02	3.068473e+00	2.521644e-01	2.035285e-01
5.000000e-02	7.750000e-02	2.215620e+00	1.890910e-01	1.492261e-01
7.750000e-02	1.150000e-01	1.516394e+00	1.313498e-01	8.534271e-02
1.150000e-01	1.600000e-01	9.714594e-01	9.022357e-02	8.751960e-02
1.600000e-01	2.100000e-01	5.892306e-01	5.617891e-02	5.872016e-02
2.100000e-01	1.000000e+00	3.124060e-02	3.428180e-03	3.477775e-03
# END HISTO1D