# BEGIN PLOT
# END PLOT

# BEGIN HISTO1D
LineColor=red
LineStyle=solid
Title=Z+Jet SHERPA MESP@NLO+NP
# Sigma = 1.397564e+01 pb
# xlow	xhigh	val	errminus	errplus
0.000000e+00	2.500000e-03	6.180915e+01	6.745235e+00	6.380108e+00
2.500000e-03	1.000000e-02	2.671553e+01	2.274378e+00	2.002315e+00
1.000000e-02	2.500000e-02	9.358606e+00	6.956667e-01	4.038641e-01
2.500000e-02	6.000000e-02	3.666527e+00	2.721950e-01	1.321594e-01
6.000000e-02	1.200000e-01	2.554048e+00	1.524751e-01	2.756941e-01
1.200000e-01	1.770000e-01	1.879297e+00	1.206809e-01	1.198650e-01
1.770000e-01	2.300000e-01	1.153751e+00	7.757670e-02	2.882126e-02
2.300000e-01	1.000000e+00	7.128774e-02	5.333615e-03	2.559883e-03
# END HISTO1D