# BEGIN PLOT
# END PLOT

# BEGIN HISTO1D
LineColor=red
LineStyle=solid
Title=Z+Jet SHERPA MESP@NLO+NP
# Sigma = 1.201387e+00 pb
# xlow	xhigh	val	errminus	errplus
0.000000e+00	2.500000e-03	1.949980e+02	2.342561e+00	1.626439e+01
2.500000e-03	1.000000e-02	3.333431e+01	1.562825e+00	9.619569e-01
1.000000e-02	2.500000e-02	8.647487e+00	7.072070e-01	1.253757e-01
2.500000e-02	6.000000e-02	3.532795e+00	3.482528e-01	1.666615e-01
6.000000e-02	1.200000e-01	1.806794e+00	1.355122e-01	1.374417e-01
1.200000e-01	1.770000e-01	9.518284e-01	7.596480e-02	8.160268e-02
1.770000e-01	2.300000e-01	5.380478e-01	5.398232e-02	7.006704e-02
2.300000e-01	1.000000e+00	2.512487e-02	3.069807e-03	3.300383e-03
# END HISTO1D