# BEGIN PLOT
# END PLOT

# BEGIN HISTO1D
LineColor=red
LineStyle=solid
Title=Z+Jet SHERPA MESP@NLO+NP
# Sigma = 1.502585e+00 pb
# xlow	xhigh	val	errminus	errplus
0.000000e+00	1.250000e-02	2.021553e+01	2.456079e-01	8.153193e-01
1.250000e-02	2.250000e-02	2.430971e+01	4.915739e-01	1.885454e+00
2.250000e-02	3.500000e-02	1.295739e+01	5.793177e-01	3.999802e-01
3.500000e-02	5.000000e-02	6.929387e+00	4.550700e-01	1.641465e-02
5.000000e-02	7.000000e-02	4.932691e+00	3.171310e-01	2.463055e-01
7.000000e-02	9.500000e-02	3.614989e+00	2.046041e-01	1.155860e-01
9.500000e-02	1.280000e-01	3.133608e+00	2.250672e-01	2.417836e-01
1.280000e-01	1.700000e-01	2.522795e+00	1.774435e-01	1.497837e-01
1.700000e-01	2.250000e-01	2.017223e+00	1.546118e-01	1.311657e-01
2.250000e-01	2.900000e-01	1.390381e+00	1.150178e-01	1.140378e-01
2.900000e-01	3.650000e-01	9.149133e-01	8.650594e-02	1.068299e-01
3.650000e-01	4.500000e-01	5.259212e-01	6.425439e-02	5.151849e-02
4.500000e-01	1.000000e+00	5.062975e-02	6.380672e-03	6.030256e-03
# END HISTO1D