# BEGIN PLOT
# END PLOT

# BEGIN HISTO1D
LineColor=red
LineStyle=solid
Title=Z+Jet SHERPA MESP@NLO+NP
# Sigma = 4.321589e-01 pb
# xlow	xhigh	val	errminus	errplus
0.000000e+00	1.050000e-01	2.436661e+00	4.371191e-02	1.262520e-01
1.050000e-01	1.650000e-01	1.296344e+00	8.507510e-02	2.790817e-02
1.650000e-01	2.300000e-01	6.493211e-01	6.061851e-02	3.841959e-03
2.300000e-01	3.050000e-01	3.636601e-01	3.495189e-02	3.960871e-02
3.050000e-01	3.800000e-01	2.098088e-01	2.373703e-02	1.341123e-02
3.800000e-01	4.600000e-01	1.078670e-01	1.171940e-02	1.434135e-02
4.600000e-01	5.500000e-01	3.994598e-02	3.879897e-03	1.697185e-03
5.500000e-01	1.000000e+00	2.418338e-03	2.996121e-04	3.238339e-04
# END HISTO1D