# BEGIN PLOT
# END PLOT

# BEGIN HISTO1D
LineColor=red
LineStyle=solid
Title=Z+Jet RES+NP
# Sigma = 4.269212e-01 pb
# xlow	xhigh	val	errminus	errplus
0.000000e+00	5.000000e-03	2.443327e+00	9.133994e-01	8.937903e-01
5.000000e-03	1.250000e-02	1.260334e+01	2.504271e+00	2.525680e+00
1.250000e-02	2.250000e-02	1.005008e+01	1.402943e+00	1.654346e+00
2.250000e-02	3.500000e-02	5.494999e+00	7.946128e-01	9.791262e-01
3.500000e-02	5.000000e-02	3.197834e+00	4.874153e-01	6.109857e-01
5.000000e-02	7.000000e-02	1.893243e+00	2.863142e-01	3.626839e-01
7.000000e-02	9.250000e-02	1.171810e+00	1.784404e-01	2.280282e-01
9.250000e-02	1.200000e-01	7.463300e-01	1.150432e-01	1.432942e-01
1.200000e-01	1.520000e-01	4.702201e-01	8.555682e-02	1.077366e-01
1.520000e-01	1.880000e-01	3.079229e-01	5.788664e-02	7.996046e-02
1.880000e-01	2.280000e-01	1.674467e-01	3.994732e-02	6.005585e-02
2.280000e-01	1.000000e+00	7.085730e-03	2.673070e-03	5.112193e-03
# END HISTO1D