# BEGIN PLOT
# END PLOT

# BEGIN HISTO1D
LineColor=red
LineStyle=solid
Title=Z+Jet RES+NP
# Sigma = 1.215942e+01 pb
# xlow	xhigh	val	errminus	errplus
0.000000e+00	5.000000e-02	8.168243e+01	1.329357e+01	1.126488e+01
5.000000e-02	9.000000e-02	1.026482e+02	1.795367e+01	2.301944e+01
9.000000e-02	1.500000e-01	5.388372e+01	1.155878e+01	1.369948e+01
1.500000e-01	2.050000e-01	2.475634e+01	5.649357e+00	7.766197e+00
2.050000e-01	1.000000e+00	1.155593e+00	4.017650e-01	6.945574e-01
# END HISTO1D