# BEGIN PLOT
# END PLOT

# BEGIN HISTO1D
LineColor=red
LineStyle=solid
Title=Z+Jet RES+NP
# Sigma = 4.269212e-01 pb
# xlow	xhigh	val	errminus	errplus
0.000000e+00	2.250000e-02	3.101858e-01	1.255148e-01	1.244197e-01
2.250000e-02	4.000000e-02	2.852773e+00	4.479158e-01	4.514977e-01
4.000000e-02	5.750000e-02	4.689721e+00	7.381575e-01	7.973236e-01
5.750000e-02	7.750000e-02	3.259348e+00	4.373878e-01	5.094239e-01
7.750000e-02	1.000000e-01	2.248336e+00	3.262987e-01	3.929999e-01
1.000000e-01	1.250000e-01	1.532265e+00	2.241474e-01	2.762089e-01
1.250000e-01	1.520000e-01	1.089498e+00	1.622309e-01	2.027284e-01
1.520000e-01	1.850000e-01	7.579667e-01	1.152103e-01	1.403587e-01
1.850000e-01	2.200000e-01	5.497611e-01	8.850937e-02	1.087324e-01
2.200000e-01	2.600000e-01	3.802318e-01	6.626701e-02	8.671131e-02
2.600000e-01	3.070000e-01	2.652313e-01	4.811530e-02	6.800952e-02
3.070000e-01	3.620000e-01	1.782472e-01	3.412103e-02	5.177623e-02
3.620000e-01	4.250000e-01	9.963518e-02	2.287024e-02	3.659818e-02
4.250000e-01	4.970000e-01	5.395059e-02	1.455035e-02	2.600762e-02
4.970000e-01	1.000000e+00	3.862634e-03	1.963605e-03	3.899446e-03
# END HISTO1D