# BEGIN PLOT
# END PLOT

# BEGIN HISTO1D
LineColor=red
LineStyle=solid
Title=Z+Jet RES+NP
# Sigma = 1.855335e-01 pb
# xlow	xhigh	val	errminus	errplus
0.000000e+00	2.500000e-03	1.895111e+02	1.573722e+01	1.714289e+01
2.500000e-03	5.000000e-03	2.637140e+01	3.104681e+00	3.456650e+00
5.000000e-03	7.500000e-03	1.597569e+01	1.976710e+00	2.116670e+00
7.500000e-03	1.250000e-02	1.007394e+01	1.145167e+00	1.238349e+00
1.250000e-02	2.000000e-02	6.811323e+00	8.357729e-01	8.900038e-01
2.000000e-02	3.250000e-02	4.274757e+00	4.903945e-01	5.254017e-01
3.250000e-02	5.000000e-02	3.028291e+00	3.492337e-01	3.731810e-01
5.000000e-02	7.750000e-02	2.223032e+00	2.605935e-01	2.810678e-01
7.750000e-02	1.150000e-01	1.932256e+00	2.882282e-01	3.486045e-01
1.150000e-01	1.600000e-01	1.219005e+00	1.976060e-01	2.446123e-01
1.600000e-01	2.100000e-01	6.561452e-01	1.223835e-01	1.628836e-01
2.100000e-01	1.000000e+00	2.750195e-02	8.495663e-03	1.466047e-02
# END HISTO1D