# BEGIN PLOT
LegendOnly=/pythia_ps_pt408_s1_1e3.yoda/PAPER_FIN_R4_CH/XS_CUTS_pT_50_65
DrawOnly=/pythia_ps_pt408_s1_1e3.yoda/PAPER_FIN_R4_CH/XS_CUTS_pT_50_65
Legend=1
LogY=1
# END PLOT

# BEGIN HISTO1D /pythia_ps_pt408_s1_1e3.yoda/PAPER_FIN_R4_CH/XS_CUTS_pT_50_65
LineColor=red
LineStyle=solid
Path=/pythia_ps_pt408_s1_1e3.yoda/PAPER_FIN_R4_CH/XS_CUTS_pT_50_65
Title=pythia_ps_pt408_s1_1e3
XLabel=~
YLabel=~
# xlow	 xhigh	 val	 errminus	 errplus
-5.000000e-01	5.000000e-01	3.945340e-06	2.789778e-06	2.789778e-06
# END HISTO1D

