# BEGIN PLOT
LegendOnly=/pythia_ps_pt408_s1_1e3.yoda/PAPER_FIN_R4/ch_lin_SD_l10_pT_254_326
DrawOnly=/pythia_ps_pt408_s1_1e3.yoda/PAPER_FIN_R4/ch_lin_SD_l10_pT_254_326
Legend=1
LogY=1
# END PLOT

# BEGIN HISTO1D /pythia_ps_pt408_s1_1e3.yoda/PAPER_FIN_R4/ch_lin_SD_l10_pT_254_326
LineColor=red
LineStyle=solid
Path=/pythia_ps_pt408_s1_1e3.yoda/PAPER_FIN_R4/ch_lin_SD_l10_pT_254_326
Title=pythia_ps_pt408_s1_1e3
XLabel=~
YLabel=~
# xlow	 xhigh	 val	 errminus	 errplus
0.000000e+00	1.250000e-02	6.614352e+09	7.274257e+05	7.274257e+05
1.250000e-02	2.250000e-02	2.359471e+08	1.536057e+05	1.536057e+05
2.250000e-02	3.500000e-02	2.054650e+08	1.282076e+05	1.282076e+05
3.500000e-02	5.000000e-02	1.700402e+08	1.064707e+05	1.064707e+05
5.000000e-02	7.000000e-02	1.391185e+08	8.340219e+04	8.340219e+04
7.000000e-02	9.500000e-02	1.136690e+08	6.742968e+04	6.742968e+04
9.500000e-02	1.280000e-01	8.805358e+07	5.165550e+04	5.165550e+04
1.280000e-01	1.700000e-01	6.140905e+07	3.823768e+04	3.823768e+04
1.700000e-01	2.250000e-01	4.002811e+07	2.697747e+04	2.697747e+04
2.250000e-01	2.900000e-01	2.435725e+07	1.935786e+04	1.935786e+04
2.900000e-01	3.650000e-01	1.352456e+07	1.342861e+04	1.342861e+04
3.650000e-01	4.500000e-01	6.119106e+06	8.484662e+03	8.484662e+03
4.500000e-01	1.000000e+00	2.981582e+05	7.362783e+02	7.362783e+02
# END HISTO1D

