# BEGIN PLOT
LegendOnly=/pythia_ps_pt408_s1_1e3.yoda/PAPER_FIN_R4_CH/lin_l10_pT_326_408
DrawOnly=/pythia_ps_pt408_s1_1e3.yoda/PAPER_FIN_R4_CH/lin_l10_pT_326_408
Legend=1
LogY=1
# END PLOT

# BEGIN HISTO1D /pythia_ps_pt408_s1_1e3.yoda/PAPER_FIN_R4_CH/lin_l10_pT_326_408
LineColor=red
LineStyle=solid
Path=/pythia_ps_pt408_s1_1e3.yoda/PAPER_FIN_R4_CH/lin_l10_pT_326_408
Title=pythia_ps_pt408_s1_1e3
XLabel=~
YLabel=~
# xlow	 xhigh	 val	 errminus	 errplus
0.000000e+00	2.250000e-02	3.690728e+08	1.280751e+05	1.280751e+05
2.250000e-02	4.000000e-02	4.479917e+08	1.599985e+05	1.599985e+05
4.000000e-02	5.750000e-02	3.378340e+08	1.389417e+05	1.389417e+05
5.750000e-02	7.750000e-02	2.484524e+08	1.114568e+05	1.114568e+05
7.750000e-02	1.000000e-01	1.811394e+08	8.972535e+04	8.972535e+04
1.000000e-01	1.250000e-01	1.321723e+08	7.271101e+04	7.271101e+04
1.250000e-01	1.520000e-01	9.678978e+07	5.987325e+04	5.987325e+04
1.520000e-01	1.850000e-01	7.003918e+07	4.606951e+04	4.606951e+04
1.850000e-01	2.200000e-01	5.006091e+07	3.781946e+04	3.781946e+04
2.200000e-01	2.600000e-01	3.562277e+07	2.984241e+04	2.984241e+04
2.600000e-01	3.070000e-01	2.451468e+07	2.283832e+04	2.283832e+04
3.070000e-01	3.620000e-01	1.597235e+07	1.704131e+04	1.704131e+04
3.620000e-01	4.250000e-01	9.550603e+06	1.231247e+04	1.231247e+04
4.250000e-01	4.970000e-01	4.829583e+06	8.190088e+03	8.190088e+03
4.970000e-01	1.000000e+00	3.347376e+05	8.157710e+02	8.157710e+02
# END HISTO1D

