# BEGIN PLOT
LegendOnly=/pythia_ps_pt408_s1_1e3.yoda/PAPER_FIN_R4/lin_SD_l20_pT_65_88
DrawOnly=/pythia_ps_pt408_s1_1e3.yoda/PAPER_FIN_R4/lin_SD_l20_pT_65_88
Legend=1
LogY=1
# END PLOT

# BEGIN HISTO1D /pythia_ps_pt408_s1_1e3.yoda/PAPER_FIN_R4/lin_SD_l20_pT_65_88
LineColor=red
LineStyle=solid
Path=/pythia_ps_pt408_s1_1e3.yoda/PAPER_FIN_R4/lin_SD_l20_pT_65_88
Title=pythia_ps_pt408_s1_1e3
XLabel=~
YLabel=~
# xlow	 xhigh	 val	 errminus	 errplus
0.000000e+00	2.500000e-03	6.160000e+04	4.963869e+03	4.963869e+03
2.500000e-03	1.000000e-02	1.680000e+04	1.496663e+03	1.496663e+03
1.000000e-02	2.500000e-02	8.333333e+03	7.453560e+02	7.453560e+02
2.500000e-02	6.000000e-02	4.371429e+03	3.534091e+02	3.534091e+02
6.000000e-02	1.200000e-01	2.700000e+03	2.121320e+02	2.121320e+02
1.200000e-01	1.770000e-01	1.929825e+03	1.840016e+02	1.840016e+02
1.770000e-01	2.300000e-01	1.056604e+03	1.411946e+02	1.411946e+02
2.300000e-01	1.000000e+00	4.935065e+01	8.005732e+00	8.005732e+00
# END HISTO1D

