# BEGIN PLOT
LegendOnly=/zj_ps_nlo_mer_mur2_muf2_R4.yoda/PAPER_FIN_R4/ch_lin_SD_l05_pT_120_150
DrawOnly=/zj_ps_nlo_mer_mur2_muf2_R4.yoda/PAPER_FIN_R4/ch_lin_SD_l05_pT_120_150
Legend=1
LogY=1
# END PLOT

# BEGIN HISTO1D /zj_ps_nlo_mer_mur2_muf2_R4.yoda/PAPER_FIN_R4/ch_lin_SD_l05_pT_120_150
LineColor=red
LineStyle=solid
Path=/zj_ps_nlo_mer_mur2_muf2_R4.yoda/PAPER_FIN_R4/ch_lin_SD_l05_pT_120_150
Title=zj_ps_nlo_mer_mur2_muf2_R4
XLabel=~
YLabel=~
# xlow	 xhigh	 val	 errminus	 errplus
0.000000e+00	6.000000e-02	8.164510e+10	6.305701e+08	6.305701e+08
6.000000e-02	9.000000e-02	3.881223e+09	7.715151e+07	7.715151e+07
9.000000e-02	1.200000e-01	4.727553e+09	1.062923e+08	1.062923e+08
1.200000e-01	1.500000e-01	4.508633e+09	1.587177e+08	1.587177e+08
1.500000e-01	1.900000e-01	3.795165e+09	7.079396e+07	7.079396e+07
1.900000e-01	2.300000e-01	2.768692e+09	1.096195e+08	1.096195e+08
2.300000e-01	2.700000e-01	2.289850e+09	5.624663e+07	5.624663e+07
2.700000e-01	3.200000e-01	1.489414e+09	5.367773e+07	5.367773e+07
3.200000e-01	3.700000e-01	1.119475e+09	4.764881e+07	4.764881e+07
3.700000e-01	4.200000e-01	7.551708e+08	2.642555e+07	2.642555e+07
4.200000e-01	4.800000e-01	3.762620e+08	4.364372e+07	4.364372e+07
4.800000e-01	5.400000e-01	1.406750e+08	1.039568e+07	1.039568e+07
5.400000e-01	6.000000e-01	4.547895e+07	5.241481e+06	5.241481e+06
6.000000e-01	1.000000e+00	1.658772e+06	4.234714e+05	4.234714e+05
# END HISTO1D

