# BEGIN PLOT
LegendOnly=/zj_ps_nlo_mer_mur2_muf2_R4.yoda/PAPER_FIN_R4/ch_l05_pT_88_120
DrawOnly=/zj_ps_nlo_mer_mur2_muf2_R4.yoda/PAPER_FIN_R4/ch_l05_pT_88_120
Legend=1
LogY=1
# END PLOT

# BEGIN HISTO1D /zj_ps_nlo_mer_mur2_muf2_R4.yoda/PAPER_FIN_R4/ch_l05_pT_88_120
LineColor=red
LineStyle=solid
Path=/zj_ps_nlo_mer_mur2_muf2_R4.yoda/PAPER_FIN_R4/ch_l05_pT_88_120
Title=zj_ps_nlo_mer_mur2_muf2_R4
XLabel=~
YLabel=~
# xlow	 xhigh	 val	 errminus	 errplus
-7.000000e+00	-6.930000e+00	0.000000e+00	0.000000e+00	0.000000e+00
-6.930000e+00	-6.860000e+00	1.479614e+11	8.442913e+08	8.442913e+08
-6.860000e+00	-6.790000e+00	-3.221641e-03	3.250080e-03	3.250080e-03
-6.790000e+00	-6.720000e+00	-5.364817e-10	5.364817e-10	5.364817e-10
-6.720000e+00	-6.650000e+00	1.804460e-03	1.804460e-03	1.804460e-03
-6.650000e+00	-6.580000e+00	0.000000e+00	0.000000e+00	0.000000e+00
-6.580000e+00	-6.510000e+00	0.000000e+00	0.000000e+00	0.000000e+00
-6.510000e+00	-6.440000e+00	-1.604611e+01	1.604611e+01	1.604611e+01
-6.440000e+00	-6.370000e+00	-4.478060e-11	4.478060e-11	4.478060e-11
-6.370000e+00	-6.300000e+00	-6.571487e-01	1.012369e+00	1.012369e+00
-6.300000e+00	-6.230000e+00	-8.483909e-04	8.483908e-04	8.483908e-04
-6.230000e+00	-6.160000e+00	-2.738734e+04	2.738734e+04	2.738734e+04
-6.160000e+00	-6.090000e+00	-1.716603e+01	1.709271e+01	1.709271e+01
-6.090000e+00	-6.020000e+00	1.125338e-02	9.997146e-03	9.997146e-03
-6.020000e+00	-5.950000e+00	-3.685309e+01	2.327840e+01	2.327840e+01
-5.950000e+00	-5.880000e+00	-1.507610e+02	1.510700e+02	1.510700e+02
-5.880000e+00	-5.810000e+00	-9.558113e-01	7.045317e-01	7.045317e-01
-5.810000e+00	-5.740000e+00	-3.045714e+01	3.059338e+01	3.059338e+01
-5.740000e+00	-5.670000e+00	-1.195574e+01	9.147768e+00	9.147768e+00
-5.670000e+00	-5.600000e+00	-1.531140e+01	1.483431e+01	1.483431e+01
-5.600000e+00	-5.530000e+00	-3.036896e+03	3.032746e+03	3.032746e+03
-5.530000e+00	-5.460000e+00	-6.309566e+01	4.283076e+01	4.283076e+01
-5.460000e+00	-5.390000e+00	-5.194510e+02	3.953539e+02	3.953539e+02
-5.390000e+00	-5.320000e+00	-5.415811e+01	5.292284e+01	5.292284e+01
-5.320000e+00	-5.250000e+00	-4.812754e+02	3.881229e+02	3.881229e+02
-5.250000e+00	-5.180000e+00	-4.576900e+01	2.873127e+01	2.873127e+01
-5.180000e+00	-5.110000e+00	-3.380221e+02	2.640435e+02	2.640435e+02
-5.110000e+00	-5.040000e+00	-2.772946e+04	1.943589e+04	1.943589e+04
-5.040000e+00	-4.970000e+00	-7.231057e+02	4.451047e+02	4.451047e+02
-4.970000e+00	-4.900000e+00	-3.036247e+02	2.366256e+02	2.366256e+02
-4.900000e+00	-4.830000e+00	-1.139144e+03	6.022753e+02	6.022753e+02
-4.830000e+00	-4.760000e+00	2.252154e+02	2.872991e+02	2.872991e+02
-4.760000e+00	-4.690000e+00	-8.829400e+02	7.545860e+02	7.545860e+02
-4.690000e+00	-4.620000e+00	-1.117171e+04	9.900481e+03	9.900481e+03
-4.620000e+00	-4.550000e+00	9.630696e+03	5.652211e+03	5.652211e+03
-4.550000e+00	-4.480000e+00	-1.565446e+03	1.598490e+03	1.598490e+03
-4.480000e+00	-4.410000e+00	3.362411e+03	3.974557e+03	3.974557e+03
-4.410000e+00	-4.340000e+00	-1.759344e+03	8.226524e+03	8.226524e+03
-4.340000e+00	-4.270000e+00	4.126190e+03	6.801706e+03	6.801706e+03
-4.270000e+00	-4.200000e+00	2.885304e+05	2.609823e+05	2.609823e+05
-4.200000e+00	-4.130000e+00	-3.998230e+05	8.460664e+05	8.460664e+05
-4.130000e+00	-4.060000e+00	3.166957e+05	3.780801e+05	3.780801e+05
-4.060000e+00	-3.990000e+00	2.601034e+02	9.364646e+05	9.364646e+05
-3.990000e+00	-3.920000e+00	-4.884827e+06	7.256887e+06	7.256887e+06
-3.920000e+00	-3.850000e+00	2.082223e+06	1.675450e+06	1.675450e+06
-3.850000e+00	-3.780000e+00	4.142331e+06	2.745523e+06	2.745523e+06
-3.780000e+00	-3.710000e+00	1.306396e+07	6.076976e+06	6.076976e+06
-3.710000e+00	-3.640000e+00	8.608629e+06	4.196090e+06	4.196090e+06
-3.640000e+00	-3.570000e+00	1.276821e+07	7.028249e+06	7.028249e+06
-3.570000e+00	-3.500000e+00	2.134369e+07	4.908691e+06	4.908691e+06
-3.500000e+00	-3.430000e+00	5.879087e+06	6.820372e+06	6.820372e+06
-3.430000e+00	-3.360000e+00	4.629471e+06	9.938373e+06	9.938373e+06
-3.360000e+00	-3.290000e+00	1.861103e+07	5.747147e+06	5.747147e+06
-3.290000e+00	-3.220000e+00	1.119685e+07	7.349680e+06	7.349680e+06
-3.220000e+00	-3.150000e+00	9.446526e+06	2.660496e+06	2.660496e+06
-3.150000e+00	-3.080000e+00	1.827823e+07	6.428206e+06	6.428206e+06
-3.080000e+00	-3.010000e+00	1.503503e+07	5.181393e+06	5.181393e+06
-3.010000e+00	-2.940000e+00	6.895556e+06	3.863859e+06	3.863859e+06
-2.940000e+00	-2.870000e+00	1.439389e+07	3.791478e+06	3.791478e+06
-2.870000e+00	-2.800000e+00	1.379689e+07	3.593504e+06	3.593504e+06
-2.800000e+00	-2.730000e+00	2.807474e+07	6.415420e+06	6.415420e+06
-2.730000e+00	-2.660000e+00	1.457533e+07	1.054811e+07	1.054811e+07
-2.660000e+00	-2.590000e+00	1.447447e+07	1.850907e+07	1.850907e+07
-2.590000e+00	-2.520000e+00	4.822324e+07	8.759997e+06	8.759997e+06
-2.520000e+00	-2.450000e+00	4.975316e+07	8.777978e+06	8.777978e+06
-2.450000e+00	-2.380000e+00	8.520299e+07	9.431918e+06	9.431918e+06
-2.380000e+00	-2.310000e+00	2.457766e+08	1.229158e+08	1.229158e+08
-2.310000e+00	-2.240000e+00	1.265207e+08	1.359734e+07	1.359734e+07
-2.240000e+00	-2.170000e+00	1.428581e+08	1.812801e+07	1.812801e+07
-2.170000e+00	-2.100000e+00	1.845880e+08	1.390761e+07	1.390761e+07
-2.100000e+00	-2.030000e+00	2.168507e+08	1.751102e+07	1.751102e+07
-2.030000e+00	-1.960000e+00	3.186120e+08	7.239405e+07	7.239405e+07
-1.960000e+00	-1.890000e+00	2.839579e+08	2.029171e+07	2.029171e+07
-1.890000e+00	-1.820000e+00	3.252080e+08	3.321572e+07	3.321572e+07
-1.820000e+00	-1.750000e+00	4.152514e+08	2.544682e+07	2.544682e+07
-1.750000e+00	-1.680000e+00	4.097363e+08	2.746264e+07	2.746264e+07
-1.680000e+00	-1.610000e+00	5.249621e+08	2.520009e+07	2.520009e+07
-1.610000e+00	-1.540000e+00	6.075314e+08	2.952592e+07	2.952592e+07
-1.540000e+00	-1.470000e+00	7.137861e+08	5.584656e+07	5.584656e+07
-1.470000e+00	-1.400000e+00	7.284223e+08	3.841372e+07	3.841372e+07
-1.400000e+00	-1.330000e+00	9.183120e+08	3.241710e+07	3.241710e+07
-1.330000e+00	-1.260000e+00	1.092808e+09	6.106952e+07	6.106952e+07
-1.260000e+00	-1.190000e+00	1.300063e+09	4.546544e+07	4.546544e+07
-1.190000e+00	-1.120000e+00	1.669294e+09	4.077610e+07	4.077610e+07
-1.120000e+00	-1.050000e+00	1.939757e+09	4.997489e+07	4.997489e+07
-1.050000e+00	-9.800000e-01	2.233621e+09	5.107434e+07	5.107434e+07
-9.800000e-01	-9.100000e-01	2.599666e+09	5.506351e+07	5.506351e+07
-9.100000e-01	-8.400000e-01	2.895229e+09	5.816426e+07	5.816426e+07
-8.400000e-01	-7.700000e-01	2.931233e+09	6.553943e+07	6.553943e+07
-7.700000e-01	-7.000000e-01	2.956923e+09	7.664856e+07	7.664856e+07
-7.000000e-01	-6.300000e-01	2.926649e+09	7.238051e+07	7.238051e+07
-6.300000e-01	-5.600000e-01	2.541004e+09	6.364721e+07	6.364721e+07
-5.600000e-01	-4.900000e-01	2.347410e+09	4.942614e+07	4.942614e+07
-4.900000e-01	-4.200000e-01	1.928770e+09	6.647425e+07	6.647425e+07
-4.200000e-01	-3.500000e-01	1.173874e+09	4.787759e+07	4.787759e+07
-3.500000e-01	-2.800000e-01	5.044527e+08	3.025825e+07	3.025825e+07
-2.800000e-01	-2.100000e-01	1.327173e+08	2.136980e+07	2.136980e+07
-2.100000e-01	-1.400000e-01	1.210010e+07	1.732262e+06	1.732262e+06
-1.400000e-01	-7.000000e-02	2.856657e+05	1.883579e+05	1.883579e+05
-7.000000e-02	0.000000e+00	0.000000e+00	0.000000e+00	0.000000e+00
# END HISTO1D

