# BEGIN PLOT
LegendOnly=/zj_ps_nlo_mer_mur2_muf2_R4.yoda/PAPER_FIN_R4/l20_pT_186_254
DrawOnly=/zj_ps_nlo_mer_mur2_muf2_R4.yoda/PAPER_FIN_R4/l20_pT_186_254
Legend=1
LogY=1
# END PLOT

# BEGIN HISTO1D /zj_ps_nlo_mer_mur2_muf2_R4.yoda/PAPER_FIN_R4/l20_pT_186_254
LineColor=red
LineStyle=solid
Path=/zj_ps_nlo_mer_mur2_muf2_R4.yoda/PAPER_FIN_R4/l20_pT_186_254
Title=zj_ps_nlo_mer_mur2_muf2_R4
XLabel=~
YLabel=~
# xlow	 xhigh	 val	 errminus	 errplus
-7.000000e+00	-6.930000e+00	1.741704e+03	3.263154e+03	3.263154e+03
-6.930000e+00	-6.860000e+00	4.693884e+09	6.745231e+07	6.745231e+07
-6.860000e+00	-6.790000e+00	-1.431071e+04	1.270506e+04	1.270506e+04
-6.790000e+00	-6.720000e+00	-1.546281e+04	2.971264e+04	2.971264e+04
-6.720000e+00	-6.650000e+00	4.327991e+06	4.269079e+06	4.269079e+06
-6.650000e+00	-6.580000e+00	1.896427e+05	1.609528e+05	1.609528e+05
-6.580000e+00	-6.510000e+00	-1.458511e+05	1.111974e+05	1.111974e+05
-6.510000e+00	-6.440000e+00	-1.599899e+05	3.559281e+05	3.559281e+05
-6.440000e+00	-6.370000e+00	-2.330751e+05	1.847851e+05	1.847851e+05
-6.370000e+00	-6.300000e+00	1.868407e+05	1.541698e+05	1.541698e+05
-6.300000e+00	-6.230000e+00	1.805586e+05	2.778857e+05	2.778857e+05
-6.230000e+00	-6.160000e+00	-6.135996e+05	8.380514e+05	8.380514e+05
-6.160000e+00	-6.090000e+00	-2.377951e+04	5.758858e+04	5.758858e+04
-6.090000e+00	-6.020000e+00	-3.664816e+04	1.349437e+05	1.349437e+05
-6.020000e+00	-5.950000e+00	-3.195804e+05	2.313769e+05	2.313769e+05
-5.950000e+00	-5.880000e+00	-4.218443e+05	4.330795e+05	4.330795e+05
-5.880000e+00	-5.810000e+00	-7.256443e+05	4.793418e+05	4.793418e+05
-5.810000e+00	-5.740000e+00	-8.710370e+04	2.011362e+05	2.011362e+05
-5.740000e+00	-5.670000e+00	-4.183694e+05	3.663426e+05	3.663426e+05
-5.670000e+00	-5.600000e+00	-7.351473e+04	1.863198e+06	1.863198e+06
-5.600000e+00	-5.530000e+00	-1.502647e+05	2.760418e+05	2.760418e+05
-5.530000e+00	-5.460000e+00	-8.496156e+05	5.677489e+05	5.677489e+05
-5.460000e+00	-5.390000e+00	-2.406740e+06	2.235577e+06	2.235577e+06
-5.390000e+00	-5.320000e+00	3.795389e+04	3.021991e+05	3.021991e+05
-5.320000e+00	-5.250000e+00	1.929786e+05	2.885388e+05	2.885388e+05
-5.250000e+00	-5.180000e+00	-4.425461e+05	4.915262e+05	4.915262e+05
-5.180000e+00	-5.110000e+00	7.488511e+05	3.093001e+05	3.093001e+05
-5.110000e+00	-5.040000e+00	4.027581e+05	4.204391e+05	4.204391e+05
-5.040000e+00	-4.970000e+00	1.081440e+05	6.647909e+05	6.647909e+05
-4.970000e+00	-4.900000e+00	1.538839e+06	6.388047e+05	6.388047e+05
-4.900000e+00	-4.830000e+00	-4.016570e+05	5.134489e+05	5.134489e+05
-4.830000e+00	-4.760000e+00	-3.409716e+05	8.186957e+05	8.186957e+05
-4.760000e+00	-4.690000e+00	-2.623514e+05	7.134132e+05	7.134132e+05
-4.690000e+00	-4.620000e+00	1.164799e+06	7.359464e+05	7.359464e+05
-4.620000e+00	-4.550000e+00	1.468071e+06	5.344772e+05	5.344772e+05
-4.550000e+00	-4.480000e+00	1.380918e+06	5.459919e+05	5.459919e+05
-4.480000e+00	-4.410000e+00	2.683530e+06	1.406738e+06	1.406738e+06
-4.410000e+00	-4.340000e+00	2.428359e+06	9.261223e+05	9.261223e+05
-4.340000e+00	-4.270000e+00	1.169469e+06	1.035013e+06	1.035013e+06
-4.270000e+00	-4.200000e+00	4.380283e+06	1.263219e+06	1.263219e+06
-4.200000e+00	-4.130000e+00	6.026101e+06	4.438370e+06	4.438370e+06
-4.130000e+00	-4.060000e+00	4.440499e+06	8.839836e+05	8.839836e+05
-4.060000e+00	-3.990000e+00	-3.292134e+05	1.893319e+06	1.893319e+06
-3.990000e+00	-3.920000e+00	6.433640e+06	1.673991e+06	1.673991e+06
-3.920000e+00	-3.850000e+00	1.154805e+07	1.903586e+06	1.903586e+06
-3.850000e+00	-3.780000e+00	1.631219e+07	3.250289e+06	3.250289e+06
-3.780000e+00	-3.710000e+00	2.311677e+07	3.935600e+06	3.935600e+06
-3.710000e+00	-3.640000e+00	4.084683e+07	3.443692e+06	3.443692e+06
-3.640000e+00	-3.570000e+00	5.665037e+07	4.980521e+06	4.980521e+06
-3.570000e+00	-3.500000e+00	7.841107e+07	7.756634e+06	7.756634e+06
-3.500000e+00	-3.430000e+00	8.904599e+07	6.832118e+06	6.832118e+06
-3.430000e+00	-3.360000e+00	9.957886e+07	1.052540e+07	1.052540e+07
-3.360000e+00	-3.290000e+00	1.203686e+08	7.603483e+06	7.603483e+06
-3.290000e+00	-3.220000e+00	1.412510e+08	1.268387e+07	1.268387e+07
-3.220000e+00	-3.150000e+00	1.724617e+08	1.012841e+07	1.012841e+07
-3.150000e+00	-3.080000e+00	2.011341e+08	1.066870e+07	1.066870e+07
-3.080000e+00	-3.010000e+00	1.795363e+08	3.406868e+07	3.406868e+07
-3.010000e+00	-2.940000e+00	2.509723e+08	1.466767e+07	1.466767e+07
-2.940000e+00	-2.870000e+00	2.952541e+08	1.160564e+07	1.160564e+07
-2.870000e+00	-2.800000e+00	3.211236e+08	1.483639e+07	1.483639e+07
-2.800000e+00	-2.730000e+00	3.629391e+08	1.503787e+07	1.503787e+07
-2.730000e+00	-2.660000e+00	3.918891e+08	2.544843e+07	2.544843e+07
-2.660000e+00	-2.590000e+00	4.624271e+08	1.560693e+07	1.560693e+07
-2.590000e+00	-2.520000e+00	5.049826e+08	1.996442e+07	1.996442e+07
-2.520000e+00	-2.450000e+00	7.040870e+08	9.837555e+07	9.837555e+07
-2.450000e+00	-2.380000e+00	6.948404e+08	1.762436e+07	1.762436e+07
-2.380000e+00	-2.310000e+00	7.511510e+08	2.279896e+07	2.279896e+07
-2.310000e+00	-2.240000e+00	7.942470e+08	5.287384e+07	5.287384e+07
-2.240000e+00	-2.170000e+00	9.716853e+08	2.233750e+07	2.233750e+07
-2.170000e+00	-2.100000e+00	9.901670e+08	6.202037e+07	6.202037e+07
-2.100000e+00	-2.030000e+00	1.184814e+09	2.601678e+07	2.601678e+07
-2.030000e+00	-1.960000e+00	1.357764e+09	2.614431e+07	2.614431e+07
-1.960000e+00	-1.890000e+00	1.377206e+09	3.113949e+07	3.113949e+07
-1.890000e+00	-1.820000e+00	1.580513e+09	3.040122e+07	3.040122e+07
-1.820000e+00	-1.750000e+00	1.685281e+09	3.566601e+07	3.566601e+07
-1.750000e+00	-1.680000e+00	1.627740e+09	8.962673e+07	8.962673e+07
-1.680000e+00	-1.610000e+00	1.862800e+09	5.276529e+07	5.276529e+07
-1.610000e+00	-1.540000e+00	1.891607e+09	3.273030e+07	3.273030e+07
-1.540000e+00	-1.470000e+00	1.910486e+09	3.091735e+07	3.091735e+07
-1.470000e+00	-1.400000e+00	1.876966e+09	3.046185e+07	3.046185e+07
-1.400000e+00	-1.330000e+00	1.827473e+09	3.065280e+07	3.065280e+07
-1.330000e+00	-1.260000e+00	1.773000e+09	3.761028e+07	3.761028e+07
-1.260000e+00	-1.190000e+00	1.568931e+09	9.575939e+07	9.575939e+07
-1.190000e+00	-1.120000e+00	1.547023e+09	3.019483e+07	3.019483e+07
-1.120000e+00	-1.050000e+00	1.421737e+09	3.277099e+07	3.277099e+07
-1.050000e+00	-9.800000e-01	1.292223e+09	2.398421e+07	2.398421e+07
-9.800000e-01	-9.100000e-01	1.072802e+09	2.331680e+07	2.331680e+07
-9.100000e-01	-8.400000e-01	9.710190e+08	2.078426e+07	2.078426e+07
-8.400000e-01	-7.700000e-01	8.705731e+08	1.970893e+07	1.970893e+07
-7.700000e-01	-7.000000e-01	6.520470e+08	1.688283e+07	1.688283e+07
-7.000000e-01	-6.300000e-01	5.146840e+08	1.602266e+07	1.602266e+07
-6.300000e-01	-5.600000e-01	2.907899e+08	1.069356e+07	1.069356e+07
-5.600000e-01	-4.900000e-01	9.681893e+07	5.157952e+06	5.157952e+06
-4.900000e-01	-4.200000e-01	1.675340e+07	2.508565e+06	2.508565e+06
-4.200000e-01	-3.500000e-01	1.945539e+06	5.352970e+05	5.352970e+05
-3.500000e-01	-2.800000e-01	4.010827e+04	5.065139e+04	5.065139e+04
-2.800000e-01	-2.100000e-01	0.000000e+00	0.000000e+00	0.000000e+00
-2.100000e-01	-1.400000e-01	0.000000e+00	0.000000e+00	0.000000e+00
-1.400000e-01	-7.000000e-02	0.000000e+00	0.000000e+00	0.000000e+00
-7.000000e-02	0.000000e+00	0.000000e+00	0.000000e+00	0.000000e+00
# END HISTO1D

