# BEGIN PLOT
LegendOnly=/zj_ps_nlo_mer_mur2_muf2_R4.yoda/PAPER_FIN_R4/lin_SD_l20_pT_326_408
DrawOnly=/zj_ps_nlo_mer_mur2_muf2_R4.yoda/PAPER_FIN_R4/lin_SD_l20_pT_326_408
Legend=1
LogY=1
# END PLOT

# BEGIN HISTO1D /zj_ps_nlo_mer_mur2_muf2_R4.yoda/PAPER_FIN_R4/lin_SD_l20_pT_326_408
LineColor=red
LineStyle=solid
Path=/zj_ps_nlo_mer_mur2_muf2_R4.yoda/PAPER_FIN_R4/lin_SD_l20_pT_326_408
Title=zj_ps_nlo_mer_mur2_muf2_R4
XLabel=~
YLabel=~
# xlow	 xhigh	 val	 errminus	 errplus
0.000000e+00	2.500000e-03	9.136812e+10	8.877152e+08	8.877152e+08
2.500000e-03	1.000000e-02	9.133857e+09	1.510204e+08	1.510204e+08
1.000000e-02	2.500000e-02	2.793387e+09	5.909769e+07	5.909769e+07
2.500000e-02	6.000000e-02	1.224565e+09	3.576233e+07	3.576233e+07
6.000000e-02	1.200000e-01	6.508107e+08	1.765526e+07	1.765526e+07
1.200000e-01	1.770000e-01	3.395819e+08	2.125268e+07	2.125268e+07
1.770000e-01	2.300000e-01	1.737363e+08	8.018047e+06	8.018047e+06
2.300000e-01	1.000000e+00	5.139025e+06	4.859679e+05	4.859679e+05
# END HISTO1D

