# BEGIN PLOT
LegendOnly=/pythia_np_pt150_s1_1e3.yoda/PAPER_FIN_R8/XS_CUTS_pT_408_1500
DrawOnly=/pythia_np_pt150_s1_1e3.yoda/PAPER_FIN_R8/XS_CUTS_pT_408_1500
Legend=1
LogY=1
# END PLOT

# BEGIN HISTO1D /pythia_np_pt150_s1_1e3.yoda/PAPER_FIN_R8/XS_CUTS_pT_408_1500
LineColor=red
LineStyle=solid
Path=/pythia_np_pt150_s1_1e3.yoda/PAPER_FIN_R8/XS_CUTS_pT_408_1500
Title=pythia_np_pt150_s1_1e3
XLabel=~
YLabel=~
# xlow	 xhigh	 val	 errminus	 errplus
-5.000000e-01	5.000000e-01	7.519058e+01	2.378504e+00	2.378504e+00
# END HISTO1D

