# BEGIN PLOT
LegendOnly=/zj_ps_nlo_mer_mur0.5_muf1_R4.yoda/PAPER_FIN_R4_CH/lin_l20_pT_254_326
DrawOnly=/zj_ps_nlo_mer_mur0.5_muf1_R4.yoda/PAPER_FIN_R4_CH/lin_l20_pT_254_326
Legend=1
LogY=1
# END PLOT

# BEGIN HISTO1D /zj_ps_nlo_mer_mur0.5_muf1_R4.yoda/PAPER_FIN_R4_CH/lin_l20_pT_254_326
LineColor=red
LineStyle=solid
Path=/zj_ps_nlo_mer_mur0.5_muf1_R4.yoda/PAPER_FIN_R4_CH/lin_l20_pT_254_326
Title=zj_ps_nlo_mer_mur0.5_muf1_R4
XLabel=~
YLabel=~
# xlow	 xhigh	 val	 errminus	 errplus
0.000000e+00	5.000000e-03	6.918642e+10	1.289324e+09	1.289324e+09
5.000000e-03	1.250000e-02	3.019296e+10	4.003467e+08	4.003467e+08
1.250000e-02	2.250000e-02	2.038127e+10	3.224633e+08	3.224633e+08
2.250000e-02	3.500000e-02	1.244792e+10	4.476043e+08	4.476043e+08
3.500000e-02	5.000000e-02	8.139560e+09	1.602877e+08	1.602877e+08
5.000000e-02	7.000000e-02	5.210495e+09	6.764058e+07	6.764058e+07
7.000000e-02	9.250000e-02	3.371435e+09	5.618613e+07	5.618613e+07
9.250000e-02	1.200000e-01	2.258640e+09	3.937470e+07	3.937470e+07
1.200000e-01	1.520000e-01	1.335547e+09	3.713280e+07	3.713280e+07
1.520000e-01	1.880000e-01	9.539436e+08	3.165290e+07	3.165290e+07
1.880000e-01	2.280000e-01	4.982592e+08	2.509285e+07	2.509285e+07
2.280000e-01	1.000000e+00	1.585460e+07	1.206241e+06	1.206241e+06
# END HISTO1D

