# BEGIN PLOT
LegendOnly=/CMS_2018_PAS_SMP_18_QGX_ZPJ.yoda/CMS_2018_PAS_SMP_18_QGX_ZPJ/d22-x05-y09
DrawOnly=/CMS_2018_PAS_SMP_18_QGX_ZPJ.yoda/CMS_2018_PAS_SMP_18_QGX_ZPJ/d22-x05-y09
Legend=1
LogY=1
# END PLOT

# BEGIN HISTO1D /CMS_2018_PAS_SMP_18_QGX_ZPJ.yoda/CMS_2018_PAS_SMP_18_QGX_ZPJ/d22-x05-y09
LineColor=red
LineStyle=solid
Path=/CMS_2018_PAS_SMP_18_QGX_ZPJ.yoda/CMS_2018_PAS_SMP_18_QGX_ZPJ/d22-x05-y09
Title=CMS_2018_PAS_SMP_18_QGX_ZPJ
XLabel=Groomed Thrust $\lambda_{2}^{1}$
YLabel=~
# xlow	 xhigh	 val	 errminus	 errplus
0.000000e+00	2.500000e-03	2.045921e+02	7.417371e+00	7.417371e+00
2.500000e-03	1.000000e-02	1.265864e+01	1.498847e+00	1.498847e+00
1.000000e-02	2.500000e-02	5.748285e+00	5.603136e-01	5.603136e-01
2.500000e-02	6.000000e-02	3.167326e+00	2.539476e-01	2.539476e-01
6.000000e-02	1.200000e-01	1.662090e+00	1.666540e-01	1.666540e-01
1.200000e-01	1.770000e-01	9.876771e-01	1.133520e-01	1.133520e-01
1.770000e-01	2.300000e-01	4.825658e-01	8.468335e-02	8.468335e-02
2.300000e-01	1.000000e+00	1.935111e-02	4.213092e-03	4.213092e-03
# END HISTO1D

