# BEGIN PLOT
LegendOnly=/zj_ps_nlo_mer_mur1_muf2_R4.yoda/PAPER_FIN_R4_CH/lin_l05_pT_50_65
DrawOnly=/zj_ps_nlo_mer_mur1_muf2_R4.yoda/PAPER_FIN_R4_CH/lin_l05_pT_50_65
Legend=1
LogY=1
# END PLOT

# BEGIN HISTO1D /zj_ps_nlo_mer_mur1_muf2_R4.yoda/PAPER_FIN_R4_CH/lin_l05_pT_50_65
LineColor=red
LineStyle=solid
Path=/zj_ps_nlo_mer_mur1_muf2_R4.yoda/PAPER_FIN_R4_CH/lin_l05_pT_50_65
Title=zj_ps_nlo_mer_mur1_muf2_R4
XLabel=~
YLabel=~
# xlow	 xhigh	 val	 errminus	 errplus
0.000000e+00	6.000000e-02	2.197465e+09	3.978421e+08	3.978421e+08
6.000000e-02	1.100000e-01	1.635393e+09	7.600626e+08	7.600626e+08
1.100000e-01	1.500000e-01	6.489213e+09	3.873759e+09	3.873759e+09
1.500000e-01	1.900000e-01	7.593195e+08	3.942300e+08	3.942300e+08
1.900000e-01	2.300000e-01	1.439355e+09	2.504632e+08	2.504632e+08
2.300000e-01	2.700000e-01	1.363331e+09	3.117091e+08	3.117091e+08
2.700000e-01	3.100000e-01	9.441698e+08	2.782908e+08	2.782908e+08
3.100000e-01	3.500000e-01	9.514675e+08	1.630170e+08	1.630170e+08
3.500000e-01	3.900000e-01	4.352135e+08	2.550550e+08	2.550550e+08
3.900000e-01	4.400000e-01	7.470062e+08	2.058856e+08	2.058856e+08
4.400000e-01	4.900000e-01	3.413642e+08	1.578389e+08	1.578389e+08
4.900000e-01	5.400000e-01	1.034578e+08	5.941469e+07	5.941469e+07
5.400000e-01	6.000000e-01	1.345642e+08	5.641380e+07	5.641380e+07
6.000000e-01	1.000000e+00	7.460728e+06	7.095258e+06	7.095258e+06
# END HISTO1D

