# BEGIN PLOT
LegendOnly=/zj_ps_nlo_mer_mur1_muf2_R4.yoda/PAPER_FIN_R4/ch_SD_l10_pT_50_65
DrawOnly=/zj_ps_nlo_mer_mur1_muf2_R4.yoda/PAPER_FIN_R4/ch_SD_l10_pT_50_65
Legend=1
LogY=1
# END PLOT

# BEGIN HISTO1D /zj_ps_nlo_mer_mur1_muf2_R4.yoda/PAPER_FIN_R4/ch_SD_l10_pT_50_65
LineColor=red
LineStyle=solid
Path=/zj_ps_nlo_mer_mur1_muf2_R4.yoda/PAPER_FIN_R4/ch_SD_l10_pT_50_65
Title=zj_ps_nlo_mer_mur1_muf2_R4
XLabel=~
YLabel=~
# xlow	 xhigh	 val	 errminus	 errplus
-7.000000e+00	-6.930000e+00	0.000000e+00	0.000000e+00	0.000000e+00
-6.930000e+00	-6.860000e+00	6.316324e+09	2.302326e+09	2.302326e+09
-6.860000e+00	-6.790000e+00	0.000000e+00	0.000000e+00	0.000000e+00
-6.790000e+00	-6.720000e+00	0.000000e+00	0.000000e+00	0.000000e+00
-6.720000e+00	-6.650000e+00	0.000000e+00	0.000000e+00	0.000000e+00
-6.650000e+00	-6.580000e+00	0.000000e+00	0.000000e+00	0.000000e+00
-6.580000e+00	-6.510000e+00	0.000000e+00	0.000000e+00	0.000000e+00
-6.510000e+00	-6.440000e+00	0.000000e+00	0.000000e+00	0.000000e+00
-6.440000e+00	-6.370000e+00	0.000000e+00	0.000000e+00	0.000000e+00
-6.370000e+00	-6.300000e+00	0.000000e+00	0.000000e+00	0.000000e+00
-6.300000e+00	-6.230000e+00	0.000000e+00	0.000000e+00	0.000000e+00
-6.230000e+00	-6.160000e+00	0.000000e+00	0.000000e+00	0.000000e+00
-6.160000e+00	-6.090000e+00	0.000000e+00	0.000000e+00	0.000000e+00
-6.090000e+00	-6.020000e+00	0.000000e+00	0.000000e+00	0.000000e+00
-6.020000e+00	-5.950000e+00	0.000000e+00	0.000000e+00	0.000000e+00
-5.950000e+00	-5.880000e+00	0.000000e+00	0.000000e+00	0.000000e+00
-5.880000e+00	-5.810000e+00	0.000000e+00	0.000000e+00	0.000000e+00
-5.810000e+00	-5.740000e+00	0.000000e+00	0.000000e+00	0.000000e+00
-5.740000e+00	-5.670000e+00	0.000000e+00	0.000000e+00	0.000000e+00
-5.670000e+00	-5.600000e+00	0.000000e+00	0.000000e+00	0.000000e+00
-5.600000e+00	-5.530000e+00	0.000000e+00	0.000000e+00	0.000000e+00
-5.530000e+00	-5.460000e+00	0.000000e+00	0.000000e+00	0.000000e+00
-5.460000e+00	-5.390000e+00	0.000000e+00	0.000000e+00	0.000000e+00
-5.390000e+00	-5.320000e+00	0.000000e+00	0.000000e+00	0.000000e+00
-5.320000e+00	-5.250000e+00	0.000000e+00	0.000000e+00	0.000000e+00
-5.250000e+00	-5.180000e+00	0.000000e+00	0.000000e+00	0.000000e+00
-5.180000e+00	-5.110000e+00	0.000000e+00	0.000000e+00	0.000000e+00
-5.110000e+00	-5.040000e+00	0.000000e+00	0.000000e+00	0.000000e+00
-5.040000e+00	-4.970000e+00	0.000000e+00	0.000000e+00	0.000000e+00
-4.970000e+00	-4.900000e+00	0.000000e+00	0.000000e+00	0.000000e+00
-4.900000e+00	-4.830000e+00	0.000000e+00	0.000000e+00	0.000000e+00
-4.830000e+00	-4.760000e+00	0.000000e+00	0.000000e+00	0.000000e+00
-4.760000e+00	-4.690000e+00	0.000000e+00	0.000000e+00	0.000000e+00
-4.690000e+00	-4.620000e+00	0.000000e+00	0.000000e+00	0.000000e+00
-4.620000e+00	-4.550000e+00	0.000000e+00	0.000000e+00	0.000000e+00
-4.550000e+00	-4.480000e+00	0.000000e+00	0.000000e+00	0.000000e+00
-4.480000e+00	-4.410000e+00	0.000000e+00	0.000000e+00	0.000000e+00
-4.410000e+00	-4.340000e+00	0.000000e+00	0.000000e+00	0.000000e+00
-4.340000e+00	-4.270000e+00	0.000000e+00	0.000000e+00	0.000000e+00
-4.270000e+00	-4.200000e+00	4.700061e+00	4.700061e+00	4.700061e+00
-4.200000e+00	-4.130000e+00	0.000000e+00	0.000000e+00	0.000000e+00
-4.130000e+00	-4.060000e+00	0.000000e+00	0.000000e+00	0.000000e+00
-4.060000e+00	-3.990000e+00	0.000000e+00	0.000000e+00	0.000000e+00
-3.990000e+00	-3.920000e+00	-2.135893e+02	2.135892e+02	2.135892e+02
-3.920000e+00	-3.850000e+00	1.274821e+02	1.274821e+02	1.274821e+02
-3.850000e+00	-3.780000e+00	0.000000e+00	0.000000e+00	0.000000e+00
-3.780000e+00	-3.710000e+00	0.000000e+00	0.000000e+00	0.000000e+00
-3.710000e+00	-3.640000e+00	-8.751691e-01	8.779008e-01	8.779008e-01
-3.640000e+00	-3.570000e+00	6.005819e-03	6.005819e-03	6.005819e-03
-3.570000e+00	-3.500000e+00	2.276189e+04	2.276189e+04	2.276189e+04
-3.500000e+00	-3.430000e+00	0.000000e+00	0.000000e+00	0.000000e+00
-3.430000e+00	-3.360000e+00	-2.264644e+03	2.259460e+03	2.259460e+03
-3.360000e+00	-3.290000e+00	-1.393740e+03	4.085908e+03	4.085908e+03
-3.290000e+00	-3.220000e+00	5.555071e+03	6.047879e+03	6.047879e+03
-3.220000e+00	-3.150000e+00	-4.358290e+04	3.424003e+04	3.424003e+04
-3.150000e+00	-3.080000e+00	5.148830e+04	4.331148e+04	4.331148e+04
-3.080000e+00	-3.010000e+00	2.442950e+04	2.458173e+04	2.458173e+04
-3.010000e+00	-2.940000e+00	6.569901e+04	6.365125e+04	6.365125e+04
-2.940000e+00	-2.870000e+00	-4.301316e+02	1.481893e+04	1.481893e+04
-2.870000e+00	-2.800000e+00	-2.946059e+05	2.398932e+05	2.398932e+05
-2.800000e+00	-2.730000e+00	-4.511016e+05	4.778496e+05	4.778496e+05
-2.730000e+00	-2.660000e+00	7.055954e+05	5.274490e+05	5.274490e+05
-2.660000e+00	-2.590000e+00	2.856314e+05	2.490342e+05	2.490342e+05
-2.590000e+00	-2.520000e+00	4.469957e+04	1.616481e+05	1.616481e+05
-2.520000e+00	-2.450000e+00	-4.276427e+05	8.017641e+05	8.017641e+05
-2.450000e+00	-2.380000e+00	7.407116e+05	7.054948e+05	7.054948e+05
-2.380000e+00	-2.310000e+00	-3.148284e+05	1.172307e+06	1.172307e+06
-2.310000e+00	-2.240000e+00	-1.575534e+07	1.639146e+07	1.639146e+07
-2.240000e+00	-2.170000e+00	1.795524e+06	9.841563e+05	9.841563e+05
-2.170000e+00	-2.100000e+00	1.366395e+05	2.934629e+06	2.934629e+06
-2.100000e+00	-2.030000e+00	4.006103e+06	1.240718e+06	1.240718e+06
-2.030000e+00	-1.960000e+00	-4.251420e+04	3.112952e+06	3.112952e+06
-1.960000e+00	-1.890000e+00	-7.705094e+05	4.114657e+06	4.114657e+06
-1.890000e+00	-1.820000e+00	5.358354e+06	2.719689e+06	2.719689e+06
-1.820000e+00	-1.750000e+00	5.249964e+06	5.599650e+06	5.599650e+06
-1.750000e+00	-1.680000e+00	2.460517e+07	9.370063e+06	9.370063e+06
-1.680000e+00	-1.610000e+00	3.010994e+07	1.120884e+07	1.120884e+07
-1.610000e+00	-1.540000e+00	-3.776524e+06	4.051231e+07	4.051231e+07
-1.540000e+00	-1.470000e+00	6.378254e+07	1.830357e+07	1.830357e+07
-1.470000e+00	-1.400000e+00	5.229766e+07	2.881346e+07	2.881346e+07
-1.400000e+00	-1.330000e+00	4.252773e+07	2.683217e+07	2.683217e+07
-1.330000e+00	-1.260000e+00	8.649659e+07	5.951129e+07	5.951129e+07
-1.260000e+00	-1.190000e+00	9.542730e+07	4.275117e+07	4.275117e+07
-1.190000e+00	-1.120000e+00	7.970303e+07	7.858667e+07	7.858667e+07
-1.120000e+00	-1.050000e+00	1.629154e+08	4.526279e+07	4.526279e+07
-1.050000e+00	-9.800000e-01	2.047754e+08	3.696822e+07	3.696822e+07
-9.800000e-01	-9.100000e-01	1.133248e+08	9.094577e+07	9.094577e+07
-9.100000e-01	-8.400000e-01	2.138261e+07	6.296852e+07	6.296852e+07
-8.400000e-01	-7.700000e-01	1.124299e+08	4.326263e+07	4.326263e+07
-7.700000e-01	-7.000000e-01	1.369690e+08	6.224650e+07	6.224650e+07
-7.000000e-01	-6.300000e-01	1.452214e+08	3.620273e+07	3.620273e+07
-6.300000e-01	-5.600000e-01	8.171929e+07	3.374102e+07	3.374102e+07
-5.600000e-01	-4.900000e-01	7.864083e+07	2.899439e+07	2.899439e+07
-4.900000e-01	-4.200000e-01	4.318704e+07	2.049336e+07	2.049336e+07
-4.200000e-01	-3.500000e-01	2.194284e+07	2.488405e+07	2.488405e+07
-3.500000e-01	-2.800000e-01	-5.417547e+06	1.347321e+07	1.347321e+07
-2.800000e-01	-2.100000e-01	-3.041196e+06	5.030829e+06	5.030829e+06
-2.100000e-01	-1.400000e-01	7.094667e+05	3.841592e+05	3.841592e+05
-1.400000e-01	-7.000000e-02	9.038041e+04	9.048803e+04	9.048803e+04
-7.000000e-02	0.000000e+00	0.000000e+00	0.000000e+00	0.000000e+00
# END HISTO1D

