# BEGIN PLOT
LegendOnly=/zj_ps_nlo_mer_mur1_muf2_R4.yoda/PAPER_FIN_R4/SD_l20_pT_120_150
DrawOnly=/zj_ps_nlo_mer_mur1_muf2_R4.yoda/PAPER_FIN_R4/SD_l20_pT_120_150
Legend=1
LogY=1
# END PLOT

# BEGIN HISTO1D /zj_ps_nlo_mer_mur1_muf2_R4.yoda/PAPER_FIN_R4/SD_l20_pT_120_150
LineColor=red
LineStyle=solid
Path=/zj_ps_nlo_mer_mur1_muf2_R4.yoda/PAPER_FIN_R4/SD_l20_pT_120_150
Title=zj_ps_nlo_mer_mur1_muf2_R4
XLabel=~
YLabel=~
# xlow	 xhigh	 val	 errminus	 errplus
-7.000000e+00	-6.930000e+00	1.411914e+04	1.063172e+04	1.063172e+04
-6.930000e+00	-6.860000e+00	3.091010e+10	3.865077e+08	3.865077e+08
-6.860000e+00	-6.790000e+00	-1.608176e+04	1.627803e+04	1.627803e+04
-6.790000e+00	-6.720000e+00	1.951070e+03	3.097047e+03	3.097047e+03
-6.720000e+00	-6.650000e+00	1.748750e+06	1.650723e+06	1.650723e+06
-6.650000e+00	-6.580000e+00	5.750249e+05	3.645938e+05	3.645938e+05
-6.580000e+00	-6.510000e+00	9.818439e+04	6.808557e+04	6.808557e+04
-6.510000e+00	-6.440000e+00	8.049987e+04	5.813524e+04	5.813524e+04
-6.440000e+00	-6.370000e+00	7.172637e+05	7.233714e+05	7.233714e+05
-6.370000e+00	-6.300000e+00	1.831817e+06	1.110842e+06	1.110842e+06
-6.300000e+00	-6.230000e+00	1.882303e+05	4.373402e+05	4.373402e+05
-6.230000e+00	-6.160000e+00	8.128173e+04	5.428410e+05	5.428410e+05
-6.160000e+00	-6.090000e+00	7.801656e+05	5.698048e+05	5.698048e+05
-6.090000e+00	-6.020000e+00	9.885921e+05	6.323277e+05	6.323277e+05
-6.020000e+00	-5.950000e+00	8.707807e+05	4.122091e+05	4.122091e+05
-5.950000e+00	-5.880000e+00	-1.601817e+04	5.463977e+05	5.463977e+05
-5.880000e+00	-5.810000e+00	-2.735667e+05	3.695546e+05	3.695546e+05
-5.810000e+00	-5.740000e+00	3.907706e+05	2.779612e+05	2.779612e+05
-5.740000e+00	-5.670000e+00	8.215201e+05	4.376035e+05	4.376035e+05
-5.670000e+00	-5.600000e+00	-1.457471e+05	9.617851e+05	9.617851e+05
-5.600000e+00	-5.530000e+00	7.317370e+05	8.503759e+05	8.503759e+05
-5.530000e+00	-5.460000e+00	1.498607e+06	5.390824e+05	5.390824e+05
-5.460000e+00	-5.390000e+00	2.672740e+06	1.734443e+06	1.734443e+06
-5.390000e+00	-5.320000e+00	-9.939521e+06	1.017318e+07	1.017318e+07
-5.320000e+00	-5.250000e+00	1.705851e+06	8.143440e+05	8.143440e+05
-5.250000e+00	-5.180000e+00	1.147808e+06	6.405441e+05	6.405441e+05
-5.180000e+00	-5.110000e+00	5.755474e+05	2.417292e+06	2.417292e+06
-5.110000e+00	-5.040000e+00	-1.527101e+04	1.433059e+06	1.433059e+06
-5.040000e+00	-4.970000e+00	-2.838259e+06	3.475346e+06	3.475346e+06
-4.970000e+00	-4.900000e+00	3.543911e+06	1.345795e+06	1.345795e+06
-4.900000e+00	-4.830000e+00	4.362131e+05	1.563287e+06	1.563287e+06
-4.830000e+00	-4.760000e+00	1.265061e+06	1.304628e+06	1.304628e+06
-4.760000e+00	-4.690000e+00	2.748990e+06	2.007598e+06	2.007598e+06
-4.690000e+00	-4.620000e+00	1.744316e+06	1.370729e+06	1.370729e+06
-4.620000e+00	-4.550000e+00	2.177417e+06	2.218312e+06	2.218312e+06
-4.550000e+00	-4.480000e+00	6.673166e+06	1.670400e+06	1.670400e+06
-4.480000e+00	-4.410000e+00	2.750683e+06	2.135736e+06	2.135736e+06
-4.410000e+00	-4.340000e+00	5.430144e+06	1.347020e+06	1.347020e+06
-4.340000e+00	-4.270000e+00	6.238226e+06	1.407442e+06	1.407442e+06
-4.270000e+00	-4.200000e+00	7.945317e+06	3.355591e+06	3.355591e+06
-4.200000e+00	-4.130000e+00	1.143673e+07	2.623177e+06	2.623177e+06
-4.130000e+00	-4.060000e+00	6.659423e+06	2.540104e+06	2.540104e+06
-4.060000e+00	-3.990000e+00	8.481953e+06	2.769881e+06	2.769881e+06
-3.990000e+00	-3.920000e+00	1.640476e+07	2.462906e+06	2.462906e+06
-3.920000e+00	-3.850000e+00	1.802301e+07	4.638959e+06	4.638959e+06
-3.850000e+00	-3.780000e+00	1.893854e+07	3.488141e+06	3.488141e+06
-3.780000e+00	-3.710000e+00	2.183076e+07	4.303962e+06	4.303962e+06
-3.710000e+00	-3.640000e+00	2.281594e+07	4.941424e+06	4.941424e+06
-3.640000e+00	-3.570000e+00	3.851750e+07	6.035575e+06	6.035575e+06
-3.570000e+00	-3.500000e+00	3.040881e+07	5.602683e+06	5.602683e+06
-3.500000e+00	-3.430000e+00	4.792099e+07	6.375420e+06	6.375420e+06
-3.430000e+00	-3.360000e+00	7.875784e+07	1.257907e+07	1.257907e+07
-3.360000e+00	-3.290000e+00	1.372609e+08	1.109483e+07	1.109483e+07
-3.290000e+00	-3.220000e+00	2.263307e+08	1.486927e+07	1.486927e+07
-3.220000e+00	-3.150000e+00	2.938536e+08	2.380626e+07	2.380626e+07
-3.150000e+00	-3.080000e+00	4.437877e+08	3.445462e+07	3.445462e+07
-3.080000e+00	-3.010000e+00	5.218604e+08	2.647360e+07	2.647360e+07
-3.010000e+00	-2.940000e+00	6.012513e+08	2.651467e+07	2.651467e+07
-2.940000e+00	-2.870000e+00	7.333830e+08	3.326127e+07	3.326127e+07
-2.870000e+00	-2.800000e+00	8.742551e+08	3.324895e+07	3.324895e+07
-2.800000e+00	-2.730000e+00	1.061717e+09	5.384151e+07	5.384151e+07
-2.730000e+00	-2.660000e+00	1.160003e+09	5.153964e+07	5.153964e+07
-2.660000e+00	-2.590000e+00	1.451380e+09	4.364482e+07	4.364482e+07
-2.590000e+00	-2.520000e+00	1.550820e+09	4.137722e+07	4.137722e+07
-2.520000e+00	-2.450000e+00	1.679634e+09	4.139535e+07	4.139535e+07
-2.450000e+00	-2.380000e+00	1.626231e+09	1.272592e+08	1.272592e+08
-2.380000e+00	-2.310000e+00	1.935639e+09	4.593409e+07	4.593409e+07
-2.310000e+00	-2.240000e+00	2.048011e+09	8.663412e+07	8.663412e+07
-2.240000e+00	-2.170000e+00	2.072840e+09	5.587541e+07	5.587541e+07
-2.170000e+00	-2.100000e+00	2.082407e+09	5.342043e+07	5.342043e+07
-2.100000e+00	-2.030000e+00	2.151487e+09	5.936912e+07	5.936912e+07
-2.030000e+00	-1.960000e+00	2.112936e+09	6.352832e+07	6.352832e+07
-1.960000e+00	-1.890000e+00	2.274960e+09	5.030257e+07	5.030257e+07
-1.890000e+00	-1.820000e+00	2.318407e+09	4.698334e+07	4.698334e+07
-1.820000e+00	-1.750000e+00	2.175659e+09	9.967422e+07	9.967422e+07
-1.750000e+00	-1.680000e+00	2.341774e+09	4.930807e+07	4.930807e+07
-1.680000e+00	-1.610000e+00	2.397727e+09	5.601703e+07	5.601703e+07
-1.610000e+00	-1.540000e+00	2.255983e+09	9.875845e+07	9.875845e+07
-1.540000e+00	-1.470000e+00	2.373823e+09	6.239584e+07	6.239584e+07
-1.470000e+00	-1.400000e+00	2.147280e+09	2.232976e+08	2.232976e+08
-1.400000e+00	-1.330000e+00	2.355421e+09	5.038211e+07	5.038211e+07
-1.330000e+00	-1.260000e+00	2.275957e+09	7.644474e+07	7.644474e+07
-1.260000e+00	-1.190000e+00	2.331967e+09	5.445172e+07	5.445172e+07
-1.190000e+00	-1.120000e+00	2.556939e+09	4.980452e+07	4.980452e+07
-1.120000e+00	-1.050000e+00	2.483083e+09	5.568081e+07	5.568081e+07
-1.050000e+00	-9.800000e-01	2.573047e+09	4.578793e+07	4.578793e+07
-9.800000e-01	-9.100000e-01	2.508741e+09	6.355314e+07	6.355314e+07
-9.100000e-01	-8.400000e-01	2.205293e+09	4.997281e+07	4.997281e+07
-8.400000e-01	-7.700000e-01	1.920076e+09	7.310464e+07	7.310464e+07
-7.700000e-01	-7.000000e-01	1.528277e+09	7.309193e+07	7.309193e+07
-7.000000e-01	-6.300000e-01	1.209832e+09	3.475014e+07	3.475014e+07
-6.300000e-01	-5.600000e-01	7.377543e+08	2.503764e+07	2.503764e+07
-5.600000e-01	-4.900000e-01	1.695283e+08	5.878277e+07	5.878277e+07
-4.900000e-01	-4.200000e-01	4.898267e+07	5.535643e+06	5.535643e+06
-4.200000e-01	-3.500000e-01	-1.414925e+06	4.549452e+06	4.549452e+06
-3.500000e-01	-2.800000e-01	1.566043e+05	1.178015e+05	1.178015e+05
-2.800000e-01	-2.100000e-01	0.000000e+00	0.000000e+00	0.000000e+00
-2.100000e-01	-1.400000e-01	0.000000e+00	0.000000e+00	0.000000e+00
-1.400000e-01	-7.000000e-02	0.000000e+00	0.000000e+00	0.000000e+00
-7.000000e-02	0.000000e+00	0.000000e+00	0.000000e+00	0.000000e+00
# END HISTO1D

