# BEGIN PLOT
LegendOnly=/zj_ps_nlo_mer_mur0.5_muf1_R8.yoda/PAPER_FIN_R8/ch_SD_l05_pT_65_88
DrawOnly=/zj_ps_nlo_mer_mur0.5_muf1_R8.yoda/PAPER_FIN_R8/ch_SD_l05_pT_65_88
Legend=1
LogY=1
# END PLOT

# BEGIN HISTO1D /zj_ps_nlo_mer_mur0.5_muf1_R8.yoda/PAPER_FIN_R8/ch_SD_l05_pT_65_88
LineColor=red
LineStyle=solid
Path=/zj_ps_nlo_mer_mur0.5_muf1_R8.yoda/PAPER_FIN_R8/ch_SD_l05_pT_65_88
Title=zj_ps_nlo_mer_mur0.5_muf1_R8
XLabel=~
YLabel=~
# xlow	 xhigh	 val	 errminus	 errplus
-7.000000e+00	-6.930000e+00	0.000000e+00	0.000000e+00	0.000000e+00
-6.930000e+00	-6.860000e+00	5.860143e+03	2.028538e+04	2.028538e+04
-6.860000e+00	-6.790000e+00	0.000000e+00	0.000000e+00	0.000000e+00
-6.790000e+00	-6.720000e+00	0.000000e+00	0.000000e+00	0.000000e+00
-6.720000e+00	-6.650000e+00	0.000000e+00	0.000000e+00	0.000000e+00
-6.650000e+00	-6.580000e+00	0.000000e+00	0.000000e+00	0.000000e+00
-6.580000e+00	-6.510000e+00	0.000000e+00	0.000000e+00	0.000000e+00
-6.510000e+00	-6.440000e+00	0.000000e+00	0.000000e+00	0.000000e+00
-6.440000e+00	-6.370000e+00	0.000000e+00	0.000000e+00	0.000000e+00
-6.370000e+00	-6.300000e+00	0.000000e+00	0.000000e+00	0.000000e+00
-6.300000e+00	-6.230000e+00	0.000000e+00	0.000000e+00	0.000000e+00
-6.230000e+00	-6.160000e+00	0.000000e+00	0.000000e+00	0.000000e+00
-6.160000e+00	-6.090000e+00	0.000000e+00	0.000000e+00	0.000000e+00
-6.090000e+00	-6.020000e+00	0.000000e+00	0.000000e+00	0.000000e+00
-6.020000e+00	-5.950000e+00	0.000000e+00	0.000000e+00	0.000000e+00
-5.950000e+00	-5.880000e+00	0.000000e+00	0.000000e+00	0.000000e+00
-5.880000e+00	-5.810000e+00	0.000000e+00	0.000000e+00	0.000000e+00
-5.810000e+00	-5.740000e+00	0.000000e+00	0.000000e+00	0.000000e+00
-5.740000e+00	-5.670000e+00	0.000000e+00	0.000000e+00	0.000000e+00
-5.670000e+00	-5.600000e+00	0.000000e+00	0.000000e+00	0.000000e+00
-5.600000e+00	-5.530000e+00	0.000000e+00	0.000000e+00	0.000000e+00
-5.530000e+00	-5.460000e+00	0.000000e+00	0.000000e+00	0.000000e+00
-5.460000e+00	-5.390000e+00	0.000000e+00	0.000000e+00	0.000000e+00
-5.390000e+00	-5.320000e+00	0.000000e+00	0.000000e+00	0.000000e+00
-5.320000e+00	-5.250000e+00	0.000000e+00	0.000000e+00	0.000000e+00
-5.250000e+00	-5.180000e+00	0.000000e+00	0.000000e+00	0.000000e+00
-5.180000e+00	-5.110000e+00	0.000000e+00	0.000000e+00	0.000000e+00
-5.110000e+00	-5.040000e+00	0.000000e+00	0.000000e+00	0.000000e+00
-5.040000e+00	-4.970000e+00	0.000000e+00	0.000000e+00	0.000000e+00
-4.970000e+00	-4.900000e+00	0.000000e+00	0.000000e+00	0.000000e+00
-4.900000e+00	-4.830000e+00	0.000000e+00	0.000000e+00	0.000000e+00
-4.830000e+00	-4.760000e+00	0.000000e+00	0.000000e+00	0.000000e+00
-4.760000e+00	-4.690000e+00	0.000000e+00	0.000000e+00	0.000000e+00
-4.690000e+00	-4.620000e+00	0.000000e+00	0.000000e+00	0.000000e+00
-4.620000e+00	-4.550000e+00	0.000000e+00	0.000000e+00	0.000000e+00
-4.550000e+00	-4.480000e+00	0.000000e+00	0.000000e+00	0.000000e+00
-4.480000e+00	-4.410000e+00	0.000000e+00	0.000000e+00	0.000000e+00
-4.410000e+00	-4.340000e+00	0.000000e+00	0.000000e+00	0.000000e+00
-4.340000e+00	-4.270000e+00	0.000000e+00	0.000000e+00	0.000000e+00
-4.270000e+00	-4.200000e+00	0.000000e+00	0.000000e+00	0.000000e+00
-4.200000e+00	-4.130000e+00	0.000000e+00	0.000000e+00	0.000000e+00
-4.130000e+00	-4.060000e+00	0.000000e+00	0.000000e+00	0.000000e+00
-4.060000e+00	-3.990000e+00	0.000000e+00	0.000000e+00	0.000000e+00
-3.990000e+00	-3.920000e+00	0.000000e+00	0.000000e+00	0.000000e+00
-3.920000e+00	-3.850000e+00	0.000000e+00	0.000000e+00	0.000000e+00
-3.850000e+00	-3.780000e+00	0.000000e+00	0.000000e+00	0.000000e+00
-3.780000e+00	-3.710000e+00	0.000000e+00	0.000000e+00	0.000000e+00
-3.710000e+00	-3.640000e+00	0.000000e+00	0.000000e+00	0.000000e+00
-3.640000e+00	-3.570000e+00	0.000000e+00	0.000000e+00	0.000000e+00
-3.570000e+00	-3.500000e+00	0.000000e+00	0.000000e+00	0.000000e+00
-3.500000e+00	-3.430000e+00	0.000000e+00	0.000000e+00	0.000000e+00
-3.430000e+00	-3.360000e+00	0.000000e+00	0.000000e+00	0.000000e+00
-3.360000e+00	-3.290000e+00	0.000000e+00	0.000000e+00	0.000000e+00
-3.290000e+00	-3.220000e+00	0.000000e+00	0.000000e+00	0.000000e+00
-3.220000e+00	-3.150000e+00	0.000000e+00	0.000000e+00	0.000000e+00
-3.150000e+00	-3.080000e+00	0.000000e+00	0.000000e+00	0.000000e+00
-3.080000e+00	-3.010000e+00	0.000000e+00	0.000000e+00	0.000000e+00
-3.010000e+00	-2.940000e+00	0.000000e+00	0.000000e+00	0.000000e+00
-2.940000e+00	-2.870000e+00	0.000000e+00	0.000000e+00	0.000000e+00
-2.870000e+00	-2.800000e+00	0.000000e+00	0.000000e+00	0.000000e+00
-2.800000e+00	-2.730000e+00	0.000000e+00	0.000000e+00	0.000000e+00
-2.730000e+00	-2.660000e+00	0.000000e+00	0.000000e+00	0.000000e+00
-2.660000e+00	-2.590000e+00	0.000000e+00	0.000000e+00	0.000000e+00
-2.590000e+00	-2.520000e+00	0.000000e+00	0.000000e+00	0.000000e+00
-2.520000e+00	-2.450000e+00	-7.213346e-03	7.213346e-03	7.213346e-03
-2.450000e+00	-2.380000e+00	0.000000e+00	0.000000e+00	0.000000e+00
-2.380000e+00	-2.310000e+00	0.000000e+00	0.000000e+00	0.000000e+00
-2.310000e+00	-2.240000e+00	8.265356e-07	8.265356e-07	8.265356e-07
-2.240000e+00	-2.170000e+00	4.610567e+00	3.384518e+00	3.384518e+00
-2.170000e+00	-2.100000e+00	-1.633283e+00	1.132890e+00	1.132890e+00
-2.100000e+00	-2.030000e+00	-8.868440e-01	1.314677e+00	1.314677e+00
-2.030000e+00	-1.960000e+00	-7.128447e+02	6.745761e+02	6.745761e+02
-1.960000e+00	-1.890000e+00	-1.254051e+03	1.242662e+03	1.242662e+03
-1.890000e+00	-1.820000e+00	-1.641551e+03	1.391938e+03	1.391938e+03
-1.820000e+00	-1.750000e+00	-1.222171e+03	1.296625e+03	1.296625e+03
-1.750000e+00	-1.680000e+00	-5.869756e+03	5.091147e+03	5.091147e+03
-1.680000e+00	-1.610000e+00	1.838813e+04	1.945453e+04	1.945453e+04
-1.610000e+00	-1.540000e+00	1.966189e+02	6.695032e+03	6.695032e+03
-1.540000e+00	-1.470000e+00	-3.141460e+03	2.497539e+03	2.497539e+03
-1.470000e+00	-1.400000e+00	-4.327097e+04	3.290830e+04	3.290830e+04
-1.400000e+00	-1.330000e+00	-8.970434e+03	1.941713e+04	1.941713e+04
-1.330000e+00	-1.260000e+00	-1.083084e+05	1.017226e+05	1.017226e+05
-1.260000e+00	-1.190000e+00	-1.161576e+04	1.329751e+04	1.329751e+04
-1.190000e+00	-1.120000e+00	-5.349396e+04	2.596232e+04	2.596232e+04
-1.120000e+00	-1.050000e+00	1.344142e+05	1.060116e+05	1.060116e+05
-1.050000e+00	-9.800000e-01	1.825449e+05	1.118542e+05	1.118542e+05
-9.800000e-01	-9.100000e-01	-9.101464e+04	5.039949e+04	5.039949e+04
-9.100000e-01	-8.400000e-01	4.530037e+04	5.376428e+04	5.376428e+04
-8.400000e-01	-7.700000e-01	-1.787714e+05	1.130306e+05	1.130306e+05
-7.700000e-01	-7.000000e-01	-2.281149e+05	2.154177e+05	2.154177e+05
-7.000000e-01	-6.300000e-01	1.280589e+05	3.791430e+05	3.791430e+05
-6.300000e-01	-5.600000e-01	1.239257e+04	1.917483e+05	1.917483e+05
-5.600000e-01	-4.900000e-01	3.271237e+05	1.668434e+05	1.668434e+05
-4.900000e-01	-4.200000e-01	-2.452536e+05	2.284887e+05	2.284887e+05
-4.200000e-01	-3.500000e-01	1.527921e+05	2.128228e+05	2.128228e+05
-3.500000e-01	-2.800000e-01	-5.729574e+03	3.510175e+05	3.510175e+05
-2.800000e-01	-2.100000e-01	8.920304e+03	1.377654e+05	1.377654e+05
-2.100000e-01	-1.400000e-01	-1.103827e+05	8.903245e+04	8.903245e+04
-1.400000e-01	-7.000000e-02	-6.549537e+03	6.817244e+03	6.817244e+03
-7.000000e-02	0.000000e+00	-2.798287e-01	2.751755e-01	2.751755e-01
# END HISTO1D

