# BEGIN PLOT
LegendOnly=/zj_ps_nlo_mer_mur0.5_muf1_R8.yoda/PAPER_FIN_R8/ch_lin_SD_l20_pT_326_408
DrawOnly=/zj_ps_nlo_mer_mur0.5_muf1_R8.yoda/PAPER_FIN_R8/ch_lin_SD_l20_pT_326_408
Legend=1
LogY=1
# END PLOT

# BEGIN HISTO1D /zj_ps_nlo_mer_mur0.5_muf1_R8.yoda/PAPER_FIN_R8/ch_lin_SD_l20_pT_326_408
LineColor=red
LineStyle=solid
Path=/zj_ps_nlo_mer_mur0.5_muf1_R8.yoda/PAPER_FIN_R8/ch_lin_SD_l20_pT_326_408
Title=zj_ps_nlo_mer_mur0.5_muf1_R8
XLabel=~
YLabel=~
# xlow	 xhigh	 val	 errminus	 errplus
0.000000e+00	2.500000e-03	1.500782e+11	1.834016e+09	1.834016e+09
2.500000e-03	5.000000e-03	1.654757e+10	2.939529e+08	2.939529e+08
5.000000e-03	7.500000e-03	1.014248e+10	2.110241e+08	2.110241e+08
7.500000e-03	1.250000e-02	6.706470e+09	1.022530e+08	1.022530e+08
1.250000e-02	2.000000e-02	4.462573e+09	8.079883e+07	8.079883e+07
2.000000e-02	3.250000e-02	3.093583e+09	1.977348e+08	1.977348e+08
3.250000e-02	5.000000e-02	2.178479e+09	3.603658e+07	3.603658e+07
5.000000e-02	7.750000e-02	1.616985e+09	3.254070e+07	3.254070e+07
7.750000e-02	1.150000e-01	1.288781e+09	1.796458e+07	1.796458e+07
1.150000e-01	1.600000e-01	8.958333e+08	1.341373e+07	1.341373e+07
1.600000e-01	2.100000e-01	5.149868e+08	6.935607e+06	6.935607e+06
2.100000e-01	1.000000e+00	2.121635e+07	3.463863e+05	3.463863e+05
# END HISTO1D

