# BEGIN PLOT
LegendOnly=/zj_ps_nlo_mer_mur0.5_muf1_R8.yoda/PAPER_FIN_R8_CH/lin_SD_l05_pT_50_65
DrawOnly=/zj_ps_nlo_mer_mur0.5_muf1_R8.yoda/PAPER_FIN_R8_CH/lin_SD_l05_pT_50_65
Legend=1
LogY=1
# END PLOT

# BEGIN HISTO1D /zj_ps_nlo_mer_mur0.5_muf1_R8.yoda/PAPER_FIN_R8_CH/lin_SD_l05_pT_50_65
LineColor=red
LineStyle=solid
Path=/zj_ps_nlo_mer_mur0.5_muf1_R8.yoda/PAPER_FIN_R8_CH/lin_SD_l05_pT_50_65
Title=zj_ps_nlo_mer_mur0.5_muf1_R8
XLabel=~
YLabel=~
# xlow	 xhigh	 val	 errminus	 errplus
0.000000e+00	6.000000e-02	-3.428798e+02	1.348322e+02	1.348322e+02
6.000000e-02	9.000000e-02	-4.310570e+03	3.033603e+03	3.033603e+03
9.000000e-02	1.200000e-01	-2.148221e+03	5.443818e+02	5.443818e+02
1.200000e-01	1.500000e-01	4.271473e+03	9.679217e+03	9.679217e+03
1.500000e-01	1.900000e-01	-9.357930e+03	3.419698e+04	3.419698e+04
1.900000e-01	2.300000e-01	1.574387e+05	1.551445e+05	1.551445e+05
2.300000e-01	2.700000e-01	-4.391127e+04	4.972536e+04	4.972536e+04
2.700000e-01	3.200000e-01	-5.180932e+03	1.928316e+03	1.928316e+03
3.200000e-01	3.700000e-01	-4.438062e+03	1.688462e+03	1.688462e+03
3.700000e-01	4.200000e-01	1.035637e+04	1.675113e+04	1.675113e+04
4.200000e-01	4.800000e-01	-6.509655e+03	2.376071e+03	2.376071e+03
4.800000e-01	5.400000e-01	-8.865495e+03	4.276690e+03	4.276690e+03
5.400000e-01	6.000000e-01	-1.547924e+03	1.356037e+03	1.356037e+03
6.000000e-01	1.000000e+00	-7.417045e+02	3.654580e+02	3.654580e+02
# END HISTO1D

