# BEGIN PLOT
LegendOnly=/zj_ps_nlo_mer_mur0.5_muf1_R8.yoda/PAPER_FIN_R8/ch_SD_l20_pT_150_186
DrawOnly=/zj_ps_nlo_mer_mur0.5_muf1_R8.yoda/PAPER_FIN_R8/ch_SD_l20_pT_150_186
Legend=1
LogY=1
# END PLOT

# BEGIN HISTO1D /zj_ps_nlo_mer_mur0.5_muf1_R8.yoda/PAPER_FIN_R8/ch_SD_l20_pT_150_186
LineColor=red
LineStyle=solid
Path=/zj_ps_nlo_mer_mur0.5_muf1_R8.yoda/PAPER_FIN_R8/ch_SD_l20_pT_150_186
Title=zj_ps_nlo_mer_mur0.5_muf1_R8
XLabel=~
YLabel=~
# xlow	 xhigh	 val	 errminus	 errplus
-7.000000e+00	-6.930000e+00	2.167759e+04	4.883548e+04	4.883548e+04
-6.930000e+00	-6.860000e+00	2.497566e+07	4.706960e+06	4.706960e+06
-6.860000e+00	-6.790000e+00	-3.106170e+04	6.022155e+04	6.022155e+04
-6.790000e+00	-6.720000e+00	-1.970523e+03	3.234901e+04	3.234901e+04
-6.720000e+00	-6.650000e+00	-2.650559e+04	9.027819e+04	9.027819e+04
-6.650000e+00	-6.580000e+00	1.032218e+05	9.971234e+04	9.971234e+04
-6.580000e+00	-6.510000e+00	1.200772e+05	9.011231e+04	9.011231e+04
-6.510000e+00	-6.440000e+00	1.741529e+05	9.362050e+04	9.362050e+04
-6.440000e+00	-6.370000e+00	2.718633e+05	1.205432e+05	1.205432e+05
-6.370000e+00	-6.300000e+00	4.063653e+05	1.591230e+05	1.591230e+05
-6.300000e+00	-6.230000e+00	1.321095e+05	1.610817e+05	1.610817e+05
-6.230000e+00	-6.160000e+00	2.362886e+05	1.016988e+05	1.016988e+05
-6.160000e+00	-6.090000e+00	-1.447773e+05	2.265148e+05	2.265148e+05
-6.090000e+00	-6.020000e+00	-1.794784e+04	1.910614e+05	1.910614e+05
-6.020000e+00	-5.950000e+00	2.927374e+05	2.056792e+05	2.056792e+05
-5.950000e+00	-5.880000e+00	4.605549e+05	1.610113e+05	1.610113e+05
-5.880000e+00	-5.810000e+00	-2.005327e+05	3.071062e+05	3.071062e+05
-5.810000e+00	-5.740000e+00	-6.582167e+04	2.577239e+05	2.577239e+05
-5.740000e+00	-5.670000e+00	2.667869e+05	2.394853e+05	2.394853e+05
-5.670000e+00	-5.600000e+00	3.130709e+05	2.914890e+05	2.914890e+05
-5.600000e+00	-5.530000e+00	9.613503e+05	1.063538e+06	1.063538e+06
-5.530000e+00	-5.460000e+00	4.630320e+05	3.510687e+05	3.510687e+05
-5.460000e+00	-5.390000e+00	-1.434407e+06	1.412434e+06	1.412434e+06
-5.390000e+00	-5.320000e+00	3.192851e+05	9.430510e+05	9.430510e+05
-5.320000e+00	-5.250000e+00	9.069383e+05	3.590084e+05	3.590084e+05
-5.250000e+00	-5.180000e+00	8.844706e+05	4.709721e+05	4.709721e+05
-5.180000e+00	-5.110000e+00	4.155679e+05	1.026389e+06	1.026389e+06
-5.110000e+00	-5.040000e+00	9.402844e+05	7.066561e+05	7.066561e+05
-5.040000e+00	-4.970000e+00	1.545800e+06	9.219229e+05	9.219229e+05
-4.970000e+00	-4.900000e+00	1.348979e+06	9.969598e+05	9.969598e+05
-4.900000e+00	-4.830000e+00	1.355017e+06	8.967102e+05	8.967102e+05
-4.830000e+00	-4.760000e+00	3.986289e+06	1.543750e+06	1.543750e+06
-4.760000e+00	-4.690000e+00	7.040030e+04	1.404769e+06	1.404769e+06
-4.690000e+00	-4.620000e+00	3.761711e+06	1.108246e+06	1.108246e+06
-4.620000e+00	-4.550000e+00	2.132700e+06	4.438567e+06	4.438567e+06
-4.550000e+00	-4.480000e+00	6.761829e+06	1.390332e+06	1.390332e+06
-4.480000e+00	-4.410000e+00	3.332726e+06	2.348251e+06	2.348251e+06
-4.410000e+00	-4.340000e+00	4.187163e+04	3.277454e+06	3.277454e+06
-4.340000e+00	-4.270000e+00	8.397447e+06	4.327377e+06	4.327377e+06
-4.270000e+00	-4.200000e+00	1.021607e+07	1.774831e+06	1.774831e+06
-4.200000e+00	-4.130000e+00	1.198197e+07	2.289383e+06	2.289383e+06
-4.130000e+00	-4.060000e+00	1.172543e+07	2.660005e+06	2.660005e+06
-4.060000e+00	-3.990000e+00	1.258697e+07	2.798696e+06	2.798696e+06
-3.990000e+00	-3.920000e+00	3.657247e+06	7.794155e+06	7.794155e+06
-3.920000e+00	-3.850000e+00	1.756413e+07	4.077266e+06	4.077266e+06
-3.850000e+00	-3.780000e+00	2.096764e+07	3.875013e+06	3.875013e+06
-3.780000e+00	-3.710000e+00	2.527760e+07	3.149777e+06	3.149777e+06
-3.710000e+00	-3.640000e+00	2.505056e+07	4.557909e+06	4.557909e+06
-3.640000e+00	-3.570000e+00	1.920183e+07	1.030049e+07	1.030049e+07
-3.570000e+00	-3.500000e+00	3.845373e+07	9.541500e+06	9.541500e+06
-3.500000e+00	-3.430000e+00	3.243306e+07	4.422990e+06	4.422990e+06
-3.430000e+00	-3.360000e+00	3.300576e+07	4.311869e+06	4.311869e+06
-3.360000e+00	-3.290000e+00	3.145637e+07	5.453568e+06	5.453568e+06
-3.290000e+00	-3.220000e+00	3.688519e+07	4.412074e+06	4.412074e+06
-3.220000e+00	-3.150000e+00	3.820000e+07	4.547744e+06	4.547744e+06
-3.150000e+00	-3.080000e+00	4.837536e+07	4.625241e+06	4.625241e+06
-3.080000e+00	-3.010000e+00	3.832070e+07	4.658814e+06	4.658814e+06
-3.010000e+00	-2.940000e+00	4.291194e+07	8.609278e+06	8.609278e+06
-2.940000e+00	-2.870000e+00	4.067837e+07	6.366943e+06	6.366943e+06
-2.870000e+00	-2.800000e+00	3.003804e+07	1.040648e+07	1.040648e+07
-2.800000e+00	-2.730000e+00	4.126426e+07	4.388341e+06	4.388341e+06
-2.730000e+00	-2.660000e+00	3.258420e+07	5.819899e+06	5.819899e+06
-2.660000e+00	-2.590000e+00	3.306690e+07	8.362595e+06	8.362595e+06
-2.590000e+00	-2.520000e+00	2.408626e+07	8.979953e+06	8.979953e+06
-2.520000e+00	-2.450000e+00	3.605443e+07	6.008000e+06	6.008000e+06
-2.450000e+00	-2.380000e+00	2.656464e+07	7.025429e+06	7.025429e+06
-2.380000e+00	-2.310000e+00	3.689641e+07	5.149975e+06	5.149975e+06
-2.310000e+00	-2.240000e+00	2.873604e+07	4.752806e+06	4.752806e+06
-2.240000e+00	-2.170000e+00	3.261067e+07	3.741361e+06	3.741361e+06
-2.170000e+00	-2.100000e+00	2.572153e+07	5.028153e+06	5.028153e+06
-2.100000e+00	-2.030000e+00	3.032660e+07	4.848825e+06	4.848825e+06
-2.030000e+00	-1.960000e+00	3.831490e+07	3.927339e+06	3.927339e+06
-1.960000e+00	-1.890000e+00	3.293173e+07	3.202530e+06	3.202530e+06
-1.890000e+00	-1.820000e+00	4.003661e+07	5.161456e+06	5.161456e+06
-1.820000e+00	-1.750000e+00	3.572024e+07	4.401446e+06	4.401446e+06
-1.750000e+00	-1.680000e+00	2.826849e+07	5.387410e+06	5.387410e+06
-1.680000e+00	-1.610000e+00	2.356926e+07	7.967066e+06	7.967066e+06
-1.610000e+00	-1.540000e+00	3.170337e+07	8.572746e+06	8.572746e+06
-1.540000e+00	-1.470000e+00	4.307427e+07	3.924575e+06	3.924575e+06
-1.470000e+00	-1.400000e+00	4.095889e+07	5.845570e+06	5.845570e+06
-1.400000e+00	-1.330000e+00	5.404971e+07	9.393417e+06	9.393417e+06
-1.330000e+00	-1.260000e+00	4.867893e+07	5.411417e+06	5.411417e+06
-1.260000e+00	-1.190000e+00	5.367903e+07	4.577697e+06	4.577697e+06
-1.190000e+00	-1.120000e+00	5.459757e+07	5.546345e+06	5.546345e+06
-1.120000e+00	-1.050000e+00	6.691703e+07	7.302450e+06	7.302450e+06
-1.050000e+00	-9.800000e-01	6.369930e+07	6.841285e+06	6.841285e+06
-9.800000e-01	-9.100000e-01	6.460826e+07	8.830099e+06	8.830099e+06
-9.100000e-01	-8.400000e-01	8.344671e+07	2.056479e+07	2.056479e+07
-8.400000e-01	-7.700000e-01	8.372827e+07	9.516077e+06	9.516077e+06
-7.700000e-01	-7.000000e-01	6.064463e+07	4.948570e+06	4.948570e+06
-7.000000e-01	-6.300000e-01	4.502229e+07	4.356413e+06	4.356413e+06
-6.300000e-01	-5.600000e-01	2.512386e+07	3.773022e+06	3.773022e+06
-5.600000e-01	-4.900000e-01	1.312105e+07	2.346101e+06	2.346101e+06
-4.900000e-01	-4.200000e-01	4.012193e+06	1.589289e+06	1.589289e+06
-4.200000e-01	-3.500000e-01	-1.596956e+05	2.217253e+05	2.217253e+05
-3.500000e-01	-2.800000e-01	-1.574804e+03	3.894331e+03	3.894331e+03
-2.800000e-01	-2.100000e-01	0.000000e+00	0.000000e+00	0.000000e+00
-2.100000e-01	-1.400000e-01	0.000000e+00	0.000000e+00	0.000000e+00
-1.400000e-01	-7.000000e-02	0.000000e+00	0.000000e+00	0.000000e+00
-7.000000e-02	0.000000e+00	0.000000e+00	0.000000e+00	0.000000e+00
# END HISTO1D

