# BEGIN PLOT
LegendOnly=/zj_ps_nlo_mer_mur0.5_muf1_R8.yoda/PAPER_FIN_R8/lin_l10_pT_326_408
DrawOnly=/zj_ps_nlo_mer_mur0.5_muf1_R8.yoda/PAPER_FIN_R8/lin_l10_pT_326_408
Legend=1
LogY=1
# END PLOT

# BEGIN HISTO1D /zj_ps_nlo_mer_mur0.5_muf1_R8.yoda/PAPER_FIN_R8/lin_l10_pT_326_408
LineColor=red
LineStyle=solid
Path=/zj_ps_nlo_mer_mur0.5_muf1_R8.yoda/PAPER_FIN_R8/lin_l10_pT_326_408
Title=zj_ps_nlo_mer_mur0.5_muf1_R8
XLabel=~
YLabel=~
# xlow	 xhigh	 val	 errminus	 errplus
0.000000e+00	1.050000e-01	4.383320e+09	4.441736e+07	4.441736e+07
1.050000e-01	1.650000e-01	2.013188e+09	4.363506e+07	4.363506e+07
1.650000e-01	2.300000e-01	1.145238e+09	1.651184e+07	1.651184e+07
2.300000e-01	3.050000e-01	6.922720e+08	1.000802e+07	1.000802e+07
3.050000e-01	3.800000e-01	3.867769e+08	6.232671e+06	6.232671e+06
3.800000e-01	4.600000e-01	2.063330e+08	5.710932e+06	5.710932e+06
4.600000e-01	5.500000e-01	7.606490e+07	2.134130e+06	2.134130e+06
5.500000e-01	1.000000e+00	3.509080e+06	1.647220e+05	1.647220e+05
# END HISTO1D

