# BEGIN PLOT
LegendOnly=/zj_ps_nlo_mer_mur0.5_muf1_R8.yoda/PAPER_FIN_R8/SD_l10_pT_50_65
DrawOnly=/zj_ps_nlo_mer_mur0.5_muf1_R8.yoda/PAPER_FIN_R8/SD_l10_pT_50_65
Legend=1
LogY=1
# END PLOT

# BEGIN HISTO1D /zj_ps_nlo_mer_mur0.5_muf1_R8.yoda/PAPER_FIN_R8/SD_l10_pT_50_65
LineColor=red
LineStyle=solid
Path=/zj_ps_nlo_mer_mur0.5_muf1_R8.yoda/PAPER_FIN_R8/SD_l10_pT_50_65
Title=zj_ps_nlo_mer_mur0.5_muf1_R8
XLabel=~
YLabel=~
# xlow	 xhigh	 val	 errminus	 errplus
-7.000000e+00	-6.930000e+00	0.000000e+00	0.000000e+00	0.000000e+00
-6.930000e+00	-6.860000e+00	-4.154901e+01	4.602269e+01	4.602269e+01
-6.860000e+00	-6.790000e+00	0.000000e+00	0.000000e+00	0.000000e+00
-6.790000e+00	-6.720000e+00	0.000000e+00	0.000000e+00	0.000000e+00
-6.720000e+00	-6.650000e+00	0.000000e+00	0.000000e+00	0.000000e+00
-6.650000e+00	-6.580000e+00	0.000000e+00	0.000000e+00	0.000000e+00
-6.580000e+00	-6.510000e+00	0.000000e+00	0.000000e+00	0.000000e+00
-6.510000e+00	-6.440000e+00	0.000000e+00	0.000000e+00	0.000000e+00
-6.440000e+00	-6.370000e+00	0.000000e+00	0.000000e+00	0.000000e+00
-6.370000e+00	-6.300000e+00	0.000000e+00	0.000000e+00	0.000000e+00
-6.300000e+00	-6.230000e+00	0.000000e+00	0.000000e+00	0.000000e+00
-6.230000e+00	-6.160000e+00	0.000000e+00	0.000000e+00	0.000000e+00
-6.160000e+00	-6.090000e+00	0.000000e+00	0.000000e+00	0.000000e+00
-6.090000e+00	-6.020000e+00	0.000000e+00	0.000000e+00	0.000000e+00
-6.020000e+00	-5.950000e+00	0.000000e+00	0.000000e+00	0.000000e+00
-5.950000e+00	-5.880000e+00	0.000000e+00	0.000000e+00	0.000000e+00
-5.880000e+00	-5.810000e+00	0.000000e+00	0.000000e+00	0.000000e+00
-5.810000e+00	-5.740000e+00	0.000000e+00	0.000000e+00	0.000000e+00
-5.740000e+00	-5.670000e+00	0.000000e+00	0.000000e+00	0.000000e+00
-5.670000e+00	-5.600000e+00	0.000000e+00	0.000000e+00	0.000000e+00
-5.600000e+00	-5.530000e+00	0.000000e+00	0.000000e+00	0.000000e+00
-5.530000e+00	-5.460000e+00	0.000000e+00	0.000000e+00	0.000000e+00
-5.460000e+00	-5.390000e+00	0.000000e+00	0.000000e+00	0.000000e+00
-5.390000e+00	-5.320000e+00	0.000000e+00	0.000000e+00	0.000000e+00
-5.320000e+00	-5.250000e+00	0.000000e+00	0.000000e+00	0.000000e+00
-5.250000e+00	-5.180000e+00	0.000000e+00	0.000000e+00	0.000000e+00
-5.180000e+00	-5.110000e+00	0.000000e+00	0.000000e+00	0.000000e+00
-5.110000e+00	-5.040000e+00	0.000000e+00	0.000000e+00	0.000000e+00
-5.040000e+00	-4.970000e+00	0.000000e+00	0.000000e+00	0.000000e+00
-4.970000e+00	-4.900000e+00	0.000000e+00	0.000000e+00	0.000000e+00
-4.900000e+00	-4.830000e+00	0.000000e+00	0.000000e+00	0.000000e+00
-4.830000e+00	-4.760000e+00	0.000000e+00	0.000000e+00	0.000000e+00
-4.760000e+00	-4.690000e+00	0.000000e+00	0.000000e+00	0.000000e+00
-4.690000e+00	-4.620000e+00	0.000000e+00	0.000000e+00	0.000000e+00
-4.620000e+00	-4.550000e+00	0.000000e+00	0.000000e+00	0.000000e+00
-4.550000e+00	-4.480000e+00	0.000000e+00	0.000000e+00	0.000000e+00
-4.480000e+00	-4.410000e+00	0.000000e+00	0.000000e+00	0.000000e+00
-4.410000e+00	-4.340000e+00	0.000000e+00	0.000000e+00	0.000000e+00
-4.340000e+00	-4.270000e+00	0.000000e+00	0.000000e+00	0.000000e+00
-4.270000e+00	-4.200000e+00	0.000000e+00	0.000000e+00	0.000000e+00
-4.200000e+00	-4.130000e+00	0.000000e+00	0.000000e+00	0.000000e+00
-4.130000e+00	-4.060000e+00	0.000000e+00	0.000000e+00	0.000000e+00
-4.060000e+00	-3.990000e+00	0.000000e+00	0.000000e+00	0.000000e+00
-3.990000e+00	-3.920000e+00	0.000000e+00	0.000000e+00	0.000000e+00
-3.920000e+00	-3.850000e+00	0.000000e+00	0.000000e+00	0.000000e+00
-3.850000e+00	-3.780000e+00	0.000000e+00	0.000000e+00	0.000000e+00
-3.780000e+00	-3.710000e+00	0.000000e+00	0.000000e+00	0.000000e+00
-3.710000e+00	-3.640000e+00	0.000000e+00	0.000000e+00	0.000000e+00
-3.640000e+00	-3.570000e+00	0.000000e+00	0.000000e+00	0.000000e+00
-3.570000e+00	-3.500000e+00	2.969696e-04	2.969695e-04	2.969695e-04
-3.500000e+00	-3.430000e+00	0.000000e+00	0.000000e+00	0.000000e+00
-3.430000e+00	-3.360000e+00	-7.100420e-04	7.100420e-04	7.100420e-04
-3.360000e+00	-3.290000e+00	0.000000e+00	0.000000e+00	0.000000e+00
-3.290000e+00	-3.220000e+00	0.000000e+00	0.000000e+00	0.000000e+00
-3.220000e+00	-3.150000e+00	0.000000e+00	0.000000e+00	0.000000e+00
-3.150000e+00	-3.080000e+00	8.274714e-02	8.520827e-02	8.520827e-02
-3.080000e+00	-3.010000e+00	-2.503164e-02	2.936389e-02	2.936389e-02
-3.010000e+00	-2.940000e+00	-1.979414e-02	4.241923e-01	4.241923e-01
-2.940000e+00	-2.870000e+00	-1.645651e-03	5.737243e-02	5.737243e-02
-2.870000e+00	-2.800000e+00	4.902983e-01	4.899896e-01	4.899896e-01
-2.800000e+00	-2.730000e+00	-1.234051e+00	8.112458e-01	8.112458e-01
-2.730000e+00	-2.660000e+00	-1.935723e+00	1.666667e+00	1.666667e+00
-2.660000e+00	-2.590000e+00	-3.516104e+00	3.413960e+00	3.413960e+00
-2.590000e+00	-2.520000e+00	-7.633801e+00	5.094058e+00	5.094058e+00
-2.520000e+00	-2.450000e+00	-1.438304e+01	8.927537e+00	8.927537e+00
-2.450000e+00	-2.380000e+00	-3.211161e+00	1.919217e+00	1.919217e+00
-2.380000e+00	-2.310000e+00	4.636181e+00	9.006679e+00	9.006679e+00
-2.310000e+00	-2.240000e+00	-4.788109e+00	2.029240e+00	2.029240e+00
-2.240000e+00	-2.170000e+00	-1.690107e+01	6.915506e+00	6.915506e+00
-2.170000e+00	-2.100000e+00	-1.957043e+01	9.206607e+00	9.206607e+00
-2.100000e+00	-2.030000e+00	-2.492011e+01	1.315765e+01	1.315765e+01
-2.030000e+00	-1.960000e+00	-6.821591e+01	3.469034e+01	3.469034e+01
-1.960000e+00	-1.890000e+00	-1.305134e+01	4.228228e+01	4.228228e+01
-1.890000e+00	-1.820000e+00	-4.002570e+02	1.557985e+02	1.557985e+02
-1.820000e+00	-1.750000e+00	-1.837281e+02	1.015680e+02	1.015680e+02
-1.750000e+00	-1.680000e+00	-2.211023e+02	8.077755e+01	8.077755e+01
-1.680000e+00	-1.610000e+00	-1.665543e+03	1.295727e+03	1.295727e+03
-1.610000e+00	-1.540000e+00	-1.301207e+03	9.029899e+02	9.029899e+02
-1.540000e+00	-1.470000e+00	-1.555796e+04	1.505947e+04	1.505947e+04
-1.470000e+00	-1.400000e+00	-1.365985e+03	5.438493e+02	5.438493e+02
-1.400000e+00	-1.330000e+00	3.197034e+03	4.036894e+03	4.036894e+03
-1.330000e+00	-1.260000e+00	1.200740e+04	1.244300e+04	1.244300e+04
-1.260000e+00	-1.190000e+00	8.824619e+04	8.859580e+04	8.859580e+04
-1.190000e+00	-1.120000e+00	2.546996e+03	3.138761e+03	3.138761e+03
-1.120000e+00	-1.050000e+00	-2.294087e+03	8.038200e+02	8.038200e+02
-1.050000e+00	-9.800000e-01	-2.884079e+03	1.010236e+03	1.010236e+03
-9.800000e-01	-9.100000e-01	3.147727e+03	7.593958e+03	7.593958e+03
-9.100000e-01	-8.400000e-01	-2.791319e+04	2.740151e+04	2.740151e+04
-8.400000e-01	-7.700000e-01	-1.640789e+03	2.458846e+02	2.458846e+02
-7.700000e-01	-7.000000e-01	-2.041849e+03	9.891672e+02	9.891672e+02
-7.000000e-01	-6.300000e-01	1.122152e+04	1.189175e+04	1.189175e+04
-6.300000e-01	-5.600000e-01	-3.317920e+03	1.081074e+03	1.081074e+03
-5.600000e-01	-4.900000e-01	-7.995619e+03	2.703030e+03	2.703030e+03
-4.900000e-01	-4.200000e-01	-2.504437e+03	1.046043e+03	1.046043e+03
-4.200000e-01	-3.500000e-01	-4.480650e+03	3.336234e+03	3.336234e+03
-3.500000e-01	-2.800000e-01	-2.162216e+03	1.077497e+03	1.077497e+03
-2.800000e-01	-2.100000e-01	-1.992810e+03	1.796926e+03	1.796926e+03
-2.100000e-01	-1.400000e-01	-1.262266e+02	1.054010e+02	1.054010e+02
-1.400000e-01	-7.000000e-02	-2.431934e+01	1.545785e+01	1.545785e+01
-7.000000e-02	0.000000e+00	-1.728757e-01	1.055844e-01	1.055844e-01
# END HISTO1D

