# BEGIN PLOT
LegendOnly=/zj_ps_nlo_mer_mur0.5_muf1_R8.yoda/PAPER_FIN_R8/ch_lin_l10_pT_326_408
DrawOnly=/zj_ps_nlo_mer_mur0.5_muf1_R8.yoda/PAPER_FIN_R8/ch_lin_l10_pT_326_408
Legend=1
LogY=1
# END PLOT

# BEGIN HISTO1D /zj_ps_nlo_mer_mur0.5_muf1_R8.yoda/PAPER_FIN_R8/ch_lin_l10_pT_326_408
LineColor=red
LineStyle=solid
Path=/zj_ps_nlo_mer_mur0.5_muf1_R8.yoda/PAPER_FIN_R8/ch_lin_l10_pT_326_408
Title=zj_ps_nlo_mer_mur0.5_muf1_R8
XLabel=~
YLabel=~
# xlow	 xhigh	 val	 errminus	 errplus
0.000000e+00	2.250000e-02	2.820569e+09	6.525988e+07	6.525988e+07
2.250000e-02	4.000000e-02	6.927743e+09	5.804496e+07	5.804496e+07
4.000000e-02	5.750000e-02	5.486969e+09	2.299440e+08	2.299440e+08
5.750000e-02	7.750000e-02	4.288348e+09	5.874657e+07	5.874657e+07
7.750000e-02	1.000000e-01	3.278597e+09	3.552776e+07	3.552776e+07
1.000000e-01	1.250000e-01	2.517434e+09	3.104848e+07	3.104848e+07
1.250000e-01	1.520000e-01	1.908116e+09	2.840996e+07	2.840996e+07
1.520000e-01	1.850000e-01	1.484842e+09	7.847728e+07	7.847728e+07
1.850000e-01	2.200000e-01	1.129701e+09	2.059392e+07	2.059392e+07
2.200000e-01	2.600000e-01	8.832742e+08	1.230810e+07	1.230810e+07
2.600000e-01	3.070000e-01	6.217877e+08	1.054226e+07	1.054226e+07
3.070000e-01	3.620000e-01	4.117107e+08	8.418103e+06	8.418103e+06
3.620000e-01	4.250000e-01	2.675005e+08	4.368098e+06	4.368098e+06
4.250000e-01	4.970000e-01	1.355990e+08	5.881212e+06	5.881212e+06
4.970000e-01	1.000000e+00	8.489089e+06	2.519471e+05	2.519471e+05
# END HISTO1D

