# BEGIN PLOT
LegendOnly=/zj_ps_nlo_mer_mur2_muf1_R4.yoda/PAPER_FIN_R4/ch_lin_SD_l05_pT_150_186
DrawOnly=/zj_ps_nlo_mer_mur2_muf1_R4.yoda/PAPER_FIN_R4/ch_lin_SD_l05_pT_150_186
Legend=1
LogY=1
# END PLOT

# BEGIN HISTO1D /zj_ps_nlo_mer_mur2_muf1_R4.yoda/PAPER_FIN_R4/ch_lin_SD_l05_pT_150_186
LineColor=red
LineStyle=solid
Path=/zj_ps_nlo_mer_mur2_muf1_R4.yoda/PAPER_FIN_R4/ch_lin_SD_l05_pT_150_186
Title=zj_ps_nlo_mer_mur2_muf1_R4
XLabel=~
YLabel=~
# xlow	 xhigh	 val	 errminus	 errplus
0.000000e+00	6.000000e-02	1.341023e+09	9.267639e+07	9.267639e+07
6.000000e-02	9.000000e-02	1.722195e+08	1.351404e+07	1.351404e+07
9.000000e-02	1.200000e-01	1.835636e+08	1.813027e+07	1.813027e+07
1.200000e-01	1.500000e-01	1.723706e+08	1.327737e+07	1.327737e+07
1.500000e-01	1.900000e-01	1.531008e+08	1.214281e+07	1.214281e+07
1.900000e-01	2.300000e-01	1.200450e+08	9.895460e+06	9.895460e+06
2.300000e-01	2.700000e-01	7.559107e+07	1.220870e+07	1.220870e+07
2.700000e-01	3.200000e-01	5.891794e+07	7.709449e+06	7.709449e+06
3.200000e-01	3.700000e-01	3.441166e+07	8.032474e+06	8.032474e+06
3.700000e-01	4.200000e-01	2.862102e+07	3.297059e+06	3.297059e+06
4.200000e-01	4.800000e-01	1.452368e+07	3.008224e+06	3.008224e+06
4.800000e-01	5.400000e-01	3.417570e+06	2.639989e+06	2.639989e+06
5.400000e-01	6.000000e-01	3.484125e+06	4.801966e+05	4.801966e+05
6.000000e-01	1.000000e+00	4.933000e+04	5.547112e+04	5.547112e+04
# END HISTO1D

