# BEGIN PLOT
LegendOnly=/zj_ps_nlo_mer_mur2_muf1_R4.yoda/PAPER_FIN_R4_CH/lin_l05_pT_254_326
DrawOnly=/zj_ps_nlo_mer_mur2_muf1_R4.yoda/PAPER_FIN_R4_CH/lin_l05_pT_254_326
Legend=1
LogY=1
# END PLOT

# BEGIN HISTO1D /zj_ps_nlo_mer_mur2_muf1_R4.yoda/PAPER_FIN_R4_CH/lin_l05_pT_254_326
LineColor=red
LineStyle=solid
Path=/zj_ps_nlo_mer_mur2_muf1_R4.yoda/PAPER_FIN_R4_CH/lin_l05_pT_254_326
Title=zj_ps_nlo_mer_mur2_muf1_R4
XLabel=~
YLabel=~
# xlow	 xhigh	 val	 errminus	 errplus
0.000000e+00	6.000000e-02	5.773340e+09	5.652551e+07	5.652551e+07
6.000000e-02	1.100000e-01	4.830802e+09	2.947420e+07	2.947420e+07
1.100000e-01	1.500000e-01	4.077995e+09	4.567633e+07	4.567633e+07
1.500000e-01	1.900000e-01	3.381575e+09	5.040007e+07	5.040007e+07
1.900000e-01	2.300000e-01	2.690475e+09	2.414428e+07	2.414428e+07
2.300000e-01	2.700000e-01	2.103181e+09	2.314643e+07	2.314643e+07
2.700000e-01	3.100000e-01	1.589489e+09	5.371078e+07	5.371078e+07
3.100000e-01	3.500000e-01	1.269812e+09	1.525945e+07	1.525945e+07
3.500000e-01	3.900000e-01	9.345045e+08	1.217132e+07	1.217132e+07
3.900000e-01	4.400000e-01	6.802324e+08	1.336928e+07	1.336928e+07
4.400000e-01	4.900000e-01	4.362916e+08	9.821065e+06	9.821065e+06
4.900000e-01	5.400000e-01	2.479000e+08	6.028702e+06	6.028702e+06
5.400000e-01	6.000000e-01	1.173784e+08	8.051089e+06	8.051089e+06
6.000000e-01	1.000000e+00	7.366870e+06	3.222682e+05	3.222682e+05
# END HISTO1D

