# BEGIN PLOT
LegendOnly=/zj_ps_nlo_mer_mur2_muf1_R4.yoda/PAPER_FIN_R4/SD_l05_pT_120_150
DrawOnly=/zj_ps_nlo_mer_mur2_muf1_R4.yoda/PAPER_FIN_R4/SD_l05_pT_120_150
Legend=1
LogY=1
# END PLOT

# BEGIN HISTO1D /zj_ps_nlo_mer_mur2_muf1_R4.yoda/PAPER_FIN_R4/SD_l05_pT_120_150
LineColor=red
LineStyle=solid
Path=/zj_ps_nlo_mer_mur2_muf1_R4.yoda/PAPER_FIN_R4/SD_l05_pT_120_150
Title=zj_ps_nlo_mer_mur2_muf1_R4
XLabel=~
YLabel=~
# xlow	 xhigh	 val	 errminus	 errplus
-7.000000e+00	-6.930000e+00	0.000000e+00	0.000000e+00	0.000000e+00
-6.930000e+00	-6.860000e+00	1.358085e+08	1.143988e+07	1.143988e+07
-6.860000e+00	-6.790000e+00	0.000000e+00	0.000000e+00	0.000000e+00
-6.790000e+00	-6.720000e+00	0.000000e+00	0.000000e+00	0.000000e+00
-6.720000e+00	-6.650000e+00	0.000000e+00	0.000000e+00	0.000000e+00
-6.650000e+00	-6.580000e+00	0.000000e+00	0.000000e+00	0.000000e+00
-6.580000e+00	-6.510000e+00	0.000000e+00	0.000000e+00	0.000000e+00
-6.510000e+00	-6.440000e+00	0.000000e+00	0.000000e+00	0.000000e+00
-6.440000e+00	-6.370000e+00	0.000000e+00	0.000000e+00	0.000000e+00
-6.370000e+00	-6.300000e+00	0.000000e+00	0.000000e+00	0.000000e+00
-6.300000e+00	-6.230000e+00	0.000000e+00	0.000000e+00	0.000000e+00
-6.230000e+00	-6.160000e+00	0.000000e+00	0.000000e+00	0.000000e+00
-6.160000e+00	-6.090000e+00	0.000000e+00	0.000000e+00	0.000000e+00
-6.090000e+00	-6.020000e+00	0.000000e+00	0.000000e+00	0.000000e+00
-6.020000e+00	-5.950000e+00	0.000000e+00	0.000000e+00	0.000000e+00
-5.950000e+00	-5.880000e+00	0.000000e+00	0.000000e+00	0.000000e+00
-5.880000e+00	-5.810000e+00	0.000000e+00	0.000000e+00	0.000000e+00
-5.810000e+00	-5.740000e+00	0.000000e+00	0.000000e+00	0.000000e+00
-5.740000e+00	-5.670000e+00	0.000000e+00	0.000000e+00	0.000000e+00
-5.670000e+00	-5.600000e+00	0.000000e+00	0.000000e+00	0.000000e+00
-5.600000e+00	-5.530000e+00	0.000000e+00	0.000000e+00	0.000000e+00
-5.530000e+00	-5.460000e+00	0.000000e+00	0.000000e+00	0.000000e+00
-5.460000e+00	-5.390000e+00	0.000000e+00	0.000000e+00	0.000000e+00
-5.390000e+00	-5.320000e+00	0.000000e+00	0.000000e+00	0.000000e+00
-5.320000e+00	-5.250000e+00	0.000000e+00	0.000000e+00	0.000000e+00
-5.250000e+00	-5.180000e+00	0.000000e+00	0.000000e+00	0.000000e+00
-5.180000e+00	-5.110000e+00	0.000000e+00	0.000000e+00	0.000000e+00
-5.110000e+00	-5.040000e+00	0.000000e+00	0.000000e+00	0.000000e+00
-5.040000e+00	-4.970000e+00	0.000000e+00	0.000000e+00	0.000000e+00
-4.970000e+00	-4.900000e+00	0.000000e+00	0.000000e+00	0.000000e+00
-4.900000e+00	-4.830000e+00	0.000000e+00	0.000000e+00	0.000000e+00
-4.830000e+00	-4.760000e+00	0.000000e+00	0.000000e+00	0.000000e+00
-4.760000e+00	-4.690000e+00	0.000000e+00	0.000000e+00	0.000000e+00
-4.690000e+00	-4.620000e+00	0.000000e+00	0.000000e+00	0.000000e+00
-4.620000e+00	-4.550000e+00	0.000000e+00	0.000000e+00	0.000000e+00
-4.550000e+00	-4.480000e+00	0.000000e+00	0.000000e+00	0.000000e+00
-4.480000e+00	-4.410000e+00	0.000000e+00	0.000000e+00	0.000000e+00
-4.410000e+00	-4.340000e+00	0.000000e+00	0.000000e+00	0.000000e+00
-4.340000e+00	-4.270000e+00	0.000000e+00	0.000000e+00	0.000000e+00
-4.270000e+00	-4.200000e+00	0.000000e+00	0.000000e+00	0.000000e+00
-4.200000e+00	-4.130000e+00	0.000000e+00	0.000000e+00	0.000000e+00
-4.130000e+00	-4.060000e+00	0.000000e+00	0.000000e+00	0.000000e+00
-4.060000e+00	-3.990000e+00	0.000000e+00	0.000000e+00	0.000000e+00
-3.990000e+00	-3.920000e+00	0.000000e+00	0.000000e+00	0.000000e+00
-3.920000e+00	-3.850000e+00	0.000000e+00	0.000000e+00	0.000000e+00
-3.850000e+00	-3.780000e+00	0.000000e+00	0.000000e+00	0.000000e+00
-3.780000e+00	-3.710000e+00	0.000000e+00	0.000000e+00	0.000000e+00
-3.710000e+00	-3.640000e+00	0.000000e+00	0.000000e+00	0.000000e+00
-3.640000e+00	-3.570000e+00	0.000000e+00	0.000000e+00	0.000000e+00
-3.570000e+00	-3.500000e+00	0.000000e+00	0.000000e+00	0.000000e+00
-3.500000e+00	-3.430000e+00	0.000000e+00	0.000000e+00	0.000000e+00
-3.430000e+00	-3.360000e+00	0.000000e+00	0.000000e+00	0.000000e+00
-3.360000e+00	-3.290000e+00	0.000000e+00	0.000000e+00	0.000000e+00
-3.290000e+00	-3.220000e+00	0.000000e+00	0.000000e+00	0.000000e+00
-3.220000e+00	-3.150000e+00	0.000000e+00	0.000000e+00	0.000000e+00
-3.150000e+00	-3.080000e+00	0.000000e+00	0.000000e+00	0.000000e+00
-3.080000e+00	-3.010000e+00	0.000000e+00	0.000000e+00	0.000000e+00
-3.010000e+00	-2.940000e+00	0.000000e+00	0.000000e+00	0.000000e+00
-2.940000e+00	-2.870000e+00	0.000000e+00	0.000000e+00	0.000000e+00
-2.870000e+00	-2.800000e+00	0.000000e+00	0.000000e+00	0.000000e+00
-2.800000e+00	-2.730000e+00	0.000000e+00	0.000000e+00	0.000000e+00
-2.730000e+00	-2.660000e+00	-3.707753e+00	3.707752e+00	3.707752e+00
-2.660000e+00	-2.590000e+00	0.000000e+00	0.000000e+00	0.000000e+00
-2.590000e+00	-2.520000e+00	0.000000e+00	0.000000e+00	0.000000e+00
-2.520000e+00	-2.450000e+00	-4.347806e-01	4.959713e-01	4.959713e-01
-2.450000e+00	-2.380000e+00	-5.003669e-01	1.566170e+01	1.566170e+01
-2.380000e+00	-2.310000e+00	-2.467970e+00	2.470027e+00	2.470027e+00
-2.310000e+00	-2.240000e+00	-5.274519e+01	4.757553e+01	4.757553e+01
-2.240000e+00	-2.170000e+00	-1.624250e+02	1.061278e+02	1.061278e+02
-2.170000e+00	-2.100000e+00	1.020590e+04	1.191124e+04	1.191124e+04
-2.100000e+00	-2.030000e+00	1.390667e+04	9.134726e+03	9.134726e+03
-2.030000e+00	-1.960000e+00	5.811910e+03	2.007319e+04	2.007319e+04
-1.960000e+00	-1.890000e+00	7.163899e+04	6.387863e+04	6.387863e+04
-1.890000e+00	-1.820000e+00	5.880847e+04	3.276210e+04	3.276210e+04
-1.820000e+00	-1.750000e+00	8.839029e+04	6.224624e+04	6.224624e+04
-1.750000e+00	-1.680000e+00	-2.134111e+05	3.040039e+05	3.040039e+05
-1.680000e+00	-1.610000e+00	2.777319e+05	1.386866e+05	1.386866e+05
-1.610000e+00	-1.540000e+00	5.880667e+04	2.038331e+05	2.038331e+05
-1.540000e+00	-1.470000e+00	2.004256e+05	4.858136e+05	4.858136e+05
-1.470000e+00	-1.400000e+00	2.447729e+06	5.780804e+05	5.780804e+05
-1.400000e+00	-1.330000e+00	3.381374e+06	8.083175e+05	8.083175e+05
-1.330000e+00	-1.260000e+00	8.052524e+06	1.354404e+06	1.354404e+06
-1.260000e+00	-1.190000e+00	1.401529e+07	4.183027e+06	4.183027e+06
-1.190000e+00	-1.120000e+00	1.925350e+07	2.620680e+06	2.620680e+06
-1.120000e+00	-1.050000e+00	2.017090e+07	3.487539e+06	3.487539e+06
-1.050000e+00	-9.800000e-01	2.482313e+07	3.915108e+06	3.915108e+06
-9.800000e-01	-9.100000e-01	3.905791e+07	5.437795e+06	5.437795e+06
-9.100000e-01	-8.400000e-01	2.009983e+07	1.532109e+07	1.532109e+07
-8.400000e-01	-7.700000e-01	4.190807e+07	3.753375e+06	3.753375e+06
-7.700000e-01	-7.000000e-01	4.491267e+07	3.978278e+06	3.978278e+06
-7.000000e-01	-6.300000e-01	4.675401e+07	4.095921e+06	4.095921e+06
-6.300000e-01	-5.600000e-01	4.646933e+07	5.059215e+06	5.059215e+06
-5.600000e-01	-4.900000e-01	4.248019e+07	4.361639e+06	4.361639e+06
-4.900000e-01	-4.200000e-01	3.945543e+07	6.361937e+06	6.361937e+06
-4.200000e-01	-3.500000e-01	3.222657e+07	3.551428e+06	3.551428e+06
-3.500000e-01	-2.800000e-01	3.028470e+07	7.690687e+06	7.690687e+06
-2.800000e-01	-2.100000e-01	7.668140e+06	1.636162e+06	1.636162e+06
-2.100000e-01	-1.400000e-01	4.447000e+06	2.741567e+06	2.741567e+06
-1.400000e-01	-7.000000e-02	-3.406291e+05	3.923171e+05	3.923171e+05
-7.000000e-02	0.000000e+00	0.000000e+00	0.000000e+00	0.000000e+00
# END HISTO1D

