# BEGIN PLOT
LegendOnly=/zj_ps_nlo_mer_mur2_muf1_R4.yoda/PAPER_FIN_R4/ch_lin_l20_pT_50_65
DrawOnly=/zj_ps_nlo_mer_mur2_muf1_R4.yoda/PAPER_FIN_R4/ch_lin_l20_pT_50_65
Legend=1
LogY=1
# END PLOT

# BEGIN HISTO1D /zj_ps_nlo_mer_mur2_muf1_R4.yoda/PAPER_FIN_R4/ch_lin_l20_pT_50_65
LineColor=red
LineStyle=solid
Path=/zj_ps_nlo_mer_mur2_muf1_R4.yoda/PAPER_FIN_R4/ch_lin_l20_pT_50_65
Title=zj_ps_nlo_mer_mur2_muf1_R4
XLabel=~
YLabel=~
# xlow	 xhigh	 val	 errminus	 errplus
0.000000e+00	5.000000e-03	-1.551113e+06	5.054205e+05	5.054205e+05
5.000000e-03	1.250000e-02	-5.616255e+05	4.798303e+05	4.798303e+05
1.250000e-02	2.250000e-02	-6.925813e+04	5.109084e+04	5.109084e+04
2.250000e-02	3.500000e-02	-2.574703e+04	2.074465e+04	2.074465e+04
3.500000e-02	5.000000e-02	-2.705511e+05	2.392650e+05	2.392650e+05
5.000000e-02	7.000000e-02	-9.456510e+03	1.024909e+04	1.024909e+04
7.000000e-02	9.250000e-02	-8.633484e+03	1.106357e+04	1.106357e+04
9.250000e-02	1.200000e-01	1.025921e+04	1.608645e+04	1.608645e+04
1.200000e-01	1.520000e-01	8.330659e+03	9.669942e+03	9.669942e+03
1.520000e-01	1.880000e-01	-1.945762e+03	1.780650e+03	1.780650e+03
1.880000e-01	2.280000e-01	-4.642252e+02	3.143551e+02	3.143551e+02
2.280000e-01	1.000000e+00	-4.911859e+00	3.980581e+00	3.980581e+00
# END HISTO1D

