# BEGIN PLOT
LegendOnly=/zj_ps_nlo_mer_mur2_muf1_R4.yoda/PAPER_FIN_R4_CH/lin_SD_l05_pT_50_65
DrawOnly=/zj_ps_nlo_mer_mur2_muf1_R4.yoda/PAPER_FIN_R4_CH/lin_SD_l05_pT_50_65
Legend=1
LogY=1
# END PLOT

# BEGIN HISTO1D /zj_ps_nlo_mer_mur2_muf1_R4.yoda/PAPER_FIN_R4_CH/lin_SD_l05_pT_50_65
LineColor=red
LineStyle=solid
Path=/zj_ps_nlo_mer_mur2_muf1_R4.yoda/PAPER_FIN_R4_CH/lin_SD_l05_pT_50_65
Title=zj_ps_nlo_mer_mur2_muf1_R4
XLabel=~
YLabel=~
# xlow	 xhigh	 val	 errminus	 errplus
0.000000e+00	6.000000e-02	-1.071185e+05	4.117360e+04	4.117360e+04
6.000000e-02	9.000000e-02	-1.881544e+04	1.346694e+04	1.346694e+04
9.000000e-02	1.200000e-01	-2.180955e+04	3.743572e+04	3.743572e+04
1.200000e-01	1.500000e-01	-1.297622e+05	1.310111e+05	1.310111e+05
1.500000e-01	1.900000e-01	-3.448430e+04	1.517625e+04	1.517625e+04
1.900000e-01	2.300000e-01	-3.272835e+04	1.413155e+04	1.413155e+04
2.300000e-01	2.700000e-01	-5.657222e+04	5.270994e+04	5.270994e+04
2.700000e-01	3.200000e-01	-4.086636e+03	2.421889e+04	2.421889e+04
3.200000e-01	3.700000e-01	-6.766372e+04	7.290032e+04	7.290032e+04
3.700000e-01	4.200000e-01	-5.928454e+03	5.071076e+03	5.071076e+03
4.200000e-01	4.800000e-01	8.544735e+03	7.042867e+03	7.042867e+03
4.800000e-01	5.400000e-01	-1.873013e+04	1.209474e+04	1.209474e+04
5.400000e-01	6.000000e-01	-3.029687e+03	1.608502e+03	1.608502e+03
6.000000e-01	1.000000e+00	-1.300741e+01	6.575840e+00	6.575840e+00
# END HISTO1D

