# BEGIN PLOT
LegendOnly=/zj_ps_nlo_mer_mur1_muf0.5_R8.yoda/PAPER_FIN_R8/ch_SD_l20_pT_254_326
DrawOnly=/zj_ps_nlo_mer_mur1_muf0.5_R8.yoda/PAPER_FIN_R8/ch_SD_l20_pT_254_326
Legend=1
LogY=1
# END PLOT

# BEGIN HISTO1D /zj_ps_nlo_mer_mur1_muf0.5_R8.yoda/PAPER_FIN_R8/ch_SD_l20_pT_254_326
LineColor=red
LineStyle=solid
Path=/zj_ps_nlo_mer_mur1_muf0.5_R8.yoda/PAPER_FIN_R8/ch_SD_l20_pT_254_326
Title=zj_ps_nlo_mer_mur1_muf0.5_R8
XLabel=~
YLabel=~
# xlow	 xhigh	 val	 errminus	 errplus
-7.000000e+00	-6.930000e+00	2.206566e+04	4.665650e+04	4.665650e+04
-6.930000e+00	-6.860000e+00	1.248595e+10	3.549246e+08	3.549246e+08
-6.860000e+00	-6.790000e+00	1.139564e+06	8.807464e+05	8.807464e+05
-6.790000e+00	-6.720000e+00	3.633589e+05	3.300077e+05	3.300077e+05
-6.720000e+00	-6.650000e+00	-5.891141e+04	6.445748e+04	6.445748e+04
-6.650000e+00	-6.580000e+00	-2.717090e+06	2.771733e+06	2.771733e+06
-6.580000e+00	-6.510000e+00	8.290160e+04	7.505141e+04	7.505141e+04
-6.510000e+00	-6.440000e+00	2.592569e+06	2.550299e+06	2.550299e+06
-6.440000e+00	-6.370000e+00	3.147566e+05	1.980604e+05	1.980604e+05
-6.370000e+00	-6.300000e+00	2.157246e+05	1.504522e+05	1.504522e+05
-6.300000e+00	-6.230000e+00	1.153536e+05	1.112076e+05	1.112076e+05
-6.230000e+00	-6.160000e+00	6.766644e+04	3.762501e+04	3.762501e+04
-6.160000e+00	-6.090000e+00	2.393867e+05	1.338396e+05	1.338396e+05
-6.090000e+00	-6.020000e+00	4.057494e+05	3.076612e+05	3.076612e+05
-6.020000e+00	-5.950000e+00	3.192277e+05	1.291291e+05	1.291291e+05
-5.950000e+00	-5.880000e+00	5.693000e+05	3.646762e+05	3.646762e+05
-5.880000e+00	-5.810000e+00	2.014899e+05	1.444979e+05	1.444979e+05
-5.810000e+00	-5.740000e+00	4.092887e+05	1.899106e+05	1.899106e+05
-5.740000e+00	-5.670000e+00	1.534367e+05	9.040734e+04	9.040734e+04
-5.670000e+00	-5.600000e+00	1.345603e+06	1.334553e+06	1.334553e+06
-5.600000e+00	-5.530000e+00	-2.609380e+05	3.888760e+05	3.888760e+05
-5.530000e+00	-5.460000e+00	9.750764e+04	8.726515e+04	8.726515e+04
-5.460000e+00	-5.390000e+00	3.335147e+05	2.189194e+05	2.189194e+05
-5.390000e+00	-5.320000e+00	1.714223e+04	1.650579e+05	1.650579e+05
-5.320000e+00	-5.250000e+00	7.467127e+05	2.635966e+05	2.635966e+05
-5.250000e+00	-5.180000e+00	1.065965e+06	2.641432e+05	2.641432e+05
-5.180000e+00	-5.110000e+00	4.772984e+05	1.917382e+05	1.917382e+05
-5.110000e+00	-5.040000e+00	1.041416e+06	2.863663e+05	2.863663e+05
-5.040000e+00	-4.970000e+00	6.357989e+05	3.212273e+05	3.212273e+05
-4.970000e+00	-4.900000e+00	2.314954e+06	6.777389e+05	6.777389e+05
-4.900000e+00	-4.830000e+00	2.251754e+06	5.143792e+05	5.143792e+05
-4.830000e+00	-4.760000e+00	1.882989e+06	5.808054e+05	5.808054e+05
-4.760000e+00	-4.690000e+00	2.473566e+06	5.598274e+05	5.598274e+05
-4.690000e+00	-4.620000e+00	4.004587e+06	8.883563e+05	8.883563e+05
-4.620000e+00	-4.550000e+00	5.265286e+06	7.651009e+05	7.651009e+05
-4.550000e+00	-4.480000e+00	8.124571e+06	1.268445e+06	1.268445e+06
-4.480000e+00	-4.410000e+00	1.372199e+07	1.248365e+06	1.248365e+06
-4.410000e+00	-4.340000e+00	1.716576e+07	2.716775e+06	2.716775e+06
-4.340000e+00	-4.270000e+00	1.910607e+07	1.652999e+06	1.652999e+06
-4.270000e+00	-4.200000e+00	2.193597e+07	1.650582e+06	1.650582e+06
-4.200000e+00	-4.130000e+00	2.670781e+07	2.672701e+06	2.672701e+06
-4.130000e+00	-4.060000e+00	2.246170e+07	2.753985e+06	2.753985e+06
-4.060000e+00	-3.990000e+00	2.829780e+07	2.854897e+06	2.854897e+06
-3.990000e+00	-3.920000e+00	3.074049e+07	2.442788e+06	2.442788e+06
-3.920000e+00	-3.850000e+00	4.206563e+07	4.456971e+06	4.456971e+06
-3.850000e+00	-3.780000e+00	3.920101e+07	2.441508e+06	2.441508e+06
-3.780000e+00	-3.710000e+00	5.114389e+07	2.880847e+06	2.880847e+06
-3.710000e+00	-3.640000e+00	4.372769e+07	9.305231e+06	9.305231e+06
-3.640000e+00	-3.570000e+00	6.779311e+07	9.443314e+06	9.443314e+06
-3.570000e+00	-3.500000e+00	6.413289e+07	1.548011e+07	1.548011e+07
-3.500000e+00	-3.430000e+00	5.988791e+07	3.977574e+06	3.977574e+06
-3.430000e+00	-3.360000e+00	6.911963e+07	3.750435e+06	3.750435e+06
-3.360000e+00	-3.290000e+00	6.632801e+07	5.069974e+06	5.069974e+06
-3.290000e+00	-3.220000e+00	8.118070e+07	5.710790e+06	5.710790e+06
-3.220000e+00	-3.150000e+00	9.084787e+07	1.134481e+07	1.134481e+07
-3.150000e+00	-3.080000e+00	8.754933e+07	4.598445e+06	4.598445e+06
-3.080000e+00	-3.010000e+00	1.004269e+08	4.613421e+06	4.613421e+06
-3.010000e+00	-2.940000e+00	9.456987e+07	5.354336e+06	5.354336e+06
-2.940000e+00	-2.870000e+00	9.370143e+07	5.420671e+06	5.420671e+06
-2.870000e+00	-2.800000e+00	1.062672e+08	6.543877e+06	6.543877e+06
-2.800000e+00	-2.730000e+00	1.227354e+08	6.462413e+06	6.462413e+06
-2.730000e+00	-2.660000e+00	1.019006e+08	4.848421e+06	4.848421e+06
-2.660000e+00	-2.590000e+00	1.186396e+08	6.053768e+06	6.053768e+06
-2.590000e+00	-2.520000e+00	1.034284e+08	5.385563e+06	5.385563e+06
-2.520000e+00	-2.450000e+00	1.172991e+08	7.988559e+06	7.988559e+06
-2.450000e+00	-2.380000e+00	1.223445e+08	5.764789e+06	5.764789e+06
-2.380000e+00	-2.310000e+00	1.150929e+08	8.688397e+06	8.688397e+06
-2.310000e+00	-2.240000e+00	1.243636e+08	6.976025e+06	6.976025e+06
-2.240000e+00	-2.170000e+00	1.307145e+08	9.906988e+06	9.906988e+06
-2.170000e+00	-2.100000e+00	1.220481e+08	6.494641e+06	6.494641e+06
-2.100000e+00	-2.030000e+00	1.259554e+08	1.050929e+07	1.050929e+07
-2.030000e+00	-1.960000e+00	1.406936e+08	6.225774e+06	6.225774e+06
-1.960000e+00	-1.890000e+00	1.504423e+08	7.412978e+06	7.412978e+06
-1.890000e+00	-1.820000e+00	1.527797e+08	7.308844e+06	7.308844e+06
-1.820000e+00	-1.750000e+00	1.555229e+08	9.377416e+06	9.377416e+06
-1.750000e+00	-1.680000e+00	1.711997e+08	1.283354e+07	1.283354e+07
-1.680000e+00	-1.610000e+00	1.823493e+08	6.307707e+06	6.307707e+06
-1.610000e+00	-1.540000e+00	1.794919e+08	7.522822e+06	7.522822e+06
-1.540000e+00	-1.470000e+00	1.662143e+08	1.409916e+07	1.409916e+07
-1.470000e+00	-1.400000e+00	1.992213e+08	7.886826e+06	7.886826e+06
-1.400000e+00	-1.330000e+00	1.983416e+08	8.959760e+06	8.959760e+06
-1.330000e+00	-1.260000e+00	2.173453e+08	8.112817e+06	8.112817e+06
-1.260000e+00	-1.190000e+00	2.296050e+08	7.920346e+06	7.920346e+06
-1.190000e+00	-1.120000e+00	2.187309e+08	2.992253e+07	2.992253e+07
-1.120000e+00	-1.050000e+00	2.451499e+08	1.202014e+07	1.202014e+07
-1.050000e+00	-9.800000e-01	2.850984e+08	9.533301e+06	9.533301e+06
-9.800000e-01	-9.100000e-01	2.463086e+08	1.039982e+07	1.039982e+07
-9.100000e-01	-8.400000e-01	2.504456e+08	1.714809e+07	1.714809e+07
-8.400000e-01	-7.700000e-01	1.990364e+08	8.466975e+06	8.466975e+06
-7.700000e-01	-7.000000e-01	1.617810e+08	7.447636e+06	7.447636e+06
-7.000000e-01	-6.300000e-01	1.184332e+08	7.093593e+06	7.093593e+06
-6.300000e-01	-5.600000e-01	3.691056e+07	2.792639e+06	2.792639e+06
-5.600000e-01	-4.900000e-01	6.666671e+06	1.132935e+06	1.132935e+06
-4.900000e-01	-4.200000e-01	1.607076e+06	7.851180e+05	7.851180e+05
-4.200000e-01	-3.500000e-01	2.263127e+05	2.104280e+05	2.104280e+05
-3.500000e-01	-2.800000e-01	0.000000e+00	0.000000e+00	0.000000e+00
-2.800000e-01	-2.100000e-01	0.000000e+00	0.000000e+00	0.000000e+00
-2.100000e-01	-1.400000e-01	0.000000e+00	0.000000e+00	0.000000e+00
-1.400000e-01	-7.000000e-02	0.000000e+00	0.000000e+00	0.000000e+00
-7.000000e-02	0.000000e+00	0.000000e+00	0.000000e+00	0.000000e+00
# END HISTO1D

