# BEGIN PLOT
LegendOnly=/zj_ps_nlo_mer_mur1_muf0.5_R8.yoda/PAPER_FIN_R8/lin_l05_pT_254_326
DrawOnly=/zj_ps_nlo_mer_mur1_muf0.5_R8.yoda/PAPER_FIN_R8/lin_l05_pT_254_326
Legend=1
LogY=1
# END PLOT

# BEGIN HISTO1D /zj_ps_nlo_mer_mur1_muf0.5_R8.yoda/PAPER_FIN_R8/lin_l05_pT_254_326
LineColor=red
LineStyle=solid
Path=/zj_ps_nlo_mer_mur1_muf0.5_R8.yoda/PAPER_FIN_R8/lin_l05_pT_254_326
Title=zj_ps_nlo_mer_mur1_muf0.5_R8
XLabel=~
YLabel=~
# xlow	 xhigh	 val	 errminus	 errplus
0.000000e+00	1.700000e-01	4.736806e+09	1.450943e+08	1.450943e+08
1.700000e-01	2.500000e-01	3.139514e+09	3.978316e+07	3.978316e+07
2.500000e-01	3.200000e-01	2.105879e+09	3.897470e+07	3.897470e+07
3.200000e-01	3.800000e-01	1.463833e+09	4.390422e+07	4.390422e+07
3.800000e-01	4.500000e-01	9.652009e+08	3.046288e+07	3.046288e+07
4.500000e-01	5.200000e-01	6.052176e+08	1.495612e+07	1.495612e+07
5.200000e-01	5.900000e-01	2.881617e+08	8.931598e+06	8.931598e+06
5.900000e-01	1.000000e+00	1.656175e+07	9.051416e+05	9.051416e+05
# END HISTO1D

