# BEGIN PLOT
LegendOnly=/zj_ps_nlo_mer_mur1_muf0.5_R8.yoda/PAPER_FIN_R8_CH/lin_l20_pT_50_65
DrawOnly=/zj_ps_nlo_mer_mur1_muf0.5_R8.yoda/PAPER_FIN_R8_CH/lin_l20_pT_50_65
Legend=1
LogY=1
# END PLOT

# BEGIN HISTO1D /zj_ps_nlo_mer_mur1_muf0.5_R8.yoda/PAPER_FIN_R8_CH/lin_l20_pT_50_65
LineColor=red
LineStyle=solid
Path=/zj_ps_nlo_mer_mur1_muf0.5_R8.yoda/PAPER_FIN_R8_CH/lin_l20_pT_50_65
Title=zj_ps_nlo_mer_mur1_muf0.5_R8
XLabel=~
YLabel=~
# xlow	 xhigh	 val	 errminus	 errplus
0.000000e+00	5.000000e-03	3.186698e+10	5.576236e+09	5.576236e+09
5.000000e-03	1.250000e-02	8.842192e+09	9.274045e+08	9.274045e+08
1.250000e-02	2.250000e-02	6.528453e+09	1.623205e+09	1.623205e+09
2.250000e-02	3.500000e-02	6.597283e+09	7.767762e+08	7.767762e+08
3.500000e-02	5.000000e-02	6.402938e+09	5.060434e+08	5.060434e+08
5.000000e-02	7.000000e-02	5.832545e+09	5.359286e+08	5.359286e+08
7.000000e-02	9.250000e-02	4.152890e+09	2.490318e+08	2.490318e+08
9.250000e-02	1.200000e-01	2.608468e+09	1.825462e+08	1.825462e+08
1.200000e-01	1.520000e-01	1.558011e+09	1.729068e+08	1.729068e+08
1.520000e-01	1.880000e-01	1.653312e+09	4.234204e+08	4.234204e+08
1.880000e-01	2.280000e-01	6.905415e+08	1.534893e+08	1.534893e+08
2.280000e-01	1.000000e+00	2.360938e+07	3.907316e+06	3.907316e+06
# END HISTO1D

