# BEGIN PLOT
LegendOnly=/zj_ps_nlo_mer_cent_R8.yoda/PAPER_FIN_R8/SD_l20_pT_88_120
DrawOnly=/zj_ps_nlo_mer_cent_R8.yoda/PAPER_FIN_R8/SD_l20_pT_88_120
Legend=1
LogY=1
# END PLOT

# BEGIN HISTO1D /zj_ps_nlo_mer_cent_R8.yoda/PAPER_FIN_R8/SD_l20_pT_88_120
LineColor=red
LineStyle=solid
Path=/zj_ps_nlo_mer_cent_R8.yoda/PAPER_FIN_R8/SD_l20_pT_88_120
Title=zj_ps_nlo_mer_cent_R8
XLabel=~
YLabel=~
# xlow	 xhigh	 val	 errminus	 errplus
-7.000000e+00	-6.930000e+00	2.641500e+06	1.531443e+06	1.531443e+06
-6.930000e+00	-6.860000e+00	7.355269e+08	4.606025e+07	4.606025e+07
-6.860000e+00	-6.790000e+00	3.063797e+05	4.089695e+05	4.089695e+05
-6.790000e+00	-6.720000e+00	2.949024e+06	1.331003e+06	1.331003e+06
-6.720000e+00	-6.650000e+00	3.693619e+06	1.736415e+06	1.736415e+06
-6.650000e+00	-6.580000e+00	4.719454e+06	2.666543e+06	2.666543e+06
-6.580000e+00	-6.510000e+00	2.263396e+06	1.869620e+06	1.869620e+06
-6.510000e+00	-6.440000e+00	3.764557e+06	2.748304e+06	2.748304e+06
-6.440000e+00	-6.370000e+00	5.910906e+05	1.740854e+06	1.740854e+06
-6.370000e+00	-6.300000e+00	4.895379e+06	2.598116e+06	2.598116e+06
-6.300000e+00	-6.230000e+00	2.301540e+06	2.418854e+06	2.418854e+06
-6.230000e+00	-6.160000e+00	4.612436e+06	4.248761e+06	4.248761e+06
-6.160000e+00	-6.090000e+00	1.109823e+06	7.022252e+06	7.022252e+06
-6.090000e+00	-6.020000e+00	-1.483570e+06	7.313760e+06	7.313760e+06
-6.020000e+00	-5.950000e+00	1.712167e+06	5.055440e+06	5.055440e+06
-5.950000e+00	-5.880000e+00	8.493016e+06	3.506888e+06	3.506888e+06
-5.880000e+00	-5.810000e+00	2.233256e+07	5.579642e+06	5.579642e+06
-5.810000e+00	-5.740000e+00	6.948496e+06	4.780167e+06	4.780167e+06
-5.740000e+00	-5.670000e+00	1.057370e+07	7.695526e+06	7.695526e+06
-5.670000e+00	-5.600000e+00	1.993130e+07	4.378423e+06	4.378423e+06
-5.600000e+00	-5.530000e+00	2.708611e+07	6.392377e+06	6.392377e+06
-5.530000e+00	-5.460000e+00	3.942897e+07	8.010650e+06	8.010650e+06
-5.460000e+00	-5.390000e+00	5.193326e+07	1.073107e+07	1.073107e+07
-5.390000e+00	-5.320000e+00	5.913373e+07	1.093934e+07	1.093934e+07
-5.320000e+00	-5.250000e+00	6.581826e+07	1.137589e+07	1.137589e+07
-5.250000e+00	-5.180000e+00	6.019780e+07	1.019681e+07	1.019681e+07
-5.180000e+00	-5.110000e+00	4.184554e+07	1.876656e+07	1.876656e+07
-5.110000e+00	-5.040000e+00	7.665196e+07	1.053593e+07	1.053593e+07
-5.040000e+00	-4.970000e+00	7.387069e+07	9.213595e+06	9.213595e+06
-4.970000e+00	-4.900000e+00	1.056156e+08	1.669009e+07	1.669009e+07
-4.900000e+00	-4.830000e+00	1.481647e+08	1.779161e+07	1.779161e+07
-4.830000e+00	-4.760000e+00	1.521670e+08	1.638577e+07	1.638577e+07
-4.760000e+00	-4.690000e+00	2.028647e+08	2.938892e+07	2.938892e+07
-4.690000e+00	-4.620000e+00	1.757910e+08	1.830235e+07	1.830235e+07
-4.620000e+00	-4.550000e+00	1.924360e+08	4.306596e+07	4.306596e+07
-4.550000e+00	-4.480000e+00	2.870931e+08	2.709609e+07	2.709609e+07
-4.480000e+00	-4.410000e+00	3.847950e+08	2.681840e+07	2.681840e+07
-4.410000e+00	-4.340000e+00	4.843159e+08	4.631593e+07	4.631593e+07
-4.340000e+00	-4.270000e+00	6.072280e+08	3.993198e+07	3.993198e+07
-4.270000e+00	-4.200000e+00	7.400267e+08	3.953626e+07	3.953626e+07
-4.200000e+00	-4.130000e+00	8.844167e+08	4.159164e+07	4.159164e+07
-4.130000e+00	-4.060000e+00	1.062065e+09	4.486899e+07	4.486899e+07
-4.060000e+00	-3.990000e+00	1.201612e+09	7.455728e+07	7.455728e+07
-3.990000e+00	-3.920000e+00	1.576576e+09	5.732613e+07	5.732613e+07
-3.920000e+00	-3.850000e+00	1.778779e+09	6.549787e+07	6.549787e+07
-3.850000e+00	-3.780000e+00	1.886199e+09	7.097240e+07	7.097240e+07
-3.780000e+00	-3.710000e+00	2.280579e+09	7.722506e+07	7.722506e+07
-3.710000e+00	-3.640000e+00	2.340070e+09	8.565342e+07	8.565342e+07
-3.640000e+00	-3.570000e+00	2.960547e+09	7.594982e+07	7.594982e+07
-3.570000e+00	-3.500000e+00	3.331529e+09	8.690331e+07	8.690331e+07
-3.500000e+00	-3.430000e+00	3.981819e+09	9.624541e+07	9.624541e+07
-3.430000e+00	-3.360000e+00	4.494886e+09	9.764563e+07	9.764563e+07
-3.360000e+00	-3.290000e+00	4.625786e+09	1.151092e+08	1.151092e+08
-3.290000e+00	-3.220000e+00	5.354636e+09	1.208667e+08	1.208667e+08
-3.220000e+00	-3.150000e+00	5.729604e+09	1.472319e+08	1.472319e+08
-3.150000e+00	-3.080000e+00	6.405476e+09	1.412828e+08	1.412828e+08
-3.080000e+00	-3.010000e+00	7.025131e+09	1.261553e+08	1.261553e+08
-3.010000e+00	-2.940000e+00	7.368301e+09	1.264506e+08	1.264506e+08
-2.940000e+00	-2.870000e+00	7.495417e+09	1.368902e+08	1.368902e+08
-2.870000e+00	-2.800000e+00	7.649231e+09	1.434317e+08	1.434317e+08
-2.800000e+00	-2.730000e+00	7.891473e+09	1.527061e+08	1.527061e+08
-2.730000e+00	-2.660000e+00	8.268929e+09	1.700760e+08	1.700760e+08
-2.660000e+00	-2.590000e+00	8.167329e+09	1.591258e+08	1.591258e+08
-2.590000e+00	-2.520000e+00	8.227350e+09	1.406236e+08	1.406236e+08
-2.520000e+00	-2.450000e+00	8.046240e+09	1.480327e+08	1.480327e+08
-2.450000e+00	-2.380000e+00	8.143813e+09	1.382519e+08	1.382519e+08
-2.380000e+00	-2.310000e+00	8.166289e+09	3.155453e+08	3.155453e+08
-2.310000e+00	-2.240000e+00	7.108920e+09	2.610379e+08	2.610379e+08
-2.240000e+00	-2.170000e+00	7.260327e+09	1.409611e+08	1.409611e+08
-2.170000e+00	-2.100000e+00	6.764120e+09	1.153579e+08	1.153579e+08
-2.100000e+00	-2.030000e+00	6.184194e+09	1.715315e+08	1.715315e+08
-2.030000e+00	-1.960000e+00	5.973563e+09	1.598304e+08	1.598304e+08
-1.960000e+00	-1.890000e+00	5.715611e+09	1.100557e+08	1.100557e+08
-1.890000e+00	-1.820000e+00	5.501866e+09	1.785870e+08	1.785870e+08
-1.820000e+00	-1.750000e+00	5.638504e+09	1.243493e+08	1.243493e+08
-1.750000e+00	-1.680000e+00	5.784796e+09	1.016898e+08	1.016898e+08
-1.680000e+00	-1.610000e+00	5.693123e+09	1.042348e+08	1.042348e+08
-1.610000e+00	-1.540000e+00	5.859303e+09	1.580378e+08	1.580378e+08
-1.540000e+00	-1.470000e+00	5.878447e+09	1.339756e+08	1.339756e+08
-1.470000e+00	-1.400000e+00	6.121273e+09	1.373052e+08	1.373052e+08
-1.400000e+00	-1.330000e+00	6.427594e+09	1.225753e+08	1.225753e+08
-1.330000e+00	-1.260000e+00	6.909731e+09	1.413876e+08	1.413876e+08
-1.260000e+00	-1.190000e+00	7.394754e+09	1.351897e+08	1.351897e+08
-1.190000e+00	-1.120000e+00	8.278807e+09	1.321070e+08	1.321070e+08
-1.120000e+00	-1.050000e+00	9.040747e+09	1.534894e+08	1.534894e+08
-1.050000e+00	-9.800000e-01	9.695274e+09	2.489514e+08	2.489514e+08
-9.800000e-01	-9.100000e-01	1.015256e+10	1.741573e+08	1.741573e+08
-9.100000e-01	-8.400000e-01	1.064995e+10	1.600838e+08	1.600838e+08
-8.400000e-01	-7.700000e-01	1.039865e+10	2.356137e+08	2.356137e+08
-7.700000e-01	-7.000000e-01	8.687221e+09	1.539689e+08	1.539689e+08
-7.000000e-01	-6.300000e-01	7.479994e+09	1.364418e+08	1.364418e+08
-6.300000e-01	-5.600000e-01	5.218197e+09	1.119699e+08	1.119699e+08
-5.600000e-01	-4.900000e-01	2.876240e+09	1.374978e+08	1.374978e+08
-4.900000e-01	-4.200000e-01	9.534453e+08	5.081770e+07	5.081770e+07
-4.200000e-01	-3.500000e-01	1.776790e+08	1.329758e+07	1.329758e+07
-3.500000e-01	-2.800000e-01	1.889194e+07	3.374346e+06	3.374346e+06
-2.800000e-01	-2.100000e-01	2.144890e+05	1.825067e+05	1.825067e+05
-2.100000e-01	-1.400000e-01	0.000000e+00	0.000000e+00	0.000000e+00
-1.400000e-01	-7.000000e-02	0.000000e+00	0.000000e+00	0.000000e+00
-7.000000e-02	0.000000e+00	0.000000e+00	0.000000e+00	0.000000e+00
# END HISTO1D

