# BEGIN PLOT
LegendOnly=/zj_ps_nlo_mer_cent_R8.yoda/PAPER_FIN_R8/SD_l05_pT_326_408
DrawOnly=/zj_ps_nlo_mer_cent_R8.yoda/PAPER_FIN_R8/SD_l05_pT_326_408
Legend=1
LogY=1
# END PLOT

# BEGIN HISTO1D /zj_ps_nlo_mer_cent_R8.yoda/PAPER_FIN_R8/SD_l05_pT_326_408
LineColor=red
LineStyle=solid
Path=/zj_ps_nlo_mer_cent_R8.yoda/PAPER_FIN_R8/SD_l05_pT_326_408
Title=zj_ps_nlo_mer_cent_R8
XLabel=~
YLabel=~
# xlow	 xhigh	 val	 errminus	 errplus
-7.000000e+00	-6.930000e+00	0.000000e+00	0.000000e+00	0.000000e+00
-6.930000e+00	-6.860000e+00	1.597981e+07	3.279806e+06	3.279806e+06
-6.860000e+00	-6.790000e+00	0.000000e+00	0.000000e+00	0.000000e+00
-6.790000e+00	-6.720000e+00	0.000000e+00	0.000000e+00	0.000000e+00
-6.720000e+00	-6.650000e+00	0.000000e+00	0.000000e+00	0.000000e+00
-6.650000e+00	-6.580000e+00	0.000000e+00	0.000000e+00	0.000000e+00
-6.580000e+00	-6.510000e+00	0.000000e+00	0.000000e+00	0.000000e+00
-6.510000e+00	-6.440000e+00	0.000000e+00	0.000000e+00	0.000000e+00
-6.440000e+00	-6.370000e+00	0.000000e+00	0.000000e+00	0.000000e+00
-6.370000e+00	-6.300000e+00	0.000000e+00	0.000000e+00	0.000000e+00
-6.300000e+00	-6.230000e+00	0.000000e+00	0.000000e+00	0.000000e+00
-6.230000e+00	-6.160000e+00	0.000000e+00	0.000000e+00	0.000000e+00
-6.160000e+00	-6.090000e+00	0.000000e+00	0.000000e+00	0.000000e+00
-6.090000e+00	-6.020000e+00	0.000000e+00	0.000000e+00	0.000000e+00
-6.020000e+00	-5.950000e+00	0.000000e+00	0.000000e+00	0.000000e+00
-5.950000e+00	-5.880000e+00	0.000000e+00	0.000000e+00	0.000000e+00
-5.880000e+00	-5.810000e+00	0.000000e+00	0.000000e+00	0.000000e+00
-5.810000e+00	-5.740000e+00	0.000000e+00	0.000000e+00	0.000000e+00
-5.740000e+00	-5.670000e+00	0.000000e+00	0.000000e+00	0.000000e+00
-5.670000e+00	-5.600000e+00	0.000000e+00	0.000000e+00	0.000000e+00
-5.600000e+00	-5.530000e+00	0.000000e+00	0.000000e+00	0.000000e+00
-5.530000e+00	-5.460000e+00	0.000000e+00	0.000000e+00	0.000000e+00
-5.460000e+00	-5.390000e+00	0.000000e+00	0.000000e+00	0.000000e+00
-5.390000e+00	-5.320000e+00	0.000000e+00	0.000000e+00	0.000000e+00
-5.320000e+00	-5.250000e+00	0.000000e+00	0.000000e+00	0.000000e+00
-5.250000e+00	-5.180000e+00	0.000000e+00	0.000000e+00	0.000000e+00
-5.180000e+00	-5.110000e+00	0.000000e+00	0.000000e+00	0.000000e+00
-5.110000e+00	-5.040000e+00	0.000000e+00	0.000000e+00	0.000000e+00
-5.040000e+00	-4.970000e+00	0.000000e+00	0.000000e+00	0.000000e+00
-4.970000e+00	-4.900000e+00	0.000000e+00	0.000000e+00	0.000000e+00
-4.900000e+00	-4.830000e+00	0.000000e+00	0.000000e+00	0.000000e+00
-4.830000e+00	-4.760000e+00	0.000000e+00	0.000000e+00	0.000000e+00
-4.760000e+00	-4.690000e+00	0.000000e+00	0.000000e+00	0.000000e+00
-4.690000e+00	-4.620000e+00	0.000000e+00	0.000000e+00	0.000000e+00
-4.620000e+00	-4.550000e+00	0.000000e+00	0.000000e+00	0.000000e+00
-4.550000e+00	-4.480000e+00	0.000000e+00	0.000000e+00	0.000000e+00
-4.480000e+00	-4.410000e+00	0.000000e+00	0.000000e+00	0.000000e+00
-4.410000e+00	-4.340000e+00	0.000000e+00	0.000000e+00	0.000000e+00
-4.340000e+00	-4.270000e+00	0.000000e+00	0.000000e+00	0.000000e+00
-4.270000e+00	-4.200000e+00	0.000000e+00	0.000000e+00	0.000000e+00
-4.200000e+00	-4.130000e+00	0.000000e+00	0.000000e+00	0.000000e+00
-4.130000e+00	-4.060000e+00	0.000000e+00	0.000000e+00	0.000000e+00
-4.060000e+00	-3.990000e+00	0.000000e+00	0.000000e+00	0.000000e+00
-3.990000e+00	-3.920000e+00	0.000000e+00	0.000000e+00	0.000000e+00
-3.920000e+00	-3.850000e+00	0.000000e+00	0.000000e+00	0.000000e+00
-3.850000e+00	-3.780000e+00	0.000000e+00	0.000000e+00	0.000000e+00
-3.780000e+00	-3.710000e+00	0.000000e+00	0.000000e+00	0.000000e+00
-3.710000e+00	-3.640000e+00	0.000000e+00	0.000000e+00	0.000000e+00
-3.640000e+00	-3.570000e+00	0.000000e+00	0.000000e+00	0.000000e+00
-3.570000e+00	-3.500000e+00	0.000000e+00	0.000000e+00	0.000000e+00
-3.500000e+00	-3.430000e+00	0.000000e+00	0.000000e+00	0.000000e+00
-3.430000e+00	-3.360000e+00	0.000000e+00	0.000000e+00	0.000000e+00
-3.360000e+00	-3.290000e+00	0.000000e+00	0.000000e+00	0.000000e+00
-3.290000e+00	-3.220000e+00	0.000000e+00	0.000000e+00	0.000000e+00
-3.220000e+00	-3.150000e+00	0.000000e+00	0.000000e+00	0.000000e+00
-3.150000e+00	-3.080000e+00	0.000000e+00	0.000000e+00	0.000000e+00
-3.080000e+00	-3.010000e+00	0.000000e+00	0.000000e+00	0.000000e+00
-3.010000e+00	-2.940000e+00	-6.751966e+00	6.751966e+00	6.751966e+00
-2.940000e+00	-2.870000e+00	2.338726e+05	2.338296e+05	2.338296e+05
-2.870000e+00	-2.800000e+00	1.657853e+02	3.144266e+02	3.144266e+02
-2.800000e+00	-2.730000e+00	1.657497e+03	1.403200e+03	1.403200e+03
-2.730000e+00	-2.660000e+00	8.069696e+02	1.274832e+04	1.274832e+04
-2.660000e+00	-2.590000e+00	7.730007e+04	8.507608e+04	8.507608e+04
-2.590000e+00	-2.520000e+00	7.631060e+04	7.249950e+04	7.249950e+04
-2.520000e+00	-2.450000e+00	3.846950e+05	3.279519e+05	3.279519e+05
-2.450000e+00	-2.380000e+00	1.159036e+05	9.834609e+04	9.834609e+04
-2.380000e+00	-2.310000e+00	5.272061e+05	2.612452e+05	2.612452e+05
-2.310000e+00	-2.240000e+00	-3.706737e+04	2.152722e+05	2.152722e+05
-2.240000e+00	-2.170000e+00	8.205174e+05	8.749466e+05	8.749466e+05
-2.170000e+00	-2.100000e+00	3.507269e+06	1.099692e+06	1.099692e+06
-2.100000e+00	-2.030000e+00	9.610139e+06	5.365409e+06	5.365409e+06
-2.030000e+00	-1.960000e+00	5.041410e+06	1.755870e+06	1.755870e+06
-1.960000e+00	-1.890000e+00	1.327803e+07	2.433573e+06	2.433573e+06
-1.890000e+00	-1.820000e+00	1.273734e+07	2.837662e+06	2.837662e+06
-1.820000e+00	-1.750000e+00	2.212844e+07	3.259713e+06	3.259713e+06
-1.750000e+00	-1.680000e+00	3.247674e+07	4.059724e+06	4.059724e+06
-1.680000e+00	-1.610000e+00	3.482483e+07	3.462958e+06	3.462958e+06
-1.610000e+00	-1.540000e+00	6.812429e+07	6.991985e+06	6.991985e+06
-1.540000e+00	-1.470000e+00	1.277603e+08	1.029417e+07	1.029417e+07
-1.470000e+00	-1.400000e+00	1.790854e+08	1.216454e+07	1.216454e+07
-1.400000e+00	-1.330000e+00	2.412704e+08	2.735925e+07	2.735925e+07
-1.330000e+00	-1.260000e+00	3.561871e+08	1.731093e+07	1.731093e+07
-1.260000e+00	-1.190000e+00	5.450017e+08	2.241711e+07	2.241711e+07
-1.190000e+00	-1.120000e+00	5.878644e+08	2.933792e+07	2.933792e+07
-1.120000e+00	-1.050000e+00	6.979143e+08	2.139850e+07	2.139850e+07
-1.050000e+00	-9.800000e-01	7.352590e+08	2.928951e+07	2.928951e+07
-9.800000e-01	-9.100000e-01	6.992461e+08	5.526171e+07	5.526171e+07
-9.100000e-01	-8.400000e-01	6.517579e+08	3.358772e+07	3.358772e+07
-8.400000e-01	-7.700000e-01	5.990666e+08	2.023390e+07	2.023390e+07
-7.700000e-01	-7.000000e-01	6.407510e+08	2.483681e+07	2.483681e+07
-7.000000e-01	-6.300000e-01	7.385953e+08	2.206655e+07	2.206655e+07
-6.300000e-01	-5.600000e-01	8.661037e+08	1.557258e+08	1.557258e+08
-5.600000e-01	-4.900000e-01	6.901899e+08	2.595861e+07	2.595861e+07
-4.900000e-01	-4.200000e-01	6.815879e+08	2.653773e+07	2.653773e+07
-4.200000e-01	-3.500000e-01	5.359199e+08	2.057231e+07	2.057231e+07
-3.500000e-01	-2.800000e-01	4.331954e+08	2.172436e+07	2.172436e+07
-2.800000e-01	-2.100000e-01	2.150781e+08	1.994188e+07	1.994188e+07
-2.100000e-01	-1.400000e-01	5.315806e+07	4.690866e+06	4.690866e+06
-1.400000e-01	-7.000000e-02	1.632879e+06	6.983475e+05	6.983475e+05
-7.000000e-02	0.000000e+00	-8.084261e+03	7.313122e+03	7.313122e+03
# END HISTO1D

