# BEGIN PLOT
LegendOnly=/zj_ps_nlo_mer_cent_R8.yoda/PAPER_FIN_R8/ch_lin_l20_pT_88_120
DrawOnly=/zj_ps_nlo_mer_cent_R8.yoda/PAPER_FIN_R8/ch_lin_l20_pT_88_120
Legend=1
LogY=1
# END PLOT

# BEGIN HISTO1D /zj_ps_nlo_mer_cent_R8.yoda/PAPER_FIN_R8/ch_lin_l20_pT_88_120
LineColor=red
LineStyle=solid
Path=/zj_ps_nlo_mer_cent_R8.yoda/PAPER_FIN_R8/ch_lin_l20_pT_88_120
Title=zj_ps_nlo_mer_cent_R8
XLabel=~
YLabel=~
# xlow	 xhigh	 val	 errminus	 errplus
0.000000e+00	5.000000e-03	7.632982e+10	2.071970e+09	2.071970e+09
5.000000e-03	1.250000e-02	1.767107e+11	2.370444e+09	2.370444e+09
1.250000e-02	2.250000e-02	2.399702e+11	2.963036e+09	2.963036e+09
2.250000e-02	3.500000e-02	2.410014e+11	1.909159e+09	1.909159e+09
3.500000e-02	5.000000e-02	2.118997e+11	1.574134e+09	1.574134e+09
5.000000e-02	7.000000e-02	1.612879e+11	1.520774e+09	1.520774e+09
7.000000e-02	9.250000e-02	1.163414e+11	1.045515e+09	1.045515e+09
9.250000e-02	1.200000e-01	8.064855e+10	8.358236e+08	8.358236e+08
1.200000e-01	1.520000e-01	5.329756e+10	5.475019e+08	5.475019e+08
1.520000e-01	1.880000e-01	3.306147e+10	3.853394e+08	3.853394e+08
1.880000e-01	2.280000e-01	1.993516e+10	4.468232e+08	4.468232e+08
2.280000e-01	1.000000e+00	9.026600e+08	1.596046e+07	1.596046e+07
# END HISTO1D

