# BEGIN PLOT
LegendOnly=/zj_ps_nlo_mer_cent_R8.yoda/PAPER_FIN_R8/ch_lin_l10_pT_254_326
DrawOnly=/zj_ps_nlo_mer_cent_R8.yoda/PAPER_FIN_R8/ch_lin_l10_pT_254_326
Legend=1
LogY=1
# END PLOT

# BEGIN HISTO1D /zj_ps_nlo_mer_cent_R8.yoda/PAPER_FIN_R8/ch_lin_l10_pT_254_326
LineColor=red
LineStyle=solid
Path=/zj_ps_nlo_mer_cent_R8.yoda/PAPER_FIN_R8/ch_lin_l10_pT_254_326
Title=zj_ps_nlo_mer_cent_R8
XLabel=~
YLabel=~
# xlow	 xhigh	 val	 errminus	 errplus
0.000000e+00	2.250000e-02	4.282651e+09	1.453468e+08	1.453468e+08
2.250000e-02	4.000000e-02	1.318654e+10	2.544487e+08	2.544487e+08
4.000000e-02	5.750000e-02	1.245361e+10	3.186632e+08	3.186632e+08
5.750000e-02	7.750000e-02	1.010257e+10	2.226818e+08	2.226818e+08
7.750000e-02	1.000000e-01	7.904084e+09	2.215955e+08	2.215955e+08
1.000000e-01	1.250000e-01	6.351316e+09	1.388784e+08	1.388784e+08
1.250000e-01	1.520000e-01	4.690348e+09	1.222561e+08	1.222561e+08
1.520000e-01	1.850000e-01	3.533752e+09	1.470783e+08	1.470783e+08
1.850000e-01	2.200000e-01	2.738142e+09	8.500056e+07	8.500056e+07
2.200000e-01	2.600000e-01	1.944451e+09	8.052682e+07	8.052682e+07
2.600000e-01	3.070000e-01	1.426065e+09	6.494497e+07	6.494497e+07
3.070000e-01	3.620000e-01	9.853322e+08	4.371731e+07	4.371731e+07
3.620000e-01	4.250000e-01	6.262792e+08	3.020209e+07	3.020209e+07
4.250000e-01	4.970000e-01	3.491206e+08	1.513023e+07	1.513023e+07
4.970000e-01	1.000000e+00	2.410034e+07	1.356241e+06	1.356241e+06
# END HISTO1D

