# BEGIN PLOT
LegendOnly=/zj_ps_nlo_mer_mur0.5_muf0.5_R8.yoda/PAPER_FIN_R8_CH/lin_l10_pT_408_1500
DrawOnly=/zj_ps_nlo_mer_mur0.5_muf0.5_R8.yoda/PAPER_FIN_R8_CH/lin_l10_pT_408_1500
Legend=1
LogY=1
# END PLOT

# BEGIN HISTO1D /zj_ps_nlo_mer_mur0.5_muf0.5_R8.yoda/PAPER_FIN_R8_CH/lin_l10_pT_408_1500
LineColor=red
LineStyle=solid
Path=/zj_ps_nlo_mer_mur0.5_muf0.5_R8.yoda/PAPER_FIN_R8_CH/lin_l10_pT_408_1500
Title=zj_ps_nlo_mer_mur0.5_muf0.5_R8
XLabel=~
YLabel=~
# xlow	 xhigh	 val	 errminus	 errplus
0.000000e+00	2.250000e-02	2.330729e+09	6.086751e+07	6.086751e+07
2.250000e-02	4.000000e-02	5.006782e+09	9.482547e+07	9.482547e+07
4.000000e-02	5.750000e-02	3.761306e+09	1.684084e+08	1.684084e+08
5.750000e-02	7.750000e-02	2.709290e+09	1.230626e+08	1.230626e+08
7.750000e-02	1.000000e-01	1.938594e+09	4.963432e+07	4.963432e+07
1.000000e-01	1.250000e-01	1.563259e+09	5.090429e+07	5.090429e+07
1.250000e-01	1.520000e-01	1.135642e+09	3.529931e+07	3.529931e+07
1.520000e-01	1.850000e-01	8.881336e+08	3.046092e+07	3.046092e+07
1.850000e-01	2.200000e-01	6.180220e+08	4.538767e+07	4.538767e+07
2.200000e-01	2.600000e-01	4.934540e+08	3.788422e+07	3.788422e+07
2.600000e-01	3.070000e-01	3.724468e+08	1.651586e+07	1.651586e+07
3.070000e-01	3.620000e-01	2.282055e+08	8.177162e+06	8.177162e+06
3.620000e-01	4.250000e-01	1.495012e+08	7.069630e+06	7.069630e+06
4.250000e-01	4.970000e-01	7.688596e+07	5.679401e+06	5.679401e+06
4.970000e-01	1.000000e+00	4.263066e+06	6.347981e+05	6.347981e+05
# END HISTO1D

