# BEGIN PLOT
LegendOnly=/zj_ps_nlo_mer_mur0.5_muf0.5_R8.yoda/PAPER_FIN_R8/lin_SD_l20_pT_120_150
DrawOnly=/zj_ps_nlo_mer_mur0.5_muf0.5_R8.yoda/PAPER_FIN_R8/lin_SD_l20_pT_120_150
Legend=1
LogY=1
# END PLOT

# BEGIN HISTO1D /zj_ps_nlo_mer_mur0.5_muf0.5_R8.yoda/PAPER_FIN_R8/lin_SD_l20_pT_120_150
LineColor=red
LineStyle=solid
Path=/zj_ps_nlo_mer_mur0.5_muf0.5_R8.yoda/PAPER_FIN_R8/lin_SD_l20_pT_120_150
Title=zj_ps_nlo_mer_mur0.5_muf0.5_R8
XLabel=~
YLabel=~
# xlow	 xhigh	 val	 errminus	 errplus
0.000000e+00	2.500000e-03	1.542053e+12	1.478273e+10	1.478273e+10
2.500000e-03	1.000000e-02	1.951947e+11	2.328873e+09	2.328873e+09
1.000000e-02	2.500000e-02	5.684928e+10	9.736155e+08	9.736155e+08
2.500000e-02	6.000000e-02	2.714950e+10	3.499475e+08	3.499475e+08
6.000000e-02	1.200000e-01	1.760912e+10	2.337475e+08	2.337475e+08
1.200000e-01	1.770000e-01	1.127184e+10	1.881807e+08	1.881807e+08
1.770000e-01	2.300000e-01	6.646238e+09	1.486599e+08	1.486599e+08
2.300000e-01	1.000000e+00	3.012297e+08	8.818714e+06	8.818714e+06
# END HISTO1D

