# BEGIN PLOT
LegendOnly=/zj_ps_nlo_mer_mur0.5_muf1_R8.yoda/PAPER_FIN_R8/l05_pT_65_88
DrawOnly=/zj_ps_nlo_mer_mur0.5_muf1_R8.yoda/PAPER_FIN_R8/l05_pT_65_88
Legend=1
LogY=1
# END PLOT

# BEGIN HISTO1D /zj_ps_nlo_mer_mur0.5_muf1_R8.yoda/PAPER_FIN_R8/l05_pT_65_88
LineColor=red
LineStyle=solid
Path=/zj_ps_nlo_mer_mur0.5_muf1_R8.yoda/PAPER_FIN_R8/l05_pT_65_88
Title=zj_ps_nlo_mer_mur0.5_muf1_R8
XLabel=~
YLabel=~
# xlow	 xhigh	 val	 errminus	 errplus
-7.000000e+00	-6.930000e+00	0.000000e+00	0.000000e+00	0.000000e+00
-6.930000e+00	-6.860000e+00	-1.609426e+05	1.655455e+05	1.655455e+05
-6.860000e+00	-6.790000e+00	0.000000e+00	0.000000e+00	0.000000e+00
-6.790000e+00	-6.720000e+00	0.000000e+00	0.000000e+00	0.000000e+00
-6.720000e+00	-6.650000e+00	0.000000e+00	0.000000e+00	0.000000e+00
-6.650000e+00	-6.580000e+00	0.000000e+00	0.000000e+00	0.000000e+00
-6.580000e+00	-6.510000e+00	0.000000e+00	0.000000e+00	0.000000e+00
-6.510000e+00	-6.440000e+00	0.000000e+00	0.000000e+00	0.000000e+00
-6.440000e+00	-6.370000e+00	0.000000e+00	0.000000e+00	0.000000e+00
-6.370000e+00	-6.300000e+00	0.000000e+00	0.000000e+00	0.000000e+00
-6.300000e+00	-6.230000e+00	0.000000e+00	0.000000e+00	0.000000e+00
-6.230000e+00	-6.160000e+00	0.000000e+00	0.000000e+00	0.000000e+00
-6.160000e+00	-6.090000e+00	0.000000e+00	0.000000e+00	0.000000e+00
-6.090000e+00	-6.020000e+00	0.000000e+00	0.000000e+00	0.000000e+00
-6.020000e+00	-5.950000e+00	0.000000e+00	0.000000e+00	0.000000e+00
-5.950000e+00	-5.880000e+00	0.000000e+00	0.000000e+00	0.000000e+00
-5.880000e+00	-5.810000e+00	0.000000e+00	0.000000e+00	0.000000e+00
-5.810000e+00	-5.740000e+00	0.000000e+00	0.000000e+00	0.000000e+00
-5.740000e+00	-5.670000e+00	0.000000e+00	0.000000e+00	0.000000e+00
-5.670000e+00	-5.600000e+00	0.000000e+00	0.000000e+00	0.000000e+00
-5.600000e+00	-5.530000e+00	0.000000e+00	0.000000e+00	0.000000e+00
-5.530000e+00	-5.460000e+00	0.000000e+00	0.000000e+00	0.000000e+00
-5.460000e+00	-5.390000e+00	0.000000e+00	0.000000e+00	0.000000e+00
-5.390000e+00	-5.320000e+00	1.425392e-01	1.425392e-01	1.425392e-01
-5.320000e+00	-5.250000e+00	0.000000e+00	0.000000e+00	0.000000e+00
-5.250000e+00	-5.180000e+00	1.106482e-01	1.106478e-01	1.106478e-01
-5.180000e+00	-5.110000e+00	4.112961e-04	4.112961e-04	4.112961e-04
-5.110000e+00	-5.040000e+00	-1.944157e-02	1.944158e-02	1.944158e-02
-5.040000e+00	-4.970000e+00	0.000000e+00	0.000000e+00	0.000000e+00
-4.970000e+00	-4.900000e+00	0.000000e+00	0.000000e+00	0.000000e+00
-4.900000e+00	-4.830000e+00	-1.715000e-01	1.737003e-01	1.737003e-01
-4.830000e+00	-4.760000e+00	-1.539251e-04	1.539251e-04	1.539251e-04
-4.760000e+00	-4.690000e+00	3.190350e-02	7.119823e-02	7.119823e-02
-4.690000e+00	-4.620000e+00	-1.011593e-02	1.846261e-02	1.846261e-02
-4.620000e+00	-4.550000e+00	-5.713804e-03	4.270146e-03	4.270146e-03
-4.550000e+00	-4.480000e+00	6.544869e-06	6.544869e-06	6.544869e-06
-4.480000e+00	-4.410000e+00	-2.415576e-02	2.415576e-02	2.415576e-02
-4.410000e+00	-4.340000e+00	-1.472034e+02	1.472035e+02	1.472035e+02
-4.340000e+00	-4.270000e+00	-2.078169e-01	2.078168e-01	2.078168e-01
-4.270000e+00	-4.200000e+00	-3.264114e-03	1.054274e+00	1.054274e+00
-4.200000e+00	-4.130000e+00	-1.714809e+01	1.715984e+01	1.715984e+01
-4.130000e+00	-4.060000e+00	-1.425975e-02	1.425975e-02	1.425975e-02
-4.060000e+00	-3.990000e+00	-3.713289e-01	3.713516e-01	3.713516e-01
-3.990000e+00	-3.920000e+00	0.000000e+00	0.000000e+00	0.000000e+00
-3.920000e+00	-3.850000e+00	-4.684821e+00	3.338909e+00	3.338909e+00
-3.850000e+00	-3.780000e+00	9.880823e-05	1.001823e-04	1.001823e-04
-3.780000e+00	-3.710000e+00	-2.490817e-04	2.490818e-04	2.490818e-04
-3.710000e+00	-3.640000e+00	-5.764893e-01	1.292515e+00	1.292515e+00
-3.640000e+00	-3.570000e+00	5.637667e-01	5.642235e-01	5.642235e-01
-3.570000e+00	-3.500000e+00	1.348715e+01	1.378071e+01	1.378071e+01
-3.500000e+00	-3.430000e+00	-1.255219e+00	8.683574e-01	8.683574e-01
-3.430000e+00	-3.360000e+00	-3.770196e+02	3.671186e+02	3.671186e+02
-3.360000e+00	-3.290000e+00	-6.880621e+00	6.610709e+00	6.610709e+00
-3.290000e+00	-3.220000e+00	8.067776e+00	1.383892e+01	1.383892e+01
-3.220000e+00	-3.150000e+00	2.001296e+01	1.776167e+01	1.776167e+01
-3.150000e+00	-3.080000e+00	-6.554623e+01	5.204462e+01	5.204462e+01
-3.080000e+00	-3.010000e+00	-1.532749e+01	1.421260e+01	1.421260e+01
-3.010000e+00	-2.940000e+00	-2.980526e+02	2.875980e+02	2.875980e+02
-2.940000e+00	-2.870000e+00	1.558887e+02	1.878567e+02	1.878567e+02
-2.870000e+00	-2.800000e+00	-1.428860e+02	9.166968e+01	9.166968e+01
-2.800000e+00	-2.730000e+00	-6.264239e+01	5.502448e+01	5.502448e+01
-2.730000e+00	-2.660000e+00	4.597254e+03	4.613543e+03	4.613543e+03
-2.660000e+00	-2.590000e+00	-7.612116e+01	1.001687e+02	1.001687e+02
-2.590000e+00	-2.520000e+00	-1.932547e+01	5.058714e+01	5.058714e+01
-2.520000e+00	-2.450000e+00	-3.317640e+02	1.399903e+02	1.399903e+02
-2.450000e+00	-2.380000e+00	-3.353890e+02	2.049753e+02	2.049753e+02
-2.380000e+00	-2.310000e+00	-4.710866e+02	2.550457e+02	2.550457e+02
-2.310000e+00	-2.240000e+00	-7.522440e+02	4.299549e+02	4.299549e+02
-2.240000e+00	-2.170000e+00	-2.862633e+03	1.479403e+03	1.479403e+03
-2.170000e+00	-2.100000e+00	-2.728991e+03	1.131493e+03	1.131493e+03
-2.100000e+00	-2.030000e+00	-2.298134e+03	8.982711e+03	8.982711e+03
-2.030000e+00	-1.960000e+00	-2.056704e+03	4.885378e+03	4.885378e+03
-1.960000e+00	-1.890000e+00	1.194833e+04	1.206480e+04	1.206480e+04
-1.890000e+00	-1.820000e+00	-3.584443e+03	2.128355e+03	2.128355e+03
-1.820000e+00	-1.750000e+00	-9.277621e+03	3.595165e+03	3.595165e+03
-1.750000e+00	-1.680000e+00	-3.160750e+04	2.064157e+04	2.064157e+04
-1.680000e+00	-1.610000e+00	1.209300e+04	2.270452e+04	2.270452e+04
-1.610000e+00	-1.540000e+00	-1.587133e+04	1.966785e+04	1.966785e+04
-1.540000e+00	-1.470000e+00	-4.352113e+05	3.381219e+05	3.381219e+05
-1.470000e+00	-1.400000e+00	-8.066950e+05	7.686213e+05	7.686213e+05
-1.400000e+00	-1.330000e+00	2.013763e+04	5.211829e+04	5.211829e+04
-1.330000e+00	-1.260000e+00	9.080164e+04	6.787538e+04	6.787538e+04
-1.260000e+00	-1.190000e+00	6.404957e+02	1.018812e+05	1.018812e+05
-1.190000e+00	-1.120000e+00	2.377171e+04	7.681106e+04	7.681106e+04
-1.120000e+00	-1.050000e+00	-4.363243e+03	9.138768e+04	9.138768e+04
-1.050000e+00	-9.800000e-01	5.738549e+04	5.565592e+04	5.565592e+04
-9.800000e-01	-9.100000e-01	-1.937950e+05	9.454054e+04	9.454054e+04
-9.100000e-01	-8.400000e-01	-9.847663e+04	1.088355e+05	1.088355e+05
-8.400000e-01	-7.700000e-01	-1.039932e+05	1.007047e+05	1.007047e+05
-7.700000e-01	-7.000000e-01	1.109570e+05	3.066100e+05	3.066100e+05
-7.000000e-01	-6.300000e-01	-1.672559e+05	1.618039e+05	1.618039e+05
-6.300000e-01	-5.600000e-01	3.501889e+05	3.662303e+05	3.662303e+05
-5.600000e-01	-4.900000e-01	-3.655670e+05	3.358800e+05	3.358800e+05
-4.900000e-01	-4.200000e-01	-3.210190e+05	1.940105e+05	1.940105e+05
-4.200000e-01	-3.500000e-01	-2.962956e+05	1.442698e+05	1.442698e+05
-3.500000e-01	-2.800000e-01	-3.926576e+05	2.244947e+05	2.244947e+05
-2.800000e-01	-2.100000e-01	-2.972969e+05	1.074624e+05	1.074624e+05
-2.100000e-01	-1.400000e-01	3.963894e+03	1.445033e+04	1.445033e+04
-1.400000e-01	-7.000000e-02	-8.890186e+02	7.946113e+02	7.946113e+02
-7.000000e-02	0.000000e+00	0.000000e+00	0.000000e+00	0.000000e+00
# END HISTO1D

