# BEGIN PLOT
LegendOnly=/zj_ps_nlo_mer_mur0.5_muf1_R8.yoda/PAPER_FIN_R8/ch_lin_SD_l20_pT_186_254
DrawOnly=/zj_ps_nlo_mer_mur0.5_muf1_R8.yoda/PAPER_FIN_R8/ch_lin_SD_l20_pT_186_254
Legend=1
LogY=1
# END PLOT

# BEGIN HISTO1D /zj_ps_nlo_mer_mur0.5_muf1_R8.yoda/PAPER_FIN_R8/ch_lin_SD_l20_pT_186_254
LineColor=red
LineStyle=solid
Path=/zj_ps_nlo_mer_mur0.5_muf1_R8.yoda/PAPER_FIN_R8/ch_lin_SD_l20_pT_186_254
Title=zj_ps_nlo_mer_mur0.5_muf1_R8
XLabel=~
YLabel=~
# xlow	 xhigh	 val	 errminus	 errplus
0.000000e+00	2.500000e-03	1.217521e+12	7.217504e+09	7.217504e+09
2.500000e-03	5.000000e-03	3.937946e+10	1.030886e+09	1.030886e+09
5.000000e-03	7.500000e-03	2.482294e+10	7.217184e+08	7.217184e+08
7.500000e-03	1.250000e-02	1.809191e+10	1.008956e+09	1.008956e+09
1.250000e-02	2.000000e-02	1.226565e+10	3.171032e+08	3.171032e+08
2.000000e-02	3.250000e-02	8.402504e+09	2.971791e+08	2.971791e+08
3.250000e-02	5.000000e-02	6.014989e+09	2.457989e+08	2.457989e+08
5.000000e-02	7.750000e-02	4.332280e+09	1.768260e+08	1.768260e+08
7.750000e-02	1.150000e-01	3.258965e+09	1.074144e+08	1.074144e+08
1.150000e-01	1.600000e-01	2.008053e+09	5.964538e+07	5.964538e+07
1.600000e-01	2.100000e-01	1.057013e+09	5.119577e+07	5.119577e+07
2.100000e-01	1.000000e+00	2.697197e+07	1.743191e+06	1.743191e+06
# END HISTO1D

