# BEGIN PLOT
LegendOnly=/zj_ps_nlo_mer_mur0.5_muf1_R8.yoda/PAPER_FIN_R8/lin_SD_l10_pT_120_150
DrawOnly=/zj_ps_nlo_mer_mur0.5_muf1_R8.yoda/PAPER_FIN_R8/lin_SD_l10_pT_120_150
Legend=1
LogY=1
# END PLOT

# BEGIN HISTO1D /zj_ps_nlo_mer_mur0.5_muf1_R8.yoda/PAPER_FIN_R8/lin_SD_l10_pT_120_150
LineColor=red
LineStyle=solid
Path=/zj_ps_nlo_mer_mur0.5_muf1_R8.yoda/PAPER_FIN_R8/lin_SD_l10_pT_120_150
Title=zj_ps_nlo_mer_mur0.5_muf1_R8
XLabel=~
YLabel=~
# xlow	 xhigh	 val	 errminus	 errplus
0.000000e+00	2.000000e-02	1.656783e+11	1.365804e+09	1.365804e+09
2.000000e-02	5.000000e-02	4.900620e+10	5.795865e+08	5.795865e+08
5.000000e-02	9.500000e-02	2.610213e+10	2.959906e+08	2.959906e+08
9.500000e-02	1.470000e-01	1.872765e+10	3.220919e+08	3.220919e+08
1.470000e-01	2.250000e-01	1.213357e+10	1.213714e+08	1.213714e+08
2.250000e-01	3.070000e-01	7.248928e+09	1.103353e+08	1.103353e+08
3.070000e-01	3.880000e-01	4.242152e+09	9.495923e+07	9.495923e+07
3.880000e-01	4.680000e-01	2.252082e+09	5.811012e+07	5.811012e+07
4.680000e-01	1.000000e+00	1.687259e+08	6.246255e+06	6.246255e+06
# END HISTO1D

