# BEGIN PLOT
LegendOnly=/Resum_mult_NLO.yoda/CMS_2018_PAS_SMP_18_QGX_ZPJ/d21-x03-y09
DrawOnly=/Resum_mult_NLO.yoda/CMS_2018_PAS_SMP_18_QGX_ZPJ/d21-x03-y09
Legend=1
LogY=1
# END PLOT

# BEGIN HISTO1D /Resum_mult_NLO.yoda/CMS_2018_PAS_SMP_18_QGX_ZPJ/d21-x03-y09
LineColor=red
LineStyle=solid
Path=/Resum_mult_NLO.yoda/CMS_2018_PAS_SMP_18_QGX_ZPJ/d21-x03-y09
Title=Resum_mult_NLO
# xlow	 xhigh	 val	 errminus	 errplus
0.000000e+00	1.700000e-01	5.064006e-01	5.369491e-02	4.320305e-02
1.700000e-01	2.500000e-01	2.538065e-01	4.166738e-02	5.343137e-02
2.500000e-01	3.200000e-01	1.469241e-01	2.564554e-02	3.271832e-02
3.200000e-01	3.800000e-01	9.052745e-02	1.717533e-02	2.322185e-02
3.800000e-01	4.500000e-01	5.336341e-02	1.102739e-02	1.579825e-02
4.500000e-01	5.200000e-01	2.333112e-02	6.360319e-03	9.508425e-03
5.200000e-01	5.900000e-01	7.340534e-03	3.219261e-03	4.836293e-03
5.900000e-01	1.000000e+00	3.682972e-04	1.944210e-04	2.875084e-04
# END HISTO1D

