# BEGIN PLOT
LegendOnly=/Resum_mult_NLO.yoda/CMS_2018_PAS_SMP_18_QGX_ZPJ/d21-x05-y09
DrawOnly=/Resum_mult_NLO.yoda/CMS_2018_PAS_SMP_18_QGX_ZPJ/d21-x05-y09
Legend=1
LogY=1
# END PLOT

# BEGIN HISTO1D /Resum_mult_NLO.yoda/CMS_2018_PAS_SMP_18_QGX_ZPJ/d21-x05-y09
LineColor=red
LineStyle=solid
Path=/Resum_mult_NLO.yoda/CMS_2018_PAS_SMP_18_QGX_ZPJ/d21-x05-y09
Title=Resum_mult_NLO
# xlow	 xhigh	 val	 errminus	 errplus
0.000000e+00	5.000000e-02	1.892742e+00	1.622892e-01	1.824940e-01
5.000000e-02	9.000000e-02	3.929975e-01	6.377647e-02	8.164655e-02
9.000000e-02	1.500000e-01	1.764681e-01	2.836294e-02	3.593273e-02
1.500000e-01	2.050000e-01	8.319106e-02	1.361764e-02	1.791233e-02
2.050000e-01	1.000000e+00	3.297865e-03	9.839910e-04	1.651802e-03
# END HISTO1D

