# BEGIN PLOT
LegendOnly=/Resum_mult_NLO.yoda/CMS_2018_PAS_SMP_18_QGX_ZPJ/d22-x15-y03
DrawOnly=/Resum_mult_NLO.yoda/CMS_2018_PAS_SMP_18_QGX_ZPJ/d22-x15-y03
Legend=1
LogY=1
# END PLOT

# BEGIN HISTO1D /Resum_mult_NLO.yoda/CMS_2018_PAS_SMP_18_QGX_ZPJ/d22-x15-y03
LineColor=red
LineStyle=solid
Path=/Resum_mult_NLO.yoda/CMS_2018_PAS_SMP_18_QGX_ZPJ/d22-x15-y03
Title=Resum_mult_NLO
# xlow	 xhigh	 val	 errminus	 errplus
-7.000000e+00	-6.720000e+00	0.000000e+00	0.000000e+00	0.000000e+00
-6.720000e+00	-6.440000e+00	0.000000e+00	0.000000e+00	0.000000e+00
-6.440000e+00	-6.160000e+00	0.000000e+00	0.000000e+00	0.000000e+00
-6.160000e+00	-5.879999e+00	0.000000e+00	0.000000e+00	0.000000e+00
-5.879999e+00	-5.599999e+00	0.000000e+00	0.000000e+00	0.000000e+00
-5.600000e+00	-5.320000e+00	0.000000e+00	0.000000e+00	0.000000e+00
-5.320000e+00	-5.040000e+00	0.000000e+00	0.000000e+00	0.000000e+00
-5.040000e+00	-4.760000e+00	0.000000e+00	0.000000e+00	0.000000e+00
-4.760000e+00	-4.480000e+00	6.303600e-01	6.062427e-01	3.010774e-01
-4.480000e+00	-4.200000e+00	9.267836e-01	5.055408e-01	1.397303e-01
-4.200000e+00	-3.920002e+00	1.128427e+00	1.737816e-01	1.087589e-01
-3.920002e+00	-3.640000e+00	1.278585e+00	1.284718e-01	2.336567e-01
-3.640000e+00	-3.360000e+00	1.382258e+00	1.454067e-01	2.449435e-01
-3.360000e+00	-3.080000e+00	1.474703e+00	1.529029e-01	2.274359e-01
-3.080000e+00	-2.800000e+00	1.586616e+00	1.622489e-01	2.148885e-01
-2.800001e+00	-2.520001e+00	1.668923e+00	1.651454e-01	1.978756e-01
-2.520000e+00	-2.240000e+00	1.782036e+00	1.740225e-01	1.935413e-01
-2.240000e+00	-1.960000e+00	1.876071e+00	1.779135e-01	1.842798e-01
-1.959999e+00	-1.679999e+00	2.005778e+00	1.864990e-01	1.828732e-01
-1.680000e+00	-1.400000e+00	2.203520e+00	2.037397e-01	1.930074e-01
-1.400000e+00	-1.120000e+00	2.532132e+00	2.369954e-01	2.216548e-01
-1.120000e+00	-8.399999e-01	3.450891e+00	5.816841e-01	7.174973e-01
-8.400000e-01	-5.599998e-01	1.975075e+00	4.060284e-01	6.342128e-01
-5.599998e-01	-2.800004e-01	1.089236e-01	5.955020e-02	1.288271e-01
-2.800004e-01	0.000000e+00	0.000000e+00	0.000000e+00	0.000000e+00
# END HISTO1D

