# BEGIN PLOT
LegendOnly=/Resum_mult_NLO.yoda/CMS_2018_PAS_SMP_18_QGX_ZPJ/d23-x03-y09
DrawOnly=/Resum_mult_NLO.yoda/CMS_2018_PAS_SMP_18_QGX_ZPJ/d23-x03-y09
Legend=1
LogY=1
# END PLOT

# BEGIN HISTO1D /Resum_mult_NLO.yoda/CMS_2018_PAS_SMP_18_QGX_ZPJ/d23-x03-y09
LineColor=red
LineStyle=solid
Path=/Resum_mult_NLO.yoda/CMS_2018_PAS_SMP_18_QGX_ZPJ/d23-x03-y09
Title=Resum_mult_NLO
# xlow	 xhigh	 val	 errminus	 errplus
0.000000e+00	1.000000e-01	5.591556e-01	1.174621e-01	1.056970e-01
1.000000e-01	1.800000e-01	4.205700e-01	6.196395e-02	7.587477e-02
1.800000e-01	2.600000e-01	2.344138e-01	3.867895e-02	4.972228e-02
2.600000e-01	3.400000e-01	1.314180e-01	2.357394e-02	2.999849e-02
3.400000e-01	4.200000e-01	7.149206e-02	1.414430e-02	1.965972e-02
4.200000e-01	5.000000e-01	3.299587e-02	7.866479e-03	1.156833e-02
5.000000e-01	5.700000e-01	1.012906e-02	3.961978e-03	6.033428e-03
5.700000e-01	6.400000e-01	3.166776e-03	1.619972e-03	2.416212e-03
6.400000e-01	1.000000e+00	6.931659e-05	3.911009e-05	4.763638e-05
# END HISTO1D

