# BEGIN PLOT
LegendOnly=/Resum_mult_NLO.yoda/CMS_2018_PAS_SMP_18_QGX_ZPJ/d12-x10-y06
DrawOnly=/Resum_mult_NLO.yoda/CMS_2018_PAS_SMP_18_QGX_ZPJ/d12-x10-y06
Legend=1
LogY=1
# END PLOT

# BEGIN HISTO1D /Resum_mult_NLO.yoda/CMS_2018_PAS_SMP_18_QGX_ZPJ/d12-x10-y06
LineColor=red
LineStyle=solid
Path=/Resum_mult_NLO.yoda/CMS_2018_PAS_SMP_18_QGX_ZPJ/d12-x10-y06
Title=Resum_mult_NLO
# xlow	 xhigh	 val	 errminus	 errplus
0.000000e+00	2.500000e-03	2.092659e+02	2.879426e+01	2.838622e+01
2.500000e-03	5.000000e-03	3.403575e+01	3.192519e+00	3.590922e+00
5.000000e-03	7.500000e-03	2.177247e+01	2.160780e+00	2.437070e+00
7.500000e-03	1.250000e-02	1.493828e+01	1.591014e+00	1.830615e+00
1.250000e-02	2.000000e-02	8.952402e+00	8.712871e-01	9.420813e-01
2.000000e-02	3.250000e-02	6.373774e+00	7.128832e-01	8.237988e-01
3.250000e-02	5.000000e-02	4.050574e+00	4.254948e-01	4.696665e-01
5.000000e-02	7.750000e-02	2.859917e+00	3.141332e-01	3.534626e-01
7.750000e-02	1.150000e-01	2.483786e+00	3.971169e-01	4.535607e-01
1.150000e-01	1.600000e-01	1.329385e+00	2.325637e-01	3.035519e-01
1.600000e-01	2.100000e-01	7.226053e-01	1.420382e-01	2.105218e-01
2.100000e-01	1.000000e+00	2.654195e-02	8.197658e-03	1.538482e-02
# END HISTO1D

