# BEGIN PLOT
LegendOnly=/Resum_mult_NLO.yoda/CMS_2018_PAS_SMP_18_QGX_ZPJ/d12-x09-y02
DrawOnly=/Resum_mult_NLO.yoda/CMS_2018_PAS_SMP_18_QGX_ZPJ/d12-x09-y02
Legend=1
LogY=1
# END PLOT

# BEGIN HISTO1D /Resum_mult_NLO.yoda/CMS_2018_PAS_SMP_18_QGX_ZPJ/d12-x09-y02
LineColor=red
LineStyle=solid
Path=/Resum_mult_NLO.yoda/CMS_2018_PAS_SMP_18_QGX_ZPJ/d12-x09-y02
Title=Resum_mult_NLO
# xlow	 xhigh	 val	 errminus	 errplus
0.000000e+00	1.250000e-02	1.197388e+02	7.462047e+01	8.451635e+01
1.250000e-02	2.250000e-02	1.191665e+02	1.773411e+01	5.578930e+00
2.250000e-02	3.500000e-02	8.605007e+01	7.555458e+00	8.112031e+00
3.500000e-02	5.000000e-02	6.640744e+01	6.503772e+00	7.199169e+00
5.000000e-02	7.000000e-02	4.973934e+01	4.991400e+00	5.451132e+00
7.000000e-02	9.500000e-02	3.883058e+01	3.937986e+00	4.531592e+00
9.500000e-02	1.280000e-01	3.830684e+01	6.242558e+00	6.557820e+00
1.280000e-01	1.700000e-01	2.532937e+01	4.063905e+00	4.695634e+00
1.700000e-01	2.250000e-01	1.649910e+01	2.834984e+00	3.770311e+00
2.250000e-01	2.900000e-01	9.856024e+00	1.823857e+00	2.736832e+00
2.900000e-01	3.650000e-01	5.483160e+00	1.089779e+00	1.833320e+00
3.650000e-01	4.500000e-01	2.753200e+00	5.914302e-01	1.114257e+00
4.500000e-01	1.000000e+00	1.853589e-01	6.569655e-02	1.397899e-01
# END HISTO1D

