# BEGIN PLOT
LegendOnly=/zj_ps_nlo_mer_mur2_muf2_R4.yoda/PAPER_FIN_R4/ch_SD_l05_pT_88_120
DrawOnly=/zj_ps_nlo_mer_mur2_muf2_R4.yoda/PAPER_FIN_R4/ch_SD_l05_pT_88_120
Legend=1
LogY=1
# END PLOT

# BEGIN HISTO1D /zj_ps_nlo_mer_mur2_muf2_R4.yoda/PAPER_FIN_R4/ch_SD_l05_pT_88_120
LineColor=red
LineStyle=solid
Path=/zj_ps_nlo_mer_mur2_muf2_R4.yoda/PAPER_FIN_R4/ch_SD_l05_pT_88_120
Title=zj_ps_nlo_mer_mur2_muf2_R4
XLabel=~
YLabel=~
# xlow	 xhigh	 val	 errminus	 errplus
-7.000000e+00	-6.930000e+00	0.000000e+00	0.000000e+00	0.000000e+00
-6.930000e+00	-6.860000e+00	2.542229e+06	1.478578e+06	1.478578e+06
-6.860000e+00	-6.790000e+00	0.000000e+00	0.000000e+00	0.000000e+00
-6.790000e+00	-6.720000e+00	0.000000e+00	0.000000e+00	0.000000e+00
-6.720000e+00	-6.650000e+00	0.000000e+00	0.000000e+00	0.000000e+00
-6.650000e+00	-6.580000e+00	0.000000e+00	0.000000e+00	0.000000e+00
-6.580000e+00	-6.510000e+00	0.000000e+00	0.000000e+00	0.000000e+00
-6.510000e+00	-6.440000e+00	0.000000e+00	0.000000e+00	0.000000e+00
-6.440000e+00	-6.370000e+00	0.000000e+00	0.000000e+00	0.000000e+00
-6.370000e+00	-6.300000e+00	0.000000e+00	0.000000e+00	0.000000e+00
-6.300000e+00	-6.230000e+00	0.000000e+00	0.000000e+00	0.000000e+00
-6.230000e+00	-6.160000e+00	0.000000e+00	0.000000e+00	0.000000e+00
-6.160000e+00	-6.090000e+00	0.000000e+00	0.000000e+00	0.000000e+00
-6.090000e+00	-6.020000e+00	0.000000e+00	0.000000e+00	0.000000e+00
-6.020000e+00	-5.950000e+00	0.000000e+00	0.000000e+00	0.000000e+00
-5.950000e+00	-5.880000e+00	0.000000e+00	0.000000e+00	0.000000e+00
-5.880000e+00	-5.810000e+00	0.000000e+00	0.000000e+00	0.000000e+00
-5.810000e+00	-5.740000e+00	0.000000e+00	0.000000e+00	0.000000e+00
-5.740000e+00	-5.670000e+00	0.000000e+00	0.000000e+00	0.000000e+00
-5.670000e+00	-5.600000e+00	0.000000e+00	0.000000e+00	0.000000e+00
-5.600000e+00	-5.530000e+00	0.000000e+00	0.000000e+00	0.000000e+00
-5.530000e+00	-5.460000e+00	0.000000e+00	0.000000e+00	0.000000e+00
-5.460000e+00	-5.390000e+00	0.000000e+00	0.000000e+00	0.000000e+00
-5.390000e+00	-5.320000e+00	0.000000e+00	0.000000e+00	0.000000e+00
-5.320000e+00	-5.250000e+00	0.000000e+00	0.000000e+00	0.000000e+00
-5.250000e+00	-5.180000e+00	0.000000e+00	0.000000e+00	0.000000e+00
-5.180000e+00	-5.110000e+00	0.000000e+00	0.000000e+00	0.000000e+00
-5.110000e+00	-5.040000e+00	0.000000e+00	0.000000e+00	0.000000e+00
-5.040000e+00	-4.970000e+00	0.000000e+00	0.000000e+00	0.000000e+00
-4.970000e+00	-4.900000e+00	0.000000e+00	0.000000e+00	0.000000e+00
-4.900000e+00	-4.830000e+00	0.000000e+00	0.000000e+00	0.000000e+00
-4.830000e+00	-4.760000e+00	0.000000e+00	0.000000e+00	0.000000e+00
-4.760000e+00	-4.690000e+00	0.000000e+00	0.000000e+00	0.000000e+00
-4.690000e+00	-4.620000e+00	0.000000e+00	0.000000e+00	0.000000e+00
-4.620000e+00	-4.550000e+00	0.000000e+00	0.000000e+00	0.000000e+00
-4.550000e+00	-4.480000e+00	0.000000e+00	0.000000e+00	0.000000e+00
-4.480000e+00	-4.410000e+00	0.000000e+00	0.000000e+00	0.000000e+00
-4.410000e+00	-4.340000e+00	0.000000e+00	0.000000e+00	0.000000e+00
-4.340000e+00	-4.270000e+00	0.000000e+00	0.000000e+00	0.000000e+00
-4.270000e+00	-4.200000e+00	0.000000e+00	0.000000e+00	0.000000e+00
-4.200000e+00	-4.130000e+00	0.000000e+00	0.000000e+00	0.000000e+00
-4.130000e+00	-4.060000e+00	0.000000e+00	0.000000e+00	0.000000e+00
-4.060000e+00	-3.990000e+00	0.000000e+00	0.000000e+00	0.000000e+00
-3.990000e+00	-3.920000e+00	0.000000e+00	0.000000e+00	0.000000e+00
-3.920000e+00	-3.850000e+00	0.000000e+00	0.000000e+00	0.000000e+00
-3.850000e+00	-3.780000e+00	0.000000e+00	0.000000e+00	0.000000e+00
-3.780000e+00	-3.710000e+00	0.000000e+00	0.000000e+00	0.000000e+00
-3.710000e+00	-3.640000e+00	0.000000e+00	0.000000e+00	0.000000e+00
-3.640000e+00	-3.570000e+00	0.000000e+00	0.000000e+00	0.000000e+00
-3.570000e+00	-3.500000e+00	0.000000e+00	0.000000e+00	0.000000e+00
-3.500000e+00	-3.430000e+00	0.000000e+00	0.000000e+00	0.000000e+00
-3.430000e+00	-3.360000e+00	0.000000e+00	0.000000e+00	0.000000e+00
-3.360000e+00	-3.290000e+00	0.000000e+00	0.000000e+00	0.000000e+00
-3.290000e+00	-3.220000e+00	0.000000e+00	0.000000e+00	0.000000e+00
-3.220000e+00	-3.150000e+00	0.000000e+00	0.000000e+00	0.000000e+00
-3.150000e+00	-3.080000e+00	0.000000e+00	0.000000e+00	0.000000e+00
-3.080000e+00	-3.010000e+00	0.000000e+00	0.000000e+00	0.000000e+00
-3.010000e+00	-2.940000e+00	0.000000e+00	0.000000e+00	0.000000e+00
-2.940000e+00	-2.870000e+00	0.000000e+00	0.000000e+00	0.000000e+00
-2.870000e+00	-2.800000e+00	0.000000e+00	0.000000e+00	0.000000e+00
-2.800000e+00	-2.730000e+00	0.000000e+00	0.000000e+00	0.000000e+00
-2.730000e+00	-2.660000e+00	0.000000e+00	0.000000e+00	0.000000e+00
-2.660000e+00	-2.590000e+00	0.000000e+00	0.000000e+00	0.000000e+00
-2.590000e+00	-2.520000e+00	-1.870529e-02	1.870529e-02	1.870529e-02
-2.520000e+00	-2.450000e+00	0.000000e+00	0.000000e+00	0.000000e+00
-2.450000e+00	-2.380000e+00	8.390669e-01	1.856353e+00	1.856353e+00
-2.380000e+00	-2.310000e+00	2.601717e+01	2.601445e+01	2.601445e+01
-2.310000e+00	-2.240000e+00	-8.700074e+01	1.310221e+02	1.310221e+02
-2.240000e+00	-2.170000e+00	-4.889106e+02	6.255854e+02	6.255854e+02
-2.170000e+00	-2.100000e+00	3.340874e+04	3.595706e+04	3.595706e+04
-2.100000e+00	-2.030000e+00	4.603360e+03	4.952239e+03	4.952239e+03
-2.030000e+00	-1.960000e+00	-1.467579e+04	2.505426e+04	2.505426e+04
-1.960000e+00	-1.890000e+00	2.024043e+04	1.364447e+04	1.364447e+04
-1.890000e+00	-1.820000e+00	-4.796774e+04	4.093473e+04	4.093473e+04
-1.820000e+00	-1.750000e+00	-1.395759e+05	9.175492e+04	9.175492e+04
-1.750000e+00	-1.680000e+00	1.292393e+05	9.462847e+04	9.462847e+04
-1.680000e+00	-1.610000e+00	8.684044e+04	7.959653e+04	7.959653e+04
-1.610000e+00	-1.540000e+00	-3.981311e+04	3.481985e+05	3.481985e+05
-1.540000e+00	-1.470000e+00	7.400477e+05	3.515409e+05	3.515409e+05
-1.470000e+00	-1.400000e+00	1.005842e+05	3.407611e+05	3.407611e+05
-1.400000e+00	-1.330000e+00	7.126881e+05	3.848979e+05	3.848979e+05
-1.330000e+00	-1.260000e+00	3.664386e+05	5.617233e+05	5.617233e+05
-1.260000e+00	-1.190000e+00	1.639796e+06	4.896427e+05	4.896427e+05
-1.190000e+00	-1.120000e+00	1.541066e+06	9.199702e+05	9.199702e+05
-1.120000e+00	-1.050000e+00	2.125481e+06	1.082508e+06	1.082508e+06
-1.050000e+00	-9.800000e-01	5.045767e+06	2.393041e+06	2.393041e+06
-9.800000e-01	-9.100000e-01	5.873623e+06	2.443609e+06	2.443609e+06
-9.100000e-01	-8.400000e-01	5.062719e+06	1.727788e+06	1.727788e+06
-8.400000e-01	-7.700000e-01	1.074989e+07	2.258762e+06	2.258762e+06
-7.700000e-01	-7.000000e-01	9.226399e+06	2.924829e+06	2.924829e+06
-7.000000e-01	-6.300000e-01	7.612301e+06	4.308141e+06	4.308141e+06
-6.300000e-01	-5.600000e-01	4.905501e+06	8.046305e+06	8.046305e+06
-5.600000e-01	-4.900000e-01	1.121233e+07	2.880480e+06	2.880480e+06
-4.900000e-01	-4.200000e-01	4.785331e+06	3.861055e+06	3.861055e+06
-4.200000e-01	-3.500000e-01	6.231429e+06	2.720926e+06	2.720926e+06
-3.500000e-01	-2.800000e-01	2.232104e+07	1.581307e+07	1.581307e+07
-2.800000e-01	-2.100000e-01	1.532340e+06	1.696327e+06	1.696327e+06
-2.100000e-01	-1.400000e-01	4.233453e+05	7.173072e+05	7.173072e+05
-1.400000e-01	-7.000000e-02	-7.400589e+04	1.313496e+05	1.313496e+05
-7.000000e-02	0.000000e+00	-3.427467e+03	3.520280e+03	3.520280e+03
# END HISTO1D

