# BEGIN PLOT
LegendOnly=/zj_ps_nlo_mer_mur2_muf2_R4.yoda/PAPER_FIN_R4_CH/lin_SD_l05_pT_120_150
DrawOnly=/zj_ps_nlo_mer_mur2_muf2_R4.yoda/PAPER_FIN_R4_CH/lin_SD_l05_pT_120_150
Legend=1
LogY=1
# END PLOT

# BEGIN HISTO1D /zj_ps_nlo_mer_mur2_muf2_R4.yoda/PAPER_FIN_R4_CH/lin_SD_l05_pT_120_150
LineColor=red
LineStyle=solid
Path=/zj_ps_nlo_mer_mur2_muf2_R4.yoda/PAPER_FIN_R4_CH/lin_SD_l05_pT_120_150
Title=zj_ps_nlo_mer_mur2_muf2_R4
XLabel=~
YLabel=~
# xlow	 xhigh	 val	 errminus	 errplus
0.000000e+00	6.000000e-02	9.877448e+06	6.648471e+06	6.648471e+06
6.000000e-02	9.000000e-02	3.981253e+07	7.888210e+06	7.888210e+06
9.000000e-02	1.200000e-01	9.932203e+07	8.517190e+06	8.517190e+06
1.200000e-01	1.500000e-01	1.246140e+08	1.363330e+07	1.363330e+07
1.500000e-01	1.900000e-01	2.038112e+08	1.705852e+07	1.705852e+07
1.900000e-01	2.300000e-01	1.624782e+08	1.863208e+07	1.863208e+07
2.300000e-01	2.700000e-01	1.100454e+08	2.261162e+07	2.261162e+07
2.700000e-01	3.200000e-01	7.594496e+07	3.343891e+07	3.343891e+07
3.200000e-01	3.700000e-01	7.383454e+07	1.541433e+07	1.541433e+07
3.700000e-01	4.200000e-01	9.468070e+07	1.596720e+07	1.596720e+07
4.200000e-01	4.800000e-01	5.270137e+07	4.930583e+06	4.930583e+06
4.800000e-01	5.400000e-01	3.080190e+07	5.507992e+06	5.507992e+06
5.400000e-01	6.000000e-01	2.125688e+07	3.389623e+06	3.389623e+06
6.000000e-01	1.000000e+00	1.930798e+06	3.712082e+05	3.712082e+05
# END HISTO1D

