# BEGIN PLOT
LegendOnly=/zj_ps_nlo_mer_mur0.5_muf1_R8.yoda/MC_XS/pmXS
DrawOnly=/zj_ps_nlo_mer_mur0.5_muf1_R8.yoda/MC_XS/pmXS
Title=Fraction of positive and negative weighted events
XMajorTickMarks=20
LogY=0
XLabel=$\text{sgn}(w)$
ShowZero=0
XMax=1
YLabel=$\text{d}\sigma/\text{d sgn}(w)$ [pb]
XMin=-1
XMinorTickMarks=0
Legend=1
# END PLOT

# BEGIN HISTO1D /zj_ps_nlo_mer_mur0.5_muf1_R8.yoda/MC_XS/pmXS
LineColor=red
LineStyle=solid
Path=/zj_ps_nlo_mer_mur0.5_muf1_R8.yoda/MC_XS/pmXS
ScaledBy=3.49783255791177555e-10
Title=zj_ps_nlo_mer_mur0.5_muf1_R8
XLabel=~
YLabel=~
# xlow	 xhigh	 val	 errminus	 errplus
-1.000000e+00	0.000000e+00	2.628130e-01	4.509624e-04	4.509624e-04
0.000000e+00	1.000000e+00	3.968824e+02	3.404255e-02	3.404255e-02
# END HISTO1D

