# BEGIN PLOT
LegendOnly=/zj_ps_nlo_mer_mur1_muf1_R4.yoda/PAPER_FIN_R4/ch_lin_SD_l10_pT_50_65
DrawOnly=/zj_ps_nlo_mer_mur1_muf1_R4.yoda/PAPER_FIN_R4/ch_lin_SD_l10_pT_50_65
Legend=1
LogY=1
# END PLOT

# BEGIN HISTO1D /zj_ps_nlo_mer_mur1_muf1_R4.yoda/PAPER_FIN_R4/ch_lin_SD_l10_pT_50_65
LineColor=red
LineStyle=solid
Path=/zj_ps_nlo_mer_mur1_muf1_R4.yoda/PAPER_FIN_R4/ch_lin_SD_l10_pT_50_65
Title=zj_ps_nlo_mer_mur1_muf1_R4
XLabel=~
YLabel=~
# xlow	 xhigh	 val	 errminus	 errplus
0.000000e+00	1.250000e-02	-1.056830e+06	3.630087e+05	3.630087e+05
1.250000e-02	2.250000e-02	-2.667963e+04	2.723865e+04	2.723865e+04
2.250000e-02	3.500000e-02	-7.074757e+02	1.298880e+03	1.298880e+03
3.500000e-02	5.000000e-02	-2.646857e+04	1.834473e+04	1.834473e+04
5.000000e-02	7.000000e-02	-2.369983e+05	2.071562e+05	2.071562e+05
7.000000e-02	9.500000e-02	-4.964760e+04	4.224386e+04	4.224386e+04
9.500000e-02	1.280000e-01	-3.430700e+04	1.427376e+04	1.427376e+04
1.280000e-01	1.700000e-01	-1.037100e+05	1.008873e+05	1.008873e+05
1.700000e-01	2.250000e-01	2.821258e+03	1.112904e+04	1.112904e+04
2.250000e-01	2.900000e-01	1.584471e+04	1.123285e+04	1.123285e+04
2.900000e-01	3.650000e-01	-3.793675e+03	1.779958e+03	1.779958e+03
3.650000e-01	4.500000e-01	2.326366e+03	2.468231e+03	2.468231e+03
4.500000e-01	1.000000e+00	-3.455091e+00	4.290463e+00	4.290463e+00
# END HISTO1D

