# BEGIN PLOT
LegendOnly=/zj_ps_nlo_mer_mur1_muf1_R4.yoda/PAPER_FIN_R4/ch_lin_l10_pT_50_65
DrawOnly=/zj_ps_nlo_mer_mur1_muf1_R4.yoda/PAPER_FIN_R4/ch_lin_l10_pT_50_65
Legend=1
LogY=1
# END PLOT

# BEGIN HISTO1D /zj_ps_nlo_mer_mur1_muf1_R4.yoda/PAPER_FIN_R4/ch_lin_l10_pT_50_65
LineColor=red
LineStyle=solid
Path=/zj_ps_nlo_mer_mur1_muf1_R4.yoda/PAPER_FIN_R4/ch_lin_l10_pT_50_65
Title=zj_ps_nlo_mer_mur1_muf1_R4
XLabel=~
YLabel=~
# xlow	 xhigh	 val	 errminus	 errplus
0.000000e+00	2.250000e-02	-5.692747e+05	2.013959e+05	2.013959e+05
2.250000e-02	4.000000e-02	-1.204131e+04	7.951598e+03	7.951598e+03
4.000000e-02	5.750000e-02	-1.959462e+04	1.593356e+04	1.593356e+04
5.750000e-02	7.750000e-02	-2.652163e+05	2.117634e+05	2.117634e+05
7.750000e-02	1.000000e-01	-1.897026e+04	2.199169e+04	2.199169e+04
1.000000e-01	1.250000e-01	-6.459892e+04	2.497753e+04	2.497753e+04
1.250000e-01	1.520000e-01	-1.707289e+05	1.570809e+05	1.570809e+05
1.520000e-01	1.850000e-01	2.616028e+03	7.306773e+03	7.306773e+03
1.850000e-01	2.200000e-01	1.018795e+03	1.618546e+04	1.618546e+04
2.200000e-01	2.600000e-01	1.071476e+04	1.056323e+04	1.056323e+04
2.600000e-01	3.070000e-01	1.039617e+04	1.287240e+04	1.287240e+04
3.070000e-01	3.620000e-01	-2.610120e+03	1.585882e+03	1.585882e+03
3.620000e-01	4.250000e-01	2.677506e+03	3.362088e+03	3.362088e+03
4.250000e-01	4.970000e-01	-7.413531e+00	2.602393e+01	2.602393e+01
4.970000e-01	1.000000e+00	-2.853598e+00	2.853597e+00	2.853597e+00
# END HISTO1D

