# BEGIN PLOT
LegendOnly=/zj_ps_nlo_mer_mur1_muf1_R4.yoda/PAPER_FIN_R4/ch_l20_pT_186_254
DrawOnly=/zj_ps_nlo_mer_mur1_muf1_R4.yoda/PAPER_FIN_R4/ch_l20_pT_186_254
Legend=1
LogY=1
# END PLOT

# BEGIN HISTO1D /zj_ps_nlo_mer_mur1_muf1_R4.yoda/PAPER_FIN_R4/ch_l20_pT_186_254
LineColor=red
LineStyle=solid
Path=/zj_ps_nlo_mer_mur1_muf1_R4.yoda/PAPER_FIN_R4/ch_l20_pT_186_254
Title=zj_ps_nlo_mer_mur1_muf1_R4
XLabel=~
YLabel=~
# xlow	 xhigh	 val	 errminus	 errplus
-7.000000e+00	-6.930000e+00	2.536664e+04	3.455551e+04	3.455551e+04
-6.930000e+00	-6.860000e+00	2.150823e+10	1.579281e+08	1.579281e+08
-6.860000e+00	-6.790000e+00	6.864391e+03	4.307293e+03	4.307293e+03
-6.790000e+00	-6.720000e+00	5.793181e+04	5.228210e+04	5.228210e+04
-6.720000e+00	-6.650000e+00	1.863256e+04	1.191981e+04	1.191981e+04
-6.650000e+00	-6.580000e+00	7.206690e+04	8.544578e+04	8.544578e+04
-6.580000e+00	-6.510000e+00	9.047043e+04	8.495008e+04	8.495008e+04
-6.510000e+00	-6.440000e+00	-3.542099e+04	5.666030e+04	5.666030e+04
-6.440000e+00	-6.370000e+00	9.159417e+03	1.460164e+04	1.460164e+04
-6.370000e+00	-6.300000e+00	5.824561e+04	4.118258e+04	4.118258e+04
-6.300000e+00	-6.230000e+00	-4.089186e+04	8.545510e+04	8.545510e+04
-6.230000e+00	-6.160000e+00	1.237876e+05	8.683568e+04	8.683568e+04
-6.160000e+00	-6.090000e+00	5.085493e+05	4.351025e+05	4.351025e+05
-6.090000e+00	-6.020000e+00	3.733359e+04	2.552612e+04	2.552612e+04
-6.020000e+00	-5.950000e+00	2.849020e+05	2.700832e+05	2.700832e+05
-5.950000e+00	-5.880000e+00	4.283197e+05	2.415185e+05	2.415185e+05
-5.880000e+00	-5.810000e+00	1.632619e+05	6.460914e+04	6.460914e+04
-5.810000e+00	-5.740000e+00	-2.149706e+05	5.004841e+05	5.004841e+05
-5.740000e+00	-5.670000e+00	-5.587871e+05	8.118553e+05	8.118553e+05
-5.670000e+00	-5.600000e+00	9.400490e+04	9.646627e+04	9.646627e+04
-5.600000e+00	-5.530000e+00	4.308641e+05	2.180938e+05	2.180938e+05
-5.530000e+00	-5.460000e+00	2.690160e+06	2.894707e+06	2.894707e+06
-5.460000e+00	-5.390000e+00	6.287763e+05	6.990626e+05	6.990626e+05
-5.390000e+00	-5.320000e+00	5.619450e+05	1.723757e+05	1.723757e+05
-5.320000e+00	-5.250000e+00	3.691841e+05	1.528768e+05	1.528768e+05
-5.250000e+00	-5.180000e+00	3.074510e+05	1.925484e+05	1.925484e+05
-5.180000e+00	-5.110000e+00	-1.054426e+06	1.877506e+06	1.877506e+06
-5.110000e+00	-5.040000e+00	7.103829e+05	2.960711e+05	2.960711e+05
-5.040000e+00	-4.970000e+00	6.602100e+05	1.367794e+05	1.367794e+05
-4.970000e+00	-4.900000e+00	5.768549e+05	4.913719e+05	4.913719e+05
-4.900000e+00	-4.830000e+00	-1.052300e+05	7.819191e+05	7.819191e+05
-4.830000e+00	-4.760000e+00	9.908133e+05	2.099894e+05	2.099894e+05
-4.760000e+00	-4.690000e+00	6.226279e+05	3.980702e+05	3.980702e+05
-4.690000e+00	-4.620000e+00	6.084273e+05	4.395536e+05	4.395536e+05
-4.620000e+00	-4.550000e+00	1.222536e+06	3.312114e+05	3.312114e+05
-4.550000e+00	-4.480000e+00	1.412228e+06	4.429098e+05	4.429098e+05
-4.480000e+00	-4.410000e+00	2.509273e+06	6.751840e+05	6.751840e+05
-4.410000e+00	-4.340000e+00	2.755909e+06	5.384193e+05	5.384193e+05
-4.340000e+00	-4.270000e+00	2.189230e+06	1.110225e+06	1.110225e+06
-4.270000e+00	-4.200000e+00	2.742023e+06	1.533636e+06	1.533636e+06
-4.200000e+00	-4.130000e+00	4.129659e+06	7.497692e+05	7.497692e+05
-4.130000e+00	-4.060000e+00	4.453061e+06	6.200222e+05	6.200222e+05
-4.060000e+00	-3.990000e+00	6.309041e+06	9.829372e+05	9.829372e+05
-3.990000e+00	-3.920000e+00	4.933774e+06	1.259870e+06	1.259870e+06
-3.920000e+00	-3.850000e+00	7.735776e+06	7.270961e+05	7.270961e+05
-3.850000e+00	-3.780000e+00	1.079280e+07	1.090151e+06	1.090151e+06
-3.780000e+00	-3.710000e+00	1.668646e+07	1.077602e+06	1.077602e+06
-3.710000e+00	-3.640000e+00	2.391444e+07	1.723144e+06	1.723144e+06
-3.640000e+00	-3.570000e+00	2.956551e+07	1.524913e+06	1.524913e+06
-3.570000e+00	-3.500000e+00	3.317456e+07	1.874589e+06	1.874589e+06
-3.500000e+00	-3.430000e+00	4.063361e+07	2.050574e+06	2.050574e+06
-3.430000e+00	-3.360000e+00	4.255781e+07	3.569144e+06	3.569144e+06
-3.360000e+00	-3.290000e+00	5.063070e+07	2.391578e+06	2.391578e+06
-3.290000e+00	-3.220000e+00	6.174724e+07	2.553457e+06	2.553457e+06
-3.220000e+00	-3.150000e+00	6.948921e+07	3.055292e+06	3.055292e+06
-3.150000e+00	-3.080000e+00	7.656739e+07	8.564240e+06	8.564240e+06
-3.080000e+00	-3.010000e+00	9.002981e+07	3.942725e+06	3.942725e+06
-3.010000e+00	-2.940000e+00	9.288510e+07	7.171655e+06	7.171655e+06
-2.940000e+00	-2.870000e+00	1.017479e+08	9.841899e+06	9.841899e+06
-2.870000e+00	-2.800000e+00	1.387534e+08	1.991894e+07	1.991894e+07
-2.800000e+00	-2.730000e+00	1.452187e+08	4.433209e+06	4.433209e+06
-2.730000e+00	-2.660000e+00	1.499203e+08	9.071971e+06	9.071971e+06
-2.660000e+00	-2.590000e+00	1.710969e+08	9.368440e+06	9.368440e+06
-2.590000e+00	-2.520000e+00	1.589364e+08	2.634475e+07	2.634475e+07
-2.520000e+00	-2.450000e+00	1.607323e+08	5.477960e+07	5.477960e+07
-2.450000e+00	-2.380000e+00	2.348534e+08	5.629429e+06	5.629429e+06
-2.380000e+00	-2.310000e+00	2.546459e+08	7.246863e+06	7.246863e+06
-2.310000e+00	-2.240000e+00	2.817024e+08	1.106393e+07	1.106393e+07
-2.240000e+00	-2.170000e+00	2.591106e+08	3.278571e+07	3.278571e+07
-2.170000e+00	-2.100000e+00	3.045027e+08	9.831338e+06	9.831338e+06
-2.100000e+00	-2.030000e+00	3.391921e+08	1.198558e+07	1.198558e+07
-2.030000e+00	-1.960000e+00	3.418346e+08	9.070601e+06	9.070601e+06
-1.960000e+00	-1.890000e+00	3.729751e+08	1.066238e+07	1.066238e+07
-1.890000e+00	-1.820000e+00	4.072529e+08	2.015659e+07	2.015659e+07
-1.820000e+00	-1.750000e+00	3.832961e+08	1.553072e+07	1.553072e+07
-1.750000e+00	-1.680000e+00	4.155919e+08	1.002142e+07	1.002142e+07
-1.680000e+00	-1.610000e+00	3.691364e+08	2.785526e+07	2.785526e+07
-1.610000e+00	-1.540000e+00	4.152714e+08	1.192399e+07	1.192399e+07
-1.540000e+00	-1.470000e+00	4.652237e+08	2.845923e+07	2.845923e+07
-1.470000e+00	-1.400000e+00	3.906097e+08	1.189723e+07	1.189723e+07
-1.400000e+00	-1.330000e+00	3.874407e+08	1.110759e+07	1.110759e+07
-1.330000e+00	-1.260000e+00	3.699221e+08	1.378480e+07	1.378480e+07
-1.260000e+00	-1.190000e+00	3.549227e+08	9.790680e+06	9.790680e+06
-1.190000e+00	-1.120000e+00	3.549026e+08	7.265003e+06	7.265003e+06
-1.120000e+00	-1.050000e+00	3.173357e+08	1.077563e+07	1.077563e+07
-1.050000e+00	-9.800000e-01	2.832429e+08	1.262656e+07	1.262656e+07
-9.800000e-01	-9.100000e-01	2.576423e+08	9.043730e+06	9.043730e+06
-9.100000e-01	-8.400000e-01	2.177590e+08	8.233499e+06	8.233499e+06
-8.400000e-01	-7.700000e-01	1.919320e+08	6.965056e+06	6.965056e+06
-7.700000e-01	-7.000000e-01	1.378411e+08	6.101345e+06	6.101345e+06
-7.000000e-01	-6.300000e-01	9.611383e+07	4.638583e+06	4.638583e+06
-6.300000e-01	-5.600000e-01	2.934177e+07	2.927181e+06	2.927181e+06
-5.600000e-01	-4.900000e-01	-5.538089e+06	9.766457e+06	9.766457e+06
-4.900000e-01	-4.200000e-01	4.889233e+05	2.012266e+05	2.012266e+05
-4.200000e-01	-3.500000e-01	1.943203e+04	1.268652e+04	1.268652e+04
-3.500000e-01	-2.800000e-01	3.139099e+03	3.139147e+03	3.139147e+03
-2.800000e-01	-2.100000e-01	0.000000e+00	0.000000e+00	0.000000e+00
-2.100000e-01	-1.400000e-01	0.000000e+00	0.000000e+00	0.000000e+00
-1.400000e-01	-7.000000e-02	0.000000e+00	0.000000e+00	0.000000e+00
-7.000000e-02	0.000000e+00	0.000000e+00	0.000000e+00	0.000000e+00
# END HISTO1D

