# BEGIN PLOT
LegendOnly=/zj_ps_nlo_mer_mur1_muf1_R4.yoda/PAPER_FIN_R4/lin_l20_pT_65_88
DrawOnly=/zj_ps_nlo_mer_mur1_muf1_R4.yoda/PAPER_FIN_R4/lin_l20_pT_65_88
Legend=1
LogY=1
# END PLOT

# BEGIN HISTO1D /zj_ps_nlo_mer_mur1_muf1_R4.yoda/PAPER_FIN_R4/lin_l20_pT_65_88
LineColor=red
LineStyle=solid
Path=/zj_ps_nlo_mer_mur1_muf1_R4.yoda/PAPER_FIN_R4/lin_l20_pT_65_88
Title=zj_ps_nlo_mer_mur1_muf1_R4
XLabel=~
YLabel=~
# xlow	 xhigh	 val	 errminus	 errplus
0.000000e+00	5.000000e-02	-1.461917e+07	5.463613e+06	5.463613e+06
5.000000e-02	9.000000e-02	-4.128173e+06	1.051402e+06	1.051402e+06
9.000000e-02	1.500000e-01	-1.808098e+06	7.795152e+05	7.795152e+05
1.500000e-01	2.050000e-01	-6.880427e+05	5.968723e+05	5.968723e+05
2.050000e-01	1.000000e+00	-3.709631e+04	2.754866e+04	2.754866e+04
# END HISTO1D

