pt,eta,phi
0.673696,-1.18724,0.924788
2.5443,-0.659989,1.43998
4.14576,-0.681291,1.40084
20.2324,-0.30863,0.749211
26.1029,-0.319041,0.781688
4.32086,-0.35234,0.841544
21.2157,-0.390737,0.739629
21.9057,-0.375089,0.798299
25.8647,-0.431597,0.729849
36.1167,-0.408336,0.770751
174.806,-0.493758,0.823934
45.3365,-0.463475,0.776411
