# BEGIN PLOT
LegendOnly=/zj_ps_nlo_mer_cent_R8.yoda/PAPER_FIN_R8_CH/lin_l10_pT_88_120
DrawOnly=/zj_ps_nlo_mer_cent_R8.yoda/PAPER_FIN_R8_CH/lin_l10_pT_88_120
Legend=1
LogY=1
# END PLOT

# BEGIN HISTO1D /zj_ps_nlo_mer_cent_R8.yoda/PAPER_FIN_R8_CH/lin_l10_pT_88_120
LineColor=red
LineStyle=solid
Path=/zj_ps_nlo_mer_cent_R8.yoda/PAPER_FIN_R8_CH/lin_l10_pT_88_120
Title=zj_ps_nlo_mer_cent_R8
XLabel=~
YLabel=~
# xlow	 xhigh	 val	 errminus	 errplus
0.000000e+00	2.250000e-02	1.921303e+09	1.694107e+07	1.694107e+07
2.250000e-02	4.000000e-02	2.031095e+10	6.368230e+07	6.368230e+07
4.000000e-02	5.750000e-02	5.844109e+10	1.087580e+08	1.087580e+08
5.750000e-02	7.750000e-02	9.175595e+10	1.259607e+08	1.259607e+08
7.750000e-02	1.000000e-01	1.008669e+11	1.233231e+08	1.233231e+08
1.000000e-01	1.250000e-01	9.114196e+10	1.099166e+08	1.099166e+08
1.250000e-01	1.520000e-01	7.512944e+10	9.623706e+07	9.623706e+07
1.520000e-01	1.850000e-01	5.733542e+10	7.418875e+07	7.418875e+07
1.850000e-01	2.200000e-01	4.182494e+10	6.126803e+07	6.126803e+07
2.200000e-01	2.600000e-01	2.993202e+10	4.809372e+07	4.809372e+07
2.600000e-01	3.070000e-01	2.086869e+10	3.671182e+07	3.671182e+07
3.070000e-01	3.620000e-01	1.422151e+10	2.837163e+07	2.837163e+07
3.620000e-01	4.250000e-01	9.056978e+09	2.094794e+07	2.094794e+07
4.250000e-01	4.970000e-01	5.109983e+09	1.477824e+07	1.477824e+07
4.970000e-01	1.000000e+00	4.857354e+08	1.749050e+06	1.749050e+06
# END HISTO1D

