# BEGIN PLOT
LegendOnly=/zj_ps_nlo_mer_cent_R8.yoda/PAPER_FIN_R8_CH/lin_l20_pT_120_150
DrawOnly=/zj_ps_nlo_mer_cent_R8.yoda/PAPER_FIN_R8_CH/lin_l20_pT_120_150
Legend=1
LogY=1
# END PLOT

# BEGIN HISTO1D /zj_ps_nlo_mer_cent_R8.yoda/PAPER_FIN_R8_CH/lin_l20_pT_120_150
LineColor=red
LineStyle=solid
Path=/zj_ps_nlo_mer_cent_R8.yoda/PAPER_FIN_R8_CH/lin_l20_pT_120_150
Title=zj_ps_nlo_mer_cent_R8
XLabel=~
YLabel=~
# xlow	 xhigh	 val	 errminus	 errplus
0.000000e+00	5.000000e-03	1.282876e+10	9.420127e+07	9.420127e+07
5.000000e-03	1.250000e-02	5.786947e+10	1.620568e+08	1.620568e+08
1.250000e-02	2.250000e-02	9.477953e+10	1.769458e+08	1.769458e+08
2.250000e-02	3.500000e-02	9.641096e+10	1.602702e+08	1.602702e+08
3.500000e-02	5.000000e-02	7.825773e+10	1.290676e+08	1.290676e+08
5.000000e-02	7.000000e-02	5.453540e+10	9.202634e+07	9.202634e+07
7.000000e-02	9.250000e-02	3.470147e+10	6.889178e+07	6.889178e+07
9.250000e-02	1.200000e-01	2.145584e+10	4.886316e+07	4.886316e+07
1.200000e-01	1.520000e-01	1.319660e+10	3.525089e+07	3.525089e+07
1.520000e-01	1.880000e-01	8.184314e+09	2.630776e+07	2.630776e+07
1.880000e-01	2.280000e-01	4.976345e+09	1.970637e+07	1.970637e+07
2.280000e-01	1.000000e+00	2.540751e+08	1.002420e+06	1.002420e+06
# END HISTO1D

