# BEGIN PLOT
LegendOnly=/zj_ps_nlo_mer_cent_R8.yoda/PAPER_FIN_R8/ch_l10_pT_88_120
DrawOnly=/zj_ps_nlo_mer_cent_R8.yoda/PAPER_FIN_R8/ch_l10_pT_88_120
Legend=1
LogY=1
# END PLOT

# BEGIN HISTO1D /zj_ps_nlo_mer_cent_R8.yoda/PAPER_FIN_R8/ch_l10_pT_88_120
LineColor=red
LineStyle=solid
Path=/zj_ps_nlo_mer_cent_R8.yoda/PAPER_FIN_R8/ch_l10_pT_88_120
Title=zj_ps_nlo_mer_cent_R8
XLabel=~
YLabel=~
# xlow	 xhigh	 val	 errminus	 errplus
-7.000000e+00	-6.930000e+00	0.000000e+00	0.000000e+00	0.000000e+00
-6.930000e+00	-6.860000e+00	6.744344e+07	1.789630e+06	1.789630e+06
-6.860000e+00	-6.790000e+00	0.000000e+00	0.000000e+00	0.000000e+00
-6.790000e+00	-6.720000e+00	0.000000e+00	0.000000e+00	0.000000e+00
-6.720000e+00	-6.650000e+00	0.000000e+00	0.000000e+00	0.000000e+00
-6.650000e+00	-6.580000e+00	0.000000e+00	0.000000e+00	0.000000e+00
-6.580000e+00	-6.510000e+00	0.000000e+00	0.000000e+00	0.000000e+00
-6.510000e+00	-6.440000e+00	0.000000e+00	0.000000e+00	0.000000e+00
-6.440000e+00	-6.370000e+00	0.000000e+00	0.000000e+00	0.000000e+00
-6.370000e+00	-6.300000e+00	0.000000e+00	0.000000e+00	0.000000e+00
-6.300000e+00	-6.230000e+00	0.000000e+00	0.000000e+00	0.000000e+00
-6.230000e+00	-6.160000e+00	0.000000e+00	0.000000e+00	0.000000e+00
-6.160000e+00	-6.090000e+00	0.000000e+00	0.000000e+00	0.000000e+00
-6.090000e+00	-6.020000e+00	0.000000e+00	0.000000e+00	0.000000e+00
-6.020000e+00	-5.950000e+00	0.000000e+00	0.000000e+00	0.000000e+00
-5.950000e+00	-5.880000e+00	0.000000e+00	0.000000e+00	0.000000e+00
-5.880000e+00	-5.810000e+00	0.000000e+00	0.000000e+00	0.000000e+00
-5.810000e+00	-5.740000e+00	0.000000e+00	0.000000e+00	0.000000e+00
-5.740000e+00	-5.670000e+00	0.000000e+00	0.000000e+00	0.000000e+00
-5.670000e+00	-5.600000e+00	0.000000e+00	0.000000e+00	0.000000e+00
-5.600000e+00	-5.530000e+00	0.000000e+00	0.000000e+00	0.000000e+00
-5.530000e+00	-5.460000e+00	0.000000e+00	0.000000e+00	0.000000e+00
-5.460000e+00	-5.390000e+00	0.000000e+00	0.000000e+00	0.000000e+00
-5.390000e+00	-5.320000e+00	0.000000e+00	0.000000e+00	0.000000e+00
-5.320000e+00	-5.250000e+00	0.000000e+00	0.000000e+00	0.000000e+00
-5.250000e+00	-5.180000e+00	0.000000e+00	0.000000e+00	0.000000e+00
-5.180000e+00	-5.110000e+00	0.000000e+00	0.000000e+00	0.000000e+00
-5.110000e+00	-5.040000e+00	0.000000e+00	0.000000e+00	0.000000e+00
-5.040000e+00	-4.970000e+00	0.000000e+00	0.000000e+00	0.000000e+00
-4.970000e+00	-4.900000e+00	0.000000e+00	0.000000e+00	0.000000e+00
-4.900000e+00	-4.830000e+00	0.000000e+00	0.000000e+00	0.000000e+00
-4.830000e+00	-4.760000e+00	1.323379e+03	1.323379e+03	1.323379e+03
-4.760000e+00	-4.690000e+00	0.000000e+00	0.000000e+00	0.000000e+00
-4.690000e+00	-4.620000e+00	0.000000e+00	0.000000e+00	0.000000e+00
-4.620000e+00	-4.550000e+00	0.000000e+00	0.000000e+00	0.000000e+00
-4.550000e+00	-4.480000e+00	0.000000e+00	0.000000e+00	0.000000e+00
-4.480000e+00	-4.410000e+00	0.000000e+00	0.000000e+00	0.000000e+00
-4.410000e+00	-4.340000e+00	5.373987e+03	5.373987e+03	5.373987e+03
-4.340000e+00	-4.270000e+00	0.000000e+00	0.000000e+00	0.000000e+00
-4.270000e+00	-4.200000e+00	2.520434e+03	2.520434e+03	2.520434e+03
-4.200000e+00	-4.130000e+00	9.335409e+03	9.335409e+03	9.335409e+03
-4.130000e+00	-4.060000e+00	1.886050e+04	1.886051e+04	1.886051e+04
-4.060000e+00	-3.990000e+00	5.899320e+04	4.997918e+04	4.997918e+04
-3.990000e+00	-3.920000e+00	0.000000e+00	0.000000e+00	0.000000e+00
-3.920000e+00	-3.850000e+00	3.351443e+04	3.107698e+04	3.107698e+04
-3.850000e+00	-3.780000e+00	3.796960e+05	3.658987e+05	3.658987e+05
-3.780000e+00	-3.710000e+00	3.371026e+04	3.108039e+04	3.108039e+04
-3.710000e+00	-3.640000e+00	3.731307e+04	2.720751e+04	2.720751e+04
-3.640000e+00	-3.570000e+00	1.502854e+05	7.045439e+04	7.045439e+04
-3.570000e+00	-3.500000e+00	1.804540e+05	8.691017e+04	8.691017e+04
-3.500000e+00	-3.430000e+00	8.022504e+04	5.353294e+04	5.353294e+04
-3.430000e+00	-3.360000e+00	3.055771e+05	9.524713e+04	9.524713e+04
-3.360000e+00	-3.290000e+00	2.962596e+05	1.136070e+05	1.136070e+05
-3.290000e+00	-3.220000e+00	3.422640e+05	1.006125e+05	1.006125e+05
-3.220000e+00	-3.150000e+00	7.473184e+05	2.140072e+05	2.140072e+05
-3.150000e+00	-3.080000e+00	5.247439e+05	1.625324e+05	1.625324e+05
-3.080000e+00	-3.010000e+00	7.589109e+05	1.671575e+05	1.671575e+05
-3.010000e+00	-2.940000e+00	1.119251e+06	2.211303e+05	2.211303e+05
-2.940000e+00	-2.870000e+00	1.198596e+06	2.998253e+05	2.998253e+05
-2.870000e+00	-2.800000e+00	1.674389e+06	2.845610e+05	2.845610e+05
-2.800000e+00	-2.730000e+00	2.169117e+06	3.337369e+05	3.337369e+05
-2.730000e+00	-2.660000e+00	3.304233e+06	3.784515e+05	3.784515e+05
-2.660000e+00	-2.590000e+00	4.618811e+06	5.087484e+05	5.087484e+05
-2.590000e+00	-2.520000e+00	5.718044e+06	5.279951e+05	5.279951e+05
-2.520000e+00	-2.450000e+00	8.080050e+06	6.088016e+05	6.088016e+05
-2.450000e+00	-2.380000e+00	1.150179e+07	7.957375e+05	7.957375e+05
-2.380000e+00	-2.310000e+00	1.632364e+07	8.153524e+05	8.153524e+05
-2.310000e+00	-2.240000e+00	2.386789e+07	1.158665e+06	1.158665e+06
-2.240000e+00	-2.170000e+00	3.514470e+07	1.335127e+06	1.335127e+06
-2.170000e+00	-2.100000e+00	4.859776e+07	1.518626e+06	1.518626e+06
-2.100000e+00	-2.030000e+00	7.424283e+07	1.888755e+06	1.888755e+06
-2.030000e+00	-1.960000e+00	1.117684e+08	2.445425e+06	2.445425e+06
-1.960000e+00	-1.890000e+00	1.694540e+08	2.792799e+06	2.792799e+06
-1.890000e+00	-1.820000e+00	2.733881e+08	3.596224e+06	3.596224e+06
-1.820000e+00	-1.750000e+00	4.412436e+08	4.721724e+06	4.721724e+06
-1.750000e+00	-1.680000e+00	7.190543e+08	6.138640e+06	6.138640e+06
-1.680000e+00	-1.610000e+00	1.137357e+09	7.631864e+06	7.631864e+06
-1.610000e+00	-1.540000e+00	1.808549e+09	9.362570e+06	9.362570e+06
-1.540000e+00	-1.470000e+00	2.871151e+09	1.200922e+07	1.200922e+07
-1.470000e+00	-1.400000e+00	4.388137e+09	1.478028e+07	1.478028e+07
-1.400000e+00	-1.330000e+00	6.457889e+09	1.792799e+07	1.792799e+07
-1.330000e+00	-1.260000e+00	8.956989e+09	2.110105e+07	2.110105e+07
-1.260000e+00	-1.190000e+00	1.187175e+10	2.422635e+07	2.422635e+07
-1.190000e+00	-1.120000e+00	1.486096e+10	2.705431e+07	2.705431e+07
-1.120000e+00	-1.050000e+00	1.739229e+10	2.897589e+07	2.897589e+07
-1.050000e+00	-9.800000e-01	1.961501e+10	3.057412e+07	3.057412e+07
-9.800000e-01	-9.100000e-01	2.087044e+10	3.122106e+07	3.122106e+07
-9.100000e-01	-8.400000e-01	2.144017e+10	3.199756e+07	3.199756e+07
-8.400000e-01	-7.700000e-01	2.113797e+10	3.099555e+07	3.099555e+07
-7.700000e-01	-7.000000e-01	2.006573e+10	3.017925e+07	3.017925e+07
-7.000000e-01	-6.300000e-01	1.828291e+10	2.869150e+07	2.869150e+07
-6.300000e-01	-5.600000e-01	1.604110e+10	2.659634e+07	2.659634e+07
-5.600000e-01	-4.900000e-01	1.345163e+10	2.424499e+07	2.424499e+07
-4.900000e-01	-4.200000e-01	1.069930e+10	2.187220e+07	2.187220e+07
-4.200000e-01	-3.500000e-01	7.686337e+09	1.850810e+07	1.850810e+07
-3.500000e-01	-2.800000e-01	4.496110e+09	1.418516e+07	1.418516e+07
-2.800000e-01	-2.100000e-01	1.683061e+09	8.762320e+06	8.762320e+06
-2.100000e-01	-1.400000e-01	3.271850e+08	3.783112e+06	3.783112e+06
-1.400000e-01	-7.000000e-02	2.879136e+07	1.154350e+06	1.154350e+06
-7.000000e-02	0.000000e+00	8.946961e+05	2.017194e+05	2.017194e+05
# END HISTO1D

