# BEGIN PLOT
LegendOnly=/zj_ps_nlo_mer_cent_R8.yoda/PAPER_FIN_R8/ch_lin_l05_pT_120_150
DrawOnly=/zj_ps_nlo_mer_cent_R8.yoda/PAPER_FIN_R8/ch_lin_l05_pT_120_150
Legend=1
LogY=1
# END PLOT

# BEGIN HISTO1D /zj_ps_nlo_mer_cent_R8.yoda/PAPER_FIN_R8/ch_lin_l05_pT_120_150
LineColor=red
LineStyle=solid
Path=/zj_ps_nlo_mer_cent_R8.yoda/PAPER_FIN_R8/ch_lin_l05_pT_120_150
Title=zj_ps_nlo_mer_cent_R8
XLabel=~
YLabel=~
# xlow	 xhigh	 val	 errminus	 errplus
0.000000e+00	6.000000e-02	1.177075e+09	8.073396e+06	8.073396e+06
6.000000e-02	1.100000e-01	8.976144e+09	2.475561e+07	2.475561e+07
1.100000e-01	1.500000e-01	2.064965e+10	4.158766e+07	4.158766e+07
1.500000e-01	1.900000e-01	2.643765e+10	4.731289e+07	4.731289e+07
1.900000e-01	2.300000e-01	2.585225e+10	4.586771e+07	4.586771e+07
2.300000e-01	2.700000e-01	2.244317e+10	4.188125e+07	4.188125e+07
2.700000e-01	3.100000e-01	1.854216e+10	3.777244e+07	3.777244e+07
3.100000e-01	3.500000e-01	1.495349e+10	3.376900e+07	3.376900e+07
3.500000e-01	3.900000e-01	1.194333e+10	2.999539e+07	2.999539e+07
3.900000e-01	4.400000e-01	9.087066e+09	2.336338e+07	2.336338e+07
4.400000e-01	4.900000e-01	6.537740e+09	1.987533e+07	1.987533e+07
4.900000e-01	5.400000e-01	4.443610e+09	1.623117e+07	1.623117e+07
5.400000e-01	6.000000e-01	2.597113e+09	1.146023e+07	1.146023e+07
6.000000e-01	1.000000e+00	2.173894e+08	1.269880e+06	1.269880e+06
# END HISTO1D

