# BEGIN PLOT
LegendOnly=/zj_ps_nlo_mer_mur2_muf1_R8.yoda/PAPER_FIN_R8/ch_l20_pT_120_150
DrawOnly=/zj_ps_nlo_mer_mur2_muf1_R8.yoda/PAPER_FIN_R8/ch_l20_pT_120_150
Legend=1
LogY=1
# END PLOT

# BEGIN HISTO1D /zj_ps_nlo_mer_mur2_muf1_R8.yoda/PAPER_FIN_R8/ch_l20_pT_120_150
LineColor=red
LineStyle=solid
Path=/zj_ps_nlo_mer_mur2_muf1_R8.yoda/PAPER_FIN_R8/ch_l20_pT_120_150
Title=zj_ps_nlo_mer_mur2_muf1_R8
XLabel=~
YLabel=~
# xlow	 xhigh	 val	 errminus	 errplus
-7.000000e+00	-6.930000e+00	-9.698910e+04	2.191175e+05	2.191175e+05
-6.930000e+00	-6.860000e+00	6.554413e+10	2.802859e+08	2.802859e+08
-6.860000e+00	-6.790000e+00	1.526003e+05	1.442554e+05	1.442554e+05
-6.790000e+00	-6.720000e+00	-2.212299e+05	2.068452e+05	2.068452e+05
-6.720000e+00	-6.650000e+00	1.012644e+05	2.241007e+05	2.241007e+05
-6.650000e+00	-6.580000e+00	-1.068410e+05	2.774784e+05	2.774784e+05
-6.580000e+00	-6.510000e+00	-1.753271e+05	2.373817e+05	2.373817e+05
-6.510000e+00	-6.440000e+00	-3.552250e+05	3.804887e+05	3.804887e+05
-6.440000e+00	-6.370000e+00	-9.935576e+05	8.011850e+05	8.011850e+05
-6.370000e+00	-6.300000e+00	2.722464e+06	2.388092e+06	2.388092e+06
-6.300000e+00	-6.230000e+00	-2.760087e+06	1.100793e+06	1.100793e+06
-6.230000e+00	-6.160000e+00	-9.733771e+05	9.852658e+05	9.852658e+05
-6.160000e+00	-6.090000e+00	2.113380e+05	2.300620e+05	2.300620e+05
-6.090000e+00	-6.020000e+00	-4.765134e+04	1.372698e+06	1.372698e+06
-6.020000e+00	-5.950000e+00	-7.776160e+05	1.085454e+06	1.085454e+06
-5.950000e+00	-5.880000e+00	1.096254e+06	1.299067e+06	1.299067e+06
-5.880000e+00	-5.810000e+00	-4.623643e+05	6.808005e+05	6.808005e+05
-5.810000e+00	-5.740000e+00	-3.147519e+06	1.900202e+06	1.900202e+06
-5.740000e+00	-5.670000e+00	-1.652206e+06	1.381219e+06	1.381219e+06
-5.670000e+00	-5.600000e+00	-5.933459e+05	6.733041e+05	6.733041e+05
-5.600000e+00	-5.530000e+00	6.161817e+05	4.397370e+05	4.397370e+05
-5.530000e+00	-5.460000e+00	-3.308369e+05	1.008559e+06	1.008559e+06
-5.460000e+00	-5.390000e+00	3.401566e+05	6.011715e+05	6.011715e+05
-5.390000e+00	-5.320000e+00	1.042969e+06	1.192051e+06	1.192051e+06
-5.320000e+00	-5.250000e+00	-5.676156e+06	5.876194e+06	5.876194e+06
-5.250000e+00	-5.180000e+00	-7.537967e+05	2.475452e+06	2.475452e+06
-5.180000e+00	-5.110000e+00	-3.999993e+06	3.146123e+06	3.146123e+06
-5.110000e+00	-5.040000e+00	1.448769e+06	8.362484e+05	8.362484e+05
-5.040000e+00	-4.970000e+00	2.157097e+06	5.870188e+05	5.870188e+05
-4.970000e+00	-4.900000e+00	-7.365646e+06	6.699548e+06	6.699548e+06
-4.900000e+00	-4.830000e+00	-2.707496e+06	2.482920e+06	2.482920e+06
-4.830000e+00	-4.760000e+00	-3.674480e+05	3.167792e+06	3.167792e+06
-4.760000e+00	-4.690000e+00	2.514716e+06	1.403707e+06	1.403707e+06
-4.690000e+00	-4.620000e+00	7.417920e+04	2.235954e+06	2.235954e+06
-4.620000e+00	-4.550000e+00	2.175409e+06	4.817337e+06	4.817337e+06
-4.550000e+00	-4.480000e+00	7.039180e+06	1.540992e+06	1.540992e+06
-4.480000e+00	-4.410000e+00	7.051639e+06	2.875700e+06	2.875700e+06
-4.410000e+00	-4.340000e+00	9.234593e+06	1.902828e+06	1.902828e+06
-4.340000e+00	-4.270000e+00	9.308600e+06	2.517326e+06	2.517326e+06
-4.270000e+00	-4.200000e+00	1.409502e+07	1.873047e+06	1.873047e+06
-4.200000e+00	-4.130000e+00	1.625706e+07	2.960349e+06	2.960349e+06
-4.130000e+00	-4.060000e+00	1.689353e+07	2.832659e+06	2.832659e+06
-4.060000e+00	-3.990000e+00	2.741374e+07	2.656803e+06	2.656803e+06
-3.990000e+00	-3.920000e+00	3.565714e+07	4.365457e+06	4.365457e+06
-3.920000e+00	-3.850000e+00	4.824414e+07	4.021514e+06	4.021514e+06
-3.850000e+00	-3.780000e+00	5.319324e+07	1.566499e+07	1.566499e+07
-3.780000e+00	-3.710000e+00	7.594673e+07	4.778797e+06	4.778797e+06
-3.710000e+00	-3.640000e+00	9.804244e+07	7.163338e+06	7.163338e+06
-3.640000e+00	-3.570000e+00	1.202909e+08	7.274801e+06	7.274801e+06
-3.570000e+00	-3.500000e+00	1.476423e+08	7.034539e+06	7.034539e+06
-3.500000e+00	-3.430000e+00	1.653717e+08	7.900434e+06	7.900434e+06
-3.430000e+00	-3.360000e+00	1.681509e+08	8.076912e+06	8.076912e+06
-3.360000e+00	-3.290000e+00	2.113474e+08	8.423605e+06	8.423605e+06
-3.290000e+00	-3.220000e+00	2.330260e+08	8.824628e+06	8.824628e+06
-3.220000e+00	-3.150000e+00	2.667864e+08	1.007866e+07	1.007866e+07
-3.150000e+00	-3.080000e+00	3.061126e+08	1.288810e+07	1.288810e+07
-3.080000e+00	-3.010000e+00	3.229860e+08	1.288620e+07	1.288620e+07
-3.010000e+00	-2.940000e+00	4.063883e+08	1.267773e+07	1.267773e+07
-2.940000e+00	-2.870000e+00	4.494563e+08	1.551203e+07	1.551203e+07
-2.870000e+00	-2.800000e+00	4.627896e+08	1.509943e+07	1.509943e+07
-2.800000e+00	-2.730000e+00	5.047910e+08	2.464977e+07	2.464977e+07
-2.730000e+00	-2.660000e+00	5.640910e+08	1.897337e+07	1.897337e+07
-2.660000e+00	-2.590000e+00	6.076266e+08	1.953294e+07	1.953294e+07
-2.590000e+00	-2.520000e+00	7.302493e+08	1.791638e+07	1.791638e+07
-2.520000e+00	-2.450000e+00	7.837761e+08	1.729648e+07	1.729648e+07
-2.450000e+00	-2.380000e+00	8.581356e+08	2.379456e+07	2.379456e+07
-2.380000e+00	-2.310000e+00	8.915933e+08	2.757291e+07	2.757291e+07
-2.310000e+00	-2.240000e+00	9.568227e+08	2.786149e+07	2.786149e+07
-2.240000e+00	-2.170000e+00	1.016662e+09	2.274922e+07	2.274922e+07
-2.170000e+00	-2.100000e+00	1.120180e+09	2.302878e+07	2.302878e+07
-2.100000e+00	-2.030000e+00	1.207914e+09	2.356540e+07	2.356540e+07
-2.030000e+00	-1.960000e+00	1.234758e+09	2.691892e+07	2.691892e+07
-1.960000e+00	-1.890000e+00	1.333372e+09	2.714842e+07	2.714842e+07
-1.890000e+00	-1.820000e+00	1.411431e+09	2.502113e+07	2.502113e+07
-1.820000e+00	-1.750000e+00	1.453974e+09	2.514144e+07	2.514144e+07
-1.750000e+00	-1.680000e+00	1.454006e+09	2.670382e+07	2.670382e+07
-1.680000e+00	-1.610000e+00	1.527273e+09	2.674528e+07	2.674528e+07
-1.610000e+00	-1.540000e+00	1.506107e+09	3.179860e+07	3.179860e+07
-1.540000e+00	-1.470000e+00	1.471867e+09	2.837622e+07	2.837622e+07
-1.470000e+00	-1.400000e+00	1.462359e+09	3.007995e+07	3.007995e+07
-1.400000e+00	-1.330000e+00	1.477804e+09	3.180698e+07	3.180698e+07
-1.330000e+00	-1.260000e+00	1.473430e+09	2.625591e+07	2.625591e+07
-1.260000e+00	-1.190000e+00	1.361645e+09	3.144151e+07	3.144151e+07
-1.190000e+00	-1.120000e+00	1.344676e+09	2.896650e+07	2.896650e+07
-1.120000e+00	-1.050000e+00	1.290202e+09	2.380293e+07	2.380293e+07
-1.050000e+00	-9.800000e-01	1.141027e+09	5.621662e+07	5.621662e+07
-9.800000e-01	-9.100000e-01	1.078741e+09	4.488270e+07	4.488270e+07
-9.100000e-01	-8.400000e-01	1.012425e+09	2.134105e+07	2.134105e+07
-8.400000e-01	-7.700000e-01	8.671513e+08	2.078989e+07	2.078989e+07
-7.700000e-01	-7.000000e-01	7.373411e+08	2.103944e+07	2.103944e+07
-7.000000e-01	-6.300000e-01	4.502200e+08	2.288012e+07	2.288012e+07
-6.300000e-01	-5.600000e-01	1.329581e+08	1.887056e+07	1.887056e+07
-5.600000e-01	-4.900000e-01	2.164770e+07	4.087390e+06	4.087390e+06
-4.900000e-01	-4.200000e-01	2.933820e+06	6.973314e+05	6.973314e+05
-4.200000e-01	-3.500000e-01	1.235895e+05	9.675456e+04	9.675456e+04
-3.500000e-01	-2.800000e-01	0.000000e+00	0.000000e+00	0.000000e+00
-2.800000e-01	-2.100000e-01	0.000000e+00	0.000000e+00	0.000000e+00
-2.100000e-01	-1.400000e-01	0.000000e+00	0.000000e+00	0.000000e+00
-1.400000e-01	-7.000000e-02	0.000000e+00	0.000000e+00	0.000000e+00
-7.000000e-02	0.000000e+00	0.000000e+00	0.000000e+00	0.000000e+00
# END HISTO1D

