# BEGIN PLOT
LegendOnly=/zj_ps_nlo_mer_mur2_muf1_R8.yoda/PAPER_FIN_R8/lin_l20_pT_408_1500
DrawOnly=/zj_ps_nlo_mer_mur2_muf1_R8.yoda/PAPER_FIN_R8/lin_l20_pT_408_1500
Legend=1
LogY=1
# END PLOT

# BEGIN HISTO1D /zj_ps_nlo_mer_mur2_muf1_R8.yoda/PAPER_FIN_R8/lin_l20_pT_408_1500
LineColor=red
LineStyle=solid
Path=/zj_ps_nlo_mer_mur2_muf1_R8.yoda/PAPER_FIN_R8/lin_l20_pT_408_1500
Title=zj_ps_nlo_mer_mur2_muf1_R8
XLabel=~
YLabel=~
# xlow	 xhigh	 val	 errminus	 errplus
0.000000e+00	5.000000e-02	6.195108e+09	5.743273e+07	5.743273e+07
5.000000e-02	9.000000e-02	1.310772e+09	3.351485e+07	3.351485e+07
9.000000e-02	1.500000e-01	5.904142e+08	1.526808e+07	1.526808e+07
1.500000e-01	2.050000e-01	2.756825e+08	8.729543e+06	8.729543e+06
2.050000e-01	1.000000e+00	1.050798e+07	5.892762e+05	5.892762e+05
# END HISTO1D

