# BEGIN PLOT
LegendOnly=/zj_ps_nlo_mer_mur2_muf1_R8.yoda/PAPER_FIN_R8/lin_l10_pT_254_326
DrawOnly=/zj_ps_nlo_mer_mur2_muf1_R8.yoda/PAPER_FIN_R8/lin_l10_pT_254_326
Legend=1
LogY=1
# END PLOT

# BEGIN HISTO1D /zj_ps_nlo_mer_mur2_muf1_R8.yoda/PAPER_FIN_R8/lin_l10_pT_254_326
LineColor=red
LineStyle=solid
Path=/zj_ps_nlo_mer_mur2_muf1_R8.yoda/PAPER_FIN_R8/lin_l10_pT_254_326
Title=zj_ps_nlo_mer_mur2_muf1_R8
XLabel=~
YLabel=~
# xlow	 xhigh	 val	 errminus	 errplus
0.000000e+00	1.050000e-01	8.464449e+09	1.566487e+08	1.566487e+08
1.050000e-01	1.650000e-01	3.022118e+09	3.923275e+07	3.923275e+07
1.650000e-01	2.300000e-01	1.839312e+09	3.096500e+07	3.096500e+07
2.300000e-01	3.050000e-01	1.057818e+09	2.774271e+07	2.774271e+07
3.050000e-01	3.800000e-01	6.210705e+08	1.458885e+07	1.458885e+07
3.800000e-01	4.600000e-01	3.511046e+08	8.784536e+06	8.784536e+06
4.600000e-01	5.500000e-01	1.254267e+08	4.262048e+06	4.262048e+06
5.500000e-01	1.000000e+00	5.664469e+06	5.597817e+05	5.597817e+05
# END HISTO1D

