# BEGIN PLOT
LegendOnly=/zj_ps_nlo_mer_mur2_muf1_R8.yoda/PAPER_FIN_R8/ch_SD_l05_pT_65_88
DrawOnly=/zj_ps_nlo_mer_mur2_muf1_R8.yoda/PAPER_FIN_R8/ch_SD_l05_pT_65_88
Legend=1
LogY=1
# END PLOT

# BEGIN HISTO1D /zj_ps_nlo_mer_mur2_muf1_R8.yoda/PAPER_FIN_R8/ch_SD_l05_pT_65_88
LineColor=red
LineStyle=solid
Path=/zj_ps_nlo_mer_mur2_muf1_R8.yoda/PAPER_FIN_R8/ch_SD_l05_pT_65_88
Title=zj_ps_nlo_mer_mur2_muf1_R8
XLabel=~
YLabel=~
# xlow	 xhigh	 val	 errminus	 errplus
-7.000000e+00	-6.930000e+00	0.000000e+00	0.000000e+00	0.000000e+00
-6.930000e+00	-6.860000e+00	1.272180e+11	1.396443e+09	1.396443e+09
-6.860000e+00	-6.790000e+00	0.000000e+00	0.000000e+00	0.000000e+00
-6.790000e+00	-6.720000e+00	0.000000e+00	0.000000e+00	0.000000e+00
-6.720000e+00	-6.650000e+00	0.000000e+00	0.000000e+00	0.000000e+00
-6.650000e+00	-6.580000e+00	0.000000e+00	0.000000e+00	0.000000e+00
-6.580000e+00	-6.510000e+00	0.000000e+00	0.000000e+00	0.000000e+00
-6.510000e+00	-6.440000e+00	0.000000e+00	0.000000e+00	0.000000e+00
-6.440000e+00	-6.370000e+00	0.000000e+00	0.000000e+00	0.000000e+00
-6.370000e+00	-6.300000e+00	0.000000e+00	0.000000e+00	0.000000e+00
-6.300000e+00	-6.230000e+00	0.000000e+00	0.000000e+00	0.000000e+00
-6.230000e+00	-6.160000e+00	0.000000e+00	0.000000e+00	0.000000e+00
-6.160000e+00	-6.090000e+00	0.000000e+00	0.000000e+00	0.000000e+00
-6.090000e+00	-6.020000e+00	0.000000e+00	0.000000e+00	0.000000e+00
-6.020000e+00	-5.950000e+00	0.000000e+00	0.000000e+00	0.000000e+00
-5.950000e+00	-5.880000e+00	0.000000e+00	0.000000e+00	0.000000e+00
-5.880000e+00	-5.810000e+00	0.000000e+00	0.000000e+00	0.000000e+00
-5.810000e+00	-5.740000e+00	0.000000e+00	0.000000e+00	0.000000e+00
-5.740000e+00	-5.670000e+00	0.000000e+00	0.000000e+00	0.000000e+00
-5.670000e+00	-5.600000e+00	0.000000e+00	0.000000e+00	0.000000e+00
-5.600000e+00	-5.530000e+00	0.000000e+00	0.000000e+00	0.000000e+00
-5.530000e+00	-5.460000e+00	0.000000e+00	0.000000e+00	0.000000e+00
-5.460000e+00	-5.390000e+00	0.000000e+00	0.000000e+00	0.000000e+00
-5.390000e+00	-5.320000e+00	0.000000e+00	0.000000e+00	0.000000e+00
-5.320000e+00	-5.250000e+00	0.000000e+00	0.000000e+00	0.000000e+00
-5.250000e+00	-5.180000e+00	0.000000e+00	0.000000e+00	0.000000e+00
-5.180000e+00	-5.110000e+00	0.000000e+00	0.000000e+00	0.000000e+00
-5.110000e+00	-5.040000e+00	0.000000e+00	0.000000e+00	0.000000e+00
-5.040000e+00	-4.970000e+00	0.000000e+00	0.000000e+00	0.000000e+00
-4.970000e+00	-4.900000e+00	0.000000e+00	0.000000e+00	0.000000e+00
-4.900000e+00	-4.830000e+00	0.000000e+00	0.000000e+00	0.000000e+00
-4.830000e+00	-4.760000e+00	0.000000e+00	0.000000e+00	0.000000e+00
-4.760000e+00	-4.690000e+00	0.000000e+00	0.000000e+00	0.000000e+00
-4.690000e+00	-4.620000e+00	0.000000e+00	0.000000e+00	0.000000e+00
-4.620000e+00	-4.550000e+00	0.000000e+00	0.000000e+00	0.000000e+00
-4.550000e+00	-4.480000e+00	0.000000e+00	0.000000e+00	0.000000e+00
-4.480000e+00	-4.410000e+00	0.000000e+00	0.000000e+00	0.000000e+00
-4.410000e+00	-4.340000e+00	0.000000e+00	0.000000e+00	0.000000e+00
-4.340000e+00	-4.270000e+00	0.000000e+00	0.000000e+00	0.000000e+00
-4.270000e+00	-4.200000e+00	0.000000e+00	0.000000e+00	0.000000e+00
-4.200000e+00	-4.130000e+00	0.000000e+00	0.000000e+00	0.000000e+00
-4.130000e+00	-4.060000e+00	0.000000e+00	0.000000e+00	0.000000e+00
-4.060000e+00	-3.990000e+00	0.000000e+00	0.000000e+00	0.000000e+00
-3.990000e+00	-3.920000e+00	0.000000e+00	0.000000e+00	0.000000e+00
-3.920000e+00	-3.850000e+00	0.000000e+00	0.000000e+00	0.000000e+00
-3.850000e+00	-3.780000e+00	0.000000e+00	0.000000e+00	0.000000e+00
-3.780000e+00	-3.710000e+00	0.000000e+00	0.000000e+00	0.000000e+00
-3.710000e+00	-3.640000e+00	0.000000e+00	0.000000e+00	0.000000e+00
-3.640000e+00	-3.570000e+00	0.000000e+00	0.000000e+00	0.000000e+00
-3.570000e+00	-3.500000e+00	0.000000e+00	0.000000e+00	0.000000e+00
-3.500000e+00	-3.430000e+00	0.000000e+00	0.000000e+00	0.000000e+00
-3.430000e+00	-3.360000e+00	0.000000e+00	0.000000e+00	0.000000e+00
-3.360000e+00	-3.290000e+00	0.000000e+00	0.000000e+00	0.000000e+00
-3.290000e+00	-3.220000e+00	0.000000e+00	0.000000e+00	0.000000e+00
-3.220000e+00	-3.150000e+00	0.000000e+00	0.000000e+00	0.000000e+00
-3.150000e+00	-3.080000e+00	0.000000e+00	0.000000e+00	0.000000e+00
-3.080000e+00	-3.010000e+00	0.000000e+00	0.000000e+00	0.000000e+00
-3.010000e+00	-2.940000e+00	0.000000e+00	0.000000e+00	0.000000e+00
-2.940000e+00	-2.870000e+00	0.000000e+00	0.000000e+00	0.000000e+00
-2.870000e+00	-2.800000e+00	0.000000e+00	0.000000e+00	0.000000e+00
-2.800000e+00	-2.730000e+00	0.000000e+00	0.000000e+00	0.000000e+00
-2.730000e+00	-2.660000e+00	0.000000e+00	0.000000e+00	0.000000e+00
-2.660000e+00	-2.590000e+00	1.660609e-03	1.660609e-03	1.660609e-03
-2.590000e+00	-2.520000e+00	7.257450e-01	7.238887e-01	7.238887e-01
-2.520000e+00	-2.450000e+00	-1.496697e+05	1.496702e+05	1.496702e+05
-2.450000e+00	-2.380000e+00	-7.416517e+03	7.864447e+03	7.864447e+03
-2.380000e+00	-2.310000e+00	1.641034e+04	6.582241e+04	6.582241e+04
-2.310000e+00	-2.240000e+00	-1.232278e+05	1.119087e+05	1.119087e+05
-2.240000e+00	-2.170000e+00	-1.655126e+06	2.280584e+06	2.280584e+06
-2.170000e+00	-2.100000e+00	-8.160806e+04	3.610453e+05	3.610453e+05
-2.100000e+00	-2.030000e+00	-7.778679e+05	2.321083e+06	2.321083e+06
-2.030000e+00	-1.960000e+00	4.737200e+05	7.477389e+05	7.477389e+05
-1.960000e+00	-1.890000e+00	1.552104e+05	1.896760e+06	1.896760e+06
-1.890000e+00	-1.820000e+00	-1.154238e+07	8.126824e+06	8.126824e+06
-1.820000e+00	-1.750000e+00	-2.730059e+06	3.187745e+06	3.187745e+06
-1.750000e+00	-1.680000e+00	5.084404e+06	1.946190e+06	1.946190e+06
-1.680000e+00	-1.610000e+00	6.810431e+06	3.610551e+06	3.610551e+06
-1.610000e+00	-1.540000e+00	4.526519e+07	8.526581e+06	8.526581e+06
-1.540000e+00	-1.470000e+00	1.121195e+08	1.070303e+07	1.070303e+07
-1.470000e+00	-1.400000e+00	1.930961e+08	6.266218e+07	6.266218e+07
-1.400000e+00	-1.330000e+00	4.187696e+08	2.060078e+07	2.060078e+07
-1.330000e+00	-1.260000e+00	6.648957e+08	2.870509e+07	2.870509e+07
-1.260000e+00	-1.190000e+00	9.546323e+08	4.583802e+07	4.583802e+07
-1.190000e+00	-1.120000e+00	1.319762e+09	5.021909e+07	5.021909e+07
-1.120000e+00	-1.050000e+00	1.798210e+09	7.754513e+07	7.754513e+07
-1.050000e+00	-9.800000e-01	2.426313e+09	6.156838e+07	6.156838e+07
-9.800000e-01	-9.100000e-01	2.900524e+09	8.419656e+07	8.419656e+07
-9.100000e-01	-8.400000e-01	2.959874e+09	6.645288e+07	6.645288e+07
-8.400000e-01	-7.700000e-01	3.066893e+09	7.686860e+07	7.686860e+07
-7.700000e-01	-7.000000e-01	3.100737e+09	1.521141e+08	1.521141e+08
-7.000000e-01	-6.300000e-01	2.975004e+09	8.275125e+07	8.275125e+07
-6.300000e-01	-5.600000e-01	2.606024e+09	8.851286e+07	8.851286e+07
-5.600000e-01	-4.900000e-01	2.512589e+09	5.632037e+07	5.632037e+07
-4.900000e-01	-4.200000e-01	1.997990e+09	5.349553e+07	5.349553e+07
-4.200000e-01	-3.500000e-01	1.360766e+09	4.562438e+07	4.562438e+07
-3.500000e-01	-2.800000e-01	5.834004e+08	2.651461e+07	2.651461e+07
-2.800000e-01	-2.100000e-01	1.473996e+08	1.147967e+07	1.147967e+07
-2.100000e-01	-1.400000e-01	1.198988e+07	3.901592e+06	3.901592e+06
-1.400000e-01	-7.000000e-02	3.021224e+05	3.175043e+05	3.175043e+05
-7.000000e-02	0.000000e+00	0.000000e+00	0.000000e+00	0.000000e+00
# END HISTO1D

