# BEGIN PLOT
LegendOnly=/zj_ps_nlo_mer_mur1_muf0.5_R8.yoda/PAPER_FIN_R8/ch_lin_SD_l20_pT_326_408
DrawOnly=/zj_ps_nlo_mer_mur1_muf0.5_R8.yoda/PAPER_FIN_R8/ch_lin_SD_l20_pT_326_408
Legend=1
LogY=1
# END PLOT

# BEGIN HISTO1D /zj_ps_nlo_mer_mur1_muf0.5_R8.yoda/PAPER_FIN_R8/ch_lin_SD_l20_pT_326_408
LineColor=red
LineStyle=solid
Path=/zj_ps_nlo_mer_mur1_muf0.5_R8.yoda/PAPER_FIN_R8/ch_lin_SD_l20_pT_326_408
Title=zj_ps_nlo_mer_mur1_muf0.5_R8
XLabel=~
YLabel=~
# xlow	 xhigh	 val	 errminus	 errplus
0.000000e+00	2.500000e-03	9.760552e+10	3.349672e+08	3.349672e+08
2.500000e-03	5.000000e-03	1.158052e+10	1.148015e+08	1.148015e+08
5.000000e-03	7.500000e-03	6.972384e+09	8.677057e+07	8.677057e+07
7.500000e-03	1.250000e-02	4.509558e+09	4.928015e+07	4.928015e+07
1.250000e-02	2.000000e-02	2.910341e+09	3.061274e+07	3.061274e+07
2.000000e-02	3.250000e-02	1.926604e+09	1.899636e+07	1.899636e+07
3.250000e-02	5.000000e-02	1.329095e+09	1.313304e+07	1.313304e+07
5.000000e-02	7.750000e-02	1.006156e+09	9.783937e+06	9.783937e+06
7.750000e-02	1.150000e-01	7.562616e+08	6.815583e+06	6.815583e+06
1.150000e-01	1.600000e-01	5.027007e+08	5.151694e+06	5.151694e+06
1.600000e-01	2.100000e-01	2.903028e+08	3.225974e+06	3.225974e+06
2.100000e-01	1.000000e+00	1.190644e+07	1.678924e+05	1.678924e+05
# END HISTO1D

