# BEGIN PLOT
LegendOnly=/zj_ps_nlo_mer_mur1_muf0.5_R8.yoda/PAPER_FIN_R8/SD_l05_pT_408_1500
DrawOnly=/zj_ps_nlo_mer_mur1_muf0.5_R8.yoda/PAPER_FIN_R8/SD_l05_pT_408_1500
Legend=1
LogY=1
# END PLOT

# BEGIN HISTO1D /zj_ps_nlo_mer_mur1_muf0.5_R8.yoda/PAPER_FIN_R8/SD_l05_pT_408_1500
LineColor=red
LineStyle=solid
Path=/zj_ps_nlo_mer_mur1_muf0.5_R8.yoda/PAPER_FIN_R8/SD_l05_pT_408_1500
Title=zj_ps_nlo_mer_mur1_muf0.5_R8
XLabel=~
YLabel=~
# xlow	 xhigh	 val	 errminus	 errplus
-7.000000e+00	-6.930000e+00	0.000000e+00	0.000000e+00	0.000000e+00
-6.930000e+00	-6.860000e+00	7.688620e+06	4.855353e+05	4.855353e+05
-6.860000e+00	-6.790000e+00	0.000000e+00	0.000000e+00	0.000000e+00
-6.790000e+00	-6.720000e+00	0.000000e+00	0.000000e+00	0.000000e+00
-6.720000e+00	-6.650000e+00	0.000000e+00	0.000000e+00	0.000000e+00
-6.650000e+00	-6.580000e+00	0.000000e+00	0.000000e+00	0.000000e+00
-6.580000e+00	-6.510000e+00	0.000000e+00	0.000000e+00	0.000000e+00
-6.510000e+00	-6.440000e+00	0.000000e+00	0.000000e+00	0.000000e+00
-6.440000e+00	-6.370000e+00	0.000000e+00	0.000000e+00	0.000000e+00
-6.370000e+00	-6.300000e+00	0.000000e+00	0.000000e+00	0.000000e+00
-6.300000e+00	-6.230000e+00	0.000000e+00	0.000000e+00	0.000000e+00
-6.230000e+00	-6.160000e+00	0.000000e+00	0.000000e+00	0.000000e+00
-6.160000e+00	-6.090000e+00	0.000000e+00	0.000000e+00	0.000000e+00
-6.090000e+00	-6.020000e+00	0.000000e+00	0.000000e+00	0.000000e+00
-6.020000e+00	-5.950000e+00	0.000000e+00	0.000000e+00	0.000000e+00
-5.950000e+00	-5.880000e+00	0.000000e+00	0.000000e+00	0.000000e+00
-5.880000e+00	-5.810000e+00	0.000000e+00	0.000000e+00	0.000000e+00
-5.810000e+00	-5.740000e+00	0.000000e+00	0.000000e+00	0.000000e+00
-5.740000e+00	-5.670000e+00	0.000000e+00	0.000000e+00	0.000000e+00
-5.670000e+00	-5.600000e+00	0.000000e+00	0.000000e+00	0.000000e+00
-5.600000e+00	-5.530000e+00	0.000000e+00	0.000000e+00	0.000000e+00
-5.530000e+00	-5.460000e+00	0.000000e+00	0.000000e+00	0.000000e+00
-5.460000e+00	-5.390000e+00	0.000000e+00	0.000000e+00	0.000000e+00
-5.390000e+00	-5.320000e+00	0.000000e+00	0.000000e+00	0.000000e+00
-5.320000e+00	-5.250000e+00	0.000000e+00	0.000000e+00	0.000000e+00
-5.250000e+00	-5.180000e+00	0.000000e+00	0.000000e+00	0.000000e+00
-5.180000e+00	-5.110000e+00	0.000000e+00	0.000000e+00	0.000000e+00
-5.110000e+00	-5.040000e+00	0.000000e+00	0.000000e+00	0.000000e+00
-5.040000e+00	-4.970000e+00	0.000000e+00	0.000000e+00	0.000000e+00
-4.970000e+00	-4.900000e+00	0.000000e+00	0.000000e+00	0.000000e+00
-4.900000e+00	-4.830000e+00	0.000000e+00	0.000000e+00	0.000000e+00
-4.830000e+00	-4.760000e+00	0.000000e+00	0.000000e+00	0.000000e+00
-4.760000e+00	-4.690000e+00	0.000000e+00	0.000000e+00	0.000000e+00
-4.690000e+00	-4.620000e+00	0.000000e+00	0.000000e+00	0.000000e+00
-4.620000e+00	-4.550000e+00	0.000000e+00	0.000000e+00	0.000000e+00
-4.550000e+00	-4.480000e+00	0.000000e+00	0.000000e+00	0.000000e+00
-4.480000e+00	-4.410000e+00	0.000000e+00	0.000000e+00	0.000000e+00
-4.410000e+00	-4.340000e+00	0.000000e+00	0.000000e+00	0.000000e+00
-4.340000e+00	-4.270000e+00	0.000000e+00	0.000000e+00	0.000000e+00
-4.270000e+00	-4.200000e+00	0.000000e+00	0.000000e+00	0.000000e+00
-4.200000e+00	-4.130000e+00	0.000000e+00	0.000000e+00	0.000000e+00
-4.130000e+00	-4.060000e+00	0.000000e+00	0.000000e+00	0.000000e+00
-4.060000e+00	-3.990000e+00	0.000000e+00	0.000000e+00	0.000000e+00
-3.990000e+00	-3.920000e+00	0.000000e+00	0.000000e+00	0.000000e+00
-3.920000e+00	-3.850000e+00	0.000000e+00	0.000000e+00	0.000000e+00
-3.850000e+00	-3.780000e+00	0.000000e+00	0.000000e+00	0.000000e+00
-3.780000e+00	-3.710000e+00	0.000000e+00	0.000000e+00	0.000000e+00
-3.710000e+00	-3.640000e+00	0.000000e+00	0.000000e+00	0.000000e+00
-3.640000e+00	-3.570000e+00	0.000000e+00	0.000000e+00	0.000000e+00
-3.570000e+00	-3.500000e+00	0.000000e+00	0.000000e+00	0.000000e+00
-3.500000e+00	-3.430000e+00	0.000000e+00	0.000000e+00	0.000000e+00
-3.430000e+00	-3.360000e+00	0.000000e+00	0.000000e+00	0.000000e+00
-3.360000e+00	-3.290000e+00	0.000000e+00	0.000000e+00	0.000000e+00
-3.290000e+00	-3.220000e+00	0.000000e+00	0.000000e+00	0.000000e+00
-3.220000e+00	-3.150000e+00	1.911923e+02	1.911923e+02	1.911923e+02
-3.150000e+00	-3.080000e+00	0.000000e+00	0.000000e+00	0.000000e+00
-3.080000e+00	-3.010000e+00	3.707797e+02	3.707769e+02	3.707769e+02
-3.010000e+00	-2.940000e+00	0.000000e+00	0.000000e+00	0.000000e+00
-2.940000e+00	-2.870000e+00	5.335253e+02	5.312104e+02	5.312104e+02
-2.870000e+00	-2.800000e+00	5.688020e+02	5.171803e+02	5.171803e+02
-2.800000e+00	-2.730000e+00	3.689621e+03	2.215040e+03	2.215040e+03
-2.730000e+00	-2.660000e+00	4.272466e+04	3.051862e+04	3.051862e+04
-2.660000e+00	-2.590000e+00	4.727561e+04	2.905233e+04	2.905233e+04
-2.590000e+00	-2.520000e+00	5.340629e+04	2.025031e+04	2.025031e+04
-2.520000e+00	-2.450000e+00	9.663376e+04	3.137539e+04	3.137539e+04
-2.450000e+00	-2.380000e+00	2.496830e+05	5.934028e+04	5.934028e+04
-2.380000e+00	-2.310000e+00	3.827930e+05	6.907284e+04	6.907284e+04
-2.310000e+00	-2.240000e+00	6.010209e+05	7.504877e+04	7.504877e+04
-2.240000e+00	-2.170000e+00	1.334914e+06	1.863201e+05	1.863201e+05
-2.170000e+00	-2.100000e+00	1.857519e+06	2.495733e+05	2.495733e+05
-2.100000e+00	-2.030000e+00	2.613663e+06	1.776834e+05	1.776834e+05
-2.030000e+00	-1.960000e+00	4.893407e+06	4.396283e+05	4.396283e+05
-1.960000e+00	-1.890000e+00	6.719161e+06	4.751704e+05	4.751704e+05
-1.890000e+00	-1.820000e+00	1.028108e+07	4.896094e+05	4.896094e+05
-1.820000e+00	-1.750000e+00	1.620684e+07	7.033494e+05	7.033494e+05
-1.750000e+00	-1.680000e+00	2.343924e+07	7.973053e+05	7.973053e+05
-1.680000e+00	-1.610000e+00	3.631593e+07	9.828496e+05	9.828496e+05
-1.610000e+00	-1.540000e+00	5.604299e+07	1.231795e+06	1.231795e+06
-1.540000e+00	-1.470000e+00	8.688547e+07	1.741163e+06	1.741163e+06
-1.470000e+00	-1.400000e+00	1.269501e+08	2.108051e+06	2.108051e+06
-1.400000e+00	-1.330000e+00	1.747093e+08	2.852148e+06	2.852148e+06
-1.330000e+00	-1.260000e+00	2.369869e+08	2.843993e+06	2.843993e+06
-1.260000e+00	-1.190000e+00	2.944377e+08	3.723162e+06	3.723162e+06
-1.190000e+00	-1.120000e+00	3.227513e+08	3.303448e+06	3.303448e+06
-1.120000e+00	-1.050000e+00	3.193270e+08	3.095632e+06	3.095632e+06
-1.050000e+00	-9.800000e-01	3.021724e+08	3.191008e+06	3.191008e+06
-9.800000e-01	-9.100000e-01	2.844604e+08	2.893689e+06	2.893689e+06
-9.100000e-01	-8.400000e-01	2.869441e+08	3.122139e+06	3.122139e+06
-8.400000e-01	-7.700000e-01	3.022277e+08	2.991711e+06	2.991711e+06
-7.700000e-01	-7.000000e-01	3.255163e+08	3.501328e+06	3.501328e+06
-7.000000e-01	-6.300000e-01	3.349293e+08	3.202786e+06	3.202786e+06
-6.300000e-01	-5.600000e-01	3.294163e+08	3.004694e+06	3.004694e+06
-5.600000e-01	-4.900000e-01	3.157126e+08	5.048716e+06	5.048716e+06
-4.900000e-01	-4.200000e-01	2.757093e+08	2.584815e+06	2.584815e+06
-4.200000e-01	-3.500000e-01	2.170863e+08	2.181046e+06	2.181046e+06
-3.500000e-01	-2.800000e-01	1.528339e+08	1.532334e+06	1.532334e+06
-2.800000e-01	-2.100000e-01	7.605926e+07	1.188643e+06	1.188643e+06
-2.100000e-01	-1.400000e-01	1.634809e+07	5.278779e+05	5.278779e+05
-1.400000e-01	-7.000000e-02	6.333289e+05	8.015495e+04	8.015495e+04
-7.000000e-02	0.000000e+00	5.732074e+02	5.052625e+02	5.052625e+02
# END HISTO1D

