# BEGIN PLOT
LegendOnly=/zj_ps_nlo_mer_mur1_muf0.5_R8.yoda/PAPER_FIN_R8/lin_l20_pT_326_408
DrawOnly=/zj_ps_nlo_mer_mur1_muf0.5_R8.yoda/PAPER_FIN_R8/lin_l20_pT_326_408
Legend=1
LogY=1
# END PLOT

# BEGIN HISTO1D /zj_ps_nlo_mer_mur1_muf0.5_R8.yoda/PAPER_FIN_R8/lin_l20_pT_326_408
LineColor=red
LineStyle=solid
Path=/zj_ps_nlo_mer_mur1_muf0.5_R8.yoda/PAPER_FIN_R8/lin_l20_pT_326_408
Title=zj_ps_nlo_mer_mur1_muf0.5_R8
XLabel=~
YLabel=~
# xlow	 xhigh	 val	 errminus	 errplus
0.000000e+00	5.000000e-02	6.743828e+09	1.949781e+07	1.949781e+07
5.000000e-02	9.000000e-02	1.795817e+09	1.056970e+07	1.056970e+07
9.000000e-02	1.500000e-01	7.477193e+08	5.395047e+06	5.395047e+06
1.500000e-01	2.050000e-01	3.452796e+08	3.529969e+06	3.529969e+06
2.050000e-01	1.000000e+00	1.485283e+07	1.628482e+05	1.628482e+05
# END HISTO1D

