# BEGIN PLOT
LegendOnly=/zj_ps_nlo_mer_mur1_muf0.5_R8.yoda/PAPER_FIN_R8_CH/XS_CUTS_pT_all
DrawOnly=/zj_ps_nlo_mer_mur1_muf0.5_R8.yoda/PAPER_FIN_R8_CH/XS_CUTS_pT_all
Legend=1
LogY=1
# END PLOT

# BEGIN HISTO1D /zj_ps_nlo_mer_mur1_muf0.5_R8.yoda/PAPER_FIN_R8_CH/XS_CUTS_pT_all
LineColor=red
LineStyle=solid
Path=/zj_ps_nlo_mer_mur1_muf0.5_R8.yoda/PAPER_FIN_R8_CH/XS_CUTS_pT_all
Title=zj_ps_nlo_mer_mur1_muf0.5_R8
XLabel=~
YLabel=~
# xlow	 xhigh	 val	 errminus	 errplus
-5.000000e-01	5.000000e-01	3.133499e+04	9.928764e+02	9.928764e+02
# END HISTO1D

