# BEGIN PLOT
LegendOnly=/herwig_np_lo_r8_pt150_s1_1e3.yoda/PAPER_FIN_R8/lin_l05_pT_150_186
DrawOnly=/herwig_np_lo_r8_pt150_s1_1e3.yoda/PAPER_FIN_R8/lin_l05_pT_150_186
Legend=1
LogY=1
# END PLOT

# BEGIN HISTO1D /herwig_np_lo_r8_pt150_s1_1e3.yoda/PAPER_FIN_R8/lin_l05_pT_150_186
LineColor=red
LineStyle=solid
Path=/herwig_np_lo_r8_pt150_s1_1e3.yoda/PAPER_FIN_R8/lin_l05_pT_150_186
Title=herwig_np_lo_r8_pt150_s1_1e3
XLabel=~
YLabel=~
# xlow	 xhigh	 val	 errminus	 errplus
0.000000e+00	1.700000e-01	3.371165e+07	1.409362e+04	1.409362e+04
1.700000e-01	2.500000e-01	1.048600e+08	3.621879e+04	3.621879e+04
2.500000e-01	3.200000e-01	7.042830e+07	3.173842e+04	3.173842e+04
3.200000e-01	3.800000e-01	4.712208e+07	2.803473e+04	2.803473e+04
3.800000e-01	4.500000e-01	3.131176e+07	2.116369e+04	2.116369e+04
4.500000e-01	5.200000e-01	1.911973e+07	1.653155e+04	1.653155e+04
5.200000e-01	5.900000e-01	1.027558e+07	1.212394e+04	1.212394e+04
5.900000e-01	1.000000e+00	9.278715e+05	1.505219e+03	1.505219e+03
# END HISTO1D

