# BEGIN PLOT
LegendOnly=/herwig_np_lo_r4_pt408_s1_1e3.yoda/PAPER_FIN_R4/ch_SD_l05_pT_326_408
DrawOnly=/herwig_np_lo_r4_pt408_s1_1e3.yoda/PAPER_FIN_R4/ch_SD_l05_pT_326_408
Legend=1
LogY=1
# END PLOT

# BEGIN HISTO1D /herwig_np_lo_r4_pt408_s1_1e3.yoda/PAPER_FIN_R4/ch_SD_l05_pT_326_408
LineColor=red
LineStyle=solid
Path=/herwig_np_lo_r4_pt408_s1_1e3.yoda/PAPER_FIN_R4/ch_SD_l05_pT_326_408
Title=herwig_np_lo_r4_pt408_s1_1e3
XLabel=~
YLabel=~
# xlow	 xhigh	 val	 errminus	 errplus
-7.000000e+00	-6.930000e+00	0.000000e+00	0.000000e+00	0.000000e+00
-6.930000e+00	-6.860000e+00	1.483943e+07	1.456407e+04	1.456407e+04
-6.860000e+00	-6.790000e+00	0.000000e+00	0.000000e+00	0.000000e+00
-6.790000e+00	-6.720000e+00	0.000000e+00	0.000000e+00	0.000000e+00
-6.720000e+00	-6.650000e+00	0.000000e+00	0.000000e+00	0.000000e+00
-6.650000e+00	-6.580000e+00	0.000000e+00	0.000000e+00	0.000000e+00
-6.580000e+00	-6.510000e+00	0.000000e+00	0.000000e+00	0.000000e+00
-6.510000e+00	-6.440000e+00	0.000000e+00	0.000000e+00	0.000000e+00
-6.440000e+00	-6.370000e+00	0.000000e+00	0.000000e+00	0.000000e+00
-6.370000e+00	-6.300000e+00	0.000000e+00	0.000000e+00	0.000000e+00
-6.300000e+00	-6.230000e+00	0.000000e+00	0.000000e+00	0.000000e+00
-6.230000e+00	-6.160000e+00	0.000000e+00	0.000000e+00	0.000000e+00
-6.160000e+00	-6.090000e+00	0.000000e+00	0.000000e+00	0.000000e+00
-6.090000e+00	-6.020000e+00	0.000000e+00	0.000000e+00	0.000000e+00
-6.020000e+00	-5.950000e+00	0.000000e+00	0.000000e+00	0.000000e+00
-5.950000e+00	-5.880000e+00	0.000000e+00	0.000000e+00	0.000000e+00
-5.880000e+00	-5.810000e+00	0.000000e+00	0.000000e+00	0.000000e+00
-5.810000e+00	-5.740000e+00	0.000000e+00	0.000000e+00	0.000000e+00
-5.740000e+00	-5.670000e+00	0.000000e+00	0.000000e+00	0.000000e+00
-5.670000e+00	-5.600000e+00	0.000000e+00	0.000000e+00	0.000000e+00
-5.600000e+00	-5.530000e+00	0.000000e+00	0.000000e+00	0.000000e+00
-5.530000e+00	-5.460000e+00	0.000000e+00	0.000000e+00	0.000000e+00
-5.460000e+00	-5.390000e+00	0.000000e+00	0.000000e+00	0.000000e+00
-5.390000e+00	-5.320000e+00	0.000000e+00	0.000000e+00	0.000000e+00
-5.320000e+00	-5.250000e+00	0.000000e+00	0.000000e+00	0.000000e+00
-5.250000e+00	-5.180000e+00	0.000000e+00	0.000000e+00	0.000000e+00
-5.180000e+00	-5.110000e+00	0.000000e+00	0.000000e+00	0.000000e+00
-5.110000e+00	-5.040000e+00	0.000000e+00	0.000000e+00	0.000000e+00
-5.040000e+00	-4.970000e+00	0.000000e+00	0.000000e+00	0.000000e+00
-4.970000e+00	-4.900000e+00	0.000000e+00	0.000000e+00	0.000000e+00
-4.900000e+00	-4.830000e+00	0.000000e+00	0.000000e+00	0.000000e+00
-4.830000e+00	-4.760000e+00	0.000000e+00	0.000000e+00	0.000000e+00
-4.760000e+00	-4.690000e+00	0.000000e+00	0.000000e+00	0.000000e+00
-4.690000e+00	-4.620000e+00	0.000000e+00	0.000000e+00	0.000000e+00
-4.620000e+00	-4.550000e+00	0.000000e+00	0.000000e+00	0.000000e+00
-4.550000e+00	-4.480000e+00	0.000000e+00	0.000000e+00	0.000000e+00
-4.480000e+00	-4.410000e+00	0.000000e+00	0.000000e+00	0.000000e+00
-4.410000e+00	-4.340000e+00	0.000000e+00	0.000000e+00	0.000000e+00
-4.340000e+00	-4.270000e+00	0.000000e+00	0.000000e+00	0.000000e+00
-4.270000e+00	-4.200000e+00	0.000000e+00	0.000000e+00	0.000000e+00
-4.200000e+00	-4.130000e+00	0.000000e+00	0.000000e+00	0.000000e+00
-4.130000e+00	-4.060000e+00	0.000000e+00	0.000000e+00	0.000000e+00
-4.060000e+00	-3.990000e+00	0.000000e+00	0.000000e+00	0.000000e+00
-3.990000e+00	-3.920000e+00	0.000000e+00	0.000000e+00	0.000000e+00
-3.920000e+00	-3.850000e+00	0.000000e+00	0.000000e+00	0.000000e+00
-3.850000e+00	-3.780000e+00	0.000000e+00	0.000000e+00	0.000000e+00
-3.780000e+00	-3.710000e+00	0.000000e+00	0.000000e+00	0.000000e+00
-3.710000e+00	-3.640000e+00	0.000000e+00	0.000000e+00	0.000000e+00
-3.640000e+00	-3.570000e+00	0.000000e+00	0.000000e+00	0.000000e+00
-3.570000e+00	-3.500000e+00	0.000000e+00	0.000000e+00	0.000000e+00
-3.500000e+00	-3.430000e+00	0.000000e+00	0.000000e+00	0.000000e+00
-3.430000e+00	-3.360000e+00	0.000000e+00	0.000000e+00	0.000000e+00
-3.360000e+00	-3.290000e+00	4.285714e+01	2.474358e+01	2.474358e+01
-3.290000e+00	-3.220000e+00	8.571429e+01	3.499271e+01	3.499271e+01
-3.220000e+00	-3.150000e+00	4.285714e+01	2.474358e+01	2.474358e+01
-3.150000e+00	-3.080000e+00	2.000000e+02	5.345225e+01	5.345225e+01
-3.080000e+00	-3.010000e+00	1.857143e+02	5.150788e+01	5.150788e+01
-3.010000e+00	-2.940000e+00	4.428571e+02	7.953949e+01	7.953949e+01
-2.940000e+00	-2.870000e+00	5.285714e+02	8.689661e+01	8.689661e+01
-2.870000e+00	-2.800000e+00	7.428571e+02	1.030158e+02	1.030158e+02
-2.800000e+00	-2.730000e+00	1.100000e+03	1.253566e+02	1.253566e+02
-2.730000e+00	-2.660000e+00	1.414286e+03	1.421411e+02	1.421411e+02
-2.660000e+00	-2.590000e+00	2.042857e+03	1.708323e+02	1.708323e+02
-2.590000e+00	-2.520000e+00	2.814286e+03	2.005096e+02	2.005096e+02
-2.520000e+00	-2.450000e+00	4.271429e+03	2.470231e+02	2.470231e+02
-2.450000e+00	-2.380000e+00	7.085714e+03	3.181580e+02	3.181580e+02
-2.380000e+00	-2.310000e+00	1.154346e+04	4.060980e+02	4.060980e+02
-2.310000e+00	-2.240000e+00	2.095714e+04	5.471634e+02	5.471634e+02
-2.240000e+00	-2.170000e+00	3.797143e+04	7.365114e+02	7.365114e+02
-2.170000e+00	-2.100000e+00	6.900056e+04	9.928396e+02	9.928396e+02
-2.100000e+00	-2.030000e+00	1.303571e+05	1.364641e+03	1.364641e+03
-2.030000e+00	-1.960000e+00	2.476279e+05	1.881365e+03	1.881365e+03
-1.960000e+00	-1.890000e+00	4.910946e+05	2.648816e+03	2.648816e+03
-1.890000e+00	-1.820000e+00	9.757799e+05	3.733843e+03	3.733843e+03
-1.820000e+00	-1.750000e+00	1.653021e+06	4.859625e+03	4.859625e+03
-1.750000e+00	-1.680000e+00	2.449374e+06	5.918054e+03	5.918054e+03
-1.680000e+00	-1.610000e+00	3.483954e+06	7.078193e+03	7.078193e+03
-1.610000e+00	-1.540000e+00	4.863036e+06	8.338165e+03	8.338165e+03
-1.540000e+00	-1.470000e+00	6.743299e+06	9.838160e+03	9.838160e+03
-1.470000e+00	-1.400000e+00	9.266163e+06	1.150641e+04	1.150641e+04
-1.400000e+00	-1.330000e+00	1.271875e+07	1.348323e+04	1.348323e+04
-1.330000e+00	-1.260000e+00	1.733270e+07	1.578301e+04	1.578301e+04
-1.260000e+00	-1.190000e+00	2.327117e+07	1.825491e+04	1.825491e+04
-1.190000e+00	-1.120000e+00	3.088850e+07	2.103472e+04	2.103472e+04
-1.120000e+00	-1.050000e+00	3.970801e+07	2.395591e+04	2.395591e+04
-1.050000e+00	-9.800000e-01	4.811264e+07	2.627337e+04	2.627337e+04
-9.800000e-01	-9.100000e-01	5.350793e+07	2.767083e+04	2.767083e+04
-9.100000e-01	-8.400000e-01	5.509801e+07	2.812490e+04	2.812490e+04
-8.400000e-01	-7.700000e-01	5.418451e+07	2.787301e+04	2.787301e+04
-7.700000e-01	-7.000000e-01	5.271231e+07	2.771361e+04	2.771361e+04
-7.000000e-01	-6.300000e-01	5.187467e+07	2.725830e+04	2.725830e+04
-6.300000e-01	-5.600000e-01	5.074516e+07	2.695559e+04	2.695559e+04
-5.600000e-01	-4.900000e-01	4.773047e+07	2.615741e+04	2.615741e+04
-4.900000e-01	-4.200000e-01	4.219171e+07	2.456544e+04	2.456544e+04
-4.200000e-01	-3.500000e-01	3.416144e+07	2.210233e+04	2.210233e+04
-3.500000e-01	-2.800000e-01	2.402559e+07	1.853516e+04	1.853516e+04
-2.800000e-01	-2.100000e-01	1.233843e+07	1.327720e+04	1.327720e+04
-2.100000e-01	-1.400000e-01	2.780441e+06	6.303980e+03	6.303980e+03
-1.400000e-01	-7.000000e-02	1.184826e+05	1.301112e+03	1.301112e+03
-7.000000e-02	0.000000e+00	2.285714e+02	5.714286e+01	5.714286e+01
# END HISTO1D

