# BEGIN PLOT
LegendOnly=/herwig_np_lo_r4_pt408_s1_1e3.yoda/PAPER_FIN_R4/ch_lin_l20_pT_65_88
DrawOnly=/herwig_np_lo_r4_pt408_s1_1e3.yoda/PAPER_FIN_R4/ch_lin_l20_pT_65_88
Legend=1
LogY=1
# END PLOT

# BEGIN HISTO1D /herwig_np_lo_r4_pt408_s1_1e3.yoda/PAPER_FIN_R4/ch_lin_l20_pT_65_88
LineColor=red
LineStyle=solid
Path=/herwig_np_lo_r4_pt408_s1_1e3.yoda/PAPER_FIN_R4/ch_lin_l20_pT_65_88
Title=herwig_np_lo_r4_pt408_s1_1e3
XLabel=~
YLabel=~
# xlow	 xhigh	 val	 errminus	 errplus
0.000000e+00	5.000000e-03	2.800000e+03	7.483315e+02	7.483315e+02
5.000000e-03	1.250000e-02	5.066667e+03	8.219219e+02	8.219219e+02
1.250000e-02	2.250000e-02	8.400000e+03	9.165151e+02	9.165151e+02
2.250000e-02	3.500000e-02	9.680000e+03	8.800000e+02	8.800000e+02
3.500000e-02	5.000000e-02	1.131372e+04	8.715493e+02	8.715493e+02
5.000000e-02	7.000000e-02	1.090744e+04	7.415485e+02	7.415485e+02
7.000000e-02	9.250000e-02	9.752796e+03	6.629358e+02	6.629358e+02
9.250000e-02	1.200000e-01	7.454545e+03	5.206480e+02	5.206480e+02
1.200000e-01	1.520000e-01	6.467250e+03	4.512411e+02	4.512411e+02
1.520000e-01	1.880000e-01	4.222222e+03	3.424674e+02	3.424674e+02
1.880000e-01	2.280000e-01	2.325000e+03	2.410913e+02	2.410913e+02
2.280000e-01	1.000000e+00	1.321244e+02	1.308226e+01	1.308226e+01
# END HISTO1D

