# BEGIN PLOT
LegendOnly=/herwig_np_lo_r4_pt408_s1_1e3.yoda/PAPER_FIN_R4_CH/lin_l05_pT_408_1500
DrawOnly=/herwig_np_lo_r4_pt408_s1_1e3.yoda/PAPER_FIN_R4_CH/lin_l05_pT_408_1500
Legend=1
LogY=1
# END PLOT

# BEGIN HISTO1D /herwig_np_lo_r4_pt408_s1_1e3.yoda/PAPER_FIN_R4_CH/lin_l05_pT_408_1500
LineColor=red
LineStyle=solid
Path=/herwig_np_lo_r4_pt408_s1_1e3.yoda/PAPER_FIN_R4_CH/lin_l05_pT_408_1500
Title=herwig_np_lo_r4_pt408_s1_1e3
XLabel=~
YLabel=~
# xlow	 xhigh	 val	 errminus	 errplus
0.000000e+00	6.000000e-02	5.445855e+06	9.538782e+03	9.538782e+03
6.000000e-02	1.100000e-01	8.469398e+07	4.125659e+04	4.125659e+04
1.100000e-01	1.500000e-01	1.683906e+08	6.605109e+04	6.605109e+04
1.500000e-01	1.900000e-01	1.444932e+08	3.689017e+05	3.689017e+05
1.900000e-01	2.300000e-01	1.064627e+08	5.176645e+04	5.176645e+04
2.300000e-01	2.700000e-01	7.986982e+07	3.249892e+05	3.249892e+05
2.700000e-01	3.100000e-01	6.031688e+07	3.886723e+04	3.886723e+04
3.100000e-01	3.500000e-01	4.576535e+07	3.387002e+04	3.387002e+04
3.500000e-01	3.900000e-01	3.461647e+07	2.942291e+04	2.942291e+04
3.900000e-01	4.400000e-01	2.509960e+07	2.279742e+04	2.279742e+04
4.400000e-01	4.900000e-01	1.716235e+07	1.853185e+04	1.853185e+04
4.900000e-01	5.400000e-01	1.107349e+07	1.489391e+04	1.489391e+04
5.400000e-01	6.000000e-01	6.106745e+06	1.009117e+04	1.009117e+04
6.000000e-01	1.000000e+00	4.954428e+05	1.112985e+03	1.112985e+03
# END HISTO1D

