# BEGIN PLOT
LegendOnly=/zj_ps_nlo_mer_mur1_muf2_R8.yoda/PAPER_FIN_R4_CH/lin_l05_pT_88_120
DrawOnly=/zj_ps_nlo_mer_mur1_muf2_R8.yoda/PAPER_FIN_R4_CH/lin_l05_pT_88_120
Legend=1
LogY=1
# END PLOT

# BEGIN HISTO1D /zj_ps_nlo_mer_mur1_muf2_R8.yoda/PAPER_FIN_R4_CH/lin_l05_pT_88_120
LineColor=red
LineStyle=solid
Path=/zj_ps_nlo_mer_mur1_muf2_R8.yoda/PAPER_FIN_R4_CH/lin_l05_pT_88_120
Title=zj_ps_nlo_mer_mur1_muf2_R8
XLabel=~
YLabel=~
# xlow	 xhigh	 val	 errminus	 errplus
0.000000e+00	6.000000e-02	3.234475e+08	4.683393e+06	4.683393e+06
6.000000e-02	1.100000e-01	4.064666e+09	3.798409e+07	3.798409e+07
1.100000e-01	1.500000e-01	1.444246e+10	4.712483e+07	4.712483e+07
1.500000e-01	1.900000e-01	3.108007e+10	6.416174e+07	6.416174e+07
1.900000e-01	2.300000e-01	4.786745e+10	8.669173e+07	8.669173e+07
2.300000e-01	2.700000e-01	5.521680e+10	8.419832e+07	8.419832e+07
2.700000e-01	3.100000e-01	5.140723e+10	8.347301e+07	8.347301e+07
3.100000e-01	3.500000e-01	4.164028e+10	1.099574e+08	1.099574e+08
3.500000e-01	3.900000e-01	3.121037e+10	6.373401e+07	6.373401e+07
3.900000e-01	4.400000e-01	2.196452e+10	4.498535e+07	4.498535e+07
4.400000e-01	4.900000e-01	1.475265e+10	3.556773e+07	3.556773e+07
4.900000e-01	5.400000e-01	9.806418e+09	2.997641e+07	2.997641e+07
5.400000e-01	6.000000e-01	5.888228e+09	2.076316e+07	2.076316e+07
6.000000e-01	1.000000e+00	6.099628e+08	2.885830e+06	2.885830e+06
# END HISTO1D

