# BEGIN PLOT
LegendOnly=/zj_ps_nlo_mer_mur1_muf2_R8.yoda/PAPER_FIN_R4_CH/lin_SD_l10_pT_186_254
DrawOnly=/zj_ps_nlo_mer_mur1_muf2_R8.yoda/PAPER_FIN_R4_CH/lin_SD_l10_pT_186_254
Legend=1
LogY=1
# END PLOT

# BEGIN HISTO1D /zj_ps_nlo_mer_mur1_muf2_R8.yoda/PAPER_FIN_R4_CH/lin_SD_l10_pT_186_254
LineColor=red
LineStyle=solid
Path=/zj_ps_nlo_mer_mur1_muf2_R8.yoda/PAPER_FIN_R4_CH/lin_SD_l10_pT_186_254
Title=zj_ps_nlo_mer_mur1_muf2_R8
XLabel=~
YLabel=~
# xlow	 xhigh	 val	 errminus	 errplus
0.000000e+00	1.250000e-02	1.667887e+10	6.934272e+07	6.934272e+07
1.250000e-02	2.250000e-02	3.096835e+10	1.006629e+08	1.006629e+08
2.250000e-02	3.500000e-02	2.888910e+10	8.998578e+07	8.998578e+07
3.500000e-02	5.000000e-02	2.058301e+10	6.601983e+07	6.601983e+07
5.000000e-02	7.000000e-02	1.303740e+10	4.545879e+07	4.545879e+07
7.000000e-02	9.500000e-02	8.090860e+09	3.299458e+07	3.299458e+07
9.500000e-02	1.280000e-01	5.684542e+09	2.271355e+07	2.271355e+07
1.280000e-01	1.700000e-01	4.328588e+09	1.731131e+07	1.731131e+07
1.700000e-01	2.250000e-01	3.093005e+09	1.264861e+07	1.264861e+07
2.250000e-01	2.900000e-01	2.032558e+09	9.405359e+06	9.405359e+06
2.900000e-01	3.650000e-01	1.242010e+09	8.621894e+06	8.621894e+06
3.650000e-01	4.500000e-01	6.814841e+08	4.864295e+06	4.864295e+06
4.500000e-01	1.000000e+00	6.604015e+07	5.834024e+05	5.834024e+05
# END HISTO1D

