# BEGIN PLOT
LegendOnly=/zj_ps_nlo_mer_mur2_muf1_R4.yoda/PAPER_FIN_R4/SD_l10_pT_326_408
DrawOnly=/zj_ps_nlo_mer_mur2_muf1_R4.yoda/PAPER_FIN_R4/SD_l10_pT_326_408
Legend=1
LogY=1
# END PLOT

# BEGIN HISTO1D /zj_ps_nlo_mer_mur2_muf1_R4.yoda/PAPER_FIN_R4/SD_l10_pT_326_408
LineColor=red
LineStyle=solid
Path=/zj_ps_nlo_mer_mur2_muf1_R4.yoda/PAPER_FIN_R4/SD_l10_pT_326_408
Title=zj_ps_nlo_mer_mur2_muf1_R4
XLabel=~
YLabel=~
# xlow	 xhigh	 val	 errminus	 errplus
-7.000000e+00	-6.930000e+00	0.000000e+00	0.000000e+00	0.000000e+00
-6.930000e+00	-6.860000e+00	7.358439e+06	6.344951e+06	6.344951e+06
-6.860000e+00	-6.790000e+00	0.000000e+00	0.000000e+00	0.000000e+00
-6.790000e+00	-6.720000e+00	0.000000e+00	0.000000e+00	0.000000e+00
-6.720000e+00	-6.650000e+00	0.000000e+00	0.000000e+00	0.000000e+00
-6.650000e+00	-6.580000e+00	0.000000e+00	0.000000e+00	0.000000e+00
-6.580000e+00	-6.510000e+00	0.000000e+00	0.000000e+00	0.000000e+00
-6.510000e+00	-6.440000e+00	0.000000e+00	0.000000e+00	0.000000e+00
-6.440000e+00	-6.370000e+00	0.000000e+00	0.000000e+00	0.000000e+00
-6.370000e+00	-6.300000e+00	0.000000e+00	0.000000e+00	0.000000e+00
-6.300000e+00	-6.230000e+00	0.000000e+00	0.000000e+00	0.000000e+00
-6.230000e+00	-6.160000e+00	0.000000e+00	0.000000e+00	0.000000e+00
-6.160000e+00	-6.090000e+00	0.000000e+00	0.000000e+00	0.000000e+00
-6.090000e+00	-6.020000e+00	0.000000e+00	0.000000e+00	0.000000e+00
-6.020000e+00	-5.950000e+00	0.000000e+00	0.000000e+00	0.000000e+00
-5.950000e+00	-5.880000e+00	0.000000e+00	0.000000e+00	0.000000e+00
-5.880000e+00	-5.810000e+00	0.000000e+00	0.000000e+00	0.000000e+00
-5.810000e+00	-5.740000e+00	0.000000e+00	0.000000e+00	0.000000e+00
-5.740000e+00	-5.670000e+00	0.000000e+00	0.000000e+00	0.000000e+00
-5.670000e+00	-5.600000e+00	0.000000e+00	0.000000e+00	0.000000e+00
-5.600000e+00	-5.530000e+00	0.000000e+00	0.000000e+00	0.000000e+00
-5.530000e+00	-5.460000e+00	0.000000e+00	0.000000e+00	0.000000e+00
-5.460000e+00	-5.390000e+00	0.000000e+00	0.000000e+00	0.000000e+00
-5.390000e+00	-5.320000e+00	0.000000e+00	0.000000e+00	0.000000e+00
-5.320000e+00	-5.250000e+00	0.000000e+00	0.000000e+00	0.000000e+00
-5.250000e+00	-5.180000e+00	0.000000e+00	0.000000e+00	0.000000e+00
-5.180000e+00	-5.110000e+00	0.000000e+00	0.000000e+00	0.000000e+00
-5.110000e+00	-5.040000e+00	0.000000e+00	0.000000e+00	0.000000e+00
-5.040000e+00	-4.970000e+00	0.000000e+00	0.000000e+00	0.000000e+00
-4.970000e+00	-4.900000e+00	0.000000e+00	0.000000e+00	0.000000e+00
-4.900000e+00	-4.830000e+00	0.000000e+00	0.000000e+00	0.000000e+00
-4.830000e+00	-4.760000e+00	4.599730e+02	4.613085e+02	4.613085e+02
-4.760000e+00	-4.690000e+00	-6.222231e+03	6.954543e+03	6.954543e+03
-4.690000e+00	-4.620000e+00	-1.121125e+02	1.121125e+02	1.121125e+02
-4.620000e+00	-4.550000e+00	1.288359e+02	1.139379e+02	1.139379e+02
-4.550000e+00	-4.480000e+00	5.859090e-05	5.859090e-05	5.859090e-05
-4.480000e+00	-4.410000e+00	2.751760e+01	3.351808e+01	3.351808e+01
-4.410000e+00	-4.340000e+00	1.512667e+05	1.514520e+05	1.514520e+05
-4.340000e+00	-4.270000e+00	8.708393e+03	1.009846e+04	1.009846e+04
-4.270000e+00	-4.200000e+00	-5.854913e+02	6.018216e+02	6.018216e+02
-4.200000e+00	-4.130000e+00	3.111369e+03	3.202271e+03	3.202271e+03
-4.130000e+00	-4.060000e+00	5.573089e+04	5.645536e+04	5.645536e+04
-4.060000e+00	-3.990000e+00	1.468977e+04	9.494815e+03	9.494815e+03
-3.990000e+00	-3.920000e+00	-5.312109e+04	3.580465e+04	3.580465e+04
-3.920000e+00	-3.850000e+00	4.076801e+04	6.442060e+04	6.442060e+04
-3.850000e+00	-3.780000e+00	1.348210e+05	6.162984e+04	6.162984e+04
-3.780000e+00	-3.710000e+00	-9.748144e+03	7.513042e+04	7.513042e+04
-3.710000e+00	-3.640000e+00	-1.054440e+06	1.051789e+06	1.051789e+06
-3.640000e+00	-3.570000e+00	1.386779e+05	1.125147e+05	1.125147e+05
-3.570000e+00	-3.500000e+00	3.496210e+05	1.886168e+05	1.886168e+05
-3.500000e+00	-3.430000e+00	2.243091e+05	7.218116e+04	7.218116e+04
-3.430000e+00	-3.360000e+00	5.092087e+05	3.584321e+05	3.584321e+05
-3.360000e+00	-3.290000e+00	1.087932e+06	7.571865e+05	7.571865e+05
-3.290000e+00	-3.220000e+00	1.439047e+06	4.603468e+05	4.603468e+05
-3.220000e+00	-3.150000e+00	1.910784e+06	6.950281e+05	6.950281e+05
-3.150000e+00	-3.080000e+00	2.134651e+06	4.493444e+05	4.493444e+05
-3.080000e+00	-3.010000e+00	4.233570e+06	1.134644e+06	1.134644e+06
-3.010000e+00	-2.940000e+00	4.300947e+06	1.032984e+06	1.032984e+06
-2.940000e+00	-2.870000e+00	4.326590e+06	1.102498e+06	1.102498e+06
-2.870000e+00	-2.800000e+00	7.020210e+06	1.597524e+06	1.597524e+06
-2.800000e+00	-2.730000e+00	7.043407e+06	2.163509e+06	2.163509e+06
-2.730000e+00	-2.660000e+00	9.714477e+06	1.985143e+06	1.985143e+06
-2.660000e+00	-2.590000e+00	2.115384e+07	2.645155e+06	2.645155e+06
-2.590000e+00	-2.520000e+00	2.782671e+07	4.753325e+06	4.753325e+06
-2.520000e+00	-2.450000e+00	4.445389e+07	5.447420e+06	5.447420e+06
-2.450000e+00	-2.380000e+00	4.650897e+07	5.876890e+06	5.876890e+06
-2.380000e+00	-2.310000e+00	6.876789e+07	5.509902e+06	5.509902e+06
-2.310000e+00	-2.240000e+00	8.901593e+07	6.336005e+06	6.336005e+06
-2.240000e+00	-2.170000e+00	1.155262e+08	6.617327e+06	6.617327e+06
-2.170000e+00	-2.100000e+00	1.065458e+08	2.171469e+07	2.171469e+07
-2.100000e+00	-2.030000e+00	1.848744e+08	1.026586e+07	1.026586e+07
-2.030000e+00	-1.960000e+00	2.310314e+08	2.119222e+07	2.119222e+07
-1.960000e+00	-1.890000e+00	2.613077e+08	1.725249e+07	1.725249e+07
-1.890000e+00	-1.820000e+00	2.741229e+08	1.767855e+07	1.767855e+07
-1.820000e+00	-1.750000e+00	3.760779e+08	3.008626e+07	3.008626e+07
-1.750000e+00	-1.680000e+00	3.495161e+08	1.414507e+07	1.414507e+07
-1.680000e+00	-1.610000e+00	3.702396e+08	1.609279e+07	1.609279e+07
-1.610000e+00	-1.540000e+00	3.179111e+08	1.405198e+07	1.405198e+07
-1.540000e+00	-1.470000e+00	2.817093e+08	3.178000e+07	3.178000e+07
-1.470000e+00	-1.400000e+00	3.213451e+08	1.622086e+07	1.622086e+07
-1.400000e+00	-1.330000e+00	2.605974e+08	1.280454e+07	1.280454e+07
-1.330000e+00	-1.260000e+00	2.646847e+08	1.655574e+07	1.655574e+07
-1.260000e+00	-1.190000e+00	2.352851e+08	9.932109e+06	9.932109e+06
-1.190000e+00	-1.120000e+00	2.138593e+08	3.340955e+07	3.340955e+07
-1.120000e+00	-1.050000e+00	2.073670e+08	1.303184e+07	1.303184e+07
-1.050000e+00	-9.800000e-01	2.592914e+08	1.030357e+07	1.030357e+07
-9.800000e-01	-9.100000e-01	2.314750e+08	9.658895e+06	9.658895e+06
-9.100000e-01	-8.400000e-01	2.531907e+08	1.213161e+07	1.213161e+07
-8.400000e-01	-7.700000e-01	2.698511e+08	2.641425e+07	2.641425e+07
-7.700000e-01	-7.000000e-01	2.489394e+08	1.073553e+07	1.073553e+07
-7.000000e-01	-6.300000e-01	2.290583e+08	9.989325e+06	9.989325e+06
-6.300000e-01	-5.600000e-01	1.730807e+08	1.264281e+07	1.264281e+07
-5.600000e-01	-4.900000e-01	1.489973e+08	1.162720e+07	1.162720e+07
-4.900000e-01	-4.200000e-01	1.381223e+08	8.139494e+06	8.139494e+06
-4.200000e-01	-3.500000e-01	8.645080e+07	7.221729e+06	7.221729e+06
-3.500000e-01	-2.800000e-01	5.634133e+07	6.081778e+06	6.081778e+06
-2.800000e-01	-2.100000e-01	1.855587e+07	2.058671e+06	2.058671e+06
-2.100000e-01	-1.400000e-01	7.584447e+06	4.515553e+06	4.515553e+06
-1.400000e-01	-7.000000e-02	4.641594e+05	3.164654e+05	3.164654e+05
-7.000000e-02	0.000000e+00	1.495113e+02	1.091024e+02	1.091024e+02
# END HISTO1D

