# BEGIN PLOT
LegendOnly=/scale_1.yoda/PAPER_FIN_R4/XS_CUTS_pT_186_254
DrawOnly=/scale_1.yoda/PAPER_FIN_R4/XS_CUTS_pT_186_254
Legend=1
LogY=1
# END PLOT

# BEGIN HISTO1D /scale_1.yoda/PAPER_FIN_R4/XS_CUTS_pT_186_254
LineColor=red
LineStyle=solid
Path=/scale_1.yoda/PAPER_FIN_R4/XS_CUTS_pT_186_254
Title=scale_1
XLabel=~
YLabel=~
# xlow	 xhigh	 val	 errminus	 errplus
-5.000000e-01	5.000000e-01	1.446906e+03	3.422948e+01	3.422948e+01
# END HISTO1D

