# BEGIN PLOT
LegendOnly=/herwig_ps_lo_r8_pt150_s1_1e3.yoda/PAPER_FIN_R8/ch_l10_pT_186_254
DrawOnly=/herwig_ps_lo_r8_pt150_s1_1e3.yoda/PAPER_FIN_R8/ch_l10_pT_186_254
Legend=1
LogY=1
# END PLOT

# BEGIN HISTO1D /herwig_ps_lo_r8_pt150_s1_1e3.yoda/PAPER_FIN_R8/ch_l10_pT_186_254
LineColor=red
LineStyle=solid
Path=/herwig_ps_lo_r8_pt150_s1_1e3.yoda/PAPER_FIN_R8/ch_l10_pT_186_254
Title=herwig_ps_lo_r8_pt150_s1_1e3
XLabel=~
YLabel=~
# xlow	 xhigh	 val	 errminus	 errplus
-7.000000e+00	-6.930000e+00	0.000000e+00	0.000000e+00	0.000000e+00
-6.930000e+00	-6.860000e+00	2.336177e+08	6.175757e+04	6.175757e+04
-6.860000e+00	-6.790000e+00	0.000000e+00	0.000000e+00	0.000000e+00
-6.790000e+00	-6.720000e+00	0.000000e+00	0.000000e+00	0.000000e+00
-6.720000e+00	-6.650000e+00	0.000000e+00	0.000000e+00	0.000000e+00
-6.650000e+00	-6.580000e+00	0.000000e+00	0.000000e+00	0.000000e+00
-6.580000e+00	-6.510000e+00	0.000000e+00	0.000000e+00	0.000000e+00
-6.510000e+00	-6.440000e+00	0.000000e+00	0.000000e+00	0.000000e+00
-6.440000e+00	-6.370000e+00	0.000000e+00	0.000000e+00	0.000000e+00
-6.370000e+00	-6.300000e+00	0.000000e+00	0.000000e+00	0.000000e+00
-6.300000e+00	-6.230000e+00	0.000000e+00	0.000000e+00	0.000000e+00
-6.230000e+00	-6.160000e+00	0.000000e+00	0.000000e+00	0.000000e+00
-6.160000e+00	-6.090000e+00	0.000000e+00	0.000000e+00	0.000000e+00
-6.090000e+00	-6.020000e+00	0.000000e+00	0.000000e+00	0.000000e+00
-6.020000e+00	-5.950000e+00	0.000000e+00	0.000000e+00	0.000000e+00
-5.950000e+00	-5.880000e+00	0.000000e+00	0.000000e+00	0.000000e+00
-5.880000e+00	-5.810000e+00	0.000000e+00	0.000000e+00	0.000000e+00
-5.810000e+00	-5.740000e+00	0.000000e+00	0.000000e+00	0.000000e+00
-5.740000e+00	-5.670000e+00	0.000000e+00	0.000000e+00	0.000000e+00
-5.670000e+00	-5.600000e+00	0.000000e+00	0.000000e+00	0.000000e+00
-5.600000e+00	-5.530000e+00	0.000000e+00	0.000000e+00	0.000000e+00
-5.530000e+00	-5.460000e+00	0.000000e+00	0.000000e+00	0.000000e+00
-5.460000e+00	-5.390000e+00	0.000000e+00	0.000000e+00	0.000000e+00
-5.390000e+00	-5.320000e+00	0.000000e+00	0.000000e+00	0.000000e+00
-5.320000e+00	-5.250000e+00	0.000000e+00	0.000000e+00	0.000000e+00
-5.250000e+00	-5.180000e+00	0.000000e+00	0.000000e+00	0.000000e+00
-5.180000e+00	-5.110000e+00	0.000000e+00	0.000000e+00	0.000000e+00
-5.110000e+00	-5.040000e+00	0.000000e+00	0.000000e+00	0.000000e+00
-5.040000e+00	-4.970000e+00	0.000000e+00	0.000000e+00	0.000000e+00
-4.970000e+00	-4.900000e+00	0.000000e+00	0.000000e+00	0.000000e+00
-4.900000e+00	-4.830000e+00	0.000000e+00	0.000000e+00	0.000000e+00
-4.830000e+00	-4.760000e+00	0.000000e+00	0.000000e+00	0.000000e+00
-4.760000e+00	-4.690000e+00	0.000000e+00	0.000000e+00	0.000000e+00
-4.690000e+00	-4.620000e+00	0.000000e+00	0.000000e+00	0.000000e+00
-4.620000e+00	-4.550000e+00	0.000000e+00	0.000000e+00	0.000000e+00
-4.550000e+00	-4.480000e+00	0.000000e+00	0.000000e+00	0.000000e+00
-4.480000e+00	-4.410000e+00	0.000000e+00	0.000000e+00	0.000000e+00
-4.410000e+00	-4.340000e+00	0.000000e+00	0.000000e+00	0.000000e+00
-4.340000e+00	-4.270000e+00	0.000000e+00	0.000000e+00	0.000000e+00
-4.270000e+00	-4.200000e+00	1.428571e+01	1.428571e+01	1.428571e+01
-4.200000e+00	-4.130000e+00	0.000000e+00	0.000000e+00	0.000000e+00
-4.130000e+00	-4.060000e+00	1.428571e+01	1.428571e+01	1.428571e+01
-4.060000e+00	-3.990000e+00	0.000000e+00	0.000000e+00	0.000000e+00
-3.990000e+00	-3.920000e+00	3.279389e+01	2.338020e+01	2.338020e+01
-3.920000e+00	-3.850000e+00	1.428571e+01	1.428571e+01	1.428571e+01
-3.850000e+00	-3.780000e+00	7.142857e+01	3.194383e+01	3.194383e+01
-3.780000e+00	-3.710000e+00	4.217557e+01	3.133570e+01	3.133570e+01
-3.710000e+00	-3.640000e+00	5.714286e+01	2.857143e+01	2.857143e+01
-3.640000e+00	-3.570000e+00	2.857143e+01	2.020305e+01	2.020305e+01
-3.570000e+00	-3.500000e+00	1.595277e+02	5.154718e+01	5.154718e+01
-3.500000e+00	-3.430000e+00	1.275640e+02	4.595510e+01	4.595510e+01
-3.430000e+00	-3.360000e+00	1.794770e+02	5.536123e+01	5.536123e+01
-3.360000e+00	-3.290000e+00	2.790586e+02	6.444974e+01	6.444974e+01
-3.290000e+00	-3.220000e+00	3.858867e+02	7.866920e+01	7.866920e+01
-3.220000e+00	-3.150000e+00	6.184610e+02	1.012295e+02	1.012295e+02
-3.150000e+00	-3.080000e+00	8.979390e+02	1.314586e+02	1.314586e+02
-3.080000e+00	-3.010000e+00	1.611846e+03	1.665921e+02	1.665921e+02
-3.010000e+00	-2.940000e+00	1.444729e+03	1.539535e+02	1.539535e+02
-2.940000e+00	-2.870000e+00	1.973947e+03	1.821206e+02	1.821206e+02
-2.870000e+00	-2.800000e+00	3.132524e+03	2.227738e+02	2.227738e+02
-2.800000e+00	-2.730000e+00	4.673977e+03	2.788946e+02	2.788946e+02
-2.730000e+00	-2.660000e+00	6.478194e+03	3.283965e+02	3.283965e+02
-2.660000e+00	-2.590000e+00	9.274361e+03	3.906299e+02	3.906299e+02
-2.590000e+00	-2.520000e+00	1.229871e+04	4.493995e+02	4.493995e+02
-2.520000e+00	-2.450000e+00	1.694276e+04	5.266595e+02	5.266595e+02
-2.450000e+00	-2.380000e+00	2.419689e+04	6.311376e+02	6.311376e+02
-2.380000e+00	-2.310000e+00	3.405866e+04	7.551743e+02	7.551743e+02
-2.310000e+00	-2.240000e+00	4.834927e+04	9.154451e+02	9.154451e+02
-2.240000e+00	-2.170000e+00	8.091036e+04	1.222228e+03	1.222228e+03
-2.170000e+00	-2.100000e+00	1.390684e+05	1.648617e+03	1.648617e+03
-2.100000e+00	-2.030000e+00	2.191027e+05	2.086844e+03	2.086844e+03
-2.030000e+00	-1.960000e+00	3.097127e+05	2.508129e+03	2.508129e+03
-1.960000e+00	-1.890000e+00	4.143403e+05	2.910439e+03	2.910439e+03
-1.890000e+00	-1.820000e+00	5.289881e+05	3.290961e+03	3.290961e+03
-1.820000e+00	-1.750000e+00	6.413954e+05	3.616619e+03	3.616619e+03
-1.750000e+00	-1.680000e+00	7.631460e+05	3.920513e+03	3.920513e+03
-1.680000e+00	-1.610000e+00	8.776817e+05	4.181967e+03	4.181967e+03
-1.610000e+00	-1.540000e+00	1.030273e+06	4.513472e+03	4.513472e+03
-1.540000e+00	-1.470000e+00	1.184306e+06	4.793486e+03	4.793486e+03
-1.470000e+00	-1.400000e+00	1.351461e+06	5.080971e+03	5.080971e+03
-1.400000e+00	-1.330000e+00	1.503880e+06	5.324673e+03	5.324673e+03
-1.330000e+00	-1.260000e+00	1.648866e+06	5.546098e+03	5.546098e+03
-1.260000e+00	-1.190000e+00	1.778323e+06	5.738909e+03	5.738909e+03
-1.190000e+00	-1.120000e+00	1.881314e+06	5.877659e+03	5.877659e+03
-1.120000e+00	-1.050000e+00	1.943619e+06	5.956999e+03	5.956999e+03
-1.050000e+00	-9.800000e-01	1.983101e+06	6.003599e+03	6.003599e+03
-9.800000e-01	-9.100000e-01	1.981673e+06	5.977601e+03	5.977601e+03
-9.100000e-01	-8.400000e-01	1.957553e+06	5.925052e+03	5.925052e+03
-8.400000e-01	-7.700000e-01	1.884436e+06	5.803850e+03	5.803850e+03
-7.700000e-01	-7.000000e-01	1.782996e+06	5.625358e+03	5.625358e+03
-7.000000e-01	-6.300000e-01	1.638291e+06	5.376808e+03	5.376808e+03
-6.300000e-01	-5.600000e-01	1.464944e+06	5.075570e+03	5.075570e+03
-5.600000e-01	-4.900000e-01	1.216525e+06	4.609885e+03	4.609885e+03
-4.900000e-01	-4.200000e-01	9.250647e+05	4.011816e+03	4.011816e+03
-4.200000e-01	-3.500000e-01	5.819424e+05	3.169927e+03	3.169927e+03
-3.500000e-01	-2.800000e-01	2.013339e+05	1.865335e+03	1.865335e+03
-2.800000e-01	-2.100000e-01	3.054481e+04	7.218172e+02	7.218172e+02
-2.100000e-01	-1.400000e-01	2.639403e+03	2.183743e+02	2.183743e+02
-1.400000e-01	-7.000000e-02	5.714286e+01	2.857143e+01	2.857143e+01
-7.000000e-02	0.000000e+00	0.000000e+00	0.000000e+00	0.000000e+00
# END HISTO1D

