# BEGIN PLOT
LegendOnly=/herwig_ps_lo_r8_pt150_s1_1e3.yoda/PAPER_FIN_R8/lin_l20_pT_408_1500
DrawOnly=/herwig_ps_lo_r8_pt150_s1_1e3.yoda/PAPER_FIN_R8/lin_l20_pT_408_1500
Legend=1
LogY=1
# END PLOT

# BEGIN HISTO1D /herwig_ps_lo_r8_pt150_s1_1e3.yoda/PAPER_FIN_R8/lin_l20_pT_408_1500
LineColor=red
LineStyle=solid
Path=/herwig_ps_lo_r8_pt150_s1_1e3.yoda/PAPER_FIN_R8/lin_l20_pT_408_1500
Title=herwig_ps_lo_r8_pt150_s1_1e3
XLabel=~
YLabel=~
# xlow	 xhigh	 val	 errminus	 errplus
0.000000e+00	5.000000e-02	2.883680e+07	2.626932e+04	2.626932e+04
5.000000e-02	9.000000e-02	5.242990e+06	1.277293e+04	1.277293e+04
9.000000e-02	1.500000e-01	2.316127e+06	6.946420e+03	6.946420e+03
1.500000e-01	2.050000e-01	1.071390e+06	4.946345e+03	4.946345e+03
2.050000e-01	1.000000e+00	4.264390e+04	2.595489e+02	2.595489e+02
# END HISTO1D

