# BEGIN PLOT
# END PLOT

# BEGIN HISTO1D
LineColor=red
LineStyle=solid
Title=Z+Jet RES+NP
# Sigma = 6.846610e+00 pb
# xlow	xhigh	val	errminus	errplus
0.000000e+00	1.250000e-02	2.393104e+00	1.287642e+00	1.337049e+00
1.250000e-02	2.250000e-02	1.752484e+03	1.749639e+03	1.749676e+03
2.250000e-02	3.500000e-02	1.168219e+01	5.200997e+00	5.222609e+00
3.500000e-02	5.000000e-02	6.635998e+00	6.568329e-01	7.097047e-01
5.000000e-02	7.000000e-02	6.324684e+00	6.932510e-01	7.361512e-01
7.000000e-02	9.500000e-02	4.821357e+00	5.380956e-01	6.406623e-01
9.500000e-02	1.280000e-01	4.387481e+00	7.223842e-01	7.205137e-01
1.280000e-01	1.700000e-01	2.722292e+00	4.393295e-01	5.096226e-01
1.700000e-01	2.250000e-01	1.832350e+00	3.056561e-01	4.029714e-01
2.250000e-01	2.900000e-01	1.170212e+00	2.038946e-01	3.026935e-01
2.900000e-01	3.650000e-01	6.334673e-01	1.243503e-01	2.031737e-01
3.650000e-01	4.500000e-01	3.319395e-01	6.986706e-02	1.281702e-01
4.500000e-01	1.000000e+00	2.412870e-02	8.925076e-03	1.839711e-02
# END HISTO1D