# BEGIN PLOT
LegendOnly=/zj_ps_nlo_mer_mur2_muf1_R4.yoda/PAPER_FIN_R4/lin_l05_pT_326_408
DrawOnly=/zj_ps_nlo_mer_mur2_muf1_R4.yoda/PAPER_FIN_R4/lin_l05_pT_326_408
Legend=1
LogY=1
# END PLOT

# BEGIN HISTO1D /zj_ps_nlo_mer_mur2_muf1_R4.yoda/PAPER_FIN_R4/lin_l05_pT_326_408
LineColor=red
LineStyle=solid
Path=/zj_ps_nlo_mer_mur2_muf1_R4.yoda/PAPER_FIN_R4/lin_l05_pT_326_408
Title=zj_ps_nlo_mer_mur2_muf1_R4
XLabel=~
YLabel=~
# xlow	 xhigh	 val	 errminus	 errplus
0.000000e+00	1.700000e-01	1.029145e+09	1.438432e+07	1.438432e+07
1.700000e-01	2.500000e-01	1.599174e+09	2.095385e+07	2.095385e+07
2.500000e-01	3.200000e-01	9.568347e+08	1.729122e+07	1.729122e+07
3.200000e-01	3.800000e-01	5.718873e+08	1.600826e+07	1.600826e+07
3.800000e-01	4.500000e-01	3.798351e+08	1.065241e+07	1.065241e+07
4.500000e-01	5.200000e-01	2.576450e+08	1.664614e+07	1.664614e+07
5.200000e-01	5.900000e-01	1.147944e+08	6.932974e+06	6.932974e+06
5.900000e-01	1.000000e+00	1.020904e+07	8.196193e+05	8.196193e+05
# END HISTO1D

