# BEGIN PLOT
LegendOnly=/zj_ps_nlo_mer_mur2_muf1_R4.yoda/PAPER_FIN_R4/ch_lin_l10_pT_88_120
DrawOnly=/zj_ps_nlo_mer_mur2_muf1_R4.yoda/PAPER_FIN_R4/ch_lin_l10_pT_88_120
Legend=1
LogY=1
# END PLOT

# BEGIN HISTO1D /zj_ps_nlo_mer_mur2_muf1_R4.yoda/PAPER_FIN_R4/ch_lin_l10_pT_88_120
LineColor=red
LineStyle=solid
Path=/zj_ps_nlo_mer_mur2_muf1_R4.yoda/PAPER_FIN_R4/ch_lin_l10_pT_88_120
Title=zj_ps_nlo_mer_mur2_muf1_R4
XLabel=~
YLabel=~
# xlow	 xhigh	 val	 errminus	 errplus
0.000000e+00	2.250000e-02	1.141375e+10	2.000174e+08	2.000174e+08
2.250000e-02	4.000000e-02	3.203287e+10	7.575533e+08	7.575533e+08
4.000000e-02	5.750000e-02	5.711956e+10	6.191454e+08	6.191454e+08
5.750000e-02	7.750000e-02	7.372970e+10	7.023756e+08	7.023756e+08
7.750000e-02	1.000000e-01	8.051138e+10	6.737332e+08	6.737332e+08
1.000000e-01	1.250000e-01	7.280360e+10	1.481716e+09	1.481716e+09
1.250000e-01	1.520000e-01	6.117085e+10	4.902043e+08	4.902043e+08
1.520000e-01	1.850000e-01	4.637282e+10	4.127082e+08	4.127082e+08
1.850000e-01	2.200000e-01	3.405680e+10	2.689422e+08	2.689422e+08
2.200000e-01	2.600000e-01	2.393986e+10	2.402643e+08	2.402643e+08
2.600000e-01	3.070000e-01	1.577094e+10	1.599354e+08	1.599354e+08
3.070000e-01	3.620000e-01	1.025517e+10	1.115555e+08	1.115555e+08
3.620000e-01	4.250000e-01	5.951176e+09	7.620588e+07	7.620588e+07
4.250000e-01	4.970000e-01	2.904921e+09	5.987695e+07	5.987695e+07
4.970000e-01	1.000000e+00	2.342000e+08	7.176495e+06	7.176495e+06
# END HISTO1D

