# BEGIN PLOT
LegendOnly=/zj_ps_nlo_mer_mur1_muf2_R8.yoda/PAPER_FIN_R8_CH/lin_SD_l10_pT_50_65
DrawOnly=/zj_ps_nlo_mer_mur1_muf2_R8.yoda/PAPER_FIN_R8_CH/lin_SD_l10_pT_50_65
Legend=1
LogY=1
# END PLOT

# BEGIN HISTO1D /zj_ps_nlo_mer_mur1_muf2_R8.yoda/PAPER_FIN_R8_CH/lin_SD_l10_pT_50_65
LineColor=red
LineStyle=solid
Path=/zj_ps_nlo_mer_mur1_muf2_R8.yoda/PAPER_FIN_R8_CH/lin_SD_l10_pT_50_65
Title=zj_ps_nlo_mer_mur1_muf2_R8
XLabel=~
YLabel=~
# xlow	 xhigh	 val	 errminus	 errplus
0.000000e+00	1.250000e-02	1.420105e+10	1.998123e+09	1.998123e+09
1.250000e-02	2.250000e-02	9.287805e+08	2.174569e+08	2.174569e+08
2.250000e-02	3.500000e-02	3.777315e+09	5.775104e+08	5.775104e+08
3.500000e-02	5.000000e-02	4.202416e+09	3.765424e+08	3.765424e+08
5.000000e-02	7.000000e-02	2.828820e+09	3.096798e+08	3.096798e+08
7.000000e-02	9.500000e-02	2.455441e+09	3.484441e+08	3.484441e+08
9.500000e-02	1.280000e-01	2.190416e+09	1.895893e+08	1.895893e+08
1.280000e-01	1.700000e-01	1.803100e+09	2.117373e+08	2.117373e+08
1.700000e-01	2.250000e-01	1.476719e+09	1.273744e+08	1.273744e+08
2.250000e-01	2.900000e-01	9.704103e+08	9.094157e+07	9.094157e+07
2.900000e-01	3.650000e-01	5.531904e+08	1.445068e+08	1.445068e+08
3.650000e-01	4.500000e-01	2.876969e+08	4.278047e+07	4.278047e+07
4.500000e-01	1.000000e+00	2.221455e+07	4.893733e+06	4.893733e+06
# END HISTO1D

