# BEGIN PLOT
LegendOnly=/zj_ps_nlo_mer_mur1_muf2_R8.yoda/PAPER_FIN_R8/lin_l20_pT_254_326
DrawOnly=/zj_ps_nlo_mer_mur1_muf2_R8.yoda/PAPER_FIN_R8/lin_l20_pT_254_326
Legend=1
LogY=1
# END PLOT

# BEGIN HISTO1D /zj_ps_nlo_mer_mur1_muf2_R8.yoda/PAPER_FIN_R8/lin_l20_pT_254_326
LineColor=red
LineStyle=solid
Path=/zj_ps_nlo_mer_mur1_muf2_R8.yoda/PAPER_FIN_R8/lin_l20_pT_254_326
Title=zj_ps_nlo_mer_mur1_muf2_R8
XLabel=~
YLabel=~
# xlow	 xhigh	 val	 errminus	 errplus
0.000000e+00	5.000000e-02	1.988570e+10	3.528992e+08	3.528992e+08
5.000000e-02	9.000000e-02	4.804265e+09	6.594233e+07	6.594233e+07
9.000000e-02	1.500000e-01	2.278110e+09	4.499554e+07	4.499554e+07
1.500000e-01	2.050000e-01	1.114372e+09	1.979065e+07	1.979065e+07
2.050000e-01	1.000000e+00	4.733643e+07	1.293211e+06	1.293211e+06
# END HISTO1D

