# BEGIN PLOT
LegendOnly=/zj_ps_nlo_mer_mur1_muf2_R8.yoda/PAPER_FIN_R8/ch_l05_pT_50_65
DrawOnly=/zj_ps_nlo_mer_mur1_muf2_R8.yoda/PAPER_FIN_R8/ch_l05_pT_50_65
Legend=1
LogY=1
# END PLOT

# BEGIN HISTO1D /zj_ps_nlo_mer_mur1_muf2_R8.yoda/PAPER_FIN_R8/ch_l05_pT_50_65
LineColor=red
LineStyle=solid
Path=/zj_ps_nlo_mer_mur1_muf2_R8.yoda/PAPER_FIN_R8/ch_l05_pT_50_65
Title=zj_ps_nlo_mer_mur1_muf2_R8
XLabel=~
YLabel=~
# xlow	 xhigh	 val	 errminus	 errplus
-7.000000e+00	-6.930000e+00	0.000000e+00	0.000000e+00	0.000000e+00
-6.930000e+00	-6.860000e+00	5.781689e+09	3.867901e+08	3.867901e+08
-6.860000e+00	-6.790000e+00	0.000000e+00	0.000000e+00	0.000000e+00
-6.790000e+00	-6.720000e+00	0.000000e+00	0.000000e+00	0.000000e+00
-6.720000e+00	-6.650000e+00	-2.960766e-05	2.960765e-05	2.960765e-05
-6.650000e+00	-6.580000e+00	0.000000e+00	0.000000e+00	0.000000e+00
-6.580000e+00	-6.510000e+00	0.000000e+00	0.000000e+00	0.000000e+00
-6.510000e+00	-6.440000e+00	-4.783933e-11	4.783934e-11	4.783934e-11
-6.440000e+00	-6.370000e+00	0.000000e+00	0.000000e+00	0.000000e+00
-6.370000e+00	-6.300000e+00	0.000000e+00	0.000000e+00	0.000000e+00
-6.300000e+00	-6.230000e+00	2.480770e-04	2.480770e-04	2.480770e-04
-6.230000e+00	-6.160000e+00	-1.043790e-03	1.043790e-03	1.043790e-03
-6.160000e+00	-6.090000e+00	-6.386697e-01	6.386697e-01	6.386697e-01
-6.090000e+00	-6.020000e+00	0.000000e+00	0.000000e+00	0.000000e+00
-6.020000e+00	-5.950000e+00	-1.911737e+00	1.921963e+00	1.921963e+00
-5.950000e+00	-5.880000e+00	0.000000e+00	0.000000e+00	0.000000e+00
-5.880000e+00	-5.810000e+00	0.000000e+00	0.000000e+00	0.000000e+00
-5.810000e+00	-5.740000e+00	-1.995561e+00	1.995562e+00	1.995562e+00
-5.740000e+00	-5.670000e+00	-8.761241e+00	7.582032e+00	7.582032e+00
-5.670000e+00	-5.600000e+00	-4.874234e+00	4.874235e+00	4.874235e+00
-5.600000e+00	-5.530000e+00	-1.890670e+01	1.890139e+01	1.890139e+01
-5.530000e+00	-5.460000e+00	-1.377312e-02	1.274771e-02	1.274771e-02
-5.460000e+00	-5.390000e+00	2.350699e-02	2.350699e-02	2.350699e-02
-5.390000e+00	-5.320000e+00	0.000000e+00	0.000000e+00	0.000000e+00
-5.320000e+00	-5.250000e+00	-4.146551e-03	4.146551e-03	4.146551e-03
-5.250000e+00	-5.180000e+00	3.807949e-02	3.910860e-02	3.910860e-02
-5.180000e+00	-5.110000e+00	-4.633023e-01	4.633020e-01	4.633020e-01
-5.110000e+00	-5.040000e+00	0.000000e+00	0.000000e+00	0.000000e+00
-5.040000e+00	-4.970000e+00	6.261549e+01	6.261549e+01	6.261549e+01
-4.970000e+00	-4.900000e+00	5.564747e+00	5.572738e+00	5.572738e+00
-4.900000e+00	-4.830000e+00	8.351026e-05	8.351026e-05	8.351026e-05
-4.830000e+00	-4.760000e+00	-4.707899e+01	4.710176e+01	4.710176e+01
-4.760000e+00	-4.690000e+00	-1.970350e+00	2.025944e+00	2.025944e+00
-4.690000e+00	-4.620000e+00	-1.201826e+01	1.111100e+01	1.111100e+01
-4.620000e+00	-4.550000e+00	-1.123887e+04	9.095194e+03	9.095194e+03
-4.550000e+00	-4.480000e+00	-1.921351e+01	2.887372e+01	2.887372e+01
-4.480000e+00	-4.410000e+00	0.000000e+00	0.000000e+00	0.000000e+00
-4.410000e+00	-4.340000e+00	2.765967e+04	2.765967e+04	2.765967e+04
-4.340000e+00	-4.270000e+00	-3.560119e+01	2.901122e+01	2.901122e+01
-4.270000e+00	-4.200000e+00	3.741136e+02	4.229978e+02	4.229978e+02
-4.200000e+00	-4.130000e+00	-2.282146e+03	1.503387e+03	1.503387e+03
-4.130000e+00	-4.060000e+00	-8.478133e+03	8.591409e+03	8.591409e+03
-4.060000e+00	-3.990000e+00	-3.422924e+06	3.425106e+06	3.425106e+06
-3.990000e+00	-3.920000e+00	2.595760e+05	2.446599e+05	2.446599e+05
-3.920000e+00	-3.850000e+00	6.745351e+05	4.567087e+05	4.567087e+05
-3.850000e+00	-3.780000e+00	3.426014e+05	4.915104e+05	4.915104e+05
-3.780000e+00	-3.710000e+00	4.856284e+05	3.676510e+05	3.676510e+05
-3.710000e+00	-3.640000e+00	-4.359406e+05	1.374291e+06	1.374291e+06
-3.640000e+00	-3.570000e+00	-1.480789e+05	1.655397e+06	1.655397e+06
-3.570000e+00	-3.500000e+00	-3.832407e+06	3.938098e+06	3.938098e+06
-3.500000e+00	-3.430000e+00	3.441121e+06	2.141223e+06	2.141223e+06
-3.430000e+00	-3.360000e+00	4.924500e+06	4.241717e+06	4.241717e+06
-3.360000e+00	-3.290000e+00	-3.500876e+06	3.425029e+06	3.425029e+06
-3.290000e+00	-3.220000e+00	7.056983e+06	9.056238e+06	9.056238e+06
-3.220000e+00	-3.150000e+00	2.568786e+06	4.195101e+06	4.195101e+06
-3.150000e+00	-3.080000e+00	6.830007e+06	4.639449e+06	4.639449e+06
-3.080000e+00	-3.010000e+00	7.944493e+06	3.747211e+06	3.747211e+06
-3.010000e+00	-2.940000e+00	-4.038744e+04	4.003162e+06	4.003162e+06
-2.940000e+00	-2.870000e+00	8.054270e+04	3.157989e+06	3.157989e+06
-2.870000e+00	-2.800000e+00	2.577986e+06	2.276762e+06	2.276762e+06
-2.800000e+00	-2.730000e+00	1.937596e+06	1.586842e+06	1.586842e+06
-2.730000e+00	-2.660000e+00	6.957469e+06	1.874305e+06	1.874305e+06
-2.660000e+00	-2.590000e+00	-2.896949e+06	3.835473e+06	3.835473e+06
-2.590000e+00	-2.520000e+00	4.980157e+06	3.324419e+06	3.324419e+06
-2.520000e+00	-2.450000e+00	3.060069e+06	3.773119e+06	3.773119e+06
-2.450000e+00	-2.380000e+00	8.038803e+06	3.384742e+06	3.384742e+06
-2.380000e+00	-2.310000e+00	1.165282e+05	9.821774e+06	9.821774e+06
-2.310000e+00	-2.240000e+00	-2.162789e+06	9.166374e+06	9.166374e+06
-2.240000e+00	-2.170000e+00	2.415560e+07	9.890764e+06	9.890764e+06
-2.170000e+00	-2.100000e+00	1.354337e+07	8.678184e+06	8.678184e+06
-2.100000e+00	-2.030000e+00	3.519611e+07	5.527792e+06	5.527792e+06
-2.030000e+00	-1.960000e+00	-9.299896e+06	4.050152e+07	4.050152e+07
-1.960000e+00	-1.890000e+00	3.039117e+07	7.552755e+06	7.552755e+06
-1.890000e+00	-1.820000e+00	3.360910e+07	1.141441e+07	1.141441e+07
-1.820000e+00	-1.750000e+00	9.413220e+06	1.890546e+07	1.890546e+07
-1.750000e+00	-1.680000e+00	2.338389e+07	2.299090e+07	2.299090e+07
-1.680000e+00	-1.610000e+00	8.860420e+07	4.239756e+07	4.239756e+07
-1.610000e+00	-1.540000e+00	7.944143e+07	3.346363e+07	3.346363e+07
-1.540000e+00	-1.470000e+00	6.893359e+07	2.173468e+07	2.173468e+07
-1.470000e+00	-1.400000e+00	3.602930e+07	1.679701e+07	1.679701e+07
-1.400000e+00	-1.330000e+00	1.321093e+08	6.329492e+07	6.329492e+07
-1.330000e+00	-1.260000e+00	8.939601e+07	2.530344e+07	2.530344e+07
-1.260000e+00	-1.190000e+00	1.675126e+08	2.146486e+07	2.146486e+07
-1.190000e+00	-1.120000e+00	8.663844e+07	4.718236e+07	4.718236e+07
-1.120000e+00	-1.050000e+00	1.117237e+08	5.713020e+07	5.713020e+07
-1.050000e+00	-9.800000e-01	2.239731e+08	3.060232e+07	3.060232e+07
-9.800000e-01	-9.100000e-01	2.821764e+08	3.946060e+07	3.946060e+07
-9.100000e-01	-8.400000e-01	2.181210e+08	4.640692e+07	4.640692e+07
-8.400000e-01	-7.700000e-01	3.309429e+08	3.925322e+07	3.925322e+07
-7.700000e-01	-7.000000e-01	1.665527e+08	8.292401e+07	8.292401e+07
-7.000000e-01	-6.300000e-01	2.567153e+08	4.059006e+07	4.059006e+07
-6.300000e-01	-5.600000e-01	2.687821e+08	3.152075e+07	3.152075e+07
-5.600000e-01	-4.900000e-01	1.877104e+08	3.540822e+07	3.540822e+07
-4.900000e-01	-4.200000e-01	1.877067e+08	2.743392e+07	2.743392e+07
-4.200000e-01	-3.500000e-01	1.296818e+08	2.385756e+07	2.385756e+07
-3.500000e-01	-2.800000e-01	4.536224e+07	1.734014e+07	1.734014e+07
-2.800000e-01	-2.100000e-01	1.461189e+07	2.182703e+07	2.182703e+07
-2.100000e-01	-1.400000e-01	2.191307e+06	1.563929e+06	1.563929e+06
-1.400000e-01	-7.000000e-02	1.893454e+05	1.313640e+05	1.313640e+05
-7.000000e-02	0.000000e+00	0.000000e+00	0.000000e+00	0.000000e+00
# END HISTO1D

