# BEGIN PLOT
LegendOnly=/zj_ps_nlo_mer_mur2_muf1_R8.yoda/PAPER_FIN_R8/l10_pT_88_120
DrawOnly=/zj_ps_nlo_mer_mur2_muf1_R8.yoda/PAPER_FIN_R8/l10_pT_88_120
Legend=1
LogY=1
# END PLOT

# BEGIN HISTO1D /zj_ps_nlo_mer_mur2_muf1_R8.yoda/PAPER_FIN_R8/l10_pT_88_120
LineColor=red
LineStyle=solid
Path=/zj_ps_nlo_mer_mur2_muf1_R8.yoda/PAPER_FIN_R8/l10_pT_88_120
Title=zj_ps_nlo_mer_mur2_muf1_R8
XLabel=~
YLabel=~
# xlow	 xhigh	 val	 errminus	 errplus
-7.000000e+00	-6.930000e+00	0.000000e+00	0.000000e+00	0.000000e+00
-6.930000e+00	-6.860000e+00	0.000000e+00	0.000000e+00	0.000000e+00
-6.860000e+00	-6.790000e+00	0.000000e+00	0.000000e+00	0.000000e+00
-6.790000e+00	-6.720000e+00	0.000000e+00	0.000000e+00	0.000000e+00
-6.720000e+00	-6.650000e+00	0.000000e+00	0.000000e+00	0.000000e+00
-6.650000e+00	-6.580000e+00	0.000000e+00	0.000000e+00	0.000000e+00
-6.580000e+00	-6.510000e+00	0.000000e+00	0.000000e+00	0.000000e+00
-6.510000e+00	-6.440000e+00	0.000000e+00	0.000000e+00	0.000000e+00
-6.440000e+00	-6.370000e+00	0.000000e+00	0.000000e+00	0.000000e+00
-6.370000e+00	-6.300000e+00	0.000000e+00	0.000000e+00	0.000000e+00
-6.300000e+00	-6.230000e+00	0.000000e+00	0.000000e+00	0.000000e+00
-6.230000e+00	-6.160000e+00	0.000000e+00	0.000000e+00	0.000000e+00
-6.160000e+00	-6.090000e+00	0.000000e+00	0.000000e+00	0.000000e+00
-6.090000e+00	-6.020000e+00	0.000000e+00	0.000000e+00	0.000000e+00
-6.020000e+00	-5.950000e+00	0.000000e+00	0.000000e+00	0.000000e+00
-5.950000e+00	-5.880000e+00	0.000000e+00	0.000000e+00	0.000000e+00
-5.880000e+00	-5.810000e+00	0.000000e+00	0.000000e+00	0.000000e+00
-5.810000e+00	-5.740000e+00	0.000000e+00	0.000000e+00	0.000000e+00
-5.740000e+00	-5.670000e+00	0.000000e+00	0.000000e+00	0.000000e+00
-5.670000e+00	-5.600000e+00	0.000000e+00	0.000000e+00	0.000000e+00
-5.600000e+00	-5.530000e+00	0.000000e+00	0.000000e+00	0.000000e+00
-5.530000e+00	-5.460000e+00	0.000000e+00	0.000000e+00	0.000000e+00
-5.460000e+00	-5.390000e+00	0.000000e+00	0.000000e+00	0.000000e+00
-5.390000e+00	-5.320000e+00	0.000000e+00	0.000000e+00	0.000000e+00
-5.320000e+00	-5.250000e+00	0.000000e+00	0.000000e+00	0.000000e+00
-5.250000e+00	-5.180000e+00	0.000000e+00	0.000000e+00	0.000000e+00
-5.180000e+00	-5.110000e+00	0.000000e+00	0.000000e+00	0.000000e+00
-5.110000e+00	-5.040000e+00	0.000000e+00	0.000000e+00	0.000000e+00
-5.040000e+00	-4.970000e+00	0.000000e+00	0.000000e+00	0.000000e+00
-4.970000e+00	-4.900000e+00	0.000000e+00	0.000000e+00	0.000000e+00
-4.900000e+00	-4.830000e+00	0.000000e+00	0.000000e+00	0.000000e+00
-4.830000e+00	-4.760000e+00	0.000000e+00	0.000000e+00	0.000000e+00
-4.760000e+00	-4.690000e+00	0.000000e+00	0.000000e+00	0.000000e+00
-4.690000e+00	-4.620000e+00	0.000000e+00	0.000000e+00	0.000000e+00
-4.620000e+00	-4.550000e+00	0.000000e+00	0.000000e+00	0.000000e+00
-4.550000e+00	-4.480000e+00	0.000000e+00	0.000000e+00	0.000000e+00
-4.480000e+00	-4.410000e+00	0.000000e+00	0.000000e+00	0.000000e+00
-4.410000e+00	-4.340000e+00	0.000000e+00	0.000000e+00	0.000000e+00
-4.340000e+00	-4.270000e+00	0.000000e+00	0.000000e+00	0.000000e+00
-4.270000e+00	-4.200000e+00	0.000000e+00	0.000000e+00	0.000000e+00
-4.200000e+00	-4.130000e+00	0.000000e+00	0.000000e+00	0.000000e+00
-4.130000e+00	-4.060000e+00	0.000000e+00	0.000000e+00	0.000000e+00
-4.060000e+00	-3.990000e+00	0.000000e+00	0.000000e+00	0.000000e+00
-3.990000e+00	-3.920000e+00	0.000000e+00	0.000000e+00	0.000000e+00
-3.920000e+00	-3.850000e+00	0.000000e+00	0.000000e+00	0.000000e+00
-3.850000e+00	-3.780000e+00	0.000000e+00	0.000000e+00	0.000000e+00
-3.780000e+00	-3.710000e+00	0.000000e+00	0.000000e+00	0.000000e+00
-3.710000e+00	-3.640000e+00	0.000000e+00	0.000000e+00	0.000000e+00
-3.640000e+00	-3.570000e+00	0.000000e+00	0.000000e+00	0.000000e+00
-3.570000e+00	-3.500000e+00	0.000000e+00	0.000000e+00	0.000000e+00
-3.500000e+00	-3.430000e+00	0.000000e+00	0.000000e+00	0.000000e+00
-3.430000e+00	-3.360000e+00	0.000000e+00	0.000000e+00	0.000000e+00
-3.360000e+00	-3.290000e+00	0.000000e+00	0.000000e+00	0.000000e+00
-3.290000e+00	-3.220000e+00	0.000000e+00	0.000000e+00	0.000000e+00
-3.220000e+00	-3.150000e+00	0.000000e+00	0.000000e+00	0.000000e+00
-3.150000e+00	-3.080000e+00	0.000000e+00	0.000000e+00	0.000000e+00
-3.080000e+00	-3.010000e+00	0.000000e+00	0.000000e+00	0.000000e+00
-3.010000e+00	-2.940000e+00	0.000000e+00	0.000000e+00	0.000000e+00
-2.940000e+00	-2.870000e+00	0.000000e+00	0.000000e+00	0.000000e+00
-2.870000e+00	-2.800000e+00	0.000000e+00	0.000000e+00	0.000000e+00
-2.800000e+00	-2.730000e+00	0.000000e+00	0.000000e+00	0.000000e+00
-2.730000e+00	-2.660000e+00	0.000000e+00	0.000000e+00	0.000000e+00
-2.660000e+00	-2.590000e+00	-4.094273e+01	4.094274e+01	4.094274e+01
-2.590000e+00	-2.520000e+00	0.000000e+00	0.000000e+00	0.000000e+00
-2.520000e+00	-2.450000e+00	-1.709079e+01	1.676044e+01	1.676044e+01
-2.450000e+00	-2.380000e+00	-4.395887e-01	4.395887e-01	4.395887e-01
-2.380000e+00	-2.310000e+00	-4.429154e+02	3.165055e+02	3.165055e+02
-2.310000e+00	-2.240000e+00	-6.959471e+01	4.262207e+02	4.262207e+02
-2.240000e+00	-2.170000e+00	2.576143e+03	4.394934e+03	4.394934e+03
-2.170000e+00	-2.100000e+00	-7.423849e+04	7.417135e+04	7.417135e+04
-2.100000e+00	-2.030000e+00	7.784410e+04	4.784616e+04	4.784616e+04
-2.030000e+00	-1.960000e+00	-3.956903e+02	1.826210e+03	1.826210e+03
-1.960000e+00	-1.890000e+00	-2.002561e+04	2.536535e+04	2.536535e+04
-1.890000e+00	-1.820000e+00	-7.561333e+03	6.517282e+03	6.517282e+03
-1.820000e+00	-1.750000e+00	-2.731051e+04	5.405200e+04	5.405200e+04
-1.750000e+00	-1.680000e+00	9.882737e+04	5.309268e+04	5.309268e+04
-1.680000e+00	-1.610000e+00	1.043751e+05	6.686036e+04	6.686036e+04
-1.610000e+00	-1.540000e+00	1.990261e+05	8.007335e+04	8.007335e+04
-1.540000e+00	-1.470000e+00	1.230150e+06	7.925410e+05	7.925410e+05
-1.470000e+00	-1.400000e+00	8.035693e+05	2.792315e+05	2.792315e+05
-1.400000e+00	-1.330000e+00	2.026010e+06	3.677331e+05	3.677331e+05
-1.330000e+00	-1.260000e+00	3.398079e+06	8.377086e+05	8.377086e+05
-1.260000e+00	-1.190000e+00	5.046297e+06	7.742927e+05	7.742927e+05
-1.190000e+00	-1.120000e+00	5.373426e+06	6.355448e+05	6.355448e+05
-1.120000e+00	-1.050000e+00	6.289329e+06	1.209966e+06	1.209966e+06
-1.050000e+00	-9.800000e-01	1.104601e+07	1.711814e+06	1.711814e+06
-9.800000e-01	-9.100000e-01	8.600400e+06	1.185105e+06	1.185105e+06
-9.100000e-01	-8.400000e-01	7.806049e+06	1.180943e+06	1.180943e+06
-8.400000e-01	-7.700000e-01	1.005465e+07	1.029106e+06	1.029106e+06
-7.700000e-01	-7.000000e-01	4.809579e+06	1.665052e+06	1.665052e+06
-7.000000e-01	-6.300000e-01	6.340950e+06	1.657791e+06	1.657791e+06
-6.300000e-01	-5.600000e-01	8.467064e+06	2.135788e+06	2.135788e+06
-5.600000e-01	-4.900000e-01	5.853501e+06	7.804899e+05	7.804899e+05
-4.900000e-01	-4.200000e-01	4.130410e+06	9.523526e+05	9.523526e+05
-4.200000e-01	-3.500000e-01	3.075859e+06	6.543405e+05	6.543405e+05
-3.500000e-01	-2.800000e-01	2.146883e+06	6.267560e+05	6.267560e+05
-2.800000e-01	-2.100000e-01	7.288814e+05	3.241051e+05	3.241051e+05
-2.100000e-01	-1.400000e-01	2.499284e+05	9.373536e+04	9.373536e+04
-1.400000e-01	-7.000000e-02	3.936796e+03	5.678777e+03	5.678777e+03
-7.000000e-02	0.000000e+00	1.012980e+03	1.056760e+03	1.056760e+03
# END HISTO1D

