# BEGIN PLOT
LegendOnly=/zj_ps_nlo_mer_mur2_muf1_R8.yoda/PAPER_FIN_R8_CH/XS_CUTS_pT_50_65
DrawOnly=/zj_ps_nlo_mer_mur2_muf1_R8.yoda/PAPER_FIN_R8_CH/XS_CUTS_pT_50_65
Legend=1
LogY=1
# END PLOT

# BEGIN HISTO1D /zj_ps_nlo_mer_mur2_muf1_R8.yoda/PAPER_FIN_R8_CH/XS_CUTS_pT_50_65
LineColor=red
LineStyle=solid
Path=/zj_ps_nlo_mer_mur2_muf1_R8.yoda/PAPER_FIN_R8_CH/XS_CUTS_pT_50_65
Title=zj_ps_nlo_mer_mur2_muf1_R8
XLabel=~
YLabel=~
# xlow	 xhigh	 val	 errminus	 errplus
-5.000000e-01	5.000000e-01	7.026578e-04	1.106386e-03	1.106386e-03
# END HISTO1D

