# BEGIN PLOT
LegendOnly=/zj_ps_nlo_mer_mur2_muf1_R8.yoda/PAPER_FIN_R8/lin_l10_pT_150_186
DrawOnly=/zj_ps_nlo_mer_mur2_muf1_R8.yoda/PAPER_FIN_R8/lin_l10_pT_150_186
Legend=1
LogY=1
# END PLOT

# BEGIN HISTO1D /zj_ps_nlo_mer_mur2_muf1_R8.yoda/PAPER_FIN_R8/lin_l10_pT_150_186
LineColor=red
LineStyle=solid
Path=/zj_ps_nlo_mer_mur2_muf1_R8.yoda/PAPER_FIN_R8/lin_l10_pT_150_186
Title=zj_ps_nlo_mer_mur2_muf1_R8
XLabel=~
YLabel=~
# xlow	 xhigh	 val	 errminus	 errplus
0.000000e+00	1.050000e-01	7.383847e+08	1.048624e+07	1.048624e+07
1.050000e-01	1.650000e-01	6.815938e+08	1.358394e+07	1.358394e+07
1.650000e-01	2.300000e-01	3.972154e+08	1.283479e+07	1.283479e+07
2.300000e-01	3.050000e-01	2.474069e+08	5.876177e+06	5.876177e+06
3.050000e-01	3.800000e-01	1.447508e+08	4.505491e+06	4.505491e+06
3.800000e-01	4.600000e-01	8.296461e+07	4.630487e+06	4.630487e+06
4.600000e-01	5.500000e-01	2.577018e+07	2.188958e+06	2.188958e+06
5.500000e-01	1.000000e+00	2.186289e+06	3.241798e+05	3.241798e+05
# END HISTO1D

