# BEGIN PLOT
LegendOnly=/zj_ps_nlo_mer_mur2_muf1_R8.yoda/PAPER_FIN_R8_CH/lin_SD_l10_pT_254_326
DrawOnly=/zj_ps_nlo_mer_mur2_muf1_R8.yoda/PAPER_FIN_R8_CH/lin_SD_l10_pT_254_326
Legend=1
LogY=1
# END PLOT

# BEGIN HISTO1D /zj_ps_nlo_mer_mur2_muf1_R8.yoda/PAPER_FIN_R8_CH/lin_SD_l10_pT_254_326
LineColor=red
LineStyle=solid
Path=/zj_ps_nlo_mer_mur2_muf1_R8.yoda/PAPER_FIN_R8_CH/lin_SD_l10_pT_254_326
Title=zj_ps_nlo_mer_mur2_muf1_R8
XLabel=~
YLabel=~
# xlow	 xhigh	 val	 errminus	 errplus
0.000000e+00	1.250000e-02	3.390350e+10	1.474268e+08	1.474268e+08
1.250000e-02	2.250000e-02	2.437082e+10	1.640632e+08	1.640632e+08
2.250000e-02	3.500000e-02	1.127150e+10	9.936161e+07	9.936161e+07
3.500000e-02	5.000000e-02	6.758553e+09	5.477980e+07	5.477980e+07
5.000000e-02	7.000000e-02	4.832951e+09	4.003732e+07	4.003732e+07
7.000000e-02	9.500000e-02	3.799995e+09	2.788892e+07	2.788892e+07
9.500000e-02	1.280000e-01	3.157109e+09	2.310336e+07	2.310336e+07
1.280000e-01	1.700000e-01	2.551648e+09	4.028794e+07	4.028794e+07
1.700000e-01	2.250000e-01	1.951493e+09	1.746589e+07	1.746589e+07
2.250000e-01	2.900000e-01	1.275794e+09	1.823157e+07	1.823157e+07
2.900000e-01	3.650000e-01	7.977417e+08	8.477825e+06	8.477825e+06
3.650000e-01	4.500000e-01	4.082995e+08	6.334700e+06	6.334700e+06
4.500000e-01	1.000000e+00	3.314391e+07	4.714417e+05	4.714417e+05
# END HISTO1D

