# BEGIN PLOT
LegendOnly=/zj_ps_nlo_mer_mur1_muf2_R8.yoda/PAPER_FIN_R8/SD_l05_pT_408_1500
DrawOnly=/zj_ps_nlo_mer_mur1_muf2_R8.yoda/PAPER_FIN_R8/SD_l05_pT_408_1500
Legend=1
LogY=1
# END PLOT

# BEGIN HISTO1D /zj_ps_nlo_mer_mur1_muf2_R8.yoda/PAPER_FIN_R8/SD_l05_pT_408_1500
LineColor=red
LineStyle=solid
Path=/zj_ps_nlo_mer_mur1_muf2_R8.yoda/PAPER_FIN_R8/SD_l05_pT_408_1500
Title=zj_ps_nlo_mer_mur1_muf2_R8
XLabel=~
YLabel=~
# xlow	 xhigh	 val	 errminus	 errplus
-7.000000e+00	-6.930000e+00	0.000000e+00	0.000000e+00	0.000000e+00
-6.930000e+00	-6.860000e+00	1.357540e+07	2.153660e+06	2.153660e+06
-6.860000e+00	-6.790000e+00	0.000000e+00	0.000000e+00	0.000000e+00
-6.790000e+00	-6.720000e+00	0.000000e+00	0.000000e+00	0.000000e+00
-6.720000e+00	-6.650000e+00	0.000000e+00	0.000000e+00	0.000000e+00
-6.650000e+00	-6.580000e+00	0.000000e+00	0.000000e+00	0.000000e+00
-6.580000e+00	-6.510000e+00	0.000000e+00	0.000000e+00	0.000000e+00
-6.510000e+00	-6.440000e+00	0.000000e+00	0.000000e+00	0.000000e+00
-6.440000e+00	-6.370000e+00	0.000000e+00	0.000000e+00	0.000000e+00
-6.370000e+00	-6.300000e+00	0.000000e+00	0.000000e+00	0.000000e+00
-6.300000e+00	-6.230000e+00	0.000000e+00	0.000000e+00	0.000000e+00
-6.230000e+00	-6.160000e+00	0.000000e+00	0.000000e+00	0.000000e+00
-6.160000e+00	-6.090000e+00	0.000000e+00	0.000000e+00	0.000000e+00
-6.090000e+00	-6.020000e+00	0.000000e+00	0.000000e+00	0.000000e+00
-6.020000e+00	-5.950000e+00	0.000000e+00	0.000000e+00	0.000000e+00
-5.950000e+00	-5.880000e+00	0.000000e+00	0.000000e+00	0.000000e+00
-5.880000e+00	-5.810000e+00	0.000000e+00	0.000000e+00	0.000000e+00
-5.810000e+00	-5.740000e+00	0.000000e+00	0.000000e+00	0.000000e+00
-5.740000e+00	-5.670000e+00	0.000000e+00	0.000000e+00	0.000000e+00
-5.670000e+00	-5.600000e+00	0.000000e+00	0.000000e+00	0.000000e+00
-5.600000e+00	-5.530000e+00	0.000000e+00	0.000000e+00	0.000000e+00
-5.530000e+00	-5.460000e+00	0.000000e+00	0.000000e+00	0.000000e+00
-5.460000e+00	-5.390000e+00	0.000000e+00	0.000000e+00	0.000000e+00
-5.390000e+00	-5.320000e+00	0.000000e+00	0.000000e+00	0.000000e+00
-5.320000e+00	-5.250000e+00	0.000000e+00	0.000000e+00	0.000000e+00
-5.250000e+00	-5.180000e+00	0.000000e+00	0.000000e+00	0.000000e+00
-5.180000e+00	-5.110000e+00	0.000000e+00	0.000000e+00	0.000000e+00
-5.110000e+00	-5.040000e+00	0.000000e+00	0.000000e+00	0.000000e+00
-5.040000e+00	-4.970000e+00	0.000000e+00	0.000000e+00	0.000000e+00
-4.970000e+00	-4.900000e+00	0.000000e+00	0.000000e+00	0.000000e+00
-4.900000e+00	-4.830000e+00	0.000000e+00	0.000000e+00	0.000000e+00
-4.830000e+00	-4.760000e+00	0.000000e+00	0.000000e+00	0.000000e+00
-4.760000e+00	-4.690000e+00	0.000000e+00	0.000000e+00	0.000000e+00
-4.690000e+00	-4.620000e+00	0.000000e+00	0.000000e+00	0.000000e+00
-4.620000e+00	-4.550000e+00	0.000000e+00	0.000000e+00	0.000000e+00
-4.550000e+00	-4.480000e+00	0.000000e+00	0.000000e+00	0.000000e+00
-4.480000e+00	-4.410000e+00	0.000000e+00	0.000000e+00	0.000000e+00
-4.410000e+00	-4.340000e+00	0.000000e+00	0.000000e+00	0.000000e+00
-4.340000e+00	-4.270000e+00	0.000000e+00	0.000000e+00	0.000000e+00
-4.270000e+00	-4.200000e+00	0.000000e+00	0.000000e+00	0.000000e+00
-4.200000e+00	-4.130000e+00	0.000000e+00	0.000000e+00	0.000000e+00
-4.130000e+00	-4.060000e+00	0.000000e+00	0.000000e+00	0.000000e+00
-4.060000e+00	-3.990000e+00	0.000000e+00	0.000000e+00	0.000000e+00
-3.990000e+00	-3.920000e+00	0.000000e+00	0.000000e+00	0.000000e+00
-3.920000e+00	-3.850000e+00	0.000000e+00	0.000000e+00	0.000000e+00
-3.850000e+00	-3.780000e+00	0.000000e+00	0.000000e+00	0.000000e+00
-3.780000e+00	-3.710000e+00	0.000000e+00	0.000000e+00	0.000000e+00
-3.710000e+00	-3.640000e+00	0.000000e+00	0.000000e+00	0.000000e+00
-3.640000e+00	-3.570000e+00	0.000000e+00	0.000000e+00	0.000000e+00
-3.570000e+00	-3.500000e+00	-6.693129e-02	6.693128e-02	6.693128e-02
-3.500000e+00	-3.430000e+00	0.000000e+00	0.000000e+00	0.000000e+00
-3.430000e+00	-3.360000e+00	0.000000e+00	0.000000e+00	0.000000e+00
-3.360000e+00	-3.290000e+00	0.000000e+00	0.000000e+00	0.000000e+00
-3.290000e+00	-3.220000e+00	0.000000e+00	0.000000e+00	0.000000e+00
-3.220000e+00	-3.150000e+00	0.000000e+00	0.000000e+00	0.000000e+00
-3.150000e+00	-3.080000e+00	2.423317e+02	2.427478e+02	2.427478e+02
-3.080000e+00	-3.010000e+00	-7.390630e-01	7.696181e-01	7.696181e-01
-3.010000e+00	-2.940000e+00	8.349943e+01	7.466229e+01	7.466229e+01
-2.940000e+00	-2.870000e+00	1.302970e+01	1.629511e+01	1.629511e+01
-2.870000e+00	-2.800000e+00	3.882599e+01	5.391569e+01	5.391569e+01
-2.800000e+00	-2.730000e+00	1.945997e+05	1.946316e+05	1.946316e+05
-2.730000e+00	-2.660000e+00	1.356212e+04	7.990469e+03	7.990469e+03
-2.660000e+00	-2.590000e+00	1.037692e+05	5.965255e+04	5.965255e+04
-2.590000e+00	-2.520000e+00	8.634879e+04	6.085339e+04	6.085339e+04
-2.520000e+00	-2.450000e+00	1.403684e+05	8.056629e+04	8.056629e+04
-2.450000e+00	-2.380000e+00	2.330680e+05	3.160840e+05	3.160840e+05
-2.380000e+00	-2.310000e+00	9.558523e+05	4.184062e+05	4.184062e+05
-2.310000e+00	-2.240000e+00	-6.394287e+05	1.481099e+06	1.481099e+06
-2.240000e+00	-2.170000e+00	1.637453e+06	4.175749e+05	4.175749e+05
-2.170000e+00	-2.100000e+00	2.795183e+06	7.684009e+05	7.684009e+05
-2.100000e+00	-2.030000e+00	3.732850e+06	9.750012e+05	9.750012e+05
-2.030000e+00	-1.960000e+00	4.265413e+06	8.100826e+05	8.100826e+05
-1.960000e+00	-1.890000e+00	2.574526e+07	1.001000e+07	1.001000e+07
-1.890000e+00	-1.820000e+00	1.386902e+07	2.123061e+06	2.123061e+06
-1.820000e+00	-1.750000e+00	2.632949e+07	3.205530e+06	3.205530e+06
-1.750000e+00	-1.680000e+00	4.608669e+07	6.870662e+06	6.870662e+06
-1.680000e+00	-1.610000e+00	7.279711e+07	1.762408e+07	1.762408e+07
-1.610000e+00	-1.540000e+00	1.183842e+08	1.839138e+07	1.839138e+07
-1.540000e+00	-1.470000e+00	1.230945e+08	7.590268e+06	7.590268e+06
-1.470000e+00	-1.400000e+00	1.786409e+08	1.075321e+07	1.075321e+07
-1.400000e+00	-1.330000e+00	2.863644e+08	1.898234e+07	1.898234e+07
-1.330000e+00	-1.260000e+00	3.597550e+08	1.353309e+07	1.353309e+07
-1.260000e+00	-1.190000e+00	4.343216e+08	3.441761e+07	3.441761e+07
-1.190000e+00	-1.120000e+00	4.793550e+08	1.558475e+07	1.558475e+07
-1.120000e+00	-1.050000e+00	5.106889e+08	2.524518e+07	2.524518e+07
-1.050000e+00	-9.800000e-01	4.796281e+08	2.389749e+07	2.389749e+07
-9.800000e-01	-9.100000e-01	4.338639e+08	1.377542e+07	1.377542e+07
-9.100000e-01	-8.400000e-01	4.153504e+08	1.867395e+07	1.867395e+07
-8.400000e-01	-7.700000e-01	4.346277e+08	1.690435e+07	1.690435e+07
-7.700000e-01	-7.000000e-01	6.532697e+08	1.673904e+08	1.673904e+08
-7.000000e-01	-6.300000e-01	5.006119e+08	1.996058e+07	1.996058e+07
-6.300000e-01	-5.600000e-01	4.913064e+08	1.807215e+07	1.807215e+07
-5.600000e-01	-4.900000e-01	4.989064e+08	2.907415e+07	2.907415e+07
-4.900000e-01	-4.200000e-01	4.361931e+08	2.122843e+07	2.122843e+07
-4.200000e-01	-3.500000e-01	3.385370e+08	1.639391e+07	1.639391e+07
-3.500000e-01	-2.800000e-01	2.453851e+08	1.130987e+07	1.130987e+07
-2.800000e-01	-2.100000e-01	1.209292e+08	1.070357e+07	1.070357e+07
-2.100000e-01	-1.400000e-01	3.481961e+07	1.298558e+07	1.298558e+07
-1.400000e-01	-7.000000e-02	1.445271e+06	5.812139e+05	5.812139e+05
-7.000000e-02	0.000000e+00	2.197040e+02	2.138086e+02	2.138086e+02
# END HISTO1D

