# BEGIN PLOT
LegendOnly=/zj_ps_nlo_mer_mur0.5_muf0.5_R8.yoda/PAPER_FIN_R8_CH/lin_SD_l10_pT_254_326
DrawOnly=/zj_ps_nlo_mer_mur0.5_muf0.5_R8.yoda/PAPER_FIN_R8_CH/lin_SD_l10_pT_254_326
Legend=1
LogY=1
# END PLOT

# BEGIN HISTO1D /zj_ps_nlo_mer_mur0.5_muf0.5_R8.yoda/PAPER_FIN_R8_CH/lin_SD_l10_pT_254_326
LineColor=red
LineStyle=solid
Path=/zj_ps_nlo_mer_mur0.5_muf0.5_R8.yoda/PAPER_FIN_R8_CH/lin_SD_l10_pT_254_326
Title=zj_ps_nlo_mer_mur0.5_muf0.5_R8
XLabel=~
YLabel=~
# xlow	 xhigh	 val	 errminus	 errplus
0.000000e+00	1.250000e-02	4.013262e+10	1.652678e+09	1.652678e+09
1.250000e-02	2.250000e-02	1.322774e+10	2.779245e+08	2.779245e+08
2.250000e-02	3.500000e-02	8.449176e+09	1.579871e+08	1.579871e+08
3.500000e-02	5.000000e-02	5.876629e+09	1.569732e+08	1.569732e+08
5.000000e-02	7.000000e-02	4.537460e+09	1.378390e+08	1.378390e+08
7.000000e-02	9.500000e-02	3.535565e+09	1.240002e+08	1.240002e+08
9.500000e-02	1.280000e-01	3.129594e+09	6.762234e+07	6.762234e+07
1.280000e-01	1.700000e-01	2.411036e+09	6.722175e+07	6.722175e+07
1.700000e-01	2.250000e-01	1.870853e+09	4.720514e+07	4.720514e+07
2.250000e-01	2.900000e-01	1.190251e+09	5.632316e+07	5.632316e+07
2.900000e-01	3.650000e-01	7.806591e+08	2.058572e+07	2.058572e+07
3.650000e-01	4.500000e-01	4.614653e+08	1.520559e+07	1.520559e+07
4.500000e-01	1.000000e+00	3.579100e+07	1.773765e+06	1.773765e+06
# END HISTO1D

