# BEGIN PLOT
LegendOnly=/zj_ps_nlo_mer_mur0.5_muf0.5_R8.yoda/PAPER_FIN_R8/ch_l10_pT_150_186
DrawOnly=/zj_ps_nlo_mer_mur0.5_muf0.5_R8.yoda/PAPER_FIN_R8/ch_l10_pT_150_186
Legend=1
LogY=1
# END PLOT

# BEGIN HISTO1D /zj_ps_nlo_mer_mur0.5_muf0.5_R8.yoda/PAPER_FIN_R8/ch_l10_pT_150_186
LineColor=red
LineStyle=solid
Path=/zj_ps_nlo_mer_mur0.5_muf0.5_R8.yoda/PAPER_FIN_R8/ch_l10_pT_150_186
Title=zj_ps_nlo_mer_mur0.5_muf0.5_R8
XLabel=~
YLabel=~
# xlow	 xhigh	 val	 errminus	 errplus
-7.000000e+00	-6.930000e+00	-5.292464e-01	3.833538e-01	3.833538e-01
-6.930000e+00	-6.860000e+00	4.195071e+10	1.008225e+09	1.008225e+09
-6.860000e+00	-6.790000e+00	-4.174347e+00	3.530930e+00	3.530930e+00
-6.790000e+00	-6.720000e+00	-7.685384e-01	5.146721e-01	5.146721e-01
-6.720000e+00	-6.650000e+00	-3.824823e+00	2.355010e+00	2.355010e+00
-6.650000e+00	-6.580000e+00	4.115016e+00	3.630525e+00	3.630525e+00
-6.580000e+00	-6.510000e+00	-5.875773e+00	3.641847e+00	3.641847e+00
-6.510000e+00	-6.440000e+00	-1.036439e+02	1.001111e+02	1.001111e+02
-6.440000e+00	-6.370000e+00	-2.721830e+00	3.251208e+00	3.251208e+00
-6.370000e+00	-6.300000e+00	-5.664856e+01	4.262659e+01	4.262659e+01
-6.300000e+00	-6.230000e+00	-8.614274e-01	2.203378e+00	2.203378e+00
-6.230000e+00	-6.160000e+00	2.646029e+01	2.476753e+01	2.476753e+01
-6.160000e+00	-6.090000e+00	-1.096734e+01	8.387690e+00	8.387690e+00
-6.090000e+00	-6.020000e+00	-1.037587e+01	8.096251e+00	8.096251e+00
-6.020000e+00	-5.950000e+00	-4.451884e+01	2.396407e+01	2.396407e+01
-5.950000e+00	-5.880000e+00	-1.370582e+02	9.471112e+01	9.471112e+01
-5.880000e+00	-5.810000e+00	-6.353290e+01	3.941548e+01	3.941548e+01
-5.810000e+00	-5.740000e+00	-4.352421e+01	1.324417e+02	1.324417e+02
-5.740000e+00	-5.670000e+00	-8.818496e+00	1.994666e+01	1.994666e+01
-5.670000e+00	-5.600000e+00	-1.620674e+02	8.469194e+01	8.469194e+01
-5.600000e+00	-5.530000e+00	-9.415187e+02	9.010150e+02	9.010150e+02
-5.530000e+00	-5.460000e+00	-3.371707e+01	2.063004e+02	2.063004e+02
-5.460000e+00	-5.390000e+00	6.591100e+02	7.827719e+02	7.827719e+02
-5.390000e+00	-5.320000e+00	8.989964e+03	1.484073e+04	1.484073e+04
-5.320000e+00	-5.250000e+00	1.399518e+03	1.714198e+03	1.714198e+03
-5.250000e+00	-5.180000e+00	1.857770e+04	2.726364e+04	2.726364e+04
-5.180000e+00	-5.110000e+00	-1.024191e+04	9.754646e+03	9.754646e+03
-5.110000e+00	-5.040000e+00	2.585090e+04	2.757908e+04	2.757908e+04
-5.040000e+00	-4.970000e+00	2.753284e+04	2.000909e+04	2.000909e+04
-4.970000e+00	-4.900000e+00	8.412371e+04	1.149806e+05	1.149806e+05
-4.900000e+00	-4.830000e+00	6.473374e+04	4.646326e+04	4.646326e+04
-4.830000e+00	-4.760000e+00	5.815991e+04	6.259822e+04	6.259822e+04
-4.760000e+00	-4.690000e+00	7.886126e+04	1.482459e+05	1.482459e+05
-4.690000e+00	-4.620000e+00	3.269816e+05	1.681484e+05	1.681484e+05
-4.620000e+00	-4.550000e+00	2.693923e+05	1.203609e+05	1.203609e+05
-4.550000e+00	-4.480000e+00	6.232211e+05	2.680930e+05	2.680930e+05
-4.480000e+00	-4.410000e+00	6.882811e+05	3.286370e+05	3.286370e+05
-4.410000e+00	-4.340000e+00	7.517724e+05	5.437855e+05	5.437855e+05
-4.340000e+00	-4.270000e+00	1.858754e+06	9.406465e+05	9.406465e+05
-4.270000e+00	-4.200000e+00	1.299874e+06	6.520184e+05	6.520184e+05
-4.200000e+00	-4.130000e+00	-2.992023e+05	1.642035e+06	1.642035e+06
-4.130000e+00	-4.060000e+00	2.756230e+06	2.126949e+06	2.126949e+06
-4.060000e+00	-3.990000e+00	2.631849e+06	1.528438e+06	1.528438e+06
-3.990000e+00	-3.920000e+00	1.295075e+06	1.953360e+06	1.953360e+06
-3.920000e+00	-3.850000e+00	5.652354e+06	2.120865e+06	2.120865e+06
-3.850000e+00	-3.780000e+00	1.448614e+07	6.879170e+06	6.879170e+06
-3.780000e+00	-3.710000e+00	6.318174e+06	3.083771e+06	3.083771e+06
-3.710000e+00	-3.640000e+00	3.272311e+06	3.026510e+06	3.026510e+06
-3.640000e+00	-3.570000e+00	1.187245e+07	7.316096e+06	7.316096e+06
-3.570000e+00	-3.500000e+00	5.991297e+06	2.729228e+06	2.729228e+06
-3.500000e+00	-3.430000e+00	3.282160e+05	5.197666e+06	5.197666e+06
-3.430000e+00	-3.360000e+00	1.840723e+07	3.981524e+06	3.981524e+06
-3.360000e+00	-3.290000e+00	1.406957e+07	3.659046e+06	3.659046e+06
-3.290000e+00	-3.220000e+00	2.309050e+07	2.787346e+06	2.787346e+06
-3.220000e+00	-3.150000e+00	2.676431e+07	5.219264e+06	5.219264e+06
-3.150000e+00	-3.080000e+00	2.948463e+07	4.220317e+06	4.220317e+06
-3.080000e+00	-3.010000e+00	8.255917e+07	4.104456e+07	4.104456e+07
-3.010000e+00	-2.940000e+00	7.559653e+05	4.080914e+07	4.080914e+07
-2.940000e+00	-2.870000e+00	7.736936e+07	9.582822e+06	9.582822e+06
-2.870000e+00	-2.800000e+00	7.200249e+07	1.124232e+07	1.124232e+07
-2.800000e+00	-2.730000e+00	7.643233e+07	1.317300e+07	1.317300e+07
-2.730000e+00	-2.660000e+00	1.051989e+08	8.155409e+06	8.155409e+06
-2.660000e+00	-2.590000e+00	1.212640e+08	1.016262e+07	1.016262e+07
-2.590000e+00	-2.520000e+00	1.418072e+08	9.154150e+06	9.154150e+06
-2.520000e+00	-2.450000e+00	1.491156e+08	1.186359e+07	1.186359e+07
-2.450000e+00	-2.380000e+00	1.933930e+08	1.110682e+07	1.110682e+07
-2.380000e+00	-2.310000e+00	2.179563e+08	1.665480e+07	1.665480e+07
-2.310000e+00	-2.240000e+00	2.453697e+08	2.668700e+07	2.668700e+07
-2.240000e+00	-2.170000e+00	3.098011e+08	1.783512e+07	1.783512e+07
-2.170000e+00	-2.100000e+00	3.732854e+08	1.606374e+07	1.606374e+07
-2.100000e+00	-2.030000e+00	4.786731e+08	2.809504e+07	2.809504e+07
-2.030000e+00	-1.960000e+00	5.445943e+08	2.199368e+07	2.199368e+07
-1.960000e+00	-1.890000e+00	6.176966e+08	4.849467e+07	4.849467e+07
-1.890000e+00	-1.820000e+00	7.936090e+08	3.087510e+07	3.087510e+07
-1.820000e+00	-1.750000e+00	9.116854e+08	3.321198e+07	3.321198e+07
-1.750000e+00	-1.680000e+00	9.928350e+08	4.104726e+07	4.104726e+07
-1.680000e+00	-1.610000e+00	1.147811e+09	3.138377e+07	3.138377e+07
-1.610000e+00	-1.540000e+00	1.209362e+09	3.259545e+07	3.259545e+07
-1.540000e+00	-1.470000e+00	1.322137e+09	3.328571e+07	3.328571e+07
-1.470000e+00	-1.400000e+00	1.291440e+09	4.703989e+07	4.703989e+07
-1.400000e+00	-1.330000e+00	1.366994e+09	5.689916e+07	5.689916e+07
-1.330000e+00	-1.260000e+00	1.449466e+09	3.336373e+07	3.336373e+07
-1.260000e+00	-1.190000e+00	1.438860e+09	4.218651e+07	4.218651e+07
-1.190000e+00	-1.120000e+00	1.420873e+09	3.935094e+07	3.935094e+07
-1.120000e+00	-1.050000e+00	1.342446e+09	8.126692e+07	8.126692e+07
-1.050000e+00	-9.800000e-01	1.429743e+09	3.966462e+07	3.966462e+07
-9.800000e-01	-9.100000e-01	1.251959e+09	1.600913e+08	1.600913e+08
-9.100000e-01	-8.400000e-01	1.470400e+09	8.249952e+07	8.249952e+07
-8.400000e-01	-7.700000e-01	1.395463e+09	3.936675e+07	3.936675e+07
-7.700000e-01	-7.000000e-01	1.276815e+09	4.065634e+07	4.065634e+07
-7.000000e-01	-6.300000e-01	1.187048e+09	2.773850e+07	2.773850e+07
-6.300000e-01	-5.600000e-01	1.081339e+09	3.738832e+07	3.738832e+07
-5.600000e-01	-4.900000e-01	7.327079e+08	9.218296e+07	9.218296e+07
-4.900000e-01	-4.200000e-01	6.395326e+08	3.312589e+07	3.312589e+07
-4.200000e-01	-3.500000e-01	3.893353e+08	1.751311e+07	1.751311e+07
-3.500000e-01	-2.800000e-01	1.671844e+08	8.670779e+06	8.670779e+06
-2.800000e-01	-2.100000e-01	3.238266e+07	4.531549e+06	4.531549e+06
-2.100000e-01	-1.400000e-01	4.683540e+06	9.604494e+05	9.604494e+05
-1.400000e-01	-7.000000e-02	1.559051e+05	1.323246e+05	1.323246e+05
-7.000000e-02	0.000000e+00	-1.166380e+02	1.166380e+02	1.166380e+02
# END HISTO1D

