# BEGIN PLOT
LegendOnly=/zj_ps_nlo_mer_mur0.5_muf0.5_R8.yoda/PAPER_FIN_R8/ch_lin_l10_pT_65_88
DrawOnly=/zj_ps_nlo_mer_mur0.5_muf0.5_R8.yoda/PAPER_FIN_R8/ch_lin_l10_pT_65_88
Legend=1
LogY=1
# END PLOT

# BEGIN HISTO1D /zj_ps_nlo_mer_mur0.5_muf0.5_R8.yoda/PAPER_FIN_R8/ch_lin_l10_pT_65_88
LineColor=red
LineStyle=solid
Path=/zj_ps_nlo_mer_mur0.5_muf0.5_R8.yoda/PAPER_FIN_R8/ch_lin_l10_pT_65_88
Title=zj_ps_nlo_mer_mur0.5_muf0.5_R8
XLabel=~
YLabel=~
# xlow	 xhigh	 val	 errminus	 errplus
0.000000e+00	2.250000e-02	4.077404e+11	7.866984e+09	7.866984e+09
2.250000e-02	4.000000e-02	2.985527e+10	1.927271e+09	1.927271e+09
4.000000e-02	5.750000e-02	2.523591e+10	1.842582e+09	1.842582e+09
5.750000e-02	7.750000e-02	1.736221e+10	8.859529e+08	8.859529e+08
7.750000e-02	1.000000e-01	1.375213e+10	5.389479e+08	5.389479e+08
1.000000e-01	1.250000e-01	1.041210e+10	4.006716e+08	4.006716e+08
1.250000e-01	1.520000e-01	6.959552e+09	8.796067e+08	8.796067e+08
1.520000e-01	1.850000e-01	5.598764e+09	2.722030e+08	2.722030e+08
1.850000e-01	2.200000e-01	4.397977e+09	2.294600e+08	2.294600e+08
2.200000e-01	2.600000e-01	3.410287e+09	1.680769e+08	1.680769e+08
2.600000e-01	3.070000e-01	2.603800e+09	1.267441e+08	1.267441e+08
3.070000e-01	3.620000e-01	1.727348e+09	1.060348e+08	1.060348e+08
3.620000e-01	4.250000e-01	9.142640e+08	6.199176e+07	6.199176e+07
4.250000e-01	4.970000e-01	3.008653e+08	3.180169e+07	3.180169e+07
4.970000e-01	1.000000e+00	9.796076e+06	2.191293e+06	2.191293e+06
# END HISTO1D

