# BEGIN PLOT
LegendOnly=/pythia_np_pt408_s1_1e3.yoda/PAPER_FIN_R4/ch_lin_l10_pT_65_88
DrawOnly=/pythia_np_pt408_s1_1e3.yoda/PAPER_FIN_R4/ch_lin_l10_pT_65_88
Legend=1
LogY=1
# END PLOT

# BEGIN HISTO1D /pythia_np_pt408_s1_1e3.yoda/PAPER_FIN_R4/ch_lin_l10_pT_65_88
LineColor=red
LineStyle=solid
Path=/pythia_np_pt408_s1_1e3.yoda/PAPER_FIN_R4/ch_lin_l10_pT_65_88
Title=pythia_np_pt408_s1_1e3
XLabel=~
YLabel=~
# xlow	 xhigh	 val	 errminus	 errplus
0.000000e+00	2.250000e-02	1.333333e+02	7.698004e+01	7.698004e+01
2.250000e-02	4.000000e-02	3.428571e+02	1.399708e+02	1.399708e+02
4.000000e-02	5.750000e-02	7.428571e+02	2.060315e+02	2.060315e+02
5.750000e-02	7.750000e-02	1.850000e+03	3.041381e+02	3.041381e+02
7.750000e-02	1.000000e-01	2.000000e+03	2.981424e+02	2.981424e+02
1.000000e-01	1.250000e-01	2.720000e+03	3.298485e+02	3.298485e+02
1.250000e-01	1.520000e-01	2.925926e+03	3.291924e+02	3.291924e+02
1.520000e-01	1.850000e-01	3.060606e+03	3.045417e+02	3.045417e+02
1.850000e-01	2.200000e-01	2.428571e+03	2.634156e+02	2.634156e+02
2.200000e-01	2.600000e-01	3.025000e+03	2.750000e+02	2.750000e+02
2.600000e-01	3.070000e-01	1.914894e+03	2.018475e+02	2.018475e+02
3.070000e-01	3.620000e-01	1.654545e+03	1.734435e+02	1.734435e+02
3.620000e-01	4.250000e-01	7.936508e+02	1.122392e+02	1.122392e+02
4.250000e-01	4.970000e-01	6.944444e+02	9.820928e+01	9.820928e+01
4.970000e-01	1.000000e+00	4.373757e+01	9.324882e+00	9.324882e+00
# END HISTO1D

