# BEGIN PLOT
LegendOnly=/pythia_np_pt408_s1_1e3.yoda/PAPER_FIN_R4/SD_l05_pT_88_120
DrawOnly=/pythia_np_pt408_s1_1e3.yoda/PAPER_FIN_R4/SD_l05_pT_88_120
Legend=1
LogY=1
# END PLOT

# BEGIN HISTO1D /pythia_np_pt408_s1_1e3.yoda/PAPER_FIN_R4/SD_l05_pT_88_120
LineColor=red
LineStyle=solid
Path=/pythia_np_pt408_s1_1e3.yoda/PAPER_FIN_R4/SD_l05_pT_88_120
Title=pythia_np_pt408_s1_1e3
XLabel=~
YLabel=~
# xlow	 xhigh	 val	 errminus	 errplus
-7.000000e+00	-6.930000e+00	0.000000e+00	0.000000e+00	0.000000e+00
-6.930000e+00	-6.860000e+00	6.164286e+04	9.384094e+02	9.384094e+02
-6.860000e+00	-6.790000e+00	0.000000e+00	0.000000e+00	0.000000e+00
-6.790000e+00	-6.720000e+00	0.000000e+00	0.000000e+00	0.000000e+00
-6.720000e+00	-6.650000e+00	0.000000e+00	0.000000e+00	0.000000e+00
-6.650000e+00	-6.580000e+00	0.000000e+00	0.000000e+00	0.000000e+00
-6.580000e+00	-6.510000e+00	0.000000e+00	0.000000e+00	0.000000e+00
-6.510000e+00	-6.440000e+00	0.000000e+00	0.000000e+00	0.000000e+00
-6.440000e+00	-6.370000e+00	0.000000e+00	0.000000e+00	0.000000e+00
-6.370000e+00	-6.300000e+00	0.000000e+00	0.000000e+00	0.000000e+00
-6.300000e+00	-6.230000e+00	0.000000e+00	0.000000e+00	0.000000e+00
-6.230000e+00	-6.160000e+00	0.000000e+00	0.000000e+00	0.000000e+00
-6.160000e+00	-6.090000e+00	0.000000e+00	0.000000e+00	0.000000e+00
-6.090000e+00	-6.020000e+00	0.000000e+00	0.000000e+00	0.000000e+00
-6.020000e+00	-5.950000e+00	0.000000e+00	0.000000e+00	0.000000e+00
-5.950000e+00	-5.880000e+00	0.000000e+00	0.000000e+00	0.000000e+00
-5.880000e+00	-5.810000e+00	0.000000e+00	0.000000e+00	0.000000e+00
-5.810000e+00	-5.740000e+00	0.000000e+00	0.000000e+00	0.000000e+00
-5.740000e+00	-5.670000e+00	0.000000e+00	0.000000e+00	0.000000e+00
-5.670000e+00	-5.600000e+00	0.000000e+00	0.000000e+00	0.000000e+00
-5.600000e+00	-5.530000e+00	0.000000e+00	0.000000e+00	0.000000e+00
-5.530000e+00	-5.460000e+00	0.000000e+00	0.000000e+00	0.000000e+00
-5.460000e+00	-5.390000e+00	0.000000e+00	0.000000e+00	0.000000e+00
-5.390000e+00	-5.320000e+00	0.000000e+00	0.000000e+00	0.000000e+00
-5.320000e+00	-5.250000e+00	0.000000e+00	0.000000e+00	0.000000e+00
-5.250000e+00	-5.180000e+00	0.000000e+00	0.000000e+00	0.000000e+00
-5.180000e+00	-5.110000e+00	0.000000e+00	0.000000e+00	0.000000e+00
-5.110000e+00	-5.040000e+00	0.000000e+00	0.000000e+00	0.000000e+00
-5.040000e+00	-4.970000e+00	0.000000e+00	0.000000e+00	0.000000e+00
-4.970000e+00	-4.900000e+00	0.000000e+00	0.000000e+00	0.000000e+00
-4.900000e+00	-4.830000e+00	0.000000e+00	0.000000e+00	0.000000e+00
-4.830000e+00	-4.760000e+00	0.000000e+00	0.000000e+00	0.000000e+00
-4.760000e+00	-4.690000e+00	0.000000e+00	0.000000e+00	0.000000e+00
-4.690000e+00	-4.620000e+00	0.000000e+00	0.000000e+00	0.000000e+00
-4.620000e+00	-4.550000e+00	0.000000e+00	0.000000e+00	0.000000e+00
-4.550000e+00	-4.480000e+00	0.000000e+00	0.000000e+00	0.000000e+00
-4.480000e+00	-4.410000e+00	0.000000e+00	0.000000e+00	0.000000e+00
-4.410000e+00	-4.340000e+00	0.000000e+00	0.000000e+00	0.000000e+00
-4.340000e+00	-4.270000e+00	0.000000e+00	0.000000e+00	0.000000e+00
-4.270000e+00	-4.200000e+00	0.000000e+00	0.000000e+00	0.000000e+00
-4.200000e+00	-4.130000e+00	0.000000e+00	0.000000e+00	0.000000e+00
-4.130000e+00	-4.060000e+00	0.000000e+00	0.000000e+00	0.000000e+00
-4.060000e+00	-3.990000e+00	0.000000e+00	0.000000e+00	0.000000e+00
-3.990000e+00	-3.920000e+00	0.000000e+00	0.000000e+00	0.000000e+00
-3.920000e+00	-3.850000e+00	0.000000e+00	0.000000e+00	0.000000e+00
-3.850000e+00	-3.780000e+00	0.000000e+00	0.000000e+00	0.000000e+00
-3.780000e+00	-3.710000e+00	0.000000e+00	0.000000e+00	0.000000e+00
-3.710000e+00	-3.640000e+00	0.000000e+00	0.000000e+00	0.000000e+00
-3.640000e+00	-3.570000e+00	0.000000e+00	0.000000e+00	0.000000e+00
-3.570000e+00	-3.500000e+00	0.000000e+00	0.000000e+00	0.000000e+00
-3.500000e+00	-3.430000e+00	0.000000e+00	0.000000e+00	0.000000e+00
-3.430000e+00	-3.360000e+00	0.000000e+00	0.000000e+00	0.000000e+00
-3.360000e+00	-3.290000e+00	0.000000e+00	0.000000e+00	0.000000e+00
-3.290000e+00	-3.220000e+00	0.000000e+00	0.000000e+00	0.000000e+00
-3.220000e+00	-3.150000e+00	0.000000e+00	0.000000e+00	0.000000e+00
-3.150000e+00	-3.080000e+00	0.000000e+00	0.000000e+00	0.000000e+00
-3.080000e+00	-3.010000e+00	0.000000e+00	0.000000e+00	0.000000e+00
-3.010000e+00	-2.940000e+00	0.000000e+00	0.000000e+00	0.000000e+00
-2.940000e+00	-2.870000e+00	0.000000e+00	0.000000e+00	0.000000e+00
-2.870000e+00	-2.800000e+00	1.428571e+01	1.428571e+01	1.428571e+01
-2.800000e+00	-2.730000e+00	1.428571e+01	1.428571e+01	1.428571e+01
-2.730000e+00	-2.660000e+00	0.000000e+00	0.000000e+00	0.000000e+00
-2.660000e+00	-2.590000e+00	1.428571e+01	1.428571e+01	1.428571e+01
-2.590000e+00	-2.520000e+00	1.428571e+01	1.428571e+01	1.428571e+01
-2.520000e+00	-2.450000e+00	1.428571e+01	1.428571e+01	1.428571e+01
-2.450000e+00	-2.380000e+00	1.428571e+01	1.428571e+01	1.428571e+01
-2.380000e+00	-2.310000e+00	1.428571e+01	1.428571e+01	1.428571e+01
-2.310000e+00	-2.240000e+00	0.000000e+00	0.000000e+00	0.000000e+00
-2.240000e+00	-2.170000e+00	1.428571e+01	1.428571e+01	1.428571e+01
-2.170000e+00	-2.100000e+00	2.857143e+01	2.020305e+01	2.020305e+01
-2.100000e+00	-2.030000e+00	1.000000e+02	3.779645e+01	3.779645e+01
-2.030000e+00	-1.960000e+00	2.000000e+02	5.345225e+01	5.345225e+01
-1.960000e+00	-1.890000e+00	3.714286e+02	7.284314e+01	7.284314e+01
-1.890000e+00	-1.820000e+00	9.000000e+02	1.133893e+02	1.133893e+02
-1.820000e+00	-1.750000e+00	1.157143e+03	1.285714e+02	1.285714e+02
-1.750000e+00	-1.680000e+00	1.857143e+03	1.628822e+02	1.628822e+02
-1.680000e+00	-1.610000e+00	2.685714e+03	1.958758e+02	1.958758e+02
-1.610000e+00	-1.540000e+00	3.971429e+03	2.381905e+02	2.381905e+02
-1.540000e+00	-1.470000e+00	6.842857e+03	3.126581e+02	3.126581e+02
-1.470000e+00	-1.400000e+00	9.671429e+03	3.717032e+02	3.717032e+02
-1.400000e+00	-1.330000e+00	1.421429e+04	4.506232e+02	4.506232e+02
-1.330000e+00	-1.260000e+00	2.135714e+04	5.523604e+02	5.523604e+02
-1.260000e+00	-1.190000e+00	3.150000e+04	6.708204e+02	6.708204e+02
-1.190000e+00	-1.120000e+00	4.978571e+04	8.433413e+02	8.433413e+02
-1.120000e+00	-1.050000e+00	7.740000e+04	1.051529e+03	1.051529e+03
-1.050000e+00	-9.800000e-01	1.249286e+05	1.335924e+03	1.335924e+03
-9.800000e-01	-9.100000e-01	1.969571e+05	1.677401e+03	1.677401e+03
-9.100000e-01	-8.400000e-01	3.059429e+05	2.090601e+03	2.090601e+03
-8.400000e-01	-7.700000e-01	4.622857e+05	2.569841e+03	2.569841e+03
-7.700000e-01	-7.000000e-01	6.298286e+05	2.999592e+03	2.999592e+03
-7.000000e-01	-6.300000e-01	7.943143e+05	3.368582e+03	3.368582e+03
-6.300000e-01	-5.600000e-01	9.273286e+05	3.639719e+03	3.639719e+03
-5.600000e-01	-4.900000e-01	1.012957e+06	3.804053e+03	3.804053e+03
-4.900000e-01	-4.200000e-01	1.025486e+06	3.827505e+03	3.827505e+03
-4.200000e-01	-3.500000e-01	9.668000e+05	3.716373e+03	3.716373e+03
-3.500000e-01	-2.800000e-01	7.799571e+05	3.338000e+03	3.338000e+03
-2.800000e-01	-2.100000e-01	4.832571e+05	2.627484e+03	2.627484e+03
-2.100000e-01	-1.400000e-01	1.685571e+05	1.551760e+03	1.551760e+03
-1.400000e-01	-7.000000e-02	1.572857e+04	4.740189e+02	4.740189e+02
-7.000000e-02	0.000000e+00	2.285714e+02	5.714286e+01	5.714286e+01
# END HISTO1D

