# BEGIN PLOT
# END PLOT

# BEGIN HISTO1D
LineColor=red
LineStyle=solid
Title=Z+Jet RES+NP
# Sigma = 1.716487e-01 pb
# xlow	xhigh	val	errminus	errplus
0.000000e+00	6.000000e-02	1.385903e+00	7.397080e-01	6.834850e-01
6.000000e-02	9.000000e-02	5.363776e+00	5.253484e-01	5.758262e-01
9.000000e-02	1.200000e-01	6.363983e+00	7.857546e-01	8.825382e-01
1.200000e-01	1.500000e-01	5.142350e+00	7.132047e-01	8.413617e-01
1.500000e-01	1.900000e-01	3.610701e+00	5.469582e-01	6.647123e-01
1.900000e-01	2.300000e-01	3.102589e+00	5.533404e-01	7.165263e-01
2.300000e-01	2.700000e-01	1.503016e+00	4.066112e-01	5.043914e-01
2.700000e-01	3.200000e-01	1.523172e+00	3.314487e-01	4.453423e-01
3.200000e-01	3.700000e-01	9.893889e-01	2.382162e-01	3.491016e-01
3.700000e-01	4.200000e-01	6.560377e-01	1.710443e-01	2.700838e-01
4.200000e-01	4.800000e-01	4.293259e-01	1.189025e-01	1.958476e-01
4.800000e-01	5.400000e-01	1.856675e-01	7.418433e-02	1.307510e-01
5.400000e-01	6.000000e-01	8.738880e-02	4.771518e-02	8.357476e-02
6.000000e-01	1.000000e+00	4.076432e-03	2.298393e-03	4.234993e-03
# END HISTO1D