# BEGIN PLOT
# END PLOT

# BEGIN HISTO1D
LineColor=red
LineStyle=solid
Title=Z+Jet RES+NP
# Sigma = 1.134895e+01 pb
# xlow	xhigh	val	errminus	errplus
0.000000e+00	2.250000e-02	4.161081e-02	2.573719e-02	2.929131e-02
2.250000e-02	4.000000e-02	1.216903e+00	8.700482e-01	8.414949e-01
4.000000e-02	5.750000e-02	1.508015e+00	4.774079e-01	4.758696e-01
5.750000e-02	7.750000e-02	3.037178e+00	7.843325e-01	8.028576e-01
7.750000e-02	1.000000e-01	4.902248e+00	1.045724e+00	1.122715e+00
1.000000e-01	1.250000e-01	5.729805e+00	9.924529e-01	1.146038e+00
1.250000e-01	1.520000e-01	5.453821e+00	9.131336e-01	1.095981e+00
1.520000e-01	1.850000e-01	4.273440e+00	7.694127e-01	9.180643e-01
1.850000e-01	2.200000e-01	3.076699e+00	5.630070e-01	7.348140e-01
2.200000e-01	2.600000e-01	2.062267e+00	3.862448e-01	5.497206e-01
2.600000e-01	3.070000e-01	1.325013e+00	2.561402e-01	3.955972e-01
3.070000e-01	3.620000e-01	8.091874e-01	1.659968e-01	2.763013e-01
3.620000e-01	4.250000e-01	4.733138e-01	1.066716e-01	1.892345e-01
4.250000e-01	4.970000e-01	2.416434e-01	6.774455e-02	1.283944e-01
4.970000e-01	1.000000e+00	2.051813e-02	1.009394e-02	2.091670e-02
# END HISTO1D