# BEGIN PLOT
# END PLOT

# BEGIN HISTO1D
LineColor=red
LineStyle=solid
Title=Z+Jet SHERPA MESP@NLO+NP
# Sigma = 1.821772e-01 pb
# xlow	xhigh	val	errminus	errplus
0.000000e+00	2.250000e-02	1.318612e+00	1.864009e-02	1.882984e-01
2.250000e-02	4.000000e-02	8.944345e+00	0.000000e+00	8.237073e-01
4.000000e-02	5.750000e-02	9.762299e+00	1.180075e-01	5.346049e-01
5.750000e-02	7.750000e-02	6.886808e+00	2.455774e-01	1.486109e-01
7.750000e-02	1.000000e-01	4.735823e+00	2.456004e-01	1.531361e-01
1.000000e-01	1.250000e-01	3.513747e+00	2.359045e-01	1.279990e-01
1.250000e-01	1.520000e-01	2.539801e+00	2.370311e-01	4.493687e-02
1.520000e-01	1.850000e-01	1.924938e+00	1.943620e-01	1.711397e-01
1.850000e-01	2.200000e-01	1.321010e+00	1.370803e-01	8.667096e-03
2.200000e-01	2.600000e-01	8.630783e-01	6.930657e-02	1.159958e-01
2.600000e-01	3.070000e-01	7.144969e-01	9.010740e-02	5.743211e-02
3.070000e-01	3.620000e-01	5.141666e-01	4.479506e-02	4.403747e-02
3.620000e-01	4.250000e-01	2.833749e-01	2.364626e-02	2.758019e-02
4.250000e-01	4.970000e-01	1.627488e-01	2.097906e-02	2.303405e-02
4.970000e-01	1.000000e+00	1.300601e-02	2.350366e-03	2.831887e-03
# END HISTO1D