# BEGIN PLOT
# END PLOT

# BEGIN HISTO1D
LineColor=red
LineStyle=solid
Title=Z+Jet RES+NP
# Sigma = 6.846610e+00 pb
# xlow	xhigh	val	errminus	errplus
0.000000e+00	2.500000e-03	6.521327e+01	1.408514e+01	1.359101e+01
2.500000e-03	5.000000e-03	5.165212e+01	1.414403e+01	1.443693e+01
5.000000e-03	7.500000e-03	2.714752e+01	3.039115e+00	3.279964e+00
7.500000e-03	1.250000e-02	1.817251e+01	1.900745e+00	2.073520e+00
1.250000e-02	2.000000e-02	1.107196e+01	1.210288e+00	1.293681e+00
2.000000e-02	3.250000e-02	6.804384e+00	9.214041e-01	9.736746e-01
3.250000e-02	5.000000e-02	4.069798e+00	5.261224e-01	5.355397e-01
5.000000e-02	7.750000e-02	2.966181e+00	3.613376e-01	3.836889e-01
7.750000e-02	1.150000e-01	2.585019e+00	4.701987e-01	4.944727e-01
1.150000e-01	1.600000e-01	1.477846e+00	2.790553e-01	3.829323e-01
1.600000e-01	2.100000e-01	7.978396e-01	1.663332e-01	2.600919e-01
2.100000e-01	1.000000e+00	3.150132e-02	9.863932e-03	1.951478e-02
# END HISTO1D