# BEGIN PLOT
# END PLOT

# BEGIN HISTO1D
LineColor=red
LineStyle=solid
Title=Z+Jet SHERPA MESP@NLO+NP
# Sigma = 2.645828e+00 pb
# xlow	xhigh	val	errminus	errplus
0.000000e+00	5.000000e-03	8.127721e+00	5.069954e-01	2.103774e+00
5.000000e-03	1.250000e-02	2.593570e+01	6.472653e-01	3.421981e+00
1.250000e-02	2.250000e-02	4.188767e+01	6.308469e-01	5.889836e+00
2.250000e-02	3.500000e-02	3.996749e+01	1.501098e+00	4.470384e+00
3.500000e-02	5.000000e-02	2.828392e+01	1.736911e+00	1.833988e+00
5.000000e-02	7.000000e-02	1.697600e+01	1.245064e+00	1.357530e+00
7.000000e-02	9.250000e-02	1.061803e+01	1.008211e+00	9.033484e-01
9.250000e-02	1.200000e-01	6.199435e+00	6.427224e-01	5.571905e-01
1.200000e-01	1.520000e-01	3.921659e+00	4.268753e-01	4.875867e-01
1.520000e-01	1.880000e-01	2.259931e+00	2.244575e-01	1.298223e-01
1.880000e-01	2.280000e-01	1.406857e+00	1.670453e-01	1.964808e-01
2.280000e-01	1.000000e+00	7.241909e-02	9.035861e-03	5.904806e-03
# END HISTO1D