# BEGIN PLOT
# END PLOT

# BEGIN HISTO1D
LineColor=red
LineStyle=solid
Title=Z+Jet RES+NP
# Sigma = 1.493863e+01 pb
# xlow	xhigh	val	errminus	errplus
0.000000e+00	1.250000e-02	1.392979e+01	1.098799e+01	1.407529e+01
1.250000e-02	2.250000e-02	1.041042e+04	1.062247e+04	1.026412e+04
2.250000e-02	3.500000e-02	5.129447e+03	5.073462e+03	5.073043e+03
3.500000e-02	5.000000e-02	3.379709e+02	2.780034e+02	2.782316e+02
5.000000e-02	7.000000e-02	7.371006e+01	1.238977e+01	1.269044e+01
7.000000e-02	9.500000e-02	6.190224e+01	7.026611e+00	7.369570e+00
9.500000e-02	1.280000e-01	7.656976e+01	1.337260e+01	1.356890e+01
1.280000e-01	1.700000e-01	5.834939e+01	1.012111e+01	1.173828e+01
1.700000e-01	2.250000e-01	4.061606e+01	7.360110e+00	9.835079e+00
2.250000e-01	2.900000e-01	2.581784e+01	4.963399e+00	7.564536e+00
2.900000e-01	3.650000e-01	1.424013e+01	3.002667e+00	5.167236e+00
3.650000e-01	4.500000e-01	7.998044e+00	1.680543e+00	3.215497e+00
4.500000e-01	1.000000e+00	5.654918e-01	2.194321e-01	4.573327e-01
# END HISTO1D