# BEGIN PLOT
# END PLOT

# BEGIN HISTO1D
LineColor=red
LineStyle=solid
Title=Z+Jet RES+NP
# Sigma = 1.189171e-01 pb
# xlow	xhigh	val	errminus	errplus
0.000000e+00	1.700000e-01	3.320040e-01	4.636474e-02	3.689282e-02
1.700000e-01	2.500000e-01	3.576956e-01	6.642010e-02	7.763874e-02
2.500000e-01	3.200000e-01	1.989879e-01	4.095847e-02	5.345872e-02
3.200000e-01	3.800000e-01	1.158404e-01	2.668661e-02	3.860139e-02
3.800000e-01	4.500000e-01	6.768110e-02	1.706397e-02	2.675229e-02
4.500000e-01	5.200000e-01	3.022454e-02	1.013122e-02	1.704740e-02
5.200000e-01	5.900000e-01	1.121014e-02	5.538223e-03	9.784447e-03
5.900000e-01	1.000000e+00	6.210882e-04	3.626036e-04	6.546139e-04
# END HISTO1D