# BEGIN PLOT
LegendOnly=/pythia_ps_pt150_s1_1e3.yoda/PAPER_FIN_R4/ch_SD_l10_pT_88_120
DrawOnly=/pythia_ps_pt150_s1_1e3.yoda/PAPER_FIN_R4/ch_SD_l10_pT_88_120
Legend=1
LogY=1
# END PLOT

# BEGIN HISTO1D /pythia_ps_pt150_s1_1e3.yoda/PAPER_FIN_R4/ch_SD_l10_pT_88_120
LineColor=red
LineStyle=solid
Path=/pythia_ps_pt150_s1_1e3.yoda/PAPER_FIN_R4/ch_SD_l10_pT_88_120
Title=pythia_ps_pt150_s1_1e3
XLabel=~
YLabel=~
# xlow	 xhigh	 val	 errminus	 errplus
-7.000000e+00	-6.930000e+00	0.000000e+00	0.000000e+00	0.000000e+00
-6.930000e+00	-6.860000e+00	8.076127e+08	1.074119e+05	1.074119e+05
-6.860000e+00	-6.790000e+00	0.000000e+00	0.000000e+00	0.000000e+00
-6.790000e+00	-6.720000e+00	0.000000e+00	0.000000e+00	0.000000e+00
-6.720000e+00	-6.650000e+00	0.000000e+00	0.000000e+00	0.000000e+00
-6.650000e+00	-6.580000e+00	0.000000e+00	0.000000e+00	0.000000e+00
-6.580000e+00	-6.510000e+00	0.000000e+00	0.000000e+00	0.000000e+00
-6.510000e+00	-6.440000e+00	0.000000e+00	0.000000e+00	0.000000e+00
-6.440000e+00	-6.370000e+00	0.000000e+00	0.000000e+00	0.000000e+00
-6.370000e+00	-6.300000e+00	0.000000e+00	0.000000e+00	0.000000e+00
-6.300000e+00	-6.230000e+00	0.000000e+00	0.000000e+00	0.000000e+00
-6.230000e+00	-6.160000e+00	0.000000e+00	0.000000e+00	0.000000e+00
-6.160000e+00	-6.090000e+00	0.000000e+00	0.000000e+00	0.000000e+00
-6.090000e+00	-6.020000e+00	0.000000e+00	0.000000e+00	0.000000e+00
-6.020000e+00	-5.950000e+00	0.000000e+00	0.000000e+00	0.000000e+00
-5.950000e+00	-5.880000e+00	0.000000e+00	0.000000e+00	0.000000e+00
-5.880000e+00	-5.810000e+00	0.000000e+00	0.000000e+00	0.000000e+00
-5.810000e+00	-5.740000e+00	0.000000e+00	0.000000e+00	0.000000e+00
-5.740000e+00	-5.670000e+00	0.000000e+00	0.000000e+00	0.000000e+00
-5.670000e+00	-5.600000e+00	0.000000e+00	0.000000e+00	0.000000e+00
-5.600000e+00	-5.530000e+00	0.000000e+00	0.000000e+00	0.000000e+00
-5.530000e+00	-5.460000e+00	1.428571e+01	1.428571e+01	1.428571e+01
-5.460000e+00	-5.390000e+00	0.000000e+00	0.000000e+00	0.000000e+00
-5.390000e+00	-5.320000e+00	1.428571e+01	1.428571e+01	1.428571e+01
-5.320000e+00	-5.250000e+00	1.428571e+01	1.428571e+01	1.428571e+01
-5.250000e+00	-5.180000e+00	0.000000e+00	0.000000e+00	0.000000e+00
-5.180000e+00	-5.110000e+00	1.428571e+01	1.428571e+01	1.428571e+01
-5.110000e+00	-5.040000e+00	1.428571e+01	1.428571e+01	1.428571e+01
-5.040000e+00	-4.970000e+00	1.428571e+01	1.428571e+01	1.428571e+01
-4.970000e+00	-4.900000e+00	0.000000e+00	0.000000e+00	0.000000e+00
-4.900000e+00	-4.830000e+00	7.142857e+01	3.194383e+01	3.194383e+01
-4.830000e+00	-4.760000e+00	5.714286e+01	2.857143e+01	2.857143e+01
-4.760000e+00	-4.690000e+00	7.142857e+01	3.194383e+01	3.194383e+01
-4.690000e+00	-4.620000e+00	4.285714e+01	2.474358e+01	2.474358e+01
-4.620000e+00	-4.550000e+00	1.714286e+02	4.948717e+01	4.948717e+01
-4.550000e+00	-4.480000e+00	1.428571e+02	4.517540e+01	4.517540e+01
-4.480000e+00	-4.410000e+00	7.142857e+01	3.194383e+01	3.194383e+01
-4.410000e+00	-4.340000e+00	1.000000e+02	3.779645e+01	3.779645e+01
-4.340000e+00	-4.270000e+00	1.142857e+02	4.040610e+01	4.040610e+01
-4.270000e+00	-4.200000e+00	1.142857e+02	4.040610e+01	4.040610e+01
-4.200000e+00	-4.130000e+00	1.571429e+02	4.738035e+01	4.738035e+01
-4.130000e+00	-4.060000e+00	1.571429e+02	4.738035e+01	4.738035e+01
-4.060000e+00	-3.990000e+00	3.000000e+02	6.546537e+01	6.546537e+01
-3.990000e+00	-3.920000e+00	1.000000e+02	3.779645e+01	3.779645e+01
-3.920000e+00	-3.850000e+00	1.714286e+02	4.948717e+01	4.948717e+01
-3.850000e+00	-3.780000e+00	2.428571e+02	5.890151e+01	5.890151e+01
-3.780000e+00	-3.710000e+00	4.000000e+02	7.559289e+01	7.559289e+01
-3.710000e+00	-3.640000e+00	4.428571e+02	7.953949e+01	7.953949e+01
-3.640000e+00	-3.570000e+00	5.000000e+02	8.451543e+01	8.451543e+01
-3.570000e+00	-3.500000e+00	6.428571e+02	9.583148e+01	9.583148e+01
-3.500000e+00	-3.430000e+00	8.000000e+02	1.069045e+02	1.069045e+02
-3.430000e+00	-3.360000e+00	1.142857e+03	1.277753e+02	1.277753e+02
-3.360000e+00	-3.290000e+00	1.328571e+03	1.377664e+02	1.377664e+02
-3.290000e+00	-3.220000e+00	1.871429e+03	1.635075e+02	1.635075e+02
-3.220000e+00	-3.150000e+00	2.142857e+03	1.749636e+02	1.749636e+02
-3.150000e+00	-3.080000e+00	3.000000e+03	2.070197e+02	2.070197e+02
-3.080000e+00	-3.010000e+00	4.300000e+03	2.478479e+02	2.478479e+02
-3.010000e+00	-2.940000e+00	5.871429e+03	2.896162e+02	2.896162e+02
-2.940000e+00	-2.870000e+00	7.757143e+03	3.328909e+02	3.328909e+02
-2.870000e+00	-2.800000e+00	1.134286e+04	4.025429e+02	4.025429e+02
-2.800000e+00	-2.730000e+00	1.412857e+04	4.492624e+02	4.492624e+02
-2.730000e+00	-2.660000e+00	2.147143e+04	5.538363e+02	5.538363e+02
-2.660000e+00	-2.590000e+00	2.890000e+04	6.425396e+02	6.425396e+02
-2.590000e+00	-2.520000e+00	4.102857e+04	7.655863e+02	7.655863e+02
-2.520000e+00	-2.450000e+00	5.461429e+04	8.832916e+02	8.832916e+02
-2.450000e+00	-2.380000e+00	7.630000e+04	1.044031e+03	1.044031e+03
-2.380000e+00	-2.310000e+00	1.112571e+05	1.260709e+03	1.260709e+03
-2.310000e+00	-2.240000e+00	1.550000e+05	1.488048e+03	1.488048e+03
-2.240000e+00	-2.170000e+00	2.143714e+05	1.749985e+03	1.749985e+03
-2.170000e+00	-2.100000e+00	3.051571e+05	2.087915e+03	2.087915e+03
-2.100000e+00	-2.030000e+00	4.310429e+05	2.481482e+03	2.481482e+03
-2.030000e+00	-1.960000e+00	6.093714e+05	2.950476e+03	2.950476e+03
-1.960000e+00	-1.890000e+00	8.645000e+05	3.514257e+03	3.514257e+03
-1.890000e+00	-1.820000e+00	1.213757e+06	4.164059e+03	4.164059e+03
-1.820000e+00	-1.750000e+00	1.675586e+06	4.892539e+03	4.892539e+03
-1.750000e+00	-1.680000e+00	2.254771e+06	5.675475e+03	5.675475e+03
-1.680000e+00	-1.610000e+00	2.969829e+06	6.513534e+03	6.513534e+03
-1.610000e+00	-1.540000e+00	3.832543e+06	7.399366e+03	7.399366e+03
-1.540000e+00	-1.470000e+00	4.818900e+06	8.297073e+03	8.297073e+03
-1.470000e+00	-1.400000e+00	5.848200e+06	9.140334e+03	9.140334e+03
-1.400000e+00	-1.330000e+00	6.900529e+06	9.928695e+03	9.928695e+03
-1.330000e+00	-1.260000e+00	7.952057e+06	1.065837e+04	1.065837e+04
-1.260000e+00	-1.190000e+00	8.988657e+06	1.133179e+04	1.133179e+04
-1.190000e+00	-1.120000e+00	1.004721e+07	1.198047e+04	1.198047e+04
-1.120000e+00	-1.050000e+00	1.111273e+07	1.259973e+04	1.259973e+04
-1.050000e+00	-9.800000e-01	1.209731e+07	1.314606e+04	1.314606e+04
-9.800000e-01	-9.100000e-01	1.234290e+07	1.327882e+04	1.327882e+04
-9.100000e-01	-8.400000e-01	1.217344e+07	1.318735e+04	1.318735e+04
-8.400000e-01	-7.700000e-01	1.168511e+07	1.292015e+04	1.292015e+04
-7.700000e-01	-7.000000e-01	1.088153e+07	1.246798e+04	1.246798e+04
-7.000000e-01	-6.300000e-01	9.834043e+06	1.185269e+04	1.185269e+04
-6.300000e-01	-5.600000e-01	8.512329e+06	1.102745e+04	1.102745e+04
-5.600000e-01	-4.900000e-01	6.960286e+06	9.971592e+03	9.971592e+03
-4.900000e-01	-4.200000e-01	5.160829e+06	8.586392e+03	8.586392e+03
-4.200000e-01	-3.500000e-01	3.161786e+06	6.720742e+03	6.720742e+03
-3.500000e-01	-2.800000e-01	1.169800e+06	4.087961e+03	4.087961e+03
-2.800000e-01	-2.100000e-01	2.445571e+05	1.869137e+03	1.869137e+03
-2.100000e-01	-1.400000e-01	2.245714e+04	5.664065e+02	5.664065e+02
-1.400000e-01	-7.000000e-02	5.142857e+02	8.571429e+01	8.571429e+01
-7.000000e-02	0.000000e+00	1.428571e+01	1.428571e+01	1.428571e+01
# END HISTO1D

