# BEGIN PLOT
LegendOnly=/pythia_ps_pt150_s1_1e3.yoda/PAPER_FIN_R8/ch_lin_SD_l10_pT_65_88
DrawOnly=/pythia_ps_pt150_s1_1e3.yoda/PAPER_FIN_R8/ch_lin_SD_l10_pT_65_88
Legend=1
LogY=1
# END PLOT

# BEGIN HISTO1D /pythia_ps_pt150_s1_1e3.yoda/PAPER_FIN_R8/ch_lin_SD_l10_pT_65_88
LineColor=red
LineStyle=solid
Path=/pythia_ps_pt150_s1_1e3.yoda/PAPER_FIN_R8/ch_lin_SD_l10_pT_65_88
Title=pythia_ps_pt150_s1_1e3
XLabel=~
YLabel=~
# xlow	 xhigh	 val	 errminus	 errplus
0.000000e+00	1.250000e-02	3.472360e+09	5.270567e+05	5.270567e+05
1.250000e-02	2.250000e-02	7.519020e+07	8.671228e+04	8.671228e+04
2.250000e-02	3.500000e-02	8.503008e+07	8.247670e+04	8.247670e+04
3.500000e-02	5.000000e-02	7.894580e+07	7.254690e+04	7.254690e+04
5.000000e-02	7.000000e-02	6.913675e+07	5.879488e+04	5.879488e+04
7.000000e-02	9.500000e-02	5.979072e+07	4.890428e+04	4.890428e+04
9.500000e-02	1.280000e-01	4.834755e+07	3.827633e+04	3.827633e+04
1.280000e-01	1.700000e-01	3.409690e+07	2.849265e+04	2.849265e+04
1.700000e-01	2.250000e-01	2.233767e+07	2.015290e+04	2.015290e+04
2.250000e-01	2.900000e-01	1.352315e+07	1.442389e+04	1.442389e+04
2.900000e-01	3.650000e-01	7.444427e+06	9.962882e+03	9.962882e+03
3.650000e-01	4.500000e-01	3.316153e+06	6.246084e+03	6.246084e+03
4.500000e-01	1.000000e+00	1.572673e+05	5.347340e+02	5.347340e+02
# END HISTO1D

