# BEGIN PLOT
# END PLOT

# BEGIN HISTO1D
LineColor=red
LineStyle=solid
Title=Z+Jet RES+NP
# Sigma = 1.685465e+00 pb
# xlow	xhigh	val	errminus	errplus
0.000000e+00	6.000000e-02	1.948915e-02	1.670039e-02	1.783935e-02
6.000000e-02	1.100000e-01	7.620119e-01	1.831533e-01	1.491254e-01
1.100000e-01	1.500000e-01	2.423081e+00	4.208655e-01	4.246795e-01
1.500000e-01	1.900000e-01	4.548014e+00	7.545829e-01	8.200294e-01
1.900000e-01	2.300000e-01	4.848983e+00	9.453051e-01	1.137791e+00
2.300000e-01	2.700000e-01	3.791644e+00	8.366239e-01	1.093430e+00
2.700000e-01	3.100000e-01	2.691507e+00	6.306992e-01	8.882839e-01
3.100000e-01	3.500000e-01	1.928602e+00	4.510953e-01	6.805741e-01
3.500000e-01	3.900000e-01	1.348436e+00	3.305948e-01	5.269399e-01
3.900000e-01	4.400000e-01	8.932648e-01	2.423015e-01	4.001570e-01
4.400000e-01	4.900000e-01	5.630711e-01	1.633948e-01	2.821141e-01
4.900000e-01	5.400000e-01	2.749051e-01	1.079036e-01	1.959249e-01
5.400000e-01	6.000000e-01	1.252248e-01	6.505422e-02	1.208204e-01
6.000000e-01	1.000000e+00	7.348466e-03	4.433895e-03	8.116809e-03
# END HISTO1D