# BEGIN PLOT
LegendOnly=/zj_ps_nlo_mer_mur0.5_muf1_R4.yoda/PAPER_FIN_R4/ch_SD_l10_pT_120_150
DrawOnly=/zj_ps_nlo_mer_mur0.5_muf1_R4.yoda/PAPER_FIN_R4/ch_SD_l10_pT_120_150
Legend=1
LogY=1
# END PLOT

# BEGIN HISTO1D /zj_ps_nlo_mer_mur0.5_muf1_R4.yoda/PAPER_FIN_R4/ch_SD_l10_pT_120_150
LineColor=red
LineStyle=solid
Path=/zj_ps_nlo_mer_mur0.5_muf1_R4.yoda/PAPER_FIN_R4/ch_SD_l10_pT_120_150
Title=zj_ps_nlo_mer_mur0.5_muf1_R4
XLabel=~
YLabel=~
# xlow	 xhigh	 val	 errminus	 errplus
-7.000000e+00	-6.930000e+00	0.000000e+00	0.000000e+00	0.000000e+00
-6.930000e+00	-6.860000e+00	-5.877931e+06	3.786453e+06	3.786453e+06
-6.860000e+00	-6.790000e+00	0.000000e+00	0.000000e+00	0.000000e+00
-6.790000e+00	-6.720000e+00	0.000000e+00	0.000000e+00	0.000000e+00
-6.720000e+00	-6.650000e+00	0.000000e+00	0.000000e+00	0.000000e+00
-6.650000e+00	-6.580000e+00	0.000000e+00	0.000000e+00	0.000000e+00
-6.580000e+00	-6.510000e+00	0.000000e+00	0.000000e+00	0.000000e+00
-6.510000e+00	-6.440000e+00	0.000000e+00	0.000000e+00	0.000000e+00
-6.440000e+00	-6.370000e+00	0.000000e+00	0.000000e+00	0.000000e+00
-6.370000e+00	-6.300000e+00	0.000000e+00	0.000000e+00	0.000000e+00
-6.300000e+00	-6.230000e+00	0.000000e+00	0.000000e+00	0.000000e+00
-6.230000e+00	-6.160000e+00	0.000000e+00	0.000000e+00	0.000000e+00
-6.160000e+00	-6.090000e+00	0.000000e+00	0.000000e+00	0.000000e+00
-6.090000e+00	-6.020000e+00	0.000000e+00	0.000000e+00	0.000000e+00
-6.020000e+00	-5.950000e+00	0.000000e+00	0.000000e+00	0.000000e+00
-5.950000e+00	-5.880000e+00	0.000000e+00	0.000000e+00	0.000000e+00
-5.880000e+00	-5.810000e+00	0.000000e+00	0.000000e+00	0.000000e+00
-5.810000e+00	-5.740000e+00	0.000000e+00	0.000000e+00	0.000000e+00
-5.740000e+00	-5.670000e+00	0.000000e+00	0.000000e+00	0.000000e+00
-5.670000e+00	-5.600000e+00	0.000000e+00	0.000000e+00	0.000000e+00
-5.600000e+00	-5.530000e+00	0.000000e+00	0.000000e+00	0.000000e+00
-5.530000e+00	-5.460000e+00	0.000000e+00	0.000000e+00	0.000000e+00
-5.460000e+00	-5.390000e+00	0.000000e+00	0.000000e+00	0.000000e+00
-5.390000e+00	-5.320000e+00	0.000000e+00	0.000000e+00	0.000000e+00
-5.320000e+00	-5.250000e+00	0.000000e+00	0.000000e+00	0.000000e+00
-5.250000e+00	-5.180000e+00	0.000000e+00	0.000000e+00	0.000000e+00
-5.180000e+00	-5.110000e+00	3.041859e+02	3.041859e+02	3.041859e+02
-5.110000e+00	-5.040000e+00	0.000000e+00	0.000000e+00	0.000000e+00
-5.040000e+00	-4.970000e+00	0.000000e+00	0.000000e+00	0.000000e+00
-4.970000e+00	-4.900000e+00	0.000000e+00	0.000000e+00	0.000000e+00
-4.900000e+00	-4.830000e+00	0.000000e+00	0.000000e+00	0.000000e+00
-4.830000e+00	-4.760000e+00	-3.882747e+02	3.882748e+02	3.882748e+02
-4.760000e+00	-4.690000e+00	2.348826e+01	2.348825e+01	2.348825e+01
-4.690000e+00	-4.620000e+00	-6.184127e+01	6.184127e+01	6.184127e+01
-4.620000e+00	-4.550000e+00	0.000000e+00	0.000000e+00	0.000000e+00
-4.550000e+00	-4.480000e+00	-8.197961e+01	8.197961e+01	8.197961e+01
-4.480000e+00	-4.410000e+00	1.780350e+04	1.825553e+04	1.825553e+04
-4.410000e+00	-4.340000e+00	8.293414e+01	8.291088e+01	8.291088e+01
-4.340000e+00	-4.270000e+00	1.671053e-01	1.671053e-01	1.671053e-01
-4.270000e+00	-4.200000e+00	-2.423109e+02	2.423109e+02	2.423109e+02
-4.200000e+00	-4.130000e+00	-1.503774e+03	9.754421e+02	9.754421e+02
-4.130000e+00	-4.060000e+00	2.856814e+01	8.281280e+01	8.281280e+01
-4.060000e+00	-3.990000e+00	-5.182326e+03	8.654556e+03	8.654556e+03
-3.990000e+00	-3.920000e+00	-2.913430e+04	2.125406e+04	2.125406e+04
-3.920000e+00	-3.850000e+00	6.569597e+02	7.192644e+03	7.192644e+03
-3.850000e+00	-3.780000e+00	1.492240e+04	1.318523e+04	1.318523e+04
-3.780000e+00	-3.710000e+00	4.665597e+04	4.487792e+04	4.487792e+04
-3.710000e+00	-3.640000e+00	3.165507e+04	2.499982e+04	2.499982e+04
-3.640000e+00	-3.570000e+00	-1.972096e+04	1.827840e+04	1.827840e+04
-3.570000e+00	-3.500000e+00	7.758604e+04	5.953944e+04	5.953944e+04
-3.500000e+00	-3.430000e+00	3.594124e+04	2.115320e+04	2.115320e+04
-3.430000e+00	-3.360000e+00	1.646647e+04	3.512176e+04	3.512176e+04
-3.360000e+00	-3.290000e+00	5.251283e+04	1.232280e+05	1.232280e+05
-3.290000e+00	-3.220000e+00	-6.504601e+04	4.576165e+04	4.576165e+04
-3.220000e+00	-3.150000e+00	5.123304e+04	3.560590e+04	3.560590e+04
-3.150000e+00	-3.080000e+00	1.188948e+05	7.032392e+04	7.032392e+04
-3.080000e+00	-3.010000e+00	-1.676706e+05	1.512722e+05	1.512722e+05
-3.010000e+00	-2.940000e+00	1.819713e+05	1.106297e+05	1.106297e+05
-2.940000e+00	-2.870000e+00	-6.436951e+05	6.417934e+05	6.417934e+05
-2.870000e+00	-2.800000e+00	-5.798574e+04	1.079637e+05	1.079637e+05
-2.800000e+00	-2.730000e+00	-1.775096e+05	3.224854e+05	3.224854e+05
-2.730000e+00	-2.660000e+00	1.931646e+05	3.593831e+05	3.593831e+05
-2.660000e+00	-2.590000e+00	7.774453e+05	6.417570e+05	6.417570e+05
-2.590000e+00	-2.520000e+00	4.379230e+05	4.831404e+05	4.831404e+05
-2.520000e+00	-2.450000e+00	-3.650369e+06	2.671380e+06	2.671380e+06
-2.450000e+00	-2.380000e+00	-4.858766e+05	6.768109e+05	6.768109e+05
-2.380000e+00	-2.310000e+00	1.984711e+06	7.850635e+05	7.850635e+05
-2.310000e+00	-2.240000e+00	3.721014e+05	1.225846e+06	1.225846e+06
-2.240000e+00	-2.170000e+00	3.367414e+05	1.018368e+06	1.018368e+06
-2.170000e+00	-2.100000e+00	1.019912e+06	4.265704e+06	4.265704e+06
-2.100000e+00	-2.030000e+00	1.172614e+05	1.989053e+06	1.989053e+06
-2.030000e+00	-1.960000e+00	-3.021147e+05	2.099046e+06	2.099046e+06
-1.960000e+00	-1.890000e+00	-3.171579e+06	2.947718e+06	2.947718e+06
-1.890000e+00	-1.820000e+00	-2.417510e+05	5.523460e+06	5.523460e+06
-1.820000e+00	-1.750000e+00	-6.354159e+05	2.664238e+06	2.664238e+06
-1.750000e+00	-1.680000e+00	2.649514e+06	4.444752e+06	4.444752e+06
-1.680000e+00	-1.610000e+00	-1.606461e+07	9.869729e+06	9.869729e+06
-1.610000e+00	-1.540000e+00	3.752754e+06	4.889053e+06	4.889053e+06
-1.540000e+00	-1.470000e+00	2.979666e+06	5.852524e+06	5.852524e+06
-1.470000e+00	-1.400000e+00	-5.146636e+06	5.644018e+06	5.644018e+06
-1.400000e+00	-1.330000e+00	9.424691e+05	5.676653e+06	5.676653e+06
-1.330000e+00	-1.260000e+00	9.000757e+06	1.171944e+07	1.171944e+07
-1.260000e+00	-1.190000e+00	5.451094e+06	9.658744e+06	9.658744e+06
-1.190000e+00	-1.120000e+00	5.461321e+06	1.032266e+07	1.032266e+07
-1.120000e+00	-1.050000e+00	-7.542877e+06	8.197274e+06	8.197274e+06
-1.050000e+00	-9.800000e-01	-8.580337e+06	6.935534e+06	6.935534e+06
-9.800000e-01	-9.100000e-01	-1.330625e+07	9.128964e+06	9.128964e+06
-9.100000e-01	-8.400000e-01	-4.703860e+06	1.067339e+07	1.067339e+07
-8.400000e-01	-7.700000e-01	-5.838586e+07	3.448622e+07	3.448622e+07
-7.700000e-01	-7.000000e-01	-2.004896e+07	3.039254e+07	3.039254e+07
-7.000000e-01	-6.300000e-01	-8.662393e+06	6.947823e+06	6.947823e+06
-6.300000e-01	-5.600000e-01	-1.320275e+07	1.006455e+07	1.006455e+07
-5.600000e-01	-4.900000e-01	-4.141826e+07	2.546591e+07	2.546591e+07
-4.900000e-01	-4.200000e-01	-2.034807e+07	6.784116e+06	6.784116e+06
-4.200000e-01	-3.500000e-01	-1.269124e+07	6.739583e+06	6.739583e+06
-3.500000e-01	-2.800000e-01	-8.778091e+06	4.371716e+06	4.371716e+06
-2.800000e-01	-2.100000e-01	-2.279179e+06	2.051067e+06	2.051067e+06
-2.100000e-01	-1.400000e-01	1.391550e+06	1.485875e+06	1.485875e+06
-1.400000e-01	-7.000000e-02	-3.757853e+05	2.988357e+05	2.988357e+05
-7.000000e-02	0.000000e+00	-1.203119e+04	1.108565e+04	1.108565e+04
# END HISTO1D

