# BEGIN PLOT
LegendOnly=/zj_ps_nlo_mer_mur0.5_muf1_R4.yoda/PAPER_FIN_R4/ch_SD_l05_pT_65_88
DrawOnly=/zj_ps_nlo_mer_mur0.5_muf1_R4.yoda/PAPER_FIN_R4/ch_SD_l05_pT_65_88
Legend=1
LogY=1
# END PLOT

# BEGIN HISTO1D /zj_ps_nlo_mer_mur0.5_muf1_R4.yoda/PAPER_FIN_R4/ch_SD_l05_pT_65_88
LineColor=red
LineStyle=solid
Path=/zj_ps_nlo_mer_mur0.5_muf1_R4.yoda/PAPER_FIN_R4/ch_SD_l05_pT_65_88
Title=zj_ps_nlo_mer_mur0.5_muf1_R4
XLabel=~
YLabel=~
# xlow	 xhigh	 val	 errminus	 errplus
-7.000000e+00	-6.930000e+00	0.000000e+00	0.000000e+00	0.000000e+00
-6.930000e+00	-6.860000e+00	-8.303877e+05	6.437733e+05	6.437733e+05
-6.860000e+00	-6.790000e+00	0.000000e+00	0.000000e+00	0.000000e+00
-6.790000e+00	-6.720000e+00	0.000000e+00	0.000000e+00	0.000000e+00
-6.720000e+00	-6.650000e+00	0.000000e+00	0.000000e+00	0.000000e+00
-6.650000e+00	-6.580000e+00	0.000000e+00	0.000000e+00	0.000000e+00
-6.580000e+00	-6.510000e+00	0.000000e+00	0.000000e+00	0.000000e+00
-6.510000e+00	-6.440000e+00	0.000000e+00	0.000000e+00	0.000000e+00
-6.440000e+00	-6.370000e+00	0.000000e+00	0.000000e+00	0.000000e+00
-6.370000e+00	-6.300000e+00	0.000000e+00	0.000000e+00	0.000000e+00
-6.300000e+00	-6.230000e+00	0.000000e+00	0.000000e+00	0.000000e+00
-6.230000e+00	-6.160000e+00	0.000000e+00	0.000000e+00	0.000000e+00
-6.160000e+00	-6.090000e+00	0.000000e+00	0.000000e+00	0.000000e+00
-6.090000e+00	-6.020000e+00	0.000000e+00	0.000000e+00	0.000000e+00
-6.020000e+00	-5.950000e+00	0.000000e+00	0.000000e+00	0.000000e+00
-5.950000e+00	-5.880000e+00	0.000000e+00	0.000000e+00	0.000000e+00
-5.880000e+00	-5.810000e+00	0.000000e+00	0.000000e+00	0.000000e+00
-5.810000e+00	-5.740000e+00	0.000000e+00	0.000000e+00	0.000000e+00
-5.740000e+00	-5.670000e+00	0.000000e+00	0.000000e+00	0.000000e+00
-5.670000e+00	-5.600000e+00	0.000000e+00	0.000000e+00	0.000000e+00
-5.600000e+00	-5.530000e+00	0.000000e+00	0.000000e+00	0.000000e+00
-5.530000e+00	-5.460000e+00	0.000000e+00	0.000000e+00	0.000000e+00
-5.460000e+00	-5.390000e+00	0.000000e+00	0.000000e+00	0.000000e+00
-5.390000e+00	-5.320000e+00	0.000000e+00	0.000000e+00	0.000000e+00
-5.320000e+00	-5.250000e+00	0.000000e+00	0.000000e+00	0.000000e+00
-5.250000e+00	-5.180000e+00	0.000000e+00	0.000000e+00	0.000000e+00
-5.180000e+00	-5.110000e+00	0.000000e+00	0.000000e+00	0.000000e+00
-5.110000e+00	-5.040000e+00	0.000000e+00	0.000000e+00	0.000000e+00
-5.040000e+00	-4.970000e+00	0.000000e+00	0.000000e+00	0.000000e+00
-4.970000e+00	-4.900000e+00	0.000000e+00	0.000000e+00	0.000000e+00
-4.900000e+00	-4.830000e+00	0.000000e+00	0.000000e+00	0.000000e+00
-4.830000e+00	-4.760000e+00	0.000000e+00	0.000000e+00	0.000000e+00
-4.760000e+00	-4.690000e+00	0.000000e+00	0.000000e+00	0.000000e+00
-4.690000e+00	-4.620000e+00	0.000000e+00	0.000000e+00	0.000000e+00
-4.620000e+00	-4.550000e+00	0.000000e+00	0.000000e+00	0.000000e+00
-4.550000e+00	-4.480000e+00	0.000000e+00	0.000000e+00	0.000000e+00
-4.480000e+00	-4.410000e+00	0.000000e+00	0.000000e+00	0.000000e+00
-4.410000e+00	-4.340000e+00	0.000000e+00	0.000000e+00	0.000000e+00
-4.340000e+00	-4.270000e+00	0.000000e+00	0.000000e+00	0.000000e+00
-4.270000e+00	-4.200000e+00	0.000000e+00	0.000000e+00	0.000000e+00
-4.200000e+00	-4.130000e+00	0.000000e+00	0.000000e+00	0.000000e+00
-4.130000e+00	-4.060000e+00	0.000000e+00	0.000000e+00	0.000000e+00
-4.060000e+00	-3.990000e+00	0.000000e+00	0.000000e+00	0.000000e+00
-3.990000e+00	-3.920000e+00	0.000000e+00	0.000000e+00	0.000000e+00
-3.920000e+00	-3.850000e+00	0.000000e+00	0.000000e+00	0.000000e+00
-3.850000e+00	-3.780000e+00	0.000000e+00	0.000000e+00	0.000000e+00
-3.780000e+00	-3.710000e+00	0.000000e+00	0.000000e+00	0.000000e+00
-3.710000e+00	-3.640000e+00	0.000000e+00	0.000000e+00	0.000000e+00
-3.640000e+00	-3.570000e+00	0.000000e+00	0.000000e+00	0.000000e+00
-3.570000e+00	-3.500000e+00	0.000000e+00	0.000000e+00	0.000000e+00
-3.500000e+00	-3.430000e+00	0.000000e+00	0.000000e+00	0.000000e+00
-3.430000e+00	-3.360000e+00	0.000000e+00	0.000000e+00	0.000000e+00
-3.360000e+00	-3.290000e+00	0.000000e+00	0.000000e+00	0.000000e+00
-3.290000e+00	-3.220000e+00	0.000000e+00	0.000000e+00	0.000000e+00
-3.220000e+00	-3.150000e+00	0.000000e+00	0.000000e+00	0.000000e+00
-3.150000e+00	-3.080000e+00	0.000000e+00	0.000000e+00	0.000000e+00
-3.080000e+00	-3.010000e+00	0.000000e+00	0.000000e+00	0.000000e+00
-3.010000e+00	-2.940000e+00	0.000000e+00	0.000000e+00	0.000000e+00
-2.940000e+00	-2.870000e+00	0.000000e+00	0.000000e+00	0.000000e+00
-2.870000e+00	-2.800000e+00	0.000000e+00	0.000000e+00	0.000000e+00
-2.800000e+00	-2.730000e+00	0.000000e+00	0.000000e+00	0.000000e+00
-2.730000e+00	-2.660000e+00	0.000000e+00	0.000000e+00	0.000000e+00
-2.660000e+00	-2.590000e+00	0.000000e+00	0.000000e+00	0.000000e+00
-2.590000e+00	-2.520000e+00	0.000000e+00	0.000000e+00	0.000000e+00
-2.520000e+00	-2.450000e+00	0.000000e+00	0.000000e+00	0.000000e+00
-2.450000e+00	-2.380000e+00	0.000000e+00	0.000000e+00	0.000000e+00
-2.380000e+00	-2.310000e+00	0.000000e+00	0.000000e+00	0.000000e+00
-2.310000e+00	-2.240000e+00	0.000000e+00	0.000000e+00	0.000000e+00
-2.240000e+00	-2.170000e+00	0.000000e+00	0.000000e+00	0.000000e+00
-2.170000e+00	-2.100000e+00	-1.872261e+02	1.872262e+02	1.872262e+02
-2.100000e+00	-2.030000e+00	0.000000e+00	0.000000e+00	0.000000e+00
-2.030000e+00	-1.960000e+00	-1.711516e+03	1.697112e+03	1.697112e+03
-1.960000e+00	-1.890000e+00	1.139509e+00	2.944767e+01	2.944767e+01
-1.890000e+00	-1.820000e+00	9.751410e+01	1.890103e+02	1.890103e+02
-1.820000e+00	-1.750000e+00	4.294790e+01	1.157347e+02	1.157347e+02
-1.750000e+00	-1.680000e+00	2.569397e+04	2.579306e+04	2.579306e+04
-1.680000e+00	-1.610000e+00	1.233791e+03	1.339778e+03	1.339778e+03
-1.610000e+00	-1.540000e+00	7.249447e+04	7.258352e+04	7.258352e+04
-1.540000e+00	-1.470000e+00	5.636120e+04	3.641177e+04	3.641177e+04
-1.470000e+00	-1.400000e+00	1.529316e+04	5.410804e+04	5.410804e+04
-1.400000e+00	-1.330000e+00	7.503251e+04	7.083462e+04	7.083462e+04
-1.330000e+00	-1.260000e+00	-9.887403e+04	5.145955e+04	5.145955e+04
-1.260000e+00	-1.190000e+00	-2.363094e+05	2.043547e+05	2.043547e+05
-1.190000e+00	-1.120000e+00	-4.122716e+05	2.468692e+05	2.468692e+05
-1.120000e+00	-1.050000e+00	2.871089e+05	3.086185e+05	3.086185e+05
-1.050000e+00	-9.800000e-01	-1.847489e+05	1.531566e+05	1.531566e+05
-9.800000e-01	-9.100000e-01	-7.794159e+04	2.532908e+05	2.532908e+05
-9.100000e-01	-8.400000e-01	1.113812e+05	4.328240e+05	4.328240e+05
-8.400000e-01	-7.700000e-01	-4.432699e+05	3.848025e+05	3.848025e+05
-7.700000e-01	-7.000000e-01	-1.315691e+06	3.983660e+05	3.983660e+05
-7.000000e-01	-6.300000e-01	-2.840003e+06	1.187971e+06	1.187971e+06
-6.300000e-01	-5.600000e-01	-1.328727e+06	6.182290e+05	6.182290e+05
-5.600000e-01	-4.900000e-01	-1.539306e+06	6.426576e+05	6.426576e+05
-4.900000e-01	-4.200000e-01	-2.925351e+06	6.454808e+05	6.454808e+05
-4.200000e-01	-3.500000e-01	-2.876336e+06	2.050678e+06	2.050678e+06
-3.500000e-01	-2.800000e-01	-2.455894e+06	5.190077e+05	5.190077e+05
-2.800000e-01	-2.100000e-01	-1.203556e+06	7.658213e+05	7.658213e+05
-2.100000e-01	-1.400000e-01	-5.470410e+05	2.662257e+05	2.662257e+05
-1.400000e-01	-7.000000e-02	-2.956593e+05	1.515687e+05	1.515687e+05
-7.000000e-02	0.000000e+00	-1.549986e+02	1.549985e+02	1.549985e+02
# END HISTO1D

