# BEGIN PLOT
LegendOnly=/zj_ps_nlo_mer_mur0.5_muf1_R4.yoda/PAPER_FIN_R4/ch_lin_l20_pT_408_1500
DrawOnly=/zj_ps_nlo_mer_mur0.5_muf1_R4.yoda/PAPER_FIN_R4/ch_lin_l20_pT_408_1500
Legend=1
LogY=1
# END PLOT

# BEGIN HISTO1D /zj_ps_nlo_mer_mur0.5_muf1_R4.yoda/PAPER_FIN_R4/ch_lin_l20_pT_408_1500
LineColor=red
LineStyle=solid
Path=/zj_ps_nlo_mer_mur0.5_muf1_R4.yoda/PAPER_FIN_R4/ch_lin_l20_pT_408_1500
Title=zj_ps_nlo_mer_mur0.5_muf1_R4
XLabel=~
YLabel=~
# xlow	 xhigh	 val	 errminus	 errplus
0.000000e+00	5.000000e-03	1.191561e+10	1.752695e+08	1.752695e+08
5.000000e-03	1.250000e-02	1.235109e+10	1.481518e+08	1.481518e+08
1.250000e-02	2.250000e-02	7.623813e+09	7.924425e+07	7.924425e+07
2.250000e-02	3.500000e-02	4.249506e+09	4.905431e+07	4.905431e+07
3.500000e-02	5.000000e-02	2.550216e+09	4.221559e+07	4.221559e+07
5.000000e-02	7.000000e-02	1.558947e+09	2.959441e+07	2.959441e+07
7.000000e-02	9.250000e-02	9.047062e+08	1.258620e+08	1.258620e+08
9.250000e-02	1.200000e-01	6.898062e+08	1.456463e+07	1.456463e+07
1.200000e-01	1.520000e-01	4.228825e+08	1.196786e+07	1.196786e+07
1.520000e-01	1.880000e-01	2.586074e+08	9.917771e+06	9.917771e+06
1.880000e-01	2.280000e-01	1.547545e+08	7.200224e+06	7.200224e+06
2.280000e-01	1.000000e+00	4.521527e+06	9.173055e+05	9.173055e+05
# END HISTO1D

