num,pt,eta,phi
0,1.70432,0.92907,5.44338
0,1.58967,0.108657,5.03213
0,1.66803,0.595573,5.17123
0,16.8824,0.410113,5.47626
0,13.0042,0.349517,5.53202
0,2.5602,-0.0170355,5.60629
0,1.52053,-0.00519801,6.23684
0,204.633,0.0869718,6.01148
0,3.43559,0.0977072,6.15063
