# BEGIN PLOT
LegendOnly=/zj_ps_nlo_mer_cent_R4.yoda/PAPER_FIN_R4/ch_SD_l20_pT_254_326
DrawOnly=/zj_ps_nlo_mer_cent_R4.yoda/PAPER_FIN_R4/ch_SD_l20_pT_254_326
Legend=1
LogY=1
# END PLOT

# BEGIN HISTO1D /zj_ps_nlo_mer_cent_R4.yoda/PAPER_FIN_R4/ch_SD_l20_pT_254_326
LineColor=red
LineStyle=solid
Path=/zj_ps_nlo_mer_cent_R4.yoda/PAPER_FIN_R4/ch_SD_l20_pT_254_326
Title=zj_ps_nlo_mer_cent_R4
XLabel=~
YLabel=~
# xlow	 xhigh	 val	 errminus	 errplus
-7.000000e+00	-6.930000e+00	6.656423e+03	6.557649e+03	6.557649e+03
-6.930000e+00	-6.860000e+00	1.106760e+10	1.049609e+08	1.049609e+08
-6.860000e+00	-6.790000e+00	5.650929e+03	5.657352e+03	5.657352e+03
-6.790000e+00	-6.720000e+00	4.866124e+05	4.859250e+05	4.859250e+05
-6.720000e+00	-6.650000e+00	-1.799177e+04	2.054656e+04	2.054656e+04
-6.650000e+00	-6.580000e+00	6.628757e+04	5.233082e+04	5.233082e+04
-6.580000e+00	-6.510000e+00	2.719343e+04	6.467577e+04	6.467577e+04
-6.510000e+00	-6.440000e+00	-5.853820e+03	7.226682e+03	7.226682e+03
-6.440000e+00	-6.370000e+00	1.474223e+05	1.433830e+05	1.433830e+05
-6.370000e+00	-6.300000e+00	4.144816e+04	2.142960e+04	2.142960e+04
-6.300000e+00	-6.230000e+00	5.696740e+04	1.035860e+05	1.035860e+05
-6.230000e+00	-6.160000e+00	6.324159e+04	6.817828e+04	6.817828e+04
-6.160000e+00	-6.090000e+00	1.243057e+05	9.116094e+04	9.116094e+04
-6.090000e+00	-6.020000e+00	1.370776e+05	7.528201e+04	7.528201e+04
-6.020000e+00	-5.950000e+00	-6.926356e+04	1.530464e+05	1.530464e+05
-5.950000e+00	-5.880000e+00	-1.848816e+06	1.956341e+06	1.956341e+06
-5.880000e+00	-5.810000e+00	2.873826e+05	1.615159e+05	1.615159e+05
-5.810000e+00	-5.740000e+00	3.817579e+05	5.681114e+05	5.681114e+05
-5.740000e+00	-5.670000e+00	4.004981e+04	2.458937e+04	2.458937e+04
-5.670000e+00	-5.600000e+00	1.143520e+06	8.357226e+05	8.357226e+05
-5.600000e+00	-5.530000e+00	6.168327e+04	2.126457e+05	2.126457e+05
-5.530000e+00	-5.460000e+00	-8.043223e+04	1.039150e+05	1.039150e+05
-5.460000e+00	-5.390000e+00	1.522856e+05	1.811747e+05	1.811747e+05
-5.390000e+00	-5.320000e+00	2.746660e+05	3.355200e+05	3.355200e+05
-5.320000e+00	-5.250000e+00	1.069396e+05	8.604001e+04	8.604001e+04
-5.250000e+00	-5.180000e+00	6.875143e+05	3.332559e+05	3.332559e+05
-5.180000e+00	-5.110000e+00	-4.429800e+05	3.810663e+05	3.810663e+05
-5.110000e+00	-5.040000e+00	3.312520e+05	1.473414e+05	1.473414e+05
-5.040000e+00	-4.970000e+00	3.102833e+05	2.155663e+05	2.155663e+05
-4.970000e+00	-4.900000e+00	8.329960e+05	4.427808e+05	4.427808e+05
-4.900000e+00	-4.830000e+00	5.596116e+05	2.059264e+05	2.059264e+05
-4.830000e+00	-4.760000e+00	1.505411e+06	1.041980e+06	1.041980e+06
-4.760000e+00	-4.690000e+00	6.421783e+05	4.738449e+05	4.738449e+05
-4.690000e+00	-4.620000e+00	5.052390e+05	2.194280e+05	2.194280e+05
-4.620000e+00	-4.550000e+00	1.405185e+06	5.908605e+05	5.908605e+05
-4.550000e+00	-4.480000e+00	4.806071e+05	4.193868e+05	4.193868e+05
-4.480000e+00	-4.410000e+00	2.124700e+06	8.880538e+05	8.880538e+05
-4.410000e+00	-4.340000e+00	4.625916e+06	3.418873e+06	3.418873e+06
-4.340000e+00	-4.270000e+00	1.296412e+05	8.427396e+05	8.427396e+05
-4.270000e+00	-4.200000e+00	2.925564e+06	9.600881e+05	9.600881e+05
-4.200000e+00	-4.130000e+00	1.749007e+06	9.073840e+05	9.073840e+05
-4.130000e+00	-4.060000e+00	3.802144e+06	7.396552e+05	7.396552e+05
-4.060000e+00	-3.990000e+00	3.724564e+06	9.246463e+05	9.246463e+05
-3.990000e+00	-3.920000e+00	6.917927e+06	1.246289e+06	1.246289e+06
-3.920000e+00	-3.850000e+00	8.783976e+06	1.225991e+06	1.225991e+06
-3.850000e+00	-3.780000e+00	1.120557e+07	1.721896e+06	1.721896e+06
-3.780000e+00	-3.710000e+00	1.625959e+07	2.120621e+06	2.120621e+06
-3.710000e+00	-3.640000e+00	1.551871e+07	1.591034e+06	1.591034e+06
-3.640000e+00	-3.570000e+00	1.745983e+07	2.274479e+06	2.274479e+06
-3.570000e+00	-3.500000e+00	2.283663e+07	1.745511e+06	1.745511e+06
-3.500000e+00	-3.430000e+00	2.590133e+07	2.585843e+06	2.585843e+06
-3.430000e+00	-3.360000e+00	2.898314e+07	2.369029e+06	2.369029e+06
-3.360000e+00	-3.290000e+00	2.969580e+07	3.507283e+06	3.507283e+06
-3.290000e+00	-3.220000e+00	3.191724e+07	3.762941e+06	3.762941e+06
-3.220000e+00	-3.150000e+00	4.749200e+07	3.152042e+06	3.152042e+06
-3.150000e+00	-3.080000e+00	4.723316e+07	4.360072e+06	4.360072e+06
-3.080000e+00	-3.010000e+00	5.151404e+07	4.294519e+06	4.294519e+06
-3.010000e+00	-2.940000e+00	5.057529e+07	3.577978e+06	3.577978e+06
-2.940000e+00	-2.870000e+00	5.749277e+07	3.841604e+06	3.841604e+06
-2.870000e+00	-2.800000e+00	6.136611e+07	4.966179e+06	4.966179e+06
-2.800000e+00	-2.730000e+00	7.037443e+07	4.153193e+06	4.153193e+06
-2.730000e+00	-2.660000e+00	7.047539e+07	5.784457e+06	5.784457e+06
-2.660000e+00	-2.590000e+00	7.476303e+07	4.466173e+06	4.466173e+06
-2.590000e+00	-2.520000e+00	7.969390e+07	5.385589e+06	5.385589e+06
-2.520000e+00	-2.450000e+00	7.154737e+07	5.709857e+06	5.709857e+06
-2.450000e+00	-2.380000e+00	7.351314e+07	5.266389e+06	5.266389e+06
-2.380000e+00	-2.310000e+00	8.373664e+07	5.111863e+06	5.111863e+06
-2.310000e+00	-2.240000e+00	8.568579e+07	4.211285e+06	4.211285e+06
-2.240000e+00	-2.170000e+00	9.702184e+07	8.194256e+06	8.194256e+06
-2.170000e+00	-2.100000e+00	8.973394e+07	5.513560e+06	5.513560e+06
-2.100000e+00	-2.030000e+00	8.693143e+07	9.833426e+06	9.833426e+06
-2.030000e+00	-1.960000e+00	1.019794e+08	7.639210e+06	7.639210e+06
-1.960000e+00	-1.890000e+00	9.697459e+07	6.059277e+06	6.059277e+06
-1.890000e+00	-1.820000e+00	1.085670e+08	5.592522e+06	5.592522e+06
-1.820000e+00	-1.750000e+00	1.037616e+08	7.240906e+06	7.240906e+06
-1.750000e+00	-1.680000e+00	1.085188e+08	5.999747e+06	5.999747e+06
-1.680000e+00	-1.610000e+00	1.248624e+08	6.567858e+06	6.567858e+06
-1.610000e+00	-1.540000e+00	1.162026e+08	6.029888e+06	6.029888e+06
-1.540000e+00	-1.470000e+00	1.354666e+08	8.017177e+06	8.017177e+06
-1.470000e+00	-1.400000e+00	1.089948e+08	9.543259e+06	9.543259e+06
-1.400000e+00	-1.330000e+00	1.316177e+08	6.324402e+06	6.324402e+06
-1.330000e+00	-1.260000e+00	1.397394e+08	8.238469e+06	8.238469e+06
-1.260000e+00	-1.190000e+00	1.165316e+08	1.241786e+07	1.241786e+07
-1.190000e+00	-1.120000e+00	1.372512e+08	9.662789e+06	9.662789e+06
-1.120000e+00	-1.050000e+00	1.425688e+08	6.416893e+06	6.416893e+06
-1.050000e+00	-9.800000e-01	1.380514e+08	9.034678e+06	9.034678e+06
-9.800000e-01	-9.100000e-01	9.196500e+07	3.363260e+07	3.363260e+07
-9.100000e-01	-8.400000e-01	1.214821e+08	9.088782e+06	9.088782e+06
-8.400000e-01	-7.700000e-01	1.006079e+08	6.571334e+06	6.571334e+06
-7.700000e-01	-7.000000e-01	8.402870e+07	4.779395e+06	4.779395e+06
-7.000000e-01	-6.300000e-01	4.754127e+07	6.990480e+06	6.990480e+06
-6.300000e-01	-5.600000e-01	2.041730e+07	2.858568e+06	2.858568e+06
-5.600000e-01	-4.900000e-01	1.326056e+06	7.140750e+05	7.140750e+05
-4.900000e-01	-4.200000e-01	3.447620e+05	3.387101e+05	3.387101e+05
-4.200000e-01	-3.500000e-01	2.188490e+04	1.415474e+04	1.415474e+04
-3.500000e-01	-2.800000e-01	0.000000e+00	0.000000e+00	0.000000e+00
-2.800000e-01	-2.100000e-01	0.000000e+00	0.000000e+00	0.000000e+00
-2.100000e-01	-1.400000e-01	0.000000e+00	0.000000e+00	0.000000e+00
-1.400000e-01	-7.000000e-02	0.000000e+00	0.000000e+00	0.000000e+00
-7.000000e-02	0.000000e+00	0.000000e+00	0.000000e+00	0.000000e+00
# END HISTO1D

