# BEGIN PLOT
LegendOnly=/zj_ps_nlo_mer_cent_R4.yoda/PAPER_FIN_R4_CH/lin_l10_pT_326_408
DrawOnly=/zj_ps_nlo_mer_cent_R4.yoda/PAPER_FIN_R4_CH/lin_l10_pT_326_408
Legend=1
LogY=1
# END PLOT

# BEGIN HISTO1D /zj_ps_nlo_mer_cent_R4.yoda/PAPER_FIN_R4_CH/lin_l10_pT_326_408
LineColor=red
LineStyle=solid
Path=/zj_ps_nlo_mer_cent_R4.yoda/PAPER_FIN_R4_CH/lin_l10_pT_326_408
Title=zj_ps_nlo_mer_cent_R4
XLabel=~
YLabel=~
# xlow	 xhigh	 val	 errminus	 errplus
0.000000e+00	2.250000e-02	4.607040e+09	8.448427e+07	8.448427e+07
2.250000e-02	4.000000e-02	4.032398e+09	7.447082e+07	7.447082e+07
4.000000e-02	5.750000e-02	3.216254e+09	8.407433e+07	8.407433e+07
5.750000e-02	7.750000e-02	2.354304e+09	4.917592e+07	4.917592e+07
7.750000e-02	1.000000e-01	1.840587e+09	4.150505e+07	4.150505e+07
1.000000e-01	1.250000e-01	1.298593e+09	3.864828e+07	3.864828e+07
1.250000e-01	1.520000e-01	9.586756e+08	2.773966e+07	2.773966e+07
1.520000e-01	1.850000e-01	7.291358e+08	2.765118e+07	2.765118e+07
1.850000e-01	2.200000e-01	5.115477e+08	2.761063e+07	2.761063e+07
2.200000e-01	2.600000e-01	4.106097e+08	1.891688e+07	1.891688e+07
2.600000e-01	3.070000e-01	2.897830e+08	1.337928e+07	1.337928e+07
3.070000e-01	3.620000e-01	1.931375e+08	9.887887e+06	9.887887e+06
3.620000e-01	4.250000e-01	1.463767e+08	2.403782e+07	2.403782e+07
4.250000e-01	4.970000e-01	6.419615e+07	4.539288e+06	4.539288e+06
4.970000e-01	1.000000e+00	3.413853e+06	5.158279e+05	5.158279e+05
# END HISTO1D

