# BEGIN PLOT
LegendOnly=/zj_ps_nlo_mer_mur0.5_muf0.5_R4.yoda/PAPER_FIN_R4/lin_SD_l20_pT_88_120
DrawOnly=/zj_ps_nlo_mer_mur0.5_muf0.5_R4.yoda/PAPER_FIN_R4/lin_SD_l20_pT_88_120
Legend=1
LogY=1
# END PLOT

# BEGIN HISTO1D /zj_ps_nlo_mer_mur0.5_muf0.5_R4.yoda/PAPER_FIN_R4/lin_SD_l20_pT_88_120
LineColor=red
LineStyle=solid
Path=/zj_ps_nlo_mer_mur0.5_muf0.5_R4.yoda/PAPER_FIN_R4/lin_SD_l20_pT_88_120
Title=zj_ps_nlo_mer_mur0.5_muf0.5_R4
XLabel=~
YLabel=~
# xlow	 xhigh	 val	 errminus	 errplus
0.000000e+00	2.500000e-03	2.666278e+12	3.549565e+10	3.549565e+10
2.500000e-03	1.000000e-02	3.332748e+11	5.301297e+09	5.301297e+09
1.000000e-02	2.500000e-02	1.521215e+11	3.076915e+09	3.076915e+09
2.500000e-02	6.000000e-02	6.699451e+10	1.273484e+09	1.273484e+09
6.000000e-02	1.200000e-01	3.129325e+10	4.949972e+08	4.949972e+08
1.200000e-01	1.770000e-01	1.467465e+10	3.681697e+08	3.681697e+08
1.770000e-01	2.300000e-01	6.477391e+09	1.740840e+08	1.740840e+08
2.300000e-01	1.000000e+00	1.955382e+08	8.481007e+06	8.481007e+06
# END HISTO1D

