# BEGIN PLOT
LegendOnly=/zj_ps_nlo_mer_mur0.5_muf0.5_R4.yoda/PAPER_FIN_R4/ch_lin_l05_pT_120_150
DrawOnly=/zj_ps_nlo_mer_mur0.5_muf0.5_R4.yoda/PAPER_FIN_R4/ch_lin_l05_pT_120_150
Legend=1
LogY=1
# END PLOT

# BEGIN HISTO1D /zj_ps_nlo_mer_mur0.5_muf0.5_R4.yoda/PAPER_FIN_R4/ch_lin_l05_pT_120_150
LineColor=red
LineStyle=solid
Path=/zj_ps_nlo_mer_mur0.5_muf0.5_R4.yoda/PAPER_FIN_R4/ch_lin_l05_pT_120_150
Title=zj_ps_nlo_mer_mur0.5_muf0.5_R4
XLabel=~
YLabel=~
# xlow	 xhigh	 val	 errminus	 errplus
0.000000e+00	6.000000e-02	8.857383e+10	8.604020e+08	8.604020e+08
6.000000e-02	1.100000e-01	6.132556e+09	1.650185e+08	1.650185e+08
1.100000e-01	1.500000e-01	5.818393e+09	2.006596e+08	2.006596e+08
1.500000e-01	1.900000e-01	4.461087e+09	1.462592e+08	1.462592e+08
1.900000e-01	2.300000e-01	3.401577e+09	1.020572e+08	1.020572e+08
2.300000e-01	2.700000e-01	2.658192e+09	1.640690e+08	1.640690e+08
2.700000e-01	3.100000e-01	2.025160e+09	7.800790e+07	7.800790e+07
3.100000e-01	3.500000e-01	1.534811e+09	7.604896e+07	7.604896e+07
3.500000e-01	3.900000e-01	1.074343e+09	5.403786e+07	5.403786e+07
3.900000e-01	4.400000e-01	6.092806e+08	8.342896e+07	8.342896e+07
4.400000e-01	4.900000e-01	4.571496e+08	3.923116e+07	3.923116e+07
4.900000e-01	5.400000e-01	1.403610e+08	1.474219e+07	1.474219e+07
5.400000e-01	6.000000e-01	5.132667e+07	7.654147e+06	7.654147e+06
6.000000e-01	1.000000e+00	2.164187e+06	4.792154e+05	4.792154e+05
# END HISTO1D

