# BEGIN PLOT
LegendOnly=/zj_ps_nlo_mer_mur0.5_muf0.5_R4.yoda/PAPER_FIN_R4/lin_l05_pT_254_326
DrawOnly=/zj_ps_nlo_mer_mur0.5_muf0.5_R4.yoda/PAPER_FIN_R4/lin_l05_pT_254_326
Legend=1
LogY=1
# END PLOT

# BEGIN HISTO1D /zj_ps_nlo_mer_mur0.5_muf0.5_R4.yoda/PAPER_FIN_R4/lin_l05_pT_254_326
LineColor=red
LineStyle=solid
Path=/zj_ps_nlo_mer_mur0.5_muf0.5_R4.yoda/PAPER_FIN_R4/lin_l05_pT_254_326
Title=zj_ps_nlo_mer_mur0.5_muf0.5_R4
XLabel=~
YLabel=~
# xlow	 xhigh	 val	 errminus	 errplus
0.000000e+00	1.700000e-01	4.204818e+09	6.135384e+07	6.135384e+07
1.700000e-01	2.500000e-01	2.503711e+09	6.109785e+07	6.109785e+07
2.500000e-01	3.200000e-01	1.524429e+09	3.655132e+07	3.655132e+07
3.200000e-01	3.800000e-01	1.009362e+09	4.210426e+07	4.210426e+07
3.800000e-01	4.500000e-01	7.388734e+08	2.570628e+07	2.570628e+07
4.500000e-01	5.200000e-01	3.914517e+08	3.209902e+07	3.209902e+07
5.200000e-01	5.900000e-01	1.778053e+08	1.519982e+07	1.519982e+07
5.900000e-01	1.000000e+00	1.091939e+07	1.078006e+06	1.078006e+06
# END HISTO1D

