# BEGIN PLOT
LegendOnly=/zj_ps_nlo_mer_mur0.5_muf0.5_R4.yoda/PAPER_FIN_R4/ch_lin_l20_pT_150_186
DrawOnly=/zj_ps_nlo_mer_mur0.5_muf0.5_R4.yoda/PAPER_FIN_R4/ch_lin_l20_pT_150_186
Legend=1
LogY=1
# END PLOT

# BEGIN HISTO1D /zj_ps_nlo_mer_mur0.5_muf0.5_R4.yoda/PAPER_FIN_R4/ch_lin_l20_pT_150_186
LineColor=red
LineStyle=solid
Path=/zj_ps_nlo_mer_mur0.5_muf0.5_R4.yoda/PAPER_FIN_R4/ch_lin_l20_pT_150_186
Title=zj_ps_nlo_mer_mur0.5_muf0.5_R4
XLabel=~
YLabel=~
# xlow	 xhigh	 val	 errminus	 errplus
0.000000e+00	5.000000e-03	5.884122e+11	3.370370e+10	3.370370e+10
5.000000e-03	1.250000e-02	2.567271e+10	7.135045e+08	7.135045e+08
1.250000e-02	2.250000e-02	1.541141e+10	4.220304e+08	4.220304e+08
2.250000e-02	3.500000e-02	1.011696e+10	3.365248e+08	3.365248e+08
3.500000e-02	5.000000e-02	6.574986e+09	1.980129e+08	1.980129e+08
5.000000e-02	7.000000e-02	4.493990e+09	1.829516e+08	1.829516e+08
7.000000e-02	9.250000e-02	2.822640e+09	1.514977e+08	1.514977e+08
9.250000e-02	1.200000e-01	1.935588e+09	7.826193e+07	7.826193e+07
1.200000e-01	1.520000e-01	1.308347e+09	5.408879e+07	5.408879e+07
1.520000e-01	1.880000e-01	8.679611e+08	6.701513e+07	6.701513e+07
1.880000e-01	2.280000e-01	4.485912e+08	4.155892e+07	4.155892e+07
2.280000e-01	1.000000e+00	8.888925e+06	8.523209e+05	8.523209e+05
# END HISTO1D

