# BEGIN PLOT
LegendOnly=/herwig_np_lo_r4_pt150_s1_1e3.yoda/PAPER_FIN_R4_CH/lin_SD_l20_pT_326_408
DrawOnly=/herwig_np_lo_r4_pt150_s1_1e3.yoda/PAPER_FIN_R4_CH/lin_SD_l20_pT_326_408
Legend=1
LogY=1
# END PLOT

# BEGIN HISTO1D /herwig_np_lo_r4_pt150_s1_1e3.yoda/PAPER_FIN_R4_CH/lin_SD_l20_pT_326_408
LineColor=red
LineStyle=solid
Path=/herwig_np_lo_r4_pt150_s1_1e3.yoda/PAPER_FIN_R4_CH/lin_SD_l20_pT_326_408
Title=herwig_np_lo_r4_pt150_s1_1e3
XLabel=~
YLabel=~
# xlow	 xhigh	 val	 errminus	 errplus
0.000000e+00	2.500000e-03	4.029496e+08	4.016468e+05	4.016468e+05
2.500000e-03	5.000000e-03	5.883440e+07	1.534209e+05	1.534209e+05
5.000000e-03	7.500000e-03	3.187029e+07	1.129352e+05	1.129352e+05
7.500000e-03	1.250000e-02	2.001518e+07	6.327970e+04	6.327970e+04
1.250000e-02	2.000000e-02	1.269402e+07	4.114086e+04	4.114086e+04
2.000000e-02	3.250000e-02	8.224280e+06	2.565962e+04	2.565962e+04
3.250000e-02	5.000000e-02	5.458883e+06	1.766576e+04	1.766576e+04
5.000000e-02	7.750000e-02	3.819247e+06	1.178861e+04	1.178861e+04
7.750000e-02	1.150000e-01	2.607462e+06	8.340211e+03	8.340211e+03
1.150000e-01	1.600000e-01	1.622338e+06	6.005501e+03	6.005501e+03
1.600000e-01	2.100000e-01	9.395260e+05	4.336070e+03	4.336070e+03
2.100000e-01	1.000000e+00	4.428935e+04	2.367777e+02	2.367777e+02
# END HISTO1D

