# BEGIN PLOT
LegendOnly=/herwig_np_lo_r4_pt150_s1_1e3.yoda/PAPER_FIN_R4/ch_lin_l10_pT_408_1500
DrawOnly=/herwig_np_lo_r4_pt150_s1_1e3.yoda/PAPER_FIN_R4/ch_lin_l10_pT_408_1500
Legend=1
LogY=1
# END PLOT

# BEGIN HISTO1D /herwig_np_lo_r4_pt150_s1_1e3.yoda/PAPER_FIN_R4/ch_lin_l10_pT_408_1500
LineColor=red
LineStyle=solid
Path=/herwig_np_lo_r4_pt150_s1_1e3.yoda/PAPER_FIN_R4/ch_lin_l10_pT_408_1500
Title=herwig_np_lo_r4_pt150_s1_1e3
XLabel=~
YLabel=~
# xlow	 xhigh	 val	 errminus	 errplus
0.000000e+00	2.250000e-02	5.731120e+06	1.596245e+04	1.596245e+04
2.250000e-02	4.000000e-02	1.391235e+07	2.820873e+04	2.820873e+04
4.000000e-02	5.750000e-02	1.123476e+07	2.534172e+04	2.534172e+04
5.750000e-02	7.750000e-02	8.219860e+06	2.027484e+04	2.027484e+04
7.750000e-02	1.000000e-01	5.954582e+06	1.627180e+04	1.627180e+04
1.000000e-01	1.250000e-01	4.331844e+06	1.316377e+04	1.316377e+04
1.250000e-01	1.520000e-01	3.172391e+06	1.084114e+04	1.084114e+04
1.520000e-01	1.850000e-01	2.316314e+06	8.378559e+03	8.378559e+03
1.850000e-01	2.200000e-01	1.663769e+06	6.894759e+03	6.894759e+03
2.200000e-01	2.600000e-01	1.189691e+06	5.454048e+03	5.454048e+03
2.600000e-01	3.070000e-01	8.250877e+05	4.189883e+03	4.189883e+03
3.070000e-01	3.620000e-01	5.518355e+05	3.167633e+03	3.167633e+03
3.620000e-01	4.250000e-01	3.332614e+05	2.300008e+03	2.300008e+03
4.250000e-01	4.970000e-01	1.712639e+05	1.542292e+03	1.542292e+03
4.970000e-01	1.000000e+00	1.131843e+04	1.501817e+02	1.501817e+02
# END HISTO1D

