# BEGIN PLOT
LegendOnly=/herwig_np_lo_r4_pt150_s1_1e3.yoda/PAPER_FIN_R4/lin_SD_l10_pT_88_120
DrawOnly=/herwig_np_lo_r4_pt150_s1_1e3.yoda/PAPER_FIN_R4/lin_SD_l10_pT_88_120
Legend=1
LogY=1
# END PLOT

# BEGIN HISTO1D /herwig_np_lo_r4_pt150_s1_1e3.yoda/PAPER_FIN_R4/lin_SD_l10_pT_88_120
LineColor=red
LineStyle=solid
Path=/herwig_np_lo_r4_pt150_s1_1e3.yoda/PAPER_FIN_R4/lin_SD_l10_pT_88_120
Title=herwig_np_lo_r4_pt150_s1_1e3
XLabel=~
YLabel=~
# xlow	 xhigh	 val	 errminus	 errplus
0.000000e+00	2.000000e-02	2.424235e+08	1.102591e+05	1.102591e+05
2.000000e-02	5.000000e-02	5.256520e+08	1.324650e+05	1.324650e+05
5.000000e-02	9.500000e-02	4.938900e+08	1.048540e+05	1.048540e+05
9.500000e-02	1.470000e-01	2.668310e+08	9.834218e+05	9.834218e+05
1.470000e-01	2.250000e-01	1.470712e+08	9.216886e+04	9.216886e+04
2.250000e-01	3.070000e-01	8.597446e+07	3.261485e+04	3.261485e+04
3.070000e-01	3.880000e-01	4.938944e+07	2.477062e+04	2.477062e+04
3.880000e-01	4.680000e-01	2.774410e+07	3.749869e+04	3.749869e+04
4.680000e-01	1.000000e+00	3.089045e+06	2.411010e+03	2.411010e+03
# END HISTO1D

