# BEGIN PLOT
LegendOnly=/herwig_np_lo_r4_pt150_s1_1e3.yoda/PAPER_FIN_R4/ch_SD_l10_pT_120_150
DrawOnly=/herwig_np_lo_r4_pt150_s1_1e3.yoda/PAPER_FIN_R4/ch_SD_l10_pT_120_150
Legend=1
LogY=1
# END PLOT

# BEGIN HISTO1D /herwig_np_lo_r4_pt150_s1_1e3.yoda/PAPER_FIN_R4/ch_SD_l10_pT_120_150
LineColor=red
LineStyle=solid
Path=/herwig_np_lo_r4_pt150_s1_1e3.yoda/PAPER_FIN_R4/ch_SD_l10_pT_120_150
Title=herwig_np_lo_r4_pt150_s1_1e3
XLabel=~
YLabel=~
# xlow	 xhigh	 val	 errminus	 errplus
-7.000000e+00	-6.930000e+00	0.000000e+00	0.000000e+00	0.000000e+00
-6.930000e+00	-6.860000e+00	1.330302e+07	1.379331e+04	1.379331e+04
-6.860000e+00	-6.790000e+00	0.000000e+00	0.000000e+00	0.000000e+00
-6.790000e+00	-6.720000e+00	0.000000e+00	0.000000e+00	0.000000e+00
-6.720000e+00	-6.650000e+00	0.000000e+00	0.000000e+00	0.000000e+00
-6.650000e+00	-6.580000e+00	0.000000e+00	0.000000e+00	0.000000e+00
-6.580000e+00	-6.510000e+00	0.000000e+00	0.000000e+00	0.000000e+00
-6.510000e+00	-6.440000e+00	0.000000e+00	0.000000e+00	0.000000e+00
-6.440000e+00	-6.370000e+00	0.000000e+00	0.000000e+00	0.000000e+00
-6.370000e+00	-6.300000e+00	0.000000e+00	0.000000e+00	0.000000e+00
-6.300000e+00	-6.230000e+00	0.000000e+00	0.000000e+00	0.000000e+00
-6.230000e+00	-6.160000e+00	0.000000e+00	0.000000e+00	0.000000e+00
-6.160000e+00	-6.090000e+00	0.000000e+00	0.000000e+00	0.000000e+00
-6.090000e+00	-6.020000e+00	0.000000e+00	0.000000e+00	0.000000e+00
-6.020000e+00	-5.950000e+00	1.428571e+01	1.428571e+01	1.428571e+01
-5.950000e+00	-5.880000e+00	0.000000e+00	0.000000e+00	0.000000e+00
-5.880000e+00	-5.810000e+00	0.000000e+00	0.000000e+00	0.000000e+00
-5.810000e+00	-5.740000e+00	0.000000e+00	0.000000e+00	0.000000e+00
-5.740000e+00	-5.670000e+00	0.000000e+00	0.000000e+00	0.000000e+00
-5.670000e+00	-5.600000e+00	0.000000e+00	0.000000e+00	0.000000e+00
-5.600000e+00	-5.530000e+00	0.000000e+00	0.000000e+00	0.000000e+00
-5.530000e+00	-5.460000e+00	0.000000e+00	0.000000e+00	0.000000e+00
-5.460000e+00	-5.390000e+00	1.428571e+01	1.428571e+01	1.428571e+01
-5.390000e+00	-5.320000e+00	0.000000e+00	0.000000e+00	0.000000e+00
-5.320000e+00	-5.250000e+00	2.857143e+01	2.020305e+01	2.020305e+01
-5.250000e+00	-5.180000e+00	0.000000e+00	0.000000e+00	0.000000e+00
-5.180000e+00	-5.110000e+00	5.714286e+01	2.857143e+01	2.857143e+01
-5.110000e+00	-5.040000e+00	5.714286e+01	2.857143e+01	2.857143e+01
-5.040000e+00	-4.970000e+00	1.428571e+02	4.517540e+01	4.517540e+01
-4.970000e+00	-4.900000e+00	8.571429e+01	3.499271e+01	3.499271e+01
-4.900000e+00	-4.830000e+00	1.857143e+02	5.150788e+01	5.150788e+01
-4.830000e+00	-4.760000e+00	2.428571e+02	5.890151e+01	5.890151e+01
-4.760000e+00	-4.690000e+00	2.714286e+02	6.226998e+01	6.226998e+01
-4.690000e+00	-4.620000e+00	2.571429e+02	6.060915e+01	6.060915e+01
-4.620000e+00	-4.550000e+00	4.857143e+02	8.329931e+01	8.329931e+01
-4.550000e+00	-4.480000e+00	3.000000e+02	6.546537e+01	6.546537e+01
-4.480000e+00	-4.410000e+00	4.857143e+02	8.329931e+01	8.329931e+01
-4.410000e+00	-4.340000e+00	8.000000e+02	1.069045e+02	1.069045e+02
-4.340000e+00	-4.270000e+00	5.428571e+02	8.806306e+01	8.806306e+01
-4.270000e+00	-4.200000e+00	6.142857e+02	9.367769e+01	9.367769e+01
-4.200000e+00	-4.130000e+00	7.142857e+02	1.010153e+02	1.010153e+02
-4.130000e+00	-4.060000e+00	8.142857e+02	1.078548e+02	1.078548e+02
-4.060000e+00	-3.990000e+00	1.100000e+03	1.253566e+02	1.253566e+02
-3.990000e+00	-3.920000e+00	1.428571e+03	1.428571e+02	1.428571e+02
-3.920000e+00	-3.850000e+00	1.585714e+03	1.505093e+02	1.505093e+02
-3.850000e+00	-3.780000e+00	2.185714e+03	1.767045e+02	1.767045e+02
-3.780000e+00	-3.710000e+00	2.314286e+03	1.818275e+02	1.818275e+02
-3.710000e+00	-3.640000e+00	2.671429e+03	1.953542e+02	1.953542e+02
-3.640000e+00	-3.570000e+00	4.000000e+03	2.390457e+02	2.390457e+02
-3.570000e+00	-3.500000e+00	5.028571e+03	2.680238e+02	2.680238e+02
-3.500000e+00	-3.430000e+00	6.485714e+03	3.043897e+02	3.043897e+02
-3.430000e+00	-3.360000e+00	9.357143e+03	3.656138e+02	3.656138e+02
-3.360000e+00	-3.290000e+00	1.208571e+04	4.155154e+02	4.155154e+02
-3.290000e+00	-3.220000e+00	1.656849e+04	4.868095e+02	4.868095e+02
-3.220000e+00	-3.150000e+00	2.160000e+04	5.554921e+02	5.554921e+02
-3.150000e+00	-3.080000e+00	2.974286e+04	6.518420e+02	6.518420e+02
-3.080000e+00	-3.010000e+00	3.981429e+04	7.541721e+02	7.541721e+02
-3.010000e+00	-2.940000e+00	5.451429e+04	8.824826e+02	8.824826e+02
-2.940000e+00	-2.870000e+00	7.578571e+04	1.040506e+03	1.040506e+03
-2.870000e+00	-2.800000e+00	1.036768e+05	1.217042e+03	1.217042e+03
-2.800000e+00	-2.730000e+00	1.420627e+05	1.424633e+03	1.424633e+03
-2.730000e+00	-2.660000e+00	1.976674e+05	2.137094e+03	2.137094e+03
-2.660000e+00	-2.590000e+00	2.713153e+05	1.969191e+03	1.969191e+03
-2.590000e+00	-2.520000e+00	3.841243e+05	2.343223e+03	2.343223e+03
-2.520000e+00	-2.450000e+00	5.515560e+05	2.808951e+03	2.808951e+03
-2.450000e+00	-2.380000e+00	7.771766e+05	3.347874e+03	3.347874e+03
-2.380000e+00	-2.310000e+00	1.073337e+06	3.917354e+03	3.917354e+03
-2.310000e+00	-2.240000e+00	1.461676e+06	4.569975e+03	4.569975e+03
-2.240000e+00	-2.170000e+00	1.956179e+06	5.289612e+03	5.289612e+03
-2.170000e+00	-2.100000e+00	2.610853e+06	6.111869e+03	6.111869e+03
-2.100000e+00	-2.030000e+00	3.422761e+06	6.994315e+03	6.994315e+03
-2.030000e+00	-1.960000e+00	4.406343e+06	7.940597e+03	7.940597e+03
-1.960000e+00	-1.890000e+00	5.627956e+06	8.969283e+03	8.969283e+03
-1.890000e+00	-1.820000e+00	7.064717e+06	1.005020e+04	1.005020e+04
-1.820000e+00	-1.750000e+00	8.803604e+06	1.122123e+04	1.122123e+04
-1.750000e+00	-1.680000e+00	1.086644e+07	1.246370e+04	1.246370e+04
-1.680000e+00	-1.610000e+00	1.339769e+07	1.384495e+04	1.384495e+04
-1.610000e+00	-1.540000e+00	1.636903e+07	1.533179e+04	1.533179e+04
-1.540000e+00	-1.470000e+00	1.959631e+07	1.673831e+04	1.673831e+04
-1.470000e+00	-1.400000e+00	2.286417e+07	1.808654e+04	1.808654e+04
-1.400000e+00	-1.330000e+00	2.564003e+07	1.914749e+04	1.914749e+04
-1.330000e+00	-1.260000e+00	2.764280e+07	1.988593e+04	1.988593e+04
-1.260000e+00	-1.190000e+00	3.037496e+07	1.680389e+06	1.680389e+06
-1.190000e+00	-1.120000e+00	2.891900e+07	2.034148e+04	2.034148e+04
-1.120000e+00	-1.050000e+00	2.856739e+07	2.021124e+04	2.021124e+04
-1.050000e+00	-9.800000e-01	2.789717e+07	1.996909e+04	1.996909e+04
-9.800000e-01	-9.100000e-01	2.718261e+07	1.972546e+04	1.972546e+04
-9.100000e-01	-8.400000e-01	2.673629e+07	1.958272e+04	1.958272e+04
-8.400000e-01	-7.700000e-01	2.650510e+07	1.946719e+04	1.946719e+04
-7.700000e-01	-7.000000e-01	2.591671e+07	1.924913e+04	1.924913e+04
-7.000000e-01	-6.300000e-01	2.457280e+07	1.875373e+04	1.875373e+04
-6.300000e-01	-5.600000e-01	2.232523e+07	1.788137e+04	1.788137e+04
-5.600000e-01	-4.900000e-01	1.921871e+07	1.657792e+04	1.657792e+04
-4.900000e-01	-4.200000e-01	1.547519e+07	1.487397e+04	1.487397e+04
-4.200000e-01	-3.500000e-01	1.122762e+07	1.267296e+04	1.267296e+04
-3.500000e-01	-2.800000e-01	6.589331e+06	9.706149e+03	9.706149e+03
-2.800000e-01	-2.100000e-01	2.507909e+06	5.992780e+03	5.992780e+03
-2.100000e-01	-1.400000e-01	4.985190e+05	2.670318e+03	2.670318e+03
-1.400000e-01	-7.000000e-02	4.087143e+04	7.641188e+02	7.641188e+02
-7.000000e-02	0.000000e+00	1.042857e+03	1.220572e+02	1.220572e+02
# END HISTO1D

