# BEGIN PLOT
LegendOnly=/zj_ps_nlo_mer_mur2_muf1_R8.yoda/PAPER_FIN_R8/l05_pT_120_150
DrawOnly=/zj_ps_nlo_mer_mur2_muf1_R8.yoda/PAPER_FIN_R8/l05_pT_120_150
Legend=1
LogY=1
# END PLOT

# BEGIN HISTO1D /zj_ps_nlo_mer_mur2_muf1_R8.yoda/PAPER_FIN_R8/l05_pT_120_150
LineColor=red
LineStyle=solid
Path=/zj_ps_nlo_mer_mur2_muf1_R8.yoda/PAPER_FIN_R8/l05_pT_120_150
Title=zj_ps_nlo_mer_mur2_muf1_R8
XLabel=~
YLabel=~
# xlow	 xhigh	 val	 errminus	 errplus
-7.000000e+00	-6.930000e+00	0.000000e+00	0.000000e+00	0.000000e+00
-6.930000e+00	-6.860000e+00	0.000000e+00	0.000000e+00	0.000000e+00
-6.860000e+00	-6.790000e+00	0.000000e+00	0.000000e+00	0.000000e+00
-6.790000e+00	-6.720000e+00	0.000000e+00	0.000000e+00	0.000000e+00
-6.720000e+00	-6.650000e+00	0.000000e+00	0.000000e+00	0.000000e+00
-6.650000e+00	-6.580000e+00	0.000000e+00	0.000000e+00	0.000000e+00
-6.580000e+00	-6.510000e+00	0.000000e+00	0.000000e+00	0.000000e+00
-6.510000e+00	-6.440000e+00	0.000000e+00	0.000000e+00	0.000000e+00
-6.440000e+00	-6.370000e+00	0.000000e+00	0.000000e+00	0.000000e+00
-6.370000e+00	-6.300000e+00	0.000000e+00	0.000000e+00	0.000000e+00
-6.300000e+00	-6.230000e+00	0.000000e+00	0.000000e+00	0.000000e+00
-6.230000e+00	-6.160000e+00	0.000000e+00	0.000000e+00	0.000000e+00
-6.160000e+00	-6.090000e+00	0.000000e+00	0.000000e+00	0.000000e+00
-6.090000e+00	-6.020000e+00	0.000000e+00	0.000000e+00	0.000000e+00
-6.020000e+00	-5.950000e+00	0.000000e+00	0.000000e+00	0.000000e+00
-5.950000e+00	-5.880000e+00	0.000000e+00	0.000000e+00	0.000000e+00
-5.880000e+00	-5.810000e+00	0.000000e+00	0.000000e+00	0.000000e+00
-5.810000e+00	-5.740000e+00	0.000000e+00	0.000000e+00	0.000000e+00
-5.740000e+00	-5.670000e+00	0.000000e+00	0.000000e+00	0.000000e+00
-5.670000e+00	-5.600000e+00	0.000000e+00	0.000000e+00	0.000000e+00
-5.600000e+00	-5.530000e+00	0.000000e+00	0.000000e+00	0.000000e+00
-5.530000e+00	-5.460000e+00	0.000000e+00	0.000000e+00	0.000000e+00
-5.460000e+00	-5.390000e+00	0.000000e+00	0.000000e+00	0.000000e+00
-5.390000e+00	-5.320000e+00	0.000000e+00	0.000000e+00	0.000000e+00
-5.320000e+00	-5.250000e+00	0.000000e+00	0.000000e+00	0.000000e+00
-5.250000e+00	-5.180000e+00	0.000000e+00	0.000000e+00	0.000000e+00
-5.180000e+00	-5.110000e+00	0.000000e+00	0.000000e+00	0.000000e+00
-5.110000e+00	-5.040000e+00	0.000000e+00	0.000000e+00	0.000000e+00
-5.040000e+00	-4.970000e+00	0.000000e+00	0.000000e+00	0.000000e+00
-4.970000e+00	-4.900000e+00	0.000000e+00	0.000000e+00	0.000000e+00
-4.900000e+00	-4.830000e+00	0.000000e+00	0.000000e+00	0.000000e+00
-4.830000e+00	-4.760000e+00	0.000000e+00	0.000000e+00	0.000000e+00
-4.760000e+00	-4.690000e+00	0.000000e+00	0.000000e+00	0.000000e+00
-4.690000e+00	-4.620000e+00	0.000000e+00	0.000000e+00	0.000000e+00
-4.620000e+00	-4.550000e+00	0.000000e+00	0.000000e+00	0.000000e+00
-4.550000e+00	-4.480000e+00	0.000000e+00	0.000000e+00	0.000000e+00
-4.480000e+00	-4.410000e+00	0.000000e+00	0.000000e+00	0.000000e+00
-4.410000e+00	-4.340000e+00	0.000000e+00	0.000000e+00	0.000000e+00
-4.340000e+00	-4.270000e+00	0.000000e+00	0.000000e+00	0.000000e+00
-4.270000e+00	-4.200000e+00	0.000000e+00	0.000000e+00	0.000000e+00
-4.200000e+00	-4.130000e+00	0.000000e+00	0.000000e+00	0.000000e+00
-4.130000e+00	-4.060000e+00	0.000000e+00	0.000000e+00	0.000000e+00
-4.060000e+00	-3.990000e+00	0.000000e+00	0.000000e+00	0.000000e+00
-3.990000e+00	-3.920000e+00	0.000000e+00	0.000000e+00	0.000000e+00
-3.920000e+00	-3.850000e+00	0.000000e+00	0.000000e+00	0.000000e+00
-3.850000e+00	-3.780000e+00	0.000000e+00	0.000000e+00	0.000000e+00
-3.780000e+00	-3.710000e+00	0.000000e+00	0.000000e+00	0.000000e+00
-3.710000e+00	-3.640000e+00	0.000000e+00	0.000000e+00	0.000000e+00
-3.640000e+00	-3.570000e+00	0.000000e+00	0.000000e+00	0.000000e+00
-3.570000e+00	-3.500000e+00	0.000000e+00	0.000000e+00	0.000000e+00
-3.500000e+00	-3.430000e+00	0.000000e+00	0.000000e+00	0.000000e+00
-3.430000e+00	-3.360000e+00	0.000000e+00	0.000000e+00	0.000000e+00
-3.360000e+00	-3.290000e+00	0.000000e+00	0.000000e+00	0.000000e+00
-3.290000e+00	-3.220000e+00	0.000000e+00	0.000000e+00	0.000000e+00
-3.220000e+00	-3.150000e+00	0.000000e+00	0.000000e+00	0.000000e+00
-3.150000e+00	-3.080000e+00	0.000000e+00	0.000000e+00	0.000000e+00
-3.080000e+00	-3.010000e+00	0.000000e+00	0.000000e+00	0.000000e+00
-3.010000e+00	-2.940000e+00	0.000000e+00	0.000000e+00	0.000000e+00
-2.940000e+00	-2.870000e+00	0.000000e+00	0.000000e+00	0.000000e+00
-2.870000e+00	-2.800000e+00	0.000000e+00	0.000000e+00	0.000000e+00
-2.800000e+00	-2.730000e+00	0.000000e+00	0.000000e+00	0.000000e+00
-2.730000e+00	-2.660000e+00	0.000000e+00	0.000000e+00	0.000000e+00
-2.660000e+00	-2.590000e+00	0.000000e+00	0.000000e+00	0.000000e+00
-2.590000e+00	-2.520000e+00	0.000000e+00	0.000000e+00	0.000000e+00
-2.520000e+00	-2.450000e+00	-1.825143e-03	1.825143e-03	1.825143e-03
-2.450000e+00	-2.380000e+00	-1.075869e+03	1.075845e+03	1.075845e+03
-2.380000e+00	-2.310000e+00	0.000000e+00	0.000000e+00	0.000000e+00
-2.310000e+00	-2.240000e+00	-6.678854e+02	7.822262e+02	7.822262e+02
-2.240000e+00	-2.170000e+00	4.107516e+05	4.102893e+05	4.102893e+05
-2.170000e+00	-2.100000e+00	-1.876630e+04	1.872492e+04	1.872492e+04
-2.100000e+00	-2.030000e+00	-4.052351e+03	5.016284e+03	5.016284e+03
-2.030000e+00	-1.960000e+00	5.416136e+05	5.413583e+05	5.413583e+05
-1.960000e+00	-1.890000e+00	-4.298060e+04	4.919878e+04	4.919878e+04
-1.890000e+00	-1.820000e+00	2.518134e+05	1.992234e+05	1.992234e+05
-1.820000e+00	-1.750000e+00	-9.759541e+05	6.780452e+05	6.780452e+05
-1.750000e+00	-1.680000e+00	1.190250e+06	1.490796e+06	1.490796e+06
-1.680000e+00	-1.610000e+00	1.960441e+06	1.147134e+06	1.147134e+06
-1.610000e+00	-1.540000e+00	1.635241e+06	1.323349e+06	1.323349e+06
-1.540000e+00	-1.470000e+00	6.348677e+06	3.860244e+06	3.860244e+06
-1.470000e+00	-1.400000e+00	1.707191e+07	5.746534e+06	5.746534e+06
-1.400000e+00	-1.330000e+00	2.945241e+07	8.961037e+06	8.961037e+06
-1.330000e+00	-1.260000e+00	8.251137e+07	1.112979e+07	1.112979e+07
-1.260000e+00	-1.190000e+00	1.752354e+08	1.566814e+07	1.566814e+07
-1.190000e+00	-1.120000e+00	3.398257e+08	2.172700e+07	2.172700e+07
-1.120000e+00	-1.050000e+00	7.362956e+08	6.830372e+07	6.830372e+07
-1.050000e+00	-9.800000e-01	1.657200e+09	6.595800e+07	6.595800e+07
-9.800000e-01	-9.100000e-01	3.645397e+09	1.102030e+08	1.102030e+08
-9.100000e-01	-8.400000e-01	7.030370e+09	1.292999e+08	1.292999e+08
-8.400000e-01	-7.700000e-01	1.208822e+10	1.524417e+08	1.524417e+08
-7.700000e-01	-7.000000e-01	1.576209e+10	5.044221e+08	5.044221e+08
-7.000000e-01	-6.300000e-01	1.885970e+10	2.087571e+08	2.087571e+08
-6.300000e-01	-5.600000e-01	1.885439e+10	1.849409e+08	1.849409e+08
-5.600000e-01	-4.900000e-01	1.639453e+10	1.684454e+08	1.684454e+08
-4.900000e-01	-4.200000e-01	1.416840e+10	1.729373e+08	1.729373e+08
-4.200000e-01	-3.500000e-01	1.137568e+10	1.300021e+08	1.300021e+08
-3.500000e-01	-2.800000e-01	8.141363e+09	1.104905e+08	1.104905e+08
-2.800000e-01	-2.100000e-01	4.643096e+09	1.838928e+08	1.838928e+08
-2.100000e-01	-1.400000e-01	1.314008e+09	4.655738e+07	4.655738e+07
-1.400000e-01	-7.000000e-02	8.797414e+07	7.652279e+06	7.652279e+06
-7.000000e-02	0.000000e+00	-5.492917e+04	1.045141e+05	1.045141e+05
# END HISTO1D

