# BEGIN PLOT
LegendOnly=/zj_ps_nlo_mer_mur0.5_muf0.5_R4.yoda/PAPER_FIN_R4/lin_SD_l20_pT_186_254
DrawOnly=/zj_ps_nlo_mer_mur0.5_muf0.5_R4.yoda/PAPER_FIN_R4/lin_SD_l20_pT_186_254
Legend=1
LogY=1
# END PLOT

# BEGIN HISTO1D /zj_ps_nlo_mer_mur0.5_muf0.5_R4.yoda/PAPER_FIN_R4/lin_SD_l20_pT_186_254
LineColor=red
LineStyle=solid
Path=/zj_ps_nlo_mer_mur0.5_muf0.5_R4.yoda/PAPER_FIN_R4/lin_SD_l20_pT_186_254
Title=zj_ps_nlo_mer_mur0.5_muf0.5_R4
XLabel=~
YLabel=~
# xlow	 xhigh	 val	 errminus	 errplus
0.000000e+00	2.500000e-03	4.447016e+11	1.202422e+10	1.202422e+10
2.500000e-03	1.000000e-02	5.082740e+10	8.242550e+08	8.242550e+08
1.000000e-02	2.500000e-02	1.729555e+10	4.183840e+08	4.183840e+08
2.500000e-02	6.000000e-02	7.491294e+09	1.349716e+08	1.349716e+08
6.000000e-02	1.200000e-01	3.572342e+09	7.757926e+07	7.757926e+07
1.200000e-01	1.770000e-01	1.662890e+09	3.479188e+07	3.479188e+07
1.770000e-01	2.300000e-01	7.688874e+08	7.289339e+07	7.289339e+07
2.300000e-01	1.000000e+00	1.776552e+07	2.370872e+06	2.370872e+06
# END HISTO1D

