# BEGIN PLOT
LegendOnly=/zj_ps_nlo_mer_mur0.5_muf0.5_R4.yoda/PAPER_FIN_R4/l10_pT_65_88
DrawOnly=/zj_ps_nlo_mer_mur0.5_muf0.5_R4.yoda/PAPER_FIN_R4/l10_pT_65_88
Legend=1
LogY=1
# END PLOT

# BEGIN HISTO1D /zj_ps_nlo_mer_mur0.5_muf0.5_R4.yoda/PAPER_FIN_R4/l10_pT_65_88
LineColor=red
LineStyle=solid
Path=/zj_ps_nlo_mer_mur0.5_muf0.5_R4.yoda/PAPER_FIN_R4/l10_pT_65_88
Title=zj_ps_nlo_mer_mur0.5_muf0.5_R4
XLabel=~
YLabel=~
# xlow	 xhigh	 val	 errminus	 errplus
-7.000000e+00	-6.930000e+00	0.000000e+00	0.000000e+00	0.000000e+00
-6.930000e+00	-6.860000e+00	-3.190116e+06	1.111614e+06	1.111614e+06
-6.860000e+00	-6.790000e+00	0.000000e+00	0.000000e+00	0.000000e+00
-6.790000e+00	-6.720000e+00	0.000000e+00	0.000000e+00	0.000000e+00
-6.720000e+00	-6.650000e+00	0.000000e+00	0.000000e+00	0.000000e+00
-6.650000e+00	-6.580000e+00	0.000000e+00	0.000000e+00	0.000000e+00
-6.580000e+00	-6.510000e+00	0.000000e+00	0.000000e+00	0.000000e+00
-6.510000e+00	-6.440000e+00	0.000000e+00	0.000000e+00	0.000000e+00
-6.440000e+00	-6.370000e+00	0.000000e+00	0.000000e+00	0.000000e+00
-6.370000e+00	-6.300000e+00	0.000000e+00	0.000000e+00	0.000000e+00
-6.300000e+00	-6.230000e+00	0.000000e+00	0.000000e+00	0.000000e+00
-6.230000e+00	-6.160000e+00	0.000000e+00	0.000000e+00	0.000000e+00
-6.160000e+00	-6.090000e+00	0.000000e+00	0.000000e+00	0.000000e+00
-6.090000e+00	-6.020000e+00	0.000000e+00	0.000000e+00	0.000000e+00
-6.020000e+00	-5.950000e+00	0.000000e+00	0.000000e+00	0.000000e+00
-5.950000e+00	-5.880000e+00	0.000000e+00	0.000000e+00	0.000000e+00
-5.880000e+00	-5.810000e+00	0.000000e+00	0.000000e+00	0.000000e+00
-5.810000e+00	-5.740000e+00	0.000000e+00	0.000000e+00	0.000000e+00
-5.740000e+00	-5.670000e+00	0.000000e+00	0.000000e+00	0.000000e+00
-5.670000e+00	-5.600000e+00	0.000000e+00	0.000000e+00	0.000000e+00
-5.600000e+00	-5.530000e+00	-3.565684e-02	3.565684e-02	3.565684e-02
-5.530000e+00	-5.460000e+00	-3.605981e+00	3.605981e+00	3.605981e+00
-5.460000e+00	-5.390000e+00	0.000000e+00	0.000000e+00	0.000000e+00
-5.390000e+00	-5.320000e+00	-1.495350e+03	1.495350e+03	1.495350e+03
-5.320000e+00	-5.250000e+00	0.000000e+00	0.000000e+00	0.000000e+00
-5.250000e+00	-5.180000e+00	0.000000e+00	0.000000e+00	0.000000e+00
-5.180000e+00	-5.110000e+00	0.000000e+00	0.000000e+00	0.000000e+00
-5.110000e+00	-5.040000e+00	0.000000e+00	0.000000e+00	0.000000e+00
-5.040000e+00	-4.970000e+00	-1.041083e-02	1.041083e-02	1.041083e-02
-4.970000e+00	-4.900000e+00	0.000000e+00	0.000000e+00	0.000000e+00
-4.900000e+00	-4.830000e+00	0.000000e+00	0.000000e+00	0.000000e+00
-4.830000e+00	-4.760000e+00	0.000000e+00	0.000000e+00	0.000000e+00
-4.760000e+00	-4.690000e+00	0.000000e+00	0.000000e+00	0.000000e+00
-4.690000e+00	-4.620000e+00	-7.773000e-02	7.773000e-02	7.773000e-02
-4.620000e+00	-4.550000e+00	0.000000e+00	0.000000e+00	0.000000e+00
-4.550000e+00	-4.480000e+00	-1.315957e+01	1.315957e+01	1.315957e+01
-4.480000e+00	-4.410000e+00	0.000000e+00	0.000000e+00	0.000000e+00
-4.410000e+00	-4.340000e+00	0.000000e+00	0.000000e+00	0.000000e+00
-4.340000e+00	-4.270000e+00	0.000000e+00	0.000000e+00	0.000000e+00
-4.270000e+00	-4.200000e+00	0.000000e+00	0.000000e+00	0.000000e+00
-4.200000e+00	-4.130000e+00	0.000000e+00	0.000000e+00	0.000000e+00
-4.130000e+00	-4.060000e+00	0.000000e+00	0.000000e+00	0.000000e+00
-4.060000e+00	-3.990000e+00	0.000000e+00	0.000000e+00	0.000000e+00
-3.990000e+00	-3.920000e+00	0.000000e+00	0.000000e+00	0.000000e+00
-3.920000e+00	-3.850000e+00	-5.278774e+00	5.278775e+00	5.278775e+00
-3.850000e+00	-3.780000e+00	8.653197e-01	8.653197e-01	8.653197e-01
-3.780000e+00	-3.710000e+00	-1.359973e-01	1.359973e-01	1.359973e-01
-3.710000e+00	-3.640000e+00	-2.686394e+01	2.685866e+01	2.685866e+01
-3.640000e+00	-3.570000e+00	1.354936e+02	1.349439e+02	1.349439e+02
-3.570000e+00	-3.500000e+00	-1.212077e+01	1.195330e+01	1.195330e+01
-3.500000e+00	-3.430000e+00	1.235334e-01	1.235334e-01	1.235334e-01
-3.430000e+00	-3.360000e+00	-9.627557e+01	7.399010e+01	7.399010e+01
-3.360000e+00	-3.290000e+00	5.332613e-01	5.332612e-01	5.332612e-01
-3.290000e+00	-3.220000e+00	-3.349713e+01	3.327856e+01	3.327856e+01
-3.220000e+00	-3.150000e+00	-1.732886e+02	1.744457e+02	1.744457e+02
-3.150000e+00	-3.080000e+00	-3.094987e+03	3.504931e+03	3.504931e+03
-3.080000e+00	-3.010000e+00	-4.928449e+02	6.344643e+02	6.344643e+02
-3.010000e+00	-2.940000e+00	7.301899e+01	4.989094e+01	4.989094e+01
-2.940000e+00	-2.870000e+00	1.918731e+02	7.283030e+02	7.283030e+02
-2.870000e+00	-2.800000e+00	-9.069949e+03	6.521831e+03	6.521831e+03
-2.800000e+00	-2.730000e+00	2.220700e+01	2.109562e+02	2.109562e+02
-2.730000e+00	-2.660000e+00	3.472964e+04	8.410284e+04	8.410284e+04
-2.660000e+00	-2.590000e+00	-7.839054e+03	4.877568e+03	4.877568e+03
-2.590000e+00	-2.520000e+00	2.432331e+03	3.855127e+03	3.855127e+03
-2.520000e+00	-2.450000e+00	-8.009877e+03	1.078786e+04	1.078786e+04
-2.450000e+00	-2.380000e+00	-1.988110e+04	1.199647e+04	1.199647e+04
-2.380000e+00	-2.310000e+00	-4.920831e+04	2.815008e+04	2.815008e+04
-2.310000e+00	-2.240000e+00	1.456546e+04	4.546755e+04	4.546755e+04
-2.240000e+00	-2.170000e+00	4.709121e+03	1.562356e+04	1.562356e+04
-2.170000e+00	-2.100000e+00	-1.875373e+04	3.284349e+04	3.284349e+04
-2.100000e+00	-2.030000e+00	-2.688550e+05	2.249746e+05	2.249746e+05
-2.030000e+00	-1.960000e+00	-5.438799e+04	3.089230e+04	3.089230e+04
-1.960000e+00	-1.890000e+00	-2.462771e+05	1.872208e+05	1.872208e+05
-1.890000e+00	-1.820000e+00	-3.757223e+04	4.484075e+04	4.484075e+04
-1.820000e+00	-1.750000e+00	-4.298664e+04	7.168722e+04	7.168722e+04
-1.750000e+00	-1.680000e+00	4.142787e+04	9.621371e+04	9.621371e+04
-1.680000e+00	-1.610000e+00	-1.405360e+05	6.317037e+04	6.317037e+04
-1.610000e+00	-1.540000e+00	-4.711099e+06	4.492774e+06	4.492774e+06
-1.540000e+00	-1.470000e+00	-3.505404e+05	1.916146e+05	1.916146e+05
-1.470000e+00	-1.400000e+00	-4.569299e+05	4.220493e+05	4.220493e+05
-1.400000e+00	-1.330000e+00	-9.225260e+05	5.180934e+05	5.180934e+05
-1.330000e+00	-1.260000e+00	-8.538740e+05	2.936879e+05	2.936879e+05
-1.260000e+00	-1.190000e+00	-6.776066e+05	3.845403e+05	3.845403e+05
-1.190000e+00	-1.120000e+00	-3.503639e+06	3.107111e+06	3.107111e+06
-1.120000e+00	-1.050000e+00	-3.260380e+05	6.766063e+05	6.766063e+05
-1.050000e+00	-9.800000e-01	-1.343703e+06	3.794722e+05	3.794722e+05
-9.800000e-01	-9.100000e-01	-1.215910e+06	4.724256e+05	4.724256e+05
-9.100000e-01	-8.400000e-01	-1.465239e+06	3.786152e+05	3.786152e+05
-8.400000e-01	-7.700000e-01	-1.562867e+06	5.163081e+05	5.163081e+05
-7.700000e-01	-7.000000e-01	-1.374103e+06	9.430376e+05	9.430376e+05
-7.000000e-01	-6.300000e-01	-1.850313e+06	7.090327e+05	7.090327e+05
-6.300000e-01	-5.600000e-01	-1.116469e+06	4.426610e+05	4.426610e+05
-5.600000e-01	-4.900000e-01	-1.362435e+06	5.948399e+05	5.948399e+05
-4.900000e-01	-4.200000e-01	-8.493206e+05	3.582447e+05	3.582447e+05
-4.200000e-01	-3.500000e-01	-8.863964e+05	5.724904e+05	5.724904e+05
-3.500000e-01	-2.800000e-01	-3.590903e+05	2.488737e+05	2.488737e+05
-2.800000e-01	-2.100000e-01	-1.219697e+05	1.627397e+05	1.627397e+05
-2.100000e-01	-1.400000e-01	-2.778514e+03	2.657398e+04	2.657398e+04
-1.400000e-01	-7.000000e-02	-2.423629e+01	3.438683e+01	3.438683e+01
-7.000000e-02	0.000000e+00	0.000000e+00	0.000000e+00	0.000000e+00
# END HISTO1D

