# BEGIN PLOT
LegendOnly=/zj_ps_nlo_mer_mur0.5_muf0.5_R4.yoda/PAPER_FIN_R4/ch_l10_pT_150_186
DrawOnly=/zj_ps_nlo_mer_mur0.5_muf0.5_R4.yoda/PAPER_FIN_R4/ch_l10_pT_150_186
Legend=1
LogY=1
# END PLOT

# BEGIN HISTO1D /zj_ps_nlo_mer_mur0.5_muf0.5_R4.yoda/PAPER_FIN_R4/ch_l10_pT_150_186
LineColor=red
LineStyle=solid
Path=/zj_ps_nlo_mer_mur0.5_muf0.5_R4.yoda/PAPER_FIN_R4/ch_l10_pT_150_186
Title=zj_ps_nlo_mer_mur0.5_muf0.5_R4
XLabel=~
YLabel=~
# xlow	 xhigh	 val	 errminus	 errplus
-7.000000e+00	-6.930000e+00	2.395274e-04	3.409014e-04	3.409014e-04
-6.930000e+00	-6.860000e+00	-5.191547e+08	9.056776e+07	9.056776e+07
-6.860000e+00	-6.790000e+00	0.000000e+00	0.000000e+00	0.000000e+00
-6.790000e+00	-6.720000e+00	-8.560329e-03	8.560327e-03	8.560327e-03
-6.720000e+00	-6.650000e+00	-1.117739e-02	1.125657e-02	1.125657e-02
-6.650000e+00	-6.580000e+00	-2.588760e-02	2.588760e-02	2.588760e-02
-6.580000e+00	-6.510000e+00	-4.725797e-03	4.725798e-03	4.725798e-03
-6.510000e+00	-6.440000e+00	2.542673e-04	2.164374e-04	2.164374e-04
-6.440000e+00	-6.370000e+00	-1.007004e-01	9.986939e-02	9.986939e-02
-6.370000e+00	-6.300000e+00	6.485850e-06	6.485850e-06	6.485850e-06
-6.300000e+00	-6.230000e+00	7.737296e-01	7.767864e-01	7.767864e-01
-6.230000e+00	-6.160000e+00	-8.559250e-04	6.925957e-04	6.925957e-04
-6.160000e+00	-6.090000e+00	-5.576096e-01	5.395291e-01	5.395291e-01
-6.090000e+00	-6.020000e+00	-2.821146e-01	2.118723e-01	2.118723e-01
-6.020000e+00	-5.950000e+00	-1.096693e-01	6.935352e-02	6.935352e-02
-5.950000e+00	-5.880000e+00	-2.096347e+00	1.956709e+00	1.956709e+00
-5.880000e+00	-5.810000e+00	-2.970133e-02	3.234566e-02	3.234566e-02
-5.810000e+00	-5.740000e+00	-2.482537e-02	1.871296e-02	1.871296e-02
-5.740000e+00	-5.670000e+00	-1.719247e-01	3.767933e-01	3.767933e-01
-5.670000e+00	-5.600000e+00	-6.381014e-01	5.822733e-01	5.822733e-01
-5.600000e+00	-5.530000e+00	-6.642013e-02	5.505860e-02	5.505860e-02
-5.530000e+00	-5.460000e+00	-5.281814e-03	4.046226e-03	4.046226e-03
-5.460000e+00	-5.390000e+00	-4.535257e-02	4.535256e-02	4.535256e-02
-5.390000e+00	-5.320000e+00	8.652126e+01	8.955009e+01	8.955009e+01
-5.320000e+00	-5.250000e+00	-2.571516e+01	2.903345e+01	2.903345e+01
-5.250000e+00	-5.180000e+00	-1.658441e+01	1.768562e+01	1.768562e+01
-5.180000e+00	-5.110000e+00	-4.152163e+02	4.520741e+02	4.520741e+02
-5.110000e+00	-5.040000e+00	3.960009e+03	3.995117e+03	3.995117e+03
-5.040000e+00	-4.970000e+00	-1.626549e+04	1.690877e+04	1.690877e+04
-4.970000e+00	-4.900000e+00	1.730461e+03	1.995197e+03	1.995197e+03
-4.900000e+00	-4.830000e+00	-3.693924e+02	4.136854e+03	4.136854e+03
-4.830000e+00	-4.760000e+00	3.583454e+03	2.365938e+03	2.365938e+03
-4.760000e+00	-4.690000e+00	-1.693267e+03	1.110999e+03	1.110999e+03
-4.690000e+00	-4.620000e+00	9.847026e+03	4.957917e+03	4.957917e+03
-4.620000e+00	-4.550000e+00	-2.010803e+03	3.301477e+03	3.301477e+03
-4.550000e+00	-4.480000e+00	-4.311350e+04	4.630868e+04	4.630868e+04
-4.480000e+00	-4.410000e+00	1.364003e+04	7.587275e+03	7.587275e+03
-4.410000e+00	-4.340000e+00	-1.330522e+04	3.800981e+04	3.800981e+04
-4.340000e+00	-4.270000e+00	3.615119e+03	2.879966e+04	2.879966e+04
-4.270000e+00	-4.200000e+00	7.569671e+04	5.569643e+04	5.569643e+04
-4.200000e+00	-4.130000e+00	9.872999e+04	7.686358e+04	7.686358e+04
-4.130000e+00	-4.060000e+00	1.094027e+05	5.270391e+04	5.270391e+04
-4.060000e+00	-3.990000e+00	-3.298029e+05	2.430828e+05	2.430828e+05
-3.990000e+00	-3.920000e+00	-2.477286e+05	2.931502e+05	2.931502e+05
-3.920000e+00	-3.850000e+00	-5.996579e+04	1.191607e+05	1.191607e+05
-3.850000e+00	-3.780000e+00	-6.267230e+04	1.316400e+05	1.316400e+05
-3.780000e+00	-3.710000e+00	-2.618496e+05	2.591644e+05	2.591644e+05
-3.710000e+00	-3.640000e+00	3.980007e+04	2.307791e+05	2.307791e+05
-3.640000e+00	-3.570000e+00	6.443406e+04	1.822841e+05	1.822841e+05
-3.570000e+00	-3.500000e+00	4.379666e+05	5.603984e+05	5.603984e+05
-3.500000e+00	-3.430000e+00	6.333364e+03	2.180898e+05	2.180898e+05
-3.430000e+00	-3.360000e+00	-1.258184e+05	2.073373e+05	2.073373e+05
-3.360000e+00	-3.290000e+00	6.484946e+05	9.124638e+05	9.124638e+05
-3.290000e+00	-3.220000e+00	-3.931761e+05	5.423906e+05	5.423906e+05
-3.220000e+00	-3.150000e+00	-1.498479e+06	1.285385e+06	1.285385e+06
-3.150000e+00	-3.080000e+00	-5.775323e+05	7.770154e+05	7.770154e+05
-3.080000e+00	-3.010000e+00	-4.076833e+05	3.364400e+05	3.364400e+05
-3.010000e+00	-2.940000e+00	-1.598556e+05	6.760058e+05	6.760058e+05
-2.940000e+00	-2.870000e+00	-1.899250e+06	6.850160e+05	6.850160e+05
-2.870000e+00	-2.800000e+00	5.419324e+05	5.197427e+05	5.197427e+05
-2.800000e+00	-2.730000e+00	5.225216e+04	8.919617e+05	8.919617e+05
-2.730000e+00	-2.660000e+00	1.030465e+06	9.625381e+05	9.625381e+05
-2.660000e+00	-2.590000e+00	-3.587404e+06	1.547397e+06	1.547397e+06
-2.590000e+00	-2.520000e+00	-2.748039e+05	1.330172e+06	1.330172e+06
-2.520000e+00	-2.450000e+00	-5.735656e+06	3.087536e+06	3.087536e+06
-2.450000e+00	-2.380000e+00	4.646391e+05	1.493230e+06	1.493230e+06
-2.380000e+00	-2.310000e+00	1.221386e+06	2.539548e+06	2.539548e+06
-2.310000e+00	-2.240000e+00	1.545277e+06	1.781828e+06	1.781828e+06
-2.240000e+00	-2.170000e+00	3.951413e+06	2.225857e+06	2.225857e+06
-2.170000e+00	-2.100000e+00	-2.188599e+06	2.751297e+06	2.751297e+06
-2.100000e+00	-2.030000e+00	-2.782827e+06	4.821590e+06	4.821590e+06
-2.030000e+00	-1.960000e+00	-8.593201e+06	5.544230e+06	5.544230e+06
-1.960000e+00	-1.890000e+00	-5.719211e+06	5.198104e+06	5.198104e+06
-1.890000e+00	-1.820000e+00	-8.247850e+06	3.448095e+06	3.448095e+06
-1.820000e+00	-1.750000e+00	-2.986019e+05	4.290666e+06	4.290666e+06
-1.750000e+00	-1.680000e+00	-4.766904e+06	5.732950e+06	5.732950e+06
-1.680000e+00	-1.610000e+00	-1.099546e+07	9.050901e+06	9.050901e+06
-1.610000e+00	-1.540000e+00	-1.772237e+07	9.871418e+06	9.871418e+06
-1.540000e+00	-1.470000e+00	-1.225701e+07	8.448167e+06	8.448167e+06
-1.470000e+00	-1.400000e+00	-1.195679e+05	6.144548e+06	6.144548e+06
-1.400000e+00	-1.330000e+00	-1.065447e+07	8.612835e+06	8.612835e+06
-1.330000e+00	-1.260000e+00	2.800084e+06	7.415369e+06	7.415369e+06
-1.260000e+00	-1.190000e+00	-7.117593e+06	7.300643e+06	7.300643e+06
-1.190000e+00	-1.120000e+00	4.114793e+06	9.650414e+06	9.650414e+06
-1.120000e+00	-1.050000e+00	5.944851e+06	1.163336e+07	1.163336e+07
-1.050000e+00	-9.800000e-01	1.886709e+07	6.685090e+06	6.685090e+06
-9.800000e-01	-9.100000e-01	-5.412371e+06	1.053268e+07	1.053268e+07
-9.100000e-01	-8.400000e-01	1.239496e+07	6.207435e+06	6.207435e+06
-8.400000e-01	-7.700000e-01	3.981719e+06	6.276231e+06	6.276231e+06
-7.700000e-01	-7.000000e-01	1.066057e+07	6.948808e+06	6.948808e+06
-7.000000e-01	-6.300000e-01	-1.045618e+07	7.393453e+06	7.393453e+06
-6.300000e-01	-5.600000e-01	-4.874066e+06	8.705147e+06	8.705147e+06
-5.600000e-01	-4.900000e-01	-7.842840e+06	8.699317e+06	8.699317e+06
-4.900000e-01	-4.200000e-01	1.186831e+07	5.506141e+06	5.506141e+06
-4.200000e-01	-3.500000e-01	-1.191144e+06	4.763678e+06	4.763678e+06
-3.500000e-01	-2.800000e-01	1.123882e+06	1.475321e+06	1.475321e+06
-2.800000e-01	-2.100000e-01	-7.586576e+04	5.298176e+05	5.298176e+05
-2.100000e-01	-1.400000e-01	1.530634e+05	1.494275e+05	1.494275e+05
-1.400000e-01	-7.000000e-02	-3.262669e+02	1.653854e+03	1.653854e+03
-7.000000e-02	0.000000e+00	0.000000e+00	0.000000e+00	0.000000e+00
# END HISTO1D

