# BEGIN PLOT
LegendOnly=/zj_ps_nlo_mer_mur0.5_muf0.5_R4.yoda/PAPER_FIN_R4/ch_l05_pT_408_1500
DrawOnly=/zj_ps_nlo_mer_mur0.5_muf0.5_R4.yoda/PAPER_FIN_R4/ch_l05_pT_408_1500
Legend=1
LogY=1
# END PLOT

# BEGIN HISTO1D /zj_ps_nlo_mer_mur0.5_muf0.5_R4.yoda/PAPER_FIN_R4/ch_l05_pT_408_1500
LineColor=red
LineStyle=solid
Path=/zj_ps_nlo_mer_mur0.5_muf0.5_R4.yoda/PAPER_FIN_R4/ch_l05_pT_408_1500
Title=zj_ps_nlo_mer_mur0.5_muf0.5_R4
XLabel=~
YLabel=~
# xlow	 xhigh	 val	 errminus	 errplus
-7.000000e+00	-6.930000e+00	6.016899e-04	5.662896e-04	5.662896e-04
-6.930000e+00	-6.860000e+00	3.218630e+09	4.081391e+07	4.081391e+07
-6.860000e+00	-6.790000e+00	-1.450606e-01	1.252775e-01	1.252775e-01
-6.790000e+00	-6.720000e+00	-7.284843e-04	4.573067e-04	4.573067e-04
-6.720000e+00	-6.650000e+00	-3.312444e-02	2.333089e-02	2.333089e-02
-6.650000e+00	-6.580000e+00	-4.181956e-02	3.674580e-02	3.674580e-02
-6.580000e+00	-6.510000e+00	-2.054680e-02	1.963530e-02	1.963530e-02
-6.510000e+00	-6.440000e+00	-1.099641e-01	7.468069e-02	7.468069e-02
-6.440000e+00	-6.370000e+00	-3.565416e+00	3.439252e+00	3.439252e+00
-6.370000e+00	-6.300000e+00	-1.124719e-01	7.187576e-02	7.187576e-02
-6.300000e+00	-6.230000e+00	-1.101965e+00	7.178487e-01	7.178487e-01
-6.230000e+00	-6.160000e+00	-2.639830e-01	1.473573e-01	1.473573e-01
-6.160000e+00	-6.090000e+00	-5.121994e-01	2.701330e-01	2.701330e-01
-6.090000e+00	-6.020000e+00	-8.399073e-02	4.962895e-02	4.962895e-02
-6.020000e+00	-5.950000e+00	-1.931347e-01	2.041128e-01	2.041128e-01
-5.950000e+00	-5.880000e+00	-2.004667e-01	2.479554e-01	2.479554e-01
-5.880000e+00	-5.810000e+00	7.685449e-02	6.867870e-01	6.867870e-01
-5.810000e+00	-5.740000e+00	-1.661829e+00	1.018518e+00	1.018518e+00
-5.740000e+00	-5.670000e+00	-2.834917e-01	3.791106e-01	3.791106e-01
-5.670000e+00	-5.600000e+00	-4.485623e+00	3.100660e+00	3.100660e+00
-5.600000e+00	-5.530000e+00	-1.176917e+01	9.782255e+00	9.782255e+00
-5.530000e+00	-5.460000e+00	2.130280e+02	2.205433e+02	2.205433e+02
-5.460000e+00	-5.390000e+00	1.086160e-01	7.058336e-01	7.058336e-01
-5.390000e+00	-5.320000e+00	6.971851e+02	7.200876e+02	7.200876e+02
-5.320000e+00	-5.250000e+00	-3.131601e+02	3.061386e+02	3.061386e+02
-5.250000e+00	-5.180000e+00	-1.307178e+02	2.103150e+02	2.103150e+02
-5.180000e+00	-5.110000e+00	9.943090e+02	8.373354e+02	8.373354e+02
-5.110000e+00	-5.040000e+00	2.130399e+03	1.955717e+03	1.955717e+03
-5.040000e+00	-4.970000e+00	-2.166687e+03	2.406961e+03	2.406961e+03
-4.970000e+00	-4.900000e+00	-2.023163e+02	2.386360e+03	2.386360e+03
-4.900000e+00	-4.830000e+00	4.019554e+03	1.468804e+03	1.468804e+03
-4.830000e+00	-4.760000e+00	1.414578e+03	2.478935e+03	2.478935e+03
-4.760000e+00	-4.690000e+00	6.798343e+03	5.288368e+03	5.288368e+03
-4.690000e+00	-4.620000e+00	4.240954e+03	9.709133e+03	9.709133e+03
-4.620000e+00	-4.550000e+00	2.271973e+04	1.265370e+04	1.265370e+04
-4.550000e+00	-4.480000e+00	3.166490e+04	2.192051e+04	2.192051e+04
-4.480000e+00	-4.410000e+00	5.378816e+04	2.352794e+04	2.352794e+04
-4.410000e+00	-4.340000e+00	2.715900e+04	1.584722e+04	1.584722e+04
-4.340000e+00	-4.270000e+00	4.955734e+04	1.288136e+04	1.288136e+04
-4.270000e+00	-4.200000e+00	7.101583e+04	3.749381e+04	3.749381e+04
-4.200000e+00	-4.130000e+00	2.280500e+04	2.741064e+04	2.741064e+04
-4.130000e+00	-4.060000e+00	8.637750e+04	7.348669e+04	7.348669e+04
-4.060000e+00	-3.990000e+00	6.706561e+04	2.751704e+04	2.751704e+04
-3.990000e+00	-3.920000e+00	1.053244e+05	3.153974e+04	3.153974e+04
-3.920000e+00	-3.850000e+00	2.489826e+05	2.073311e+05	2.073311e+05
-3.850000e+00	-3.780000e+00	2.710737e+05	1.082496e+05	1.082496e+05
-3.780000e+00	-3.710000e+00	2.472864e+05	8.970659e+04	8.970659e+04
-3.710000e+00	-3.640000e+00	4.036573e+05	6.577227e+04	6.577227e+04
-3.640000e+00	-3.570000e+00	3.210277e+05	1.446001e+05	1.446001e+05
-3.570000e+00	-3.500000e+00	4.809117e+05	8.908044e+04	8.908044e+04
-3.500000e+00	-3.430000e+00	5.499061e+05	9.710396e+04	9.710396e+04
-3.430000e+00	-3.360000e+00	8.180194e+05	1.839734e+05	1.839734e+05
-3.360000e+00	-3.290000e+00	8.625693e+05	2.555208e+05	2.555208e+05
-3.290000e+00	-3.220000e+00	1.330402e+06	2.747897e+05	2.747897e+05
-3.220000e+00	-3.150000e+00	1.877776e+06	2.002076e+05	2.002076e+05
-3.150000e+00	-3.080000e+00	2.201810e+06	3.100265e+05	3.100265e+05
-3.080000e+00	-3.010000e+00	2.648721e+06	4.238830e+05	4.238830e+05
-3.010000e+00	-2.940000e+00	3.827171e+06	6.332983e+05	6.332983e+05
-2.940000e+00	-2.870000e+00	4.120660e+06	4.443640e+05	4.443640e+05
-2.870000e+00	-2.800000e+00	4.421324e+06	5.302835e+05	5.302835e+05
-2.800000e+00	-2.730000e+00	5.291690e+06	5.855467e+05	5.855467e+05
-2.730000e+00	-2.660000e+00	5.653321e+06	4.959419e+05	4.959419e+05
-2.660000e+00	-2.590000e+00	5.833359e+06	6.129229e+05	6.129229e+05
-2.590000e+00	-2.520000e+00	6.910957e+06	5.655068e+05	5.655068e+05
-2.520000e+00	-2.450000e+00	9.594060e+06	8.182873e+05	8.182873e+05
-2.450000e+00	-2.380000e+00	9.992077e+06	1.029655e+06	1.029655e+06
-2.380000e+00	-2.310000e+00	5.713351e+06	4.981199e+06	4.981199e+06
-2.310000e+00	-2.240000e+00	1.381369e+07	1.387402e+06	1.387402e+06
-2.240000e+00	-2.170000e+00	1.559514e+07	1.071188e+06	1.071188e+06
-2.170000e+00	-2.100000e+00	1.727739e+07	1.023623e+06	1.023623e+06
-2.100000e+00	-2.030000e+00	1.848409e+07	2.379386e+06	2.379386e+06
-2.030000e+00	-1.960000e+00	3.061994e+07	5.620634e+06	5.620634e+06
-1.960000e+00	-1.890000e+00	2.315990e+07	2.308254e+06	2.308254e+06
-1.890000e+00	-1.820000e+00	3.008396e+07	2.291982e+06	2.291982e+06
-1.820000e+00	-1.750000e+00	3.836181e+07	2.417579e+06	2.417579e+06
-1.750000e+00	-1.680000e+00	4.641264e+07	2.060405e+06	2.060405e+06
-1.680000e+00	-1.610000e+00	4.713260e+07	3.665236e+06	3.665236e+06
-1.610000e+00	-1.540000e+00	5.533540e+07	3.302309e+06	3.302309e+06
-1.540000e+00	-1.470000e+00	6.457940e+07	7.090796e+06	7.090796e+06
-1.470000e+00	-1.400000e+00	8.242291e+07	2.967343e+06	2.967343e+06
-1.400000e+00	-1.330000e+00	9.010737e+07	4.023981e+06	4.023981e+06
-1.330000e+00	-1.260000e+00	1.061979e+08	2.683442e+06	2.683442e+06
-1.260000e+00	-1.190000e+00	1.054442e+08	8.257925e+06	8.257925e+06
-1.190000e+00	-1.120000e+00	1.237668e+08	3.637495e+06	3.637495e+06
-1.120000e+00	-1.050000e+00	1.376144e+08	3.097356e+06	3.097356e+06
-1.050000e+00	-9.800000e-01	1.327815e+08	1.153523e+07	1.153523e+07
-9.800000e-01	-9.100000e-01	1.490560e+08	4.737540e+06	4.737540e+06
-9.100000e-01	-8.400000e-01	1.497076e+08	4.022148e+06	4.022148e+06
-8.400000e-01	-7.700000e-01	1.444746e+08	4.317528e+06	4.317528e+06
-7.700000e-01	-7.000000e-01	1.226300e+08	1.313284e+07	1.313284e+07
-7.000000e-01	-6.300000e-01	1.404940e+08	3.379364e+06	3.379364e+06
-6.300000e-01	-5.600000e-01	1.105926e+08	1.061069e+07	1.061069e+07
-5.600000e-01	-4.900000e-01	9.820054e+07	6.573349e+06	6.573349e+06
-4.900000e-01	-4.200000e-01	8.209360e+07	6.169786e+06	6.169786e+06
-4.200000e-01	-3.500000e-01	6.031200e+07	1.933492e+06	1.933492e+06
-3.500000e-01	-2.800000e-01	2.754494e+07	1.910755e+06	1.910755e+06
-2.800000e-01	-2.100000e-01	6.535313e+06	5.621223e+05	5.621223e+05
-2.100000e-01	-1.400000e-01	6.669247e+05	1.316363e+05	1.316363e+05
-1.400000e-01	-7.000000e-02	1.367653e+04	1.223661e+04	1.223661e+04
-7.000000e-02	0.000000e+00	0.000000e+00	0.000000e+00	0.000000e+00
# END HISTO1D

