# BEGIN PLOT
LegendOnly=/CMS_2018_PAS_SMP_18_QGX_ZPJ.yoda/CMS_2018_PAS_SMP_18_QGX_ZPJ/d22-x03-y02
DrawOnly=/CMS_2018_PAS_SMP_18_QGX_ZPJ.yoda/CMS_2018_PAS_SMP_18_QGX_ZPJ/d22-x03-y02
Legend=1
LogY=1
# END PLOT

# BEGIN HISTO1D /CMS_2018_PAS_SMP_18_QGX_ZPJ.yoda/CMS_2018_PAS_SMP_18_QGX_ZPJ/d22-x03-y02
LineColor=red
LineStyle=solid
Path=/CMS_2018_PAS_SMP_18_QGX_ZPJ.yoda/CMS_2018_PAS_SMP_18_QGX_ZPJ/d22-x03-y02
Title=CMS_2018_PAS_SMP_18_QGX_ZPJ
XLabel=Groomed LHA $\lambda_{0.5}^{1}$
YLabel=~
# xlow	 xhigh	 val	 errminus	 errplus
0.000000e+00	1.000000e-01	6.433008e-01	8.615948e-02	8.615948e-02
1.000000e-01	1.800000e-01	2.221905e+00	1.693308e-01	1.693308e-01
1.800000e-01	2.600000e-01	2.313471e+00	1.970924e-01	1.970924e-01
2.600000e-01	3.400000e-01	2.060027e+00	2.664454e-01	2.664454e-01
3.400000e-01	4.200000e-01	1.992366e+00	2.267737e-01	2.267737e-01
4.200000e-01	5.000000e-01	1.439071e+00	7.661450e-02	7.661450e-02
5.000000e-01	5.700000e-01	1.007253e+00	1.794356e-01	1.794356e-01
5.700000e-01	6.400000e-01	5.905162e-01	7.511466e-02	7.511466e-02
6.400000e-01	1.000000e+00	6.021911e-02	1.633014e-02	1.633014e-02
# END HISTO1D

