# BEGIN PLOT
LegendOnly=/CMS_2018_PAS_SMP_18_QGX_ZPJ.yoda/CMS_2018_PAS_SMP_18_QGX_ZPJ/d11-x10-y07
DrawOnly=/CMS_2018_PAS_SMP_18_QGX_ZPJ.yoda/CMS_2018_PAS_SMP_18_QGX_ZPJ/d11-x10-y07
Legend=1
LogY=1
# END PLOT

# BEGIN HISTO1D /CMS_2018_PAS_SMP_18_QGX_ZPJ.yoda/CMS_2018_PAS_SMP_18_QGX_ZPJ/d11-x10-y07
LineColor=red
LineStyle=solid
Path=/CMS_2018_PAS_SMP_18_QGX_ZPJ.yoda/CMS_2018_PAS_SMP_18_QGX_ZPJ/d11-x10-y07
Title=CMS_2018_PAS_SMP_18_QGX_ZPJ
XLabel=Thrust $\lambda_{2}^{1}$ (charged only)
YLabel=~
# xlow	 xhigh	 val	 errminus	 errplus
0.000000e+00	5.000000e-03	1.600567e+01	3.329871e+00	3.329871e+00
5.000000e-03	1.250000e-02	2.356025e+01	1.919827e+00	1.919827e+00
1.250000e-02	2.250000e-02	1.883233e+01	1.621021e+00	1.621021e+00
2.250000e-02	3.500000e-02	1.051660e+01	1.081395e+00	1.081395e+00
3.500000e-02	5.000000e-02	7.344805e+00	7.473063e-01	7.473063e-01
5.000000e-02	7.000000e-02	5.132971e+00	1.303972e+00	1.303972e+00
7.000000e-02	9.250000e-02	3.042290e+00	4.349602e-01	4.349602e-01
9.250000e-02	1.200000e-01	1.982609e+00	3.821344e-01	3.821344e-01
1.200000e-01	1.520000e-01	9.918226e-01	2.245775e-01	2.245775e-01
1.520000e-01	1.880000e-01	8.191585e-01	1.391176e-01	1.391176e-01
1.880000e-01	2.280000e-01	4.037698e-01	1.072244e-01	1.072244e-01
2.280000e-01	1.000000e+00	1.334891e-02	6.520674e-03	6.520674e-03
# END HISTO1D

