# BEGIN PLOT
LegendOnly=/CMS_2018_PAS_SMP_18_QGX_ZPJ.yoda/CMS_2018_PAS_SMP_18_QGX_ZPJ/d21-x03-y09
DrawOnly=/CMS_2018_PAS_SMP_18_QGX_ZPJ.yoda/CMS_2018_PAS_SMP_18_QGX_ZPJ/d21-x03-y09
Legend=1
LogY=1
# END PLOT

# BEGIN HISTO1D /CMS_2018_PAS_SMP_18_QGX_ZPJ.yoda/CMS_2018_PAS_SMP_18_QGX_ZPJ/d21-x03-y09
LineColor=red
LineStyle=solid
Path=/CMS_2018_PAS_SMP_18_QGX_ZPJ.yoda/CMS_2018_PAS_SMP_18_QGX_ZPJ/d21-x03-y09
Title=CMS_2018_PAS_SMP_18_QGX_ZPJ
XLabel=LHA $\lambda_{0.5}^{1}$
YLabel=~
# xlow	 xhigh	 val	 errminus	 errplus
0.000000e+00	1.700000e-01	2.494881e+00	1.102229e-01	1.102229e-01
1.700000e-01	2.500000e-01	2.802426e+00	2.741074e-01	2.741074e-01
2.500000e-01	3.200000e-01	2.004772e+00	2.032648e-01	2.032648e-01
3.200000e-01	3.800000e-01	1.485072e+00	1.937865e-01	1.937865e-01
3.800000e-01	4.500000e-01	7.151344e-01	1.207678e-01	1.207678e-01
4.500000e-01	5.200000e-01	6.718222e-01	1.075017e-01	1.075017e-01
5.200000e-01	5.900000e-01	2.251072e-01	6.742629e-02	6.742629e-02
5.900000e-01	1.000000e+00	2.291030e-02	7.469803e-03	7.469803e-03
# END HISTO1D

