# BEGIN PLOT
# END PLOT

# BEGIN HISTO1D
LineColor=red
LineStyle=solid
Title=Z+Jet SHERPA MESP@NLO+NP
# Sigma = 4.321589e-01 pb
# xlow	xhigh	val	errminus	errplus
0.000000e+00	2.500000e-03	1.742822e+02	2.402055e+00	1.130300e+01
2.500000e-03	5.000000e-03	3.662895e+01	1.168298e+00	1.126613e+00
5.000000e-03	7.500000e-03	1.968536e+01	9.708921e-01	3.317487e-01
7.500000e-03	1.250000e-02	1.188147e+01	8.228882e-01	9.238606e-02
1.250000e-02	2.000000e-02	7.516726e+00	5.388751e-01	2.397200e-01
2.000000e-02	3.250000e-02	4.382131e+00	2.843020e-01	1.159571e-01
3.250000e-02	5.000000e-02	2.855817e+00	2.314015e-01	1.283993e-02
5.000000e-02	7.750000e-02	2.162531e+00	1.834025e-01	1.332280e-01
7.750000e-02	1.150000e-01	1.497848e+00	1.334721e-01	8.749064e-02
1.150000e-01	1.600000e-01	9.301669e-01	7.848206e-02	9.881963e-02
1.600000e-01	2.100000e-01	5.298143e-01	4.560059e-02	2.603017e-02
2.100000e-01	1.000000e+00	2.403216e-02	2.647361e-03	2.540788e-03
# END HISTO1D