# BEGIN PLOT
# END PLOT

# BEGIN HISTO1D
LineColor=red
LineStyle=solid
Title=Z+Jet SHERPA MESP@NLO+NP
# Sigma = 1.109186e+01 pb
# xlow	xhigh	val	errminus	errplus
0.000000e+00	5.000000e-03	1.027171e+00	4.912993e+00	3.021675e-01
5.000000e-03	1.250000e-02	3.091132e+00	8.987405e-02	5.504300e-01
1.250000e-02	2.250000e-02	5.386753e+00	2.711513e-01	6.479272e-01
2.250000e-02	3.500000e-02	7.666400e+00	5.182674e-01	8.390462e-01
3.500000e-02	5.000000e-02	9.322443e+00	2.781840e-01	9.566130e-01
5.000000e-02	7.000000e-02	8.877373e+00	3.226943e-01	8.565844e-01
7.000000e-02	9.250000e-02	6.848342e+00	3.418133e-01	4.550065e-01
9.250000e-02	1.200000e-01	4.585677e+00	2.776348e-01	2.849421e-01
1.200000e-01	1.520000e-01	2.820216e+00	2.766526e+00	1.261314e-01
1.520000e-01	1.880000e-01	1.649152e+00	1.437808e-01	6.167488e-02
1.880000e-01	2.280000e-01	9.275863e-01	8.071210e-02	3.934635e-02
2.280000e-01	1.000000e+00	4.881523e-02	4.455625e-03	1.461063e-03
# END HISTO1D