# BEGIN PLOT
# END PLOT

# BEGIN HISTO1D
LineColor=red
LineStyle=solid
Title=Z+Jet SHERPA MESP@NLO+NP
# Sigma = 1.109186e+01 pb
# xlow	xhigh	val	errminus	errplus
0.000000e+00	2.250000e-02	6.269549e-02	1.073173e+00	4.475417e-02
2.250000e-02	4.000000e-02	4.225243e-01	8.888748e-02	7.573226e-02
4.000000e-02	5.750000e-02	9.615469e-01	3.280090e-02	1.392728e-01
5.750000e-02	7.750000e-02	1.841638e+00	5.423560e-02	3.372587e-01
7.750000e-02	1.000000e-01	2.972215e+00	9.154447e-02	3.428256e-01
1.000000e-01	1.250000e-01	3.965646e+00	1.066795e-01	3.747833e-01
1.250000e-01	1.520000e-01	4.545017e+00	1.322652e-01	5.068074e-01
1.520000e-01	1.850000e-01	4.545972e+00	2.074483e-01	4.005096e-01
1.850000e-01	2.200000e-01	3.807132e+00	1.727803e-01	3.021353e-01
2.200000e-01	2.600000e-01	2.861601e+00	2.193578e+00	1.367059e-01
2.600000e-01	3.070000e-01	1.969219e+00	1.383036e-01	1.128268e-01
3.070000e-01	3.620000e-01	1.235920e+00	1.023233e-01	5.435951e-02
3.620000e-01	4.250000e-01	7.081144e-01	6.893163e-02	2.933110e-02
4.250000e-01	4.970000e-01	3.727763e-01	3.111674e-02	1.148978e-02
4.970000e-01	1.000000e+00	3.795873e-02	3.278650e-03	5.394090e-04
# END HISTO1D