# BEGIN PLOT
# END PLOT

# BEGIN HISTO1D
LineColor=red
LineStyle=solid
Title=Z+Jet RES+NP
# Sigma = 6.846609e+00 pb
# xlow	xhigh	val	errminus	errplus
0.000000e+00	2.500000e-03	6.483425e+01	1.430424e+01	1.382369e+01
2.500000e-03	1.000000e-02	4.107687e+01	6.307216e+00	6.650088e+00
1.000000e-02	2.500000e-02	1.157868e+01	1.263289e+00	1.348582e+00
2.500000e-02	6.000000e-02	3.949016e+00	4.725199e-01	4.992298e-01
6.000000e-02	1.200000e-01	2.249434e+00	3.390159e-01	3.665817e-01
1.200000e-01	1.770000e-01	1.137959e+00	2.207499e-01	3.128364e-01
1.770000e-01	2.300000e-01	6.101136e-01	1.306671e-01	2.168364e-01
2.300000e-01	1.000000e+00	2.401543e-02	9.080020e-03	1.856919e-02
# END HISTO1D