# BEGIN PLOT
# END PLOT

# BEGIN HISTO1D
LineColor=red
LineStyle=solid
Title=Z+Jet RES+NP
# Sigma = 2.883480e+00 pb
# xlow	xhigh	val	errminus	errplus
0.000000e+00	2.000000e-02	3.569557e+00	1.124118e+00	1.061025e+00
2.000000e-02	5.000000e-02	1.018455e+01	1.163069e+00	1.228252e+00
5.000000e-02	9.500000e-02	5.723003e+00	6.659838e-01	6.945319e-01
9.500000e-02	1.470000e-01	3.225471e+00	4.753166e-01	5.270857e-01
1.470000e-01	2.250000e-01	1.595823e+00	2.575358e-01	3.225418e-01
2.250000e-01	3.070000e-01	8.535701e-01	1.511064e-01	2.199071e-01
3.070000e-01	3.880000e-01	4.533209e-01	8.956336e-02	1.462126e-01
3.880000e-01	4.680000e-01	2.313292e-01	5.258304e-02	9.601496e-02
4.680000e-01	1.000000e+00	1.951993e-02	7.878557e-03	1.602265e-02
# END HISTO1D