# BEGIN PLOT
# END PLOT

# BEGIN HISTO1D
LineColor=red
LineStyle=solid
Title=Z+Jet SHERPA MESP@NLO+NP
# Sigma = 6.067880e+00 pb
# xlow	xhigh	val	errminus	errplus
0.000000e+00	1.000000e-01	4.538978e+00	2.349612e-01	8.901700e-01
1.000000e-01	1.800000e-01	1.717577e+01	7.761700e-01	2.046897e+00
1.800000e-01	2.600000e-01	2.013399e+01	1.078317e+00	2.170429e+00
2.600000e-01	3.400000e-01	1.422408e+01	1.057864e+00	1.220978e+00
3.400000e-01	4.200000e-01	8.762961e+00	8.482103e-01	7.501234e-01
4.200000e-01	5.000000e-01	5.174656e+00	5.946799e-01	4.037586e-01
5.000000e-01	5.700000e-01	3.099473e+00	3.283380e-01	3.068567e-01
5.700000e-01	6.400000e-01	1.585671e+00	2.137808e-01	9.934202e-02
6.400000e-01	1.000000e+00	1.341833e-01	1.633945e-02	1.735877e-02
# END HISTO1D