# BEGIN PLOT
# END PLOT

# BEGIN HISTO1D
LineColor=red
LineStyle=solid
Title=Z+Jet SHERPA MESP@NLO+NP
# Sigma = 1.109186e+01 pb
# xlow	xhigh	val	errminus	errplus
0.000000e+00	2.500000e-03	4.527764e+02	7.942201e+01	5.484809e+01
2.500000e-03	5.000000e-03	2.817081e+02	9.502417e+00	4.959456e+01
5.000000e-03	7.500000e-03	2.333925e+02	7.655646e+00	3.016145e+01
7.500000e-03	1.250000e-02	1.814959e+02	1.047815e+01	1.798219e+01
1.250000e-02	2.000000e-02	1.332700e+02	4.812289e+00	1.327979e+01
2.000000e-02	3.250000e-02	9.537192e+01	4.400524e+00	8.250913e+00
3.250000e-02	5.000000e-02	6.619486e+01	3.169691e+00	5.820474e+00
5.000000e-02	7.750000e-02	4.539463e+01	2.586394e+00	2.446202e+00
7.750000e-02	1.150000e-01	3.130004e+01	1.894543e+00	1.643692e+00
1.150000e-01	1.600000e-01	2.052748e+01	2.203152e+01	1.409447e+00
1.600000e-01	2.100000e-01	1.201256e+01	9.631865e-01	4.066049e-01
2.100000e-01	1.000000e+00	5.925769e-01	4.922145e-02	3.115302e-02
# END HISTO1D