# BEGIN PLOT
# END PLOT

# BEGIN HISTO1D
LineColor=red
LineStyle=solid
Title=Z+Jet SHERPA MESP@NLO+NP
# Sigma = 1.559765e+00 pb
# xlow	xhigh	val	errminus	errplus
0.000000e+00	2.250000e-02	1.704543e+00	2.158822e-02	2.863118e-01
2.250000e-02	4.000000e-02	5.889035e+00	3.246542e-01	6.161308e-01
4.000000e-02	5.750000e-02	9.856845e+00	1.273832e-01	1.175020e+00
5.750000e-02	7.750000e-02	1.074565e+01	3.054853e-01	8.412864e-01
7.750000e-02	1.000000e-01	8.447149e+00	1.762656e-01	1.025535e+00
1.000000e-01	1.250000e-01	7.058265e+00	3.365646e-01	3.911954e-01
1.250000e-01	1.520000e-01	5.624490e+00	3.605334e-01	2.318449e-01
1.520000e-01	1.850000e-01	4.170291e+00	3.150925e-01	2.279595e-01
1.850000e-01	2.200000e-01	2.903443e+00	2.460850e-01	1.439113e-01
2.200000e-01	2.600000e-01	2.131516e+00	2.187829e-01	1.401512e-01
2.600000e-01	3.070000e-01	1.437742e+00	1.523131e-01	7.755686e-02
3.070000e-01	3.620000e-01	9.466777e-01	8.518953e-02	6.817158e-02
3.620000e-01	4.250000e-01	5.526912e-01	4.847863e-02	4.260805e-02
4.250000e-01	4.970000e-01	2.980951e-01	3.006323e-02	3.454673e-02
4.970000e-01	1.000000e+00	2.414288e-02	2.825941e-03	2.718702e-03
# END HISTO1D