# BEGIN PLOT
# END PLOT

# BEGIN HISTO1D
LineColor=red
LineStyle=solid
Title=Z+Jet RES+NP
# Sigma = 1.134895e+01 pb
# xlow	xhigh	val	errminus	errplus
0.000000e+00	6.000000e-02	1.732271e+00	1.754900e+00	3.907016e+00
6.000000e-02	9.000000e-02	3.418555e+01	2.536427e+01	8.870960e+00
9.000000e-02	1.200000e-01	4.066565e+01	5.810203e+00	3.455849e+00
1.200000e-01	1.500000e-01	4.716927e+01	7.600808e+00	7.252553e+00
1.500000e-01	1.900000e-01	5.075847e+01	9.385537e+00	9.360392e+00
1.900000e-01	2.300000e-01	4.947438e+01	1.056143e+01	1.285187e+01
2.300000e-01	2.700000e-01	4.226188e+01	1.000614e+01	1.377936e+01
2.700000e-01	3.200000e-01	3.364537e+01	8.227796e+00	1.253324e+01
3.200000e-01	3.700000e-01	2.388037e+01	6.135604e+00	1.021840e+01
3.700000e-01	4.200000e-01	1.673987e+01	4.440183e+00	7.818964e+00
4.200000e-01	4.800000e-01	1.047010e+01	3.106183e+00	5.611726e+00
4.800000e-01	5.400000e-01	5.214957e+00	1.993136e+00	3.639721e+00
5.400000e-01	6.000000e-01	2.012499e+00	1.070340e+00	1.983272e+00
6.000000e-01	1.000000e+00	1.095310e-01	6.985263e-02	1.189534e-01
# END HISTO1D