# BEGIN PLOT
# END PLOT

# BEGIN HISTO1D
LineColor=red
LineStyle=solid
Title=Z+Jet RES+NP
# Sigma = 2.883480e+00 pb
# xlow	xhigh	val	errminus	errplus
0.000000e+00	6.000000e-02	1.259123e+00	1.163428e+00	1.303033e+00
6.000000e-02	9.000000e-02	1.042693e+01	2.524439e+00	7.089917e-01
9.000000e-02	1.200000e-01	1.343049e+01	1.666024e+00	1.401461e+00
1.200000e-01	1.500000e-01	1.483295e+01	2.096509e+00	2.077263e+00
1.500000e-01	1.900000e-01	1.436463e+01	2.445419e+00	2.609341e+00
1.900000e-01	2.300000e-01	1.116943e+01	2.257516e+00	2.769025e+00
2.300000e-01	2.700000e-01	8.358038e+00	1.816893e+00	2.476646e+00
2.700000e-01	3.200000e-01	6.248036e+00	1.377451e+00	2.052126e+00
3.200000e-01	3.700000e-01	4.141040e+00	1.016862e+00	1.625030e+00
3.700000e-01	4.200000e-01	2.878001e+00	7.311467e-01	1.237831e+00
4.200000e-01	4.800000e-01	1.820536e+00	5.069324e-01	8.933855e-01
4.800000e-01	5.400000e-01	8.584777e-01	3.148635e-01	5.780317e-01
5.400000e-01	6.000000e-01	3.442197e-01	1.758424e-01	3.294857e-01
6.000000e-01	1.000000e+00	1.751419e-02	1.046958e-02	1.908864e-02
# END HISTO1D