# BEGIN PLOT
# END PLOT

# BEGIN HISTO1D
LineColor=red
LineStyle=solid
Title=Z+Jet RES+NP
# Sigma = 1.134895e+01 pb
# xlow	xhigh	val	errminus	errplus
0.000000e+00	1.250000e-02	6.386102e+00	4.281423e+00	4.775988e+00
1.250000e-02	2.250000e-02	1.255392e+04	1.261770e+04	1.249246e+04
2.250000e-02	3.500000e-02	9.451926e+02	8.973394e+02	8.979254e+02
3.500000e-02	5.000000e-02	8.427263e+01	2.183275e+01	2.218140e+01
5.000000e-02	7.000000e-02	6.864589e+01	7.532971e+00	8.117248e+00
7.000000e-02	9.500000e-02	6.400254e+01	8.101931e+00	8.905050e+00
9.500000e-02	1.280000e-01	6.202770e+01	1.120626e+01	1.166881e+01
1.280000e-01	1.700000e-01	3.970207e+01	6.499776e+00	7.472778e+00
1.700000e-01	2.250000e-01	2.457064e+01	4.255951e+00	5.640445e+00
2.250000e-01	2.900000e-01	1.439642e+01	2.690951e+00	4.015586e+00
2.900000e-01	3.650000e-01	8.067806e+00	1.640763e+00	2.719837e+00
3.650000e-01	4.500000e-01	4.306522e+00	9.748585e-01	1.769816e+00
4.500000e-01	1.000000e+00	4.078568e-01	1.572540e-01	3.137563e-01
# END HISTO1D