# BEGIN PLOT
# END PLOT

# BEGIN HISTO1D
LineColor=red
LineStyle=solid
Title=Z+Jet RES+NP
# Sigma = 1.685465e+00 pb
# xlow	xhigh	val	errminus	errplus
0.000000e+00	1.050000e-01	8.146709e+00	8.551956e-01	6.680321e-01
1.050000e-01	1.650000e-01	6.412099e+00	9.348792e-01	1.165423e+00
1.650000e-01	2.300000e-01	3.993702e+00	1.375818e+00	1.464320e+00
2.300000e-01	3.050000e-01	1.499417e+00	2.660345e-01	3.785476e-01
3.050000e-01	3.800000e-01	8.199019e-01	1.516266e-01	2.418234e-01
3.800000e-01	4.600000e-01	3.990593e-01	8.893919e-02	1.583241e-01
4.600000e-01	5.500000e-01	1.386546e-01	5.071328e-02	9.740312e-02
5.500000e-01	1.000000e+00	9.787920e-03	5.414052e-03	1.153768e-02
# END HISTO1D