# BEGIN PLOT
LegendOnly=/zj_ps_nlo_mer_mur2_muf2_R4.yoda/PAPER_FIN_R4/l20_pT_254_326
DrawOnly=/zj_ps_nlo_mer_mur2_muf2_R4.yoda/PAPER_FIN_R4/l20_pT_254_326
Legend=1
LogY=1
# END PLOT

# BEGIN HISTO1D /zj_ps_nlo_mer_mur2_muf2_R4.yoda/PAPER_FIN_R4/l20_pT_254_326
LineColor=red
LineStyle=solid
Path=/zj_ps_nlo_mer_mur2_muf2_R4.yoda/PAPER_FIN_R4/l20_pT_254_326
Title=zj_ps_nlo_mer_mur2_muf2_R4
XLabel=~
YLabel=~
# xlow	 xhigh	 val	 errminus	 errplus
-7.000000e+00	-6.930000e+00	-6.151599e+01	1.054292e+02	1.054292e+02
-6.930000e+00	-6.860000e+00	1.285975e+09	5.757015e+07	5.757015e+07
-6.860000e+00	-6.790000e+00	9.663176e+03	9.738929e+03	9.738929e+03
-6.790000e+00	-6.720000e+00	2.364340e+05	1.008563e+06	1.008563e+06
-6.720000e+00	-6.650000e+00	4.146117e+04	4.149461e+04	4.149461e+04
-6.650000e+00	-6.580000e+00	-1.480999e+04	1.983916e+04	1.983916e+04
-6.580000e+00	-6.510000e+00	-3.493610e+02	8.534109e+02	8.534109e+02
-6.510000e+00	-6.440000e+00	2.370810e+05	2.305607e+05	2.305607e+05
-6.440000e+00	-6.370000e+00	8.792597e+03	1.745181e+04	1.745181e+04
-6.370000e+00	-6.300000e+00	4.103264e+04	5.261198e+04	5.261198e+04
-6.300000e+00	-6.230000e+00	-2.710774e+04	5.125377e+04	5.125377e+04
-6.230000e+00	-6.160000e+00	1.265588e+04	1.867608e+04	1.867608e+04
-6.160000e+00	-6.090000e+00	-1.437151e+05	1.622165e+05	1.622165e+05
-6.090000e+00	-6.020000e+00	2.244349e+05	1.947185e+05	1.947185e+05
-6.020000e+00	-5.950000e+00	1.039688e+07	1.049003e+07	1.049003e+07
-5.950000e+00	-5.880000e+00	2.223377e+05	2.270966e+05	2.270966e+05
-5.880000e+00	-5.810000e+00	1.625204e+05	1.096534e+05	1.096534e+05
-5.810000e+00	-5.740000e+00	1.952931e+05	1.485636e+05	1.485636e+05
-5.740000e+00	-5.670000e+00	8.475304e+04	1.886635e+05	1.886635e+05
-5.670000e+00	-5.600000e+00	-4.875974e+05	3.012438e+05	3.012438e+05
-5.600000e+00	-5.530000e+00	4.199271e+04	3.674511e+04	3.674511e+04
-5.530000e+00	-5.460000e+00	-7.122856e+03	7.931563e+04	7.931563e+04
-5.460000e+00	-5.390000e+00	-5.796151e+04	8.923827e+04	8.923827e+04
-5.390000e+00	-5.320000e+00	-6.281311e+06	6.284112e+06	6.284112e+06
-5.320000e+00	-5.250000e+00	1.120820e+05	9.656105e+04	9.656105e+04
-5.250000e+00	-5.180000e+00	5.468327e+04	8.625954e+04	8.625954e+04
-5.180000e+00	-5.110000e+00	9.728019e+05	8.035738e+05	8.035738e+05
-5.110000e+00	-5.040000e+00	5.930364e+04	1.428513e+05	1.428513e+05
-5.040000e+00	-4.970000e+00	7.648973e+05	6.080521e+05	6.080521e+05
-4.970000e+00	-4.900000e+00	1.762527e+05	3.553223e+05	3.553223e+05
-4.900000e+00	-4.830000e+00	-4.035826e+05	4.586900e+05	4.586900e+05
-4.830000e+00	-4.760000e+00	9.438204e+04	7.685453e+04	7.685453e+04
-4.760000e+00	-4.690000e+00	1.064321e+06	1.175955e+06	1.175955e+06
-4.690000e+00	-4.620000e+00	1.578929e+06	1.713695e+06	1.713695e+06
-4.620000e+00	-4.550000e+00	6.237140e+05	2.813282e+05	2.813282e+05
-4.550000e+00	-4.480000e+00	1.231768e+06	5.605613e+05	5.605613e+05
-4.480000e+00	-4.410000e+00	-1.800397e+06	2.126861e+06	2.126861e+06
-4.410000e+00	-4.340000e+00	1.205860e+06	1.643135e+06	1.643135e+06
-4.340000e+00	-4.270000e+00	1.164667e+04	8.168483e+05	8.168483e+05
-4.270000e+00	-4.200000e+00	1.854406e+06	7.422352e+05	7.422352e+05
-4.200000e+00	-4.130000e+00	1.941477e+06	6.855227e+05	6.855227e+05
-4.130000e+00	-4.060000e+00	5.294457e+05	2.619940e+06	2.619940e+06
-4.060000e+00	-3.990000e+00	3.214266e+06	2.777193e+06	2.777193e+06
-3.990000e+00	-3.920000e+00	1.059674e+07	2.832959e+06	2.832959e+06
-3.920000e+00	-3.850000e+00	1.686841e+07	3.175700e+06	3.175700e+06
-3.850000e+00	-3.780000e+00	1.765139e+07	2.592191e+06	2.592191e+06
-3.780000e+00	-3.710000e+00	2.134489e+07	3.516967e+06	3.516967e+06
-3.710000e+00	-3.640000e+00	2.576676e+07	3.988226e+06	3.988226e+06
-3.640000e+00	-3.570000e+00	3.788006e+07	3.956702e+06	3.956702e+06
-3.570000e+00	-3.500000e+00	3.841671e+07	5.672029e+06	5.672029e+06
-3.500000e+00	-3.430000e+00	3.715101e+07	6.494992e+06	6.494992e+06
-3.430000e+00	-3.360000e+00	6.079137e+07	4.897548e+06	4.897548e+06
-3.360000e+00	-3.290000e+00	6.984746e+07	7.382389e+06	7.382389e+06
-3.290000e+00	-3.220000e+00	5.874931e+07	1.227895e+07	1.227895e+07
-3.220000e+00	-3.150000e+00	7.919397e+07	1.327434e+07	1.327434e+07
-3.150000e+00	-3.080000e+00	8.260746e+07	1.239698e+07	1.239698e+07
-3.080000e+00	-3.010000e+00	9.657496e+07	1.014869e+07	1.014869e+07
-3.010000e+00	-2.940000e+00	1.084924e+08	1.020788e+07	1.020788e+07
-2.940000e+00	-2.870000e+00	1.161468e+08	1.286006e+07	1.286006e+07
-2.870000e+00	-2.800000e+00	1.312413e+08	2.201911e+07	2.201911e+07
-2.800000e+00	-2.730000e+00	1.662207e+08	9.724748e+06	9.724748e+06
-2.730000e+00	-2.660000e+00	1.744849e+08	1.211958e+07	1.211958e+07
-2.660000e+00	-2.590000e+00	2.169987e+08	1.228282e+07	1.228282e+07
-2.590000e+00	-2.520000e+00	2.038016e+08	2.063557e+07	2.063557e+07
-2.520000e+00	-2.450000e+00	2.174421e+08	1.728563e+07	1.728563e+07
-2.450000e+00	-2.380000e+00	2.841484e+08	1.319065e+07	1.319065e+07
-2.380000e+00	-2.310000e+00	2.955450e+08	2.444689e+07	2.444689e+07
-2.310000e+00	-2.240000e+00	3.354891e+08	2.474720e+07	2.474720e+07
-2.240000e+00	-2.170000e+00	3.832051e+08	1.979070e+07	1.979070e+07
-2.170000e+00	-2.100000e+00	4.252277e+08	1.951199e+07	1.951199e+07
-2.100000e+00	-2.030000e+00	4.561944e+08	2.797056e+07	2.797056e+07
-2.030000e+00	-1.960000e+00	5.140706e+08	2.233839e+07	2.233839e+07
-1.960000e+00	-1.890000e+00	5.887801e+08	2.085250e+07	2.085250e+07
-1.890000e+00	-1.820000e+00	5.689159e+08	4.882829e+07	4.882829e+07
-1.820000e+00	-1.750000e+00	6.805591e+08	2.195553e+07	2.195553e+07
-1.750000e+00	-1.680000e+00	7.013331e+08	2.468878e+07	2.468878e+07
-1.680000e+00	-1.610000e+00	6.913384e+08	2.887522e+07	2.887522e+07
-1.610000e+00	-1.540000e+00	6.650934e+08	2.777101e+07	2.777101e+07
-1.540000e+00	-1.470000e+00	6.453414e+08	2.325871e+07	2.325871e+07
-1.470000e+00	-1.400000e+00	6.201960e+08	3.635775e+07	3.635775e+07
-1.400000e+00	-1.330000e+00	6.557281e+08	2.511140e+07	2.511140e+07
-1.330000e+00	-1.260000e+00	6.308204e+08	2.123826e+07	2.123826e+07
-1.260000e+00	-1.190000e+00	6.112950e+08	3.082329e+07	3.082329e+07
-1.190000e+00	-1.120000e+00	5.718337e+08	2.255984e+07	2.255984e+07
-1.120000e+00	-1.050000e+00	4.784080e+08	3.113224e+07	3.113224e+07
-1.050000e+00	-9.800000e-01	4.626051e+08	1.932095e+07	1.932095e+07
-9.800000e-01	-9.100000e-01	4.143317e+08	3.315234e+07	3.315234e+07
-9.100000e-01	-8.400000e-01	3.644590e+08	2.168152e+07	2.168152e+07
-8.400000e-01	-7.700000e-01	3.194533e+08	1.828490e+07	1.828490e+07
-7.700000e-01	-7.000000e-01	2.369260e+08	1.202864e+07	1.202864e+07
-7.000000e-01	-6.300000e-01	1.966469e+08	9.348833e+06	9.348833e+06
-6.300000e-01	-5.600000e-01	1.046946e+08	1.427237e+07	1.427237e+07
-5.600000e-01	-4.900000e-01	2.509821e+07	2.916665e+06	2.916665e+06
-4.900000e-01	-4.200000e-01	5.697599e+06	1.423123e+06	1.423123e+06
-4.200000e-01	-3.500000e-01	1.446856e+06	1.029885e+06	1.029885e+06
-3.500000e-01	-2.800000e-01	2.709450e+04	2.851737e+04	2.851737e+04
-2.800000e-01	-2.100000e-01	0.000000e+00	0.000000e+00	0.000000e+00
-2.100000e-01	-1.400000e-01	0.000000e+00	0.000000e+00	0.000000e+00
-1.400000e-01	-7.000000e-02	0.000000e+00	0.000000e+00	0.000000e+00
-7.000000e-02	0.000000e+00	0.000000e+00	0.000000e+00	0.000000e+00
# END HISTO1D

