# BEGIN PLOT
LegendOnly=/zj_ps_nlo_mer_mur2_muf2_R4.yoda/PAPER_FIN_R4/ch_SD_l20_pT_186_254
DrawOnly=/zj_ps_nlo_mer_mur2_muf2_R4.yoda/PAPER_FIN_R4/ch_SD_l20_pT_186_254
Legend=1
LogY=1
# END PLOT

# BEGIN HISTO1D /zj_ps_nlo_mer_mur2_muf2_R4.yoda/PAPER_FIN_R4/ch_SD_l20_pT_186_254
LineColor=red
LineStyle=solid
Path=/zj_ps_nlo_mer_mur2_muf2_R4.yoda/PAPER_FIN_R4/ch_SD_l20_pT_186_254
Title=zj_ps_nlo_mer_mur2_muf2_R4
XLabel=~
YLabel=~
# xlow	 xhigh	 val	 errminus	 errplus
-7.000000e+00	-6.930000e+00	7.996104e+01	7.724500e+01	7.724500e+01
-6.930000e+00	-6.860000e+00	3.275347e+10	7.835064e+08	7.835064e+08
-6.860000e+00	-6.790000e+00	9.503710e+03	6.431423e+03	6.431423e+03
-6.790000e+00	-6.720000e+00	5.467796e+02	5.249822e+02	5.249822e+02
-6.720000e+00	-6.650000e+00	-7.652494e+05	7.661401e+05	7.661401e+05
-6.650000e+00	-6.580000e+00	-3.302653e+03	5.474673e+03	5.474673e+03
-6.580000e+00	-6.510000e+00	5.303739e+03	3.272427e+03	3.272427e+03
-6.510000e+00	-6.440000e+00	1.701161e+06	1.269514e+06	1.269514e+06
-6.440000e+00	-6.370000e+00	-7.293264e+04	1.934754e+05	1.934754e+05
-6.370000e+00	-6.300000e+00	-9.056574e+04	3.527082e+05	3.527082e+05
-6.300000e+00	-6.230000e+00	1.773573e+05	1.717763e+05	1.717763e+05
-6.230000e+00	-6.160000e+00	7.799010e+05	7.603744e+05	7.603744e+05
-6.160000e+00	-6.090000e+00	8.255829e+05	5.855831e+05	5.855831e+05
-6.090000e+00	-6.020000e+00	1.839117e+06	1.530559e+06	1.530559e+06
-6.020000e+00	-5.950000e+00	-4.786321e+04	4.071291e+04	4.071291e+04
-5.950000e+00	-5.880000e+00	-2.155430e+05	2.134883e+05	2.134883e+05
-5.880000e+00	-5.810000e+00	3.555296e+04	2.737351e+04	2.737351e+04
-5.810000e+00	-5.740000e+00	-8.076540e+05	8.145421e+05	8.145421e+05
-5.740000e+00	-5.670000e+00	5.665760e+05	4.526696e+05	4.526696e+05
-5.670000e+00	-5.600000e+00	1.338018e+05	1.535927e+05	1.535927e+05
-5.600000e+00	-5.530000e+00	1.556453e+05	1.873763e+05	1.873763e+05
-5.530000e+00	-5.460000e+00	2.743310e+05	2.245378e+05	2.245378e+05
-5.460000e+00	-5.390000e+00	-4.857177e+05	1.800201e+06	1.800201e+06
-5.390000e+00	-5.320000e+00	3.460857e+05	1.757307e+05	1.757307e+05
-5.320000e+00	-5.250000e+00	2.411271e+05	5.457777e+05	5.457777e+05
-5.250000e+00	-5.180000e+00	1.183860e+05	1.560738e+05	1.560738e+05
-5.180000e+00	-5.110000e+00	1.127629e+06	6.247599e+05	6.247599e+05
-5.110000e+00	-5.040000e+00	1.184534e+05	4.675230e+05	4.675230e+05
-5.040000e+00	-4.970000e+00	1.886140e+06	1.071808e+06	1.071808e+06
-4.970000e+00	-4.900000e+00	2.860959e+05	1.445894e+06	1.445894e+06
-4.900000e+00	-4.830000e+00	2.490693e+05	2.310144e+05	2.310144e+05
-4.830000e+00	-4.760000e+00	5.380080e+04	5.827342e+05	5.827342e+05
-4.760000e+00	-4.690000e+00	1.541841e+06	1.014722e+06	1.014722e+06
-4.690000e+00	-4.620000e+00	2.112587e+05	5.456963e+05	5.456963e+05
-4.620000e+00	-4.550000e+00	1.068072e+06	1.135774e+06	1.135774e+06
-4.550000e+00	-4.480000e+00	1.625763e+06	1.347562e+06	1.347562e+06
-4.480000e+00	-4.410000e+00	2.975076e+06	9.055944e+05	9.055944e+05
-4.410000e+00	-4.340000e+00	1.528301e+06	1.800749e+06	1.800749e+06
-4.340000e+00	-4.270000e+00	2.802234e+06	6.946555e+05	6.946555e+05
-4.270000e+00	-4.200000e+00	3.892371e+06	1.245804e+06	1.245804e+06
-4.200000e+00	-4.130000e+00	1.321796e+06	1.101568e+06	1.101568e+06
-4.130000e+00	-4.060000e+00	3.941491e+05	2.699181e+06	2.699181e+06
-4.060000e+00	-3.990000e+00	5.623716e+06	1.155837e+06	1.155837e+06
-3.990000e+00	-3.920000e+00	5.213841e+06	2.287470e+06	2.287470e+06
-3.920000e+00	-3.850000e+00	9.308960e+06	1.967795e+06	1.967795e+06
-3.850000e+00	-3.780000e+00	1.249814e+07	3.446150e+06	3.446150e+06
-3.780000e+00	-3.710000e+00	1.827570e+07	2.256653e+06	2.256653e+06
-3.710000e+00	-3.640000e+00	2.473601e+07	3.222694e+06	3.222694e+06
-3.640000e+00	-3.570000e+00	3.300477e+07	4.752067e+06	4.752067e+06
-3.570000e+00	-3.500000e+00	4.278471e+07	3.883181e+06	3.883181e+06
-3.500000e+00	-3.430000e+00	4.806809e+07	4.530281e+06	4.530281e+06
-3.430000e+00	-3.360000e+00	6.144681e+07	5.079420e+06	5.079420e+06
-3.360000e+00	-3.290000e+00	4.540200e+07	2.184476e+07	2.184476e+07
-3.290000e+00	-3.220000e+00	5.995660e+07	9.411069e+06	9.411069e+06
-3.220000e+00	-3.150000e+00	8.007230e+07	7.281632e+06	7.281632e+06
-3.150000e+00	-3.080000e+00	1.045294e+08	7.333193e+06	7.333193e+06
-3.080000e+00	-3.010000e+00	9.405364e+07	1.202138e+07	1.202138e+07
-3.010000e+00	-2.940000e+00	1.069471e+08	9.145163e+06	9.145163e+06
-2.940000e+00	-2.870000e+00	1.343153e+08	1.328318e+07	1.328318e+07
-2.870000e+00	-2.800000e+00	1.354966e+08	1.216135e+07	1.216135e+07
-2.800000e+00	-2.730000e+00	1.383327e+08	1.175849e+07	1.175849e+07
-2.730000e+00	-2.660000e+00	1.402320e+08	1.167178e+07	1.167178e+07
-2.660000e+00	-2.590000e+00	1.698531e+08	1.160836e+07	1.160836e+07
-2.590000e+00	-2.520000e+00	1.661176e+08	1.617010e+07	1.617010e+07
-2.520000e+00	-2.450000e+00	1.824199e+08	1.237253e+07	1.237253e+07
-2.450000e+00	-2.380000e+00	1.947427e+08	1.520244e+07	1.520244e+07
-2.380000e+00	-2.310000e+00	2.162211e+08	1.126288e+07	1.126288e+07
-2.310000e+00	-2.240000e+00	2.132150e+08	2.102001e+07	2.102001e+07
-2.240000e+00	-2.170000e+00	2.019701e+08	2.471428e+07	2.471428e+07
-2.170000e+00	-2.100000e+00	2.039940e+08	3.235156e+07	3.235156e+07
-2.100000e+00	-2.030000e+00	2.376754e+08	1.321661e+07	1.321661e+07
-2.030000e+00	-1.960000e+00	2.437091e+08	2.294052e+07	2.294052e+07
-1.960000e+00	-1.890000e+00	2.536574e+08	1.456473e+07	1.456473e+07
-1.890000e+00	-1.820000e+00	2.364229e+08	4.902461e+07	4.902461e+07
-1.820000e+00	-1.750000e+00	2.682644e+08	1.600914e+07	1.600914e+07
-1.750000e+00	-1.680000e+00	2.378166e+08	3.862474e+07	3.862474e+07
-1.680000e+00	-1.610000e+00	2.521924e+08	2.405661e+07	2.405661e+07
-1.610000e+00	-1.540000e+00	3.013590e+08	2.138558e+07	2.138558e+07
-1.540000e+00	-1.470000e+00	2.981623e+08	2.183558e+07	2.183558e+07
-1.470000e+00	-1.400000e+00	3.157896e+08	2.785229e+07	2.785229e+07
-1.400000e+00	-1.330000e+00	2.826420e+08	8.793048e+07	8.793048e+07
-1.330000e+00	-1.260000e+00	3.093656e+08	1.906864e+07	1.906864e+07
-1.260000e+00	-1.190000e+00	3.504651e+08	1.509478e+07	1.509478e+07
-1.190000e+00	-1.120000e+00	3.504650e+08	2.627214e+07	2.627214e+07
-1.120000e+00	-1.050000e+00	3.280849e+08	1.910310e+07	1.910310e+07
-1.050000e+00	-9.800000e-01	3.447139e+08	1.786888e+07	1.786888e+07
-9.800000e-01	-9.100000e-01	3.252461e+08	2.228776e+07	2.228776e+07
-9.100000e-01	-8.400000e-01	3.131424e+08	1.580170e+07	1.580170e+07
-8.400000e-01	-7.700000e-01	2.143426e+08	2.764543e+07	2.764543e+07
-7.700000e-01	-7.000000e-01	1.797343e+08	1.453419e+07	1.453419e+07
-7.000000e-01	-6.300000e-01	1.273158e+08	1.130984e+07	1.130984e+07
-6.300000e-01	-5.600000e-01	5.307841e+07	6.760641e+06	6.760641e+06
-5.600000e-01	-4.900000e-01	5.980867e+06	1.503621e+06	1.503621e+06
-4.900000e-01	-4.200000e-01	3.716211e+05	1.492293e+05	1.492293e+05
-4.200000e-01	-3.500000e-01	1.191722e+04	8.368500e+03	8.368500e+03
-3.500000e-01	-2.800000e-01	0.000000e+00	0.000000e+00	0.000000e+00
-2.800000e-01	-2.100000e-01	0.000000e+00	0.000000e+00	0.000000e+00
-2.100000e-01	-1.400000e-01	0.000000e+00	0.000000e+00	0.000000e+00
-1.400000e-01	-7.000000e-02	0.000000e+00	0.000000e+00	0.000000e+00
-7.000000e-02	0.000000e+00	0.000000e+00	0.000000e+00	0.000000e+00
# END HISTO1D

