# BEGIN PLOT
LegendOnly=/zj_ps_nlo_mer_mur2_muf2_R4.yoda/PAPER_FIN_R4/l05_pT_88_120
DrawOnly=/zj_ps_nlo_mer_mur2_muf2_R4.yoda/PAPER_FIN_R4/l05_pT_88_120
Legend=1
LogY=1
# END PLOT

# BEGIN HISTO1D /zj_ps_nlo_mer_mur2_muf2_R4.yoda/PAPER_FIN_R4/l05_pT_88_120
LineColor=red
LineStyle=solid
Path=/zj_ps_nlo_mer_mur2_muf2_R4.yoda/PAPER_FIN_R4/l05_pT_88_120
Title=zj_ps_nlo_mer_mur2_muf2_R4
XLabel=~
YLabel=~
# xlow	 xhigh	 val	 errminus	 errplus
-7.000000e+00	-6.930000e+00	0.000000e+00	0.000000e+00	0.000000e+00
-6.930000e+00	-6.860000e+00	4.472686e+10	7.939343e+08	7.939343e+08
-6.860000e+00	-6.790000e+00	0.000000e+00	0.000000e+00	0.000000e+00
-6.790000e+00	-6.720000e+00	0.000000e+00	0.000000e+00	0.000000e+00
-6.720000e+00	-6.650000e+00	0.000000e+00	0.000000e+00	0.000000e+00
-6.650000e+00	-6.580000e+00	0.000000e+00	0.000000e+00	0.000000e+00
-6.580000e+00	-6.510000e+00	9.324644e-01	9.324644e-01	9.324644e-01
-6.510000e+00	-6.440000e+00	0.000000e+00	0.000000e+00	0.000000e+00
-6.440000e+00	-6.370000e+00	0.000000e+00	0.000000e+00	0.000000e+00
-6.370000e+00	-6.300000e+00	5.279244e+05	5.279763e+05	5.279763e+05
-6.300000e+00	-6.230000e+00	2.132367e-02	5.592406e-02	5.592406e-02
-6.230000e+00	-6.160000e+00	-4.381240e+06	4.381239e+06	4.381239e+06
-6.160000e+00	-6.090000e+00	8.133709e+04	8.133724e+04	8.133724e+04
-6.090000e+00	-6.020000e+00	-9.128099e+01	8.492020e+01	8.492020e+01
-6.020000e+00	-5.950000e+00	2.918939e+04	3.350358e+04	3.350358e+04
-5.950000e+00	-5.880000e+00	3.091510e+04	1.826466e+04	1.826466e+04
-5.880000e+00	-5.810000e+00	5.274264e+04	5.278735e+04	5.278735e+04
-5.810000e+00	-5.740000e+00	2.013710e+01	1.458510e+01	1.458510e+01
-5.740000e+00	-5.670000e+00	1.203777e+05	9.392624e+04	9.392624e+04
-5.670000e+00	-5.600000e+00	-3.092997e+04	3.921692e+04	3.921692e+04
-5.600000e+00	-5.530000e+00	-7.565703e+04	4.096950e+05	4.096950e+05
-5.530000e+00	-5.460000e+00	-5.471159e+04	1.027221e+05	1.027221e+05
-5.460000e+00	-5.390000e+00	4.598039e+05	2.190509e+05	2.190509e+05
-5.390000e+00	-5.320000e+00	-4.618867e+05	1.166858e+06	1.166858e+06
-5.320000e+00	-5.250000e+00	2.157669e+06	1.137165e+06	1.137165e+06
-5.250000e+00	-5.180000e+00	3.190246e+05	2.951549e+05	2.951549e+05
-5.180000e+00	-5.110000e+00	3.417599e+06	2.648642e+06	2.648642e+06
-5.110000e+00	-5.040000e+00	2.531550e+05	1.627706e+05	1.627706e+05
-5.040000e+00	-4.970000e+00	-3.954460e+05	9.588684e+05	9.588684e+05
-4.970000e+00	-4.900000e+00	1.759944e+06	1.333642e+06	1.333642e+06
-4.900000e+00	-4.830000e+00	6.027481e+05	3.787317e+05	3.787317e+05
-4.830000e+00	-4.760000e+00	1.082509e+06	5.759700e+05	5.759700e+05
-4.760000e+00	-4.690000e+00	1.492556e+06	1.123803e+06	1.123803e+06
-4.690000e+00	-4.620000e+00	1.570581e+06	9.255593e+05	9.255593e+05
-4.620000e+00	-4.550000e+00	2.491173e+05	2.546055e+05	2.546055e+05
-4.550000e+00	-4.480000e+00	7.794850e+05	1.248609e+06	1.248609e+06
-4.480000e+00	-4.410000e+00	1.679310e+06	1.344620e+06	1.344620e+06
-4.410000e+00	-4.340000e+00	1.614237e+06	1.092671e+06	1.092671e+06
-4.340000e+00	-4.270000e+00	2.707900e+05	2.404426e+05	2.404426e+05
-4.270000e+00	-4.200000e+00	4.143839e+05	2.719423e+05	2.719423e+05
-4.200000e+00	-4.130000e+00	1.471449e+06	8.340117e+05	8.340117e+05
-4.130000e+00	-4.060000e+00	2.259607e+06	9.928299e+05	9.928299e+05
-4.060000e+00	-3.990000e+00	-1.004268e+05	2.000989e+06	2.000989e+06
-3.990000e+00	-3.920000e+00	2.936816e+06	2.317015e+06	2.317015e+06
-3.920000e+00	-3.850000e+00	9.501357e+06	5.747507e+06	5.747507e+06
-3.850000e+00	-3.780000e+00	4.731840e+06	3.113206e+06	3.113206e+06
-3.780000e+00	-3.710000e+00	6.626890e+06	2.740806e+06	2.740806e+06
-3.710000e+00	-3.640000e+00	1.144318e+07	4.830272e+06	4.830272e+06
-3.640000e+00	-3.570000e+00	9.772201e+06	7.079133e+06	7.079133e+06
-3.570000e+00	-3.500000e+00	2.112947e+07	5.599431e+06	5.599431e+06
-3.500000e+00	-3.430000e+00	6.801566e+06	9.801954e+06	9.801954e+06
-3.430000e+00	-3.360000e+00	2.825750e+06	1.627955e+07	1.627955e+07
-3.360000e+00	-3.290000e+00	-7.518911e+06	2.069924e+07	2.069924e+07
-3.290000e+00	-3.220000e+00	2.450837e+05	3.149983e+06	3.149983e+06
-3.220000e+00	-3.150000e+00	3.499376e+06	2.443558e+06	2.443558e+06
-3.150000e+00	-3.080000e+00	1.222616e+06	2.653797e+06	2.653797e+06
-3.080000e+00	-3.010000e+00	8.788021e+06	3.319363e+06	3.319363e+06
-3.010000e+00	-2.940000e+00	8.402116e+06	3.719872e+06	3.719872e+06
-2.940000e+00	-2.870000e+00	1.156866e+07	5.213763e+06	5.213763e+06
-2.870000e+00	-2.800000e+00	1.158704e+07	6.591290e+06	6.591290e+06
-2.800000e+00	-2.730000e+00	2.591459e+07	1.404372e+07	1.404372e+07
-2.730000e+00	-2.660000e+00	5.973254e+07	1.128670e+07	1.128670e+07
-2.660000e+00	-2.590000e+00	4.321686e+07	1.313340e+07	1.313340e+07
-2.590000e+00	-2.520000e+00	5.248927e+07	9.711505e+06	9.711505e+06
-2.520000e+00	-2.450000e+00	6.652319e+07	1.519997e+07	1.519997e+07
-2.450000e+00	-2.380000e+00	9.929749e+07	1.255626e+07	1.255626e+07
-2.380000e+00	-2.310000e+00	1.379245e+08	2.056963e+07	2.056963e+07
-2.310000e+00	-2.240000e+00	1.183124e+08	3.576666e+07	3.576666e+07
-2.240000e+00	-2.170000e+00	1.714269e+08	2.958869e+07	2.958869e+07
-2.170000e+00	-2.100000e+00	2.904791e+08	2.806852e+07	2.806852e+07
-2.100000e+00	-2.030000e+00	3.389479e+08	3.924729e+07	3.924729e+07
-2.030000e+00	-1.960000e+00	4.170381e+08	3.629910e+07	3.629910e+07
-1.960000e+00	-1.890000e+00	4.665080e+08	5.231038e+07	5.231038e+07
-1.890000e+00	-1.820000e+00	5.498466e+08	6.595950e+07	6.595950e+07
-1.820000e+00	-1.750000e+00	7.498351e+08	1.047583e+08	1.047583e+08
-1.750000e+00	-1.680000e+00	8.063846e+08	5.612659e+07	5.612659e+07
-1.680000e+00	-1.610000e+00	1.141503e+09	1.224822e+08	1.224822e+08
-1.610000e+00	-1.540000e+00	1.349633e+09	9.570057e+07	9.570057e+07
-1.540000e+00	-1.470000e+00	1.774151e+09	2.832167e+08	2.832167e+08
-1.470000e+00	-1.400000e+00	2.552837e+09	2.198605e+08	2.198605e+08
-1.400000e+00	-1.330000e+00	4.122714e+09	1.399784e+08	1.399784e+08
-1.330000e+00	-1.260000e+00	5.052694e+09	2.324569e+08	2.324569e+08
-1.260000e+00	-1.190000e+00	6.109199e+09	2.805253e+08	2.805253e+08
-1.190000e+00	-1.120000e+00	7.146366e+09	3.245248e+08	3.245248e+08
-1.120000e+00	-1.050000e+00	8.234437e+09	2.658344e+08	2.658344e+08
-1.050000e+00	-9.800000e-01	1.009783e+10	2.177131e+08	2.177131e+08
-9.800000e-01	-9.100000e-01	1.092704e+10	5.096569e+08	5.096569e+08
-9.100000e-01	-8.400000e-01	1.299375e+10	2.622053e+08	2.622053e+08
-8.400000e-01	-7.700000e-01	1.349614e+10	3.315289e+08	3.315289e+08
-7.700000e-01	-7.000000e-01	1.509913e+10	2.451233e+08	2.451233e+08
-7.000000e-01	-6.300000e-01	1.522214e+10	2.646182e+08	2.646182e+08
-6.300000e-01	-5.600000e-01	1.526666e+10	3.640361e+08	3.640361e+08
-5.600000e-01	-4.900000e-01	1.311852e+10	3.215995e+08	3.215995e+08
-4.900000e-01	-4.200000e-01	1.136234e+10	2.725779e+08	2.725779e+08
-4.200000e-01	-3.500000e-01	8.317251e+09	2.142944e+08	2.142944e+08
-3.500000e-01	-2.800000e-01	4.980194e+09	2.513043e+08	2.513043e+08
-2.800000e-01	-2.100000e-01	2.189804e+09	7.285993e+07	7.285993e+07
-2.100000e-01	-1.400000e-01	3.705766e+08	2.835710e+07	2.835710e+07
-1.400000e-01	-7.000000e-02	1.293324e+07	3.112753e+06	3.112753e+06
-7.000000e-02	0.000000e+00	-1.873767e+04	1.877793e+04	1.877793e+04
# END HISTO1D

