# BEGIN PLOT
LegendOnly=/zj_ps_nlo_mer_mur2_muf2_R4.yoda/PAPER_FIN_R4_CH/lin_l05_pT_186_254
DrawOnly=/zj_ps_nlo_mer_mur2_muf2_R4.yoda/PAPER_FIN_R4_CH/lin_l05_pT_186_254
Legend=1
LogY=1
# END PLOT

# BEGIN HISTO1D /zj_ps_nlo_mer_mur2_muf2_R4.yoda/PAPER_FIN_R4_CH/lin_l05_pT_186_254
LineColor=red
LineStyle=solid
Path=/zj_ps_nlo_mer_mur2_muf2_R4.yoda/PAPER_FIN_R4_CH/lin_l05_pT_186_254
Title=zj_ps_nlo_mer_mur2_muf2_R4
XLabel=~
YLabel=~
# xlow	 xhigh	 val	 errminus	 errplus
0.000000e+00	6.000000e-02	1.446051e+10	2.119210e+08	2.119210e+08
6.000000e-02	1.100000e-01	1.076832e+10	1.656950e+08	1.656950e+08
1.100000e-01	1.500000e-01	1.090561e+10	1.294386e+09	1.294386e+09
1.500000e-01	1.900000e-01	8.248700e+09	1.754129e+08	1.754129e+08
1.900000e-01	2.300000e-01	6.588077e+09	1.648682e+08	1.648682e+08
2.300000e-01	2.700000e-01	5.343130e+09	1.214537e+08	1.214537e+08
2.700000e-01	3.100000e-01	4.113960e+09	1.094895e+08	1.094895e+08
3.100000e-01	3.500000e-01	2.862600e+09	2.038396e+08	2.038396e+08
3.500000e-01	3.900000e-01	2.493768e+09	6.986508e+07	6.986508e+07
3.900000e-01	4.400000e-01	1.609401e+09	7.595407e+07	7.595407e+07
4.400000e-01	4.900000e-01	1.154097e+09	5.024518e+07	5.024518e+07
4.900000e-01	5.400000e-01	6.342804e+08	3.977856e+07	3.977856e+07
5.400000e-01	6.000000e-01	3.369458e+08	3.212042e+07	3.212042e+07
6.000000e-01	1.000000e+00	2.152936e+07	2.304880e+06	2.304880e+06
# END HISTO1D

