# BEGIN PLOT
LegendOnly=/Resum_mult_NLO.yoda/CMS_2018_PAS_SMP_18_QGX_ZPJ/d11-x14-y09
DrawOnly=/Resum_mult_NLO.yoda/CMS_2018_PAS_SMP_18_QGX_ZPJ/d11-x14-y09
Legend=1
LogY=1
# END PLOT

# BEGIN HISTO1D /Resum_mult_NLO.yoda/CMS_2018_PAS_SMP_18_QGX_ZPJ/d11-x14-y09
LineColor=red
LineStyle=solid
Path=/Resum_mult_NLO.yoda/CMS_2018_PAS_SMP_18_QGX_ZPJ/d11-x14-y09
Title=Resum_mult_NLO
# xlow	 xhigh	 val	 errminus	 errplus
-7.000000e+00	-6.930000e+00	0.000000e+00	0.000000e+00	0.000000e+00
-6.929999e+00	-6.860001e+00	0.000000e+00	0.000000e+00	0.000000e+00
-6.860002e+00	-6.790000e+00	0.000000e+00	0.000000e+00	0.000000e+00
-6.790000e+00	-6.720000e+00	0.000000e+00	0.000000e+00	0.000000e+00
-6.720000e+00	-6.650000e+00	0.000000e+00	0.000000e+00	0.000000e+00
-6.650000e+00	-6.580000e+00	0.000000e+00	0.000000e+00	0.000000e+00
-6.580000e+00	-6.510000e+00	0.000000e+00	0.000000e+00	0.000000e+00
-6.510000e+00	-6.440000e+00	0.000000e+00	0.000000e+00	0.000000e+00
-6.440000e+00	-6.370000e+00	0.000000e+00	0.000000e+00	0.000000e+00
-6.370000e+00	-6.300000e+00	0.000000e+00	0.000000e+00	0.000000e+00
-6.300000e+00	-6.230000e+00	0.000000e+00	0.000000e+00	0.000000e+00
-6.230000e+00	-6.160000e+00	0.000000e+00	0.000000e+00	0.000000e+00
-6.160000e+00	-6.090000e+00	0.000000e+00	0.000000e+00	0.000000e+00
-6.090000e+00	-6.020000e+00	0.000000e+00	0.000000e+00	0.000000e+00
-6.020000e+00	-5.950000e+00	0.000000e+00	0.000000e+00	0.000000e+00
-5.949999e+00	-5.879999e+00	0.000000e+00	0.000000e+00	0.000000e+00
-5.879999e+00	-5.809999e+00	0.000000e+00	0.000000e+00	0.000000e+00
-5.809999e+00	-5.740001e+00	0.000000e+00	0.000000e+00	0.000000e+00
-5.740000e+00	-5.670000e+00	0.000000e+00	0.000000e+00	0.000000e+00
-5.670001e+00	-5.599999e+00	0.000000e+00	0.000000e+00	0.000000e+00
-5.600000e+00	-5.530000e+00	0.000000e+00	0.000000e+00	0.000000e+00
-5.530000e+00	-5.460000e+00	0.000000e+00	0.000000e+00	0.000000e+00
-5.460000e+00	-5.390000e+00	0.000000e+00	0.000000e+00	0.000000e+00
-5.390000e+00	-5.320000e+00	0.000000e+00	0.000000e+00	0.000000e+00
-5.320000e+00	-5.250000e+00	0.000000e+00	0.000000e+00	0.000000e+00
-5.250000e+00	-5.180000e+00	0.000000e+00	0.000000e+00	0.000000e+00
-5.180000e+00	-5.110000e+00	0.000000e+00	0.000000e+00	0.000000e+00
-5.110000e+00	-5.040000e+00	0.000000e+00	0.000000e+00	0.000000e+00
-5.040000e+00	-4.970000e+00	0.000000e+00	0.000000e+00	0.000000e+00
-4.970000e+00	-4.899998e+00	0.000000e+00	0.000000e+00	0.000000e+00
-4.899998e+00	-4.830000e+00	0.000000e+00	0.000000e+00	0.000000e+00
-4.830000e+00	-4.760000e+00	0.000000e+00	0.000000e+00	0.000000e+00
-4.760000e+00	-4.690000e+00	0.000000e+00	0.000000e+00	0.000000e+00
-4.690000e+00	-4.620000e+00	0.000000e+00	0.000000e+00	0.000000e+00
-4.620000e+00	-4.550000e+00	0.000000e+00	0.000000e+00	1.709264e-260
-4.550000e+00	-4.480000e+00	0.000000e+00	0.000000e+00	5.476226e-87
-4.480000e+00	-4.410000e+00	0.000000e+00	0.000000e+00	2.310824e-50
-4.410000e+00	-4.340000e+00	0.000000e+00	0.000000e+00	4.881757e-35
-4.340000e+00	-4.270000e+00	0.000000e+00	0.000000e+00	6.877607e-27
-4.270000e+00	-4.200000e+00	6.435859e-104	6.435859e-104	7.926246e-22
-4.200000e+00	-4.130000e+00	2.915366e-52	2.915366e-52	2.306535e-18
-4.130000e+00	-4.060000e+00	1.040812e-34	1.040812e-34	7.821399e-16
-4.060000e+00	-3.990002e+00	5.139120e-26	5.139120e-26	6.142895e-14
-3.990001e+00	-3.920001e+00	7.770041e-21	7.770041e-21	1.953503e-12
-3.920001e+00	-3.849999e+00	2.113578e-17	2.113578e-17	3.253329e-11
-3.849999e+00	-3.779999e+00	6.291420e-15	6.291420e-15	3.636004e-10
-3.779999e+00	-3.710001e+00	4.381196e-13	4.381196e-13	2.702182e-09
-3.710001e+00	-3.639999e+00	1.163533e-11	1.163533e-11	1.486552e-08
-3.639999e+00	-3.570001e+00	1.732381e-10	1.732379e-10	7.307677e-08
-3.570001e+00	-3.499999e+00	1.748969e-09	1.748907e-09	3.325837e-07
-3.500000e+00	-3.430000e+00	1.144395e-08	1.144043e-08	1.161611e-06
-3.430000e+00	-3.360000e+00	6.839712e-08	6.830666e-08	4.486002e-06
-3.360000e+00	-3.290000e+00	3.230337e-07	3.218264e-07	1.426794e-05
-3.290000e+00	-3.220000e+00	1.319650e-06	1.309303e-06	4.027801e-05
-3.220000e+00	-3.150000e+00	4.972657e-06	4.905903e-06	1.048287e-04
-3.150000e+00	-3.080000e+00	1.823472e-05	1.786594e-05	2.651214e-04
-3.080000e+00	-3.010000e+00	5.457095e-05	5.297083e-05	5.199440e-04
-3.010000e+00	-2.940002e+00	1.560689e-04	1.495904e-04	1.019974e-03
-2.940001e+00	-2.870001e+00	3.613990e-04	3.394164e-04	1.577249e-03
-2.870001e+00	-2.800001e+00	6.122191e-04	5.548056e-04	1.630437e-03
-2.800001e+00	-2.729999e+00	1.399218e-03	1.219578e-03	3.195489e-03
-2.729999e+00	-2.660000e+00	2.525080e-03	2.067934e-03	4.274356e-03
-2.660001e+00	-2.589999e+00	3.919313e-03	2.946437e-03	4.783592e-03
-2.590000e+00	-2.520000e+00	6.313469e-03	4.327849e-03	6.189004e-03
-2.520000e+00	-2.450000e+00	9.173906e-03	5.607018e-03	6.968919e-03
-2.450000e+00	-2.380000e+00	1.273990e-02	6.848434e-03	7.598602e-03
-2.380000e+00	-2.310000e+00	1.913169e-02	9.198003e-03	1.010774e-02
-2.310000e+00	-2.240000e+00	1.884642e-02	7.041715e-03	5.584000e-03
-2.240000e+00	-2.170000e+00	2.657991e-02	9.016662e-03	7.966067e-03
-2.170000e+00	-2.100000e+00	3.256233e-02	9.354714e-03	8.003158e-03
-2.100000e+00	-2.030000e+00	3.549758e-02	8.070027e-03	6.092357e-03
-2.030000e+00	-1.960000e+00	4.208987e-02	8.191975e-03	6.449522e-03
-1.960000e+00	-1.890000e+00	4.715219e-02	7.309468e-03	5.065830e-03
-1.890000e+00	-1.820000e+00	4.683664e-02	5.111372e-03	2.683171e-03
-1.820000e+00	-1.750000e+00	7.081247e-02	9.007578e-03	7.411633e-03
-1.750000e+00	-1.680000e+00	7.081011e-02	6.628426e-03	6.630903e-03
-1.680000e+00	-1.610000e+00	6.485162e-02	5.826080e-03	5.760246e-03
-1.610000e+00	-1.540000e+00	7.421474e-02	7.826842e-03	8.320686e-03
-1.540000e+00	-1.470000e+00	8.090055e-02	9.471153e-03	1.053521e-02
-1.470000e+00	-1.400000e+00	7.683628e-02	9.023461e-03	1.004105e-02
-1.400000e+00	-1.330000e+00	8.529742e-02	1.119523e-02	1.312472e-02
-1.330000e+00	-1.260000e+00	8.502262e-02	1.157884e-02	1.375332e-02
-1.260000e+00	-1.190000e+00	8.978906e-02	1.312462e-02	1.609980e-02
-1.190000e+00	-1.120000e+00	7.962142e-02	1.114833e-02	1.342815e-02
-1.120000e+00	-1.050000e+00	8.376521e-02	1.266693e-02	1.575456e-02
-1.050000e+00	-9.799997e-01	7.573189e-02	1.121602e-02	1.381112e-02
-9.799994e-01	-9.099996e-01	7.442790e-02	1.144762e-02	1.435071e-02
-9.099995e-01	-8.399999e-01	7.025087e-02	1.099293e-02	1.394645e-02
-8.399999e-01	-7.700009e-01	6.403517e-02	1.003790e-02	1.264802e-02
-7.700009e-01	-7.000005e-01	5.841826e-02	9.295249e-03	1.187881e-02
-7.000005e-01	-6.299997e-01	5.102665e-02	8.106617e-03	1.031192e-02
-6.299998e-01	-5.599998e-01	4.488875e-02	7.289248e-03	9.428430e-03
-5.599998e-01	-4.899996e-01	3.544999e-02	6.280689e-03	8.813573e-03
-4.899995e-01	-4.200005e-01	2.708878e-02	5.199974e-03	7.867092e-03
-4.200004e-01	-3.499996e-01	1.816410e-02	3.996429e-03	6.590123e-03
-3.499996e-01	-2.800004e-01	8.232708e-03	2.749231e-03	4.916312e-03
-2.800004e-01	-2.100000e-01	2.740990e-03	1.481376e-03	2.876208e-03
-2.100000e-01	-1.400000e-01	4.617123e-04	2.659141e-04	5.979945e-04
-1.400000e-01	-7.000002e-02	0.000000e+00	0.000000e+00	0.000000e+00
-7.000002e-02	0.000000e+00	0.000000e+00	0.000000e+00	0.000000e+00
# END HISTO1D

