# BEGIN PLOT
LegendOnly=/Resum_mult_NLO.yoda/CMS_2018_PAS_SMP_18_QGX_ZPJ/d11-x10-y09
DrawOnly=/Resum_mult_NLO.yoda/CMS_2018_PAS_SMP_18_QGX_ZPJ/d11-x10-y09
Legend=1
LogY=1
# END PLOT

# BEGIN HISTO1D /Resum_mult_NLO.yoda/CMS_2018_PAS_SMP_18_QGX_ZPJ/d11-x10-y09
LineColor=red
LineStyle=solid
Path=/Resum_mult_NLO.yoda/CMS_2018_PAS_SMP_18_QGX_ZPJ/d11-x10-y09
Title=Resum_mult_NLO
# xlow	 xhigh	 val	 errminus	 errplus
0.000000e+00	5.000000e-03	5.576955e+00	1.366496e+00	1.311812e+00
5.000000e-03	1.250000e-02	3.217092e+00	3.881274e-01	4.388413e-01
1.250000e-02	2.250000e-02	1.684538e+00	2.421859e-01	2.968684e-01
2.250000e-02	3.500000e-02	9.896826e-01	1.511145e-01	1.895211e-01
3.500000e-02	5.000000e-02	6.380926e-01	1.013193e-01	1.289062e-01
5.000000e-02	7.000000e-02	4.040831e-01	6.433316e-02	8.199172e-02
7.000000e-02	9.250000e-02	2.646997e-01	4.239731e-02	5.406335e-02
9.250000e-02	1.200000e-01	1.795378e-01	2.884217e-02	3.697726e-02
1.200000e-01	1.520000e-01	1.128022e-01	1.875060e-02	2.298208e-02
1.520000e-01	1.880000e-01	7.706759e-02	1.341567e-02	1.793143e-02
1.880000e-01	2.280000e-01	4.215488e-02	9.402476e-03	1.402820e-02
2.280000e-01	1.000000e+00	1.387781e-03	5.411640e-04	1.009323e-03
# END HISTO1D

