# BEGIN PLOT
LegendOnly=/Resum_mult_NLO.yoda/CMS_2018_PAS_SMP_18_QGX_ZPJ/d12-x10-y04
DrawOnly=/Resum_mult_NLO.yoda/CMS_2018_PAS_SMP_18_QGX_ZPJ/d12-x10-y04
Legend=1
LogY=1
# END PLOT

# BEGIN HISTO1D /Resum_mult_NLO.yoda/CMS_2018_PAS_SMP_18_QGX_ZPJ/d12-x10-y04
LineColor=red
LineStyle=solid
Path=/Resum_mult_NLO.yoda/CMS_2018_PAS_SMP_18_QGX_ZPJ/d12-x10-y04
Title=Resum_mult_NLO
# xlow	 xhigh	 val	 errminus	 errplus
0.000000e+00	2.500000e-03	4.329917e+02	7.608805e+01	7.347749e+01
2.500000e-03	5.000000e-03	8.945312e+01	8.583837e+00	9.780205e+00
5.000000e-03	7.500000e-03	5.404717e+01	5.176926e+00	5.723154e+00
7.500000e-03	1.250000e-02	3.597616e+01	3.518794e+00	3.851589e+00
1.250000e-02	2.000000e-02	2.216305e+01	2.060178e+00	2.133149e+00
2.000000e-02	3.250000e-02	1.557228e+01	1.613191e+00	1.821699e+00
3.250000e-02	5.000000e-02	1.051481e+01	1.103545e+00	1.198595e+00
5.000000e-02	7.750000e-02	6.682981e+00	6.327894e-01	6.276995e-01
7.750000e-02	1.150000e-01	6.450429e+00	1.041826e+00	1.191196e+00
1.150000e-01	1.600000e-01	3.357264e+00	6.127224e-01	8.291901e-01
1.600000e-01	2.100000e-01	1.765928e+00	3.671931e-01	5.650531e-01
2.100000e-01	1.000000e+00	6.637662e-02	2.020634e-02	3.935201e-02
# END HISTO1D

