# BEGIN PLOT
LegendOnly=/Resum_mult_NLO.yoda/CMS_2018_PAS_SMP_18_QGX_ZPJ/d12-x15-y08
DrawOnly=/Resum_mult_NLO.yoda/CMS_2018_PAS_SMP_18_QGX_ZPJ/d12-x15-y08
Legend=1
LogY=1
# END PLOT

# BEGIN HISTO1D /Resum_mult_NLO.yoda/CMS_2018_PAS_SMP_18_QGX_ZPJ/d12-x15-y08
LineColor=red
LineStyle=solid
Path=/Resum_mult_NLO.yoda/CMS_2018_PAS_SMP_18_QGX_ZPJ/d12-x15-y08
Title=Resum_mult_NLO
# xlow	 xhigh	 val	 errminus	 errplus
-7.000000e+00	-6.930000e+00	0.000000e+00	0.000000e+00	4.630779e-08
-6.929999e+00	-6.860001e+00	0.000000e+00	0.000000e+00	3.135490e-06
-6.860002e+00	-6.790000e+00	0.000000e+00	0.000000e+00	3.350588e-05
-6.790000e+00	-6.720000e+00	0.000000e+00	0.000000e+00	1.533588e-04
-6.720000e+00	-6.650000e+00	0.000000e+00	0.000000e+00	4.426353e-04
-6.650000e+00	-6.580000e+00	0.000000e+00	0.000000e+00	9.763896e-04
-6.580000e+00	-6.510000e+00	0.000000e+00	0.000000e+00	1.690369e-03
-6.510000e+00	-6.440000e+00	0.000000e+00	0.000000e+00	2.615157e-03
-6.440000e+00	-6.370000e+00	9.492490e-11	9.492490e-11	3.837076e-03
-6.370000e+00	-6.300000e+00	9.778604e-07	9.778604e-07	4.728155e-03
-6.300000e+00	-6.230000e+00	2.227135e-05	2.227135e-05	6.079918e-03
-6.230000e+00	-6.160000e+00	1.261750e-04	1.261750e-04	6.032519e-03
-6.160000e+00	-6.090000e+00	3.788899e-04	3.788899e-04	5.020288e-03
-6.090000e+00	-6.020000e+00	9.502333e-04	9.502333e-04	8.658027e-03
-6.020000e+00	-5.950000e+00	1.696986e-03	1.696986e-03	7.482895e-03
-5.949999e+00	-5.879999e+00	2.696649e-03	2.696649e-03	7.868245e-03
-5.879999e+00	-5.809999e+00	3.887287e-03	3.887287e-03	8.123601e-03
-5.809999e+00	-5.740001e+00	4.826241e-03	4.826227e-03	6.177621e-03
-5.740000e+00	-5.670000e+00	6.230616e-03	6.214321e-03	6.933119e-03
-5.670001e+00	-5.599999e+00	7.484853e-03	7.312672e-03	6.500349e-03
-5.600000e+00	-5.530000e+00	8.846057e-03	8.226566e-03	6.386859e-03
-5.530000e+00	-5.460000e+00	9.518116e-03	8.053855e-03	4.676989e-03
-5.460000e+00	-5.390000e+00	1.036272e-02	7.728318e-03	3.858303e-03
-5.390000e+00	-5.320000e+00	1.200489e-02	7.915669e-03	4.557066e-03
-5.320000e+00	-5.250000e+00	1.333050e-02	7.654511e-03	4.557824e-03
-5.250000e+00	-5.180000e+00	1.504315e-02	7.607824e-03	4.990756e-03
-5.180000e+00	-5.110000e+00	1.577466e-02	6.751697e-03	4.067074e-03
-5.110000e+00	-5.040000e+00	1.603411e-02	5.650671e-03	3.082333e-03
-5.040000e+00	-4.970000e+00	1.732085e-02	5.333053e-03	3.055871e-03
-4.970000e+00	-4.899998e+00	1.799786e-02	4.631162e-03	2.282388e-03
-4.899998e+00	-4.830000e+00	1.636116e-02	2.776619e-03	3.893980e-04
-4.830000e+00	-4.760000e+00	1.962060e-02	3.768431e-03	2.144072e-03
-4.760000e+00	-4.690000e+00	2.286284e-02	4.551633e-03	3.523927e-03
-4.690000e+00	-4.620000e+00	2.278249e-02	3.624519e-03	2.533864e-03
-4.620000e+00	-4.550000e+00	2.185082e-02	2.386641e-03	1.774270e-03
-4.550000e+00	-4.480000e+00	2.375271e-02	2.706463e-03	1.949755e-03
-4.480000e+00	-4.410000e+00	2.197300e-02	1.708157e-03	2.088156e-03
-4.410000e+00	-4.340000e+00	2.422065e-02	1.969209e-03	2.330889e-03
-4.340000e+00	-4.270000e+00	2.469139e-02	2.196844e-03	2.646510e-03
-4.270000e+00	-4.200000e+00	2.811966e-02	2.744927e-03	3.253317e-03
-4.200000e+00	-4.130000e+00	2.809033e-02	2.714659e-03	3.299777e-03
-4.130000e+00	-4.060000e+00	2.082023e-02	1.766997e-03	2.238155e-03
-4.060000e+00	-3.990002e+00	2.726653e-02	2.472651e-03	3.003769e-03
-3.990001e+00	-3.920001e+00	3.440147e-02	4.222930e-03	5.200618e-03
-3.920001e+00	-3.849999e+00	2.598092e-02	2.489177e-03	3.062863e-03
-3.849999e+00	-3.779999e+00	2.118110e-02	2.237168e-03	2.086112e-03
-3.779999e+00	-3.710001e+00	2.923325e-02	3.063904e-03	3.719798e-03
-3.710001e+00	-3.639999e+00	2.807980e-02	2.663639e-03	3.124903e-03
-3.639999e+00	-3.570001e+00	3.349449e-02	3.725675e-03	4.527217e-03
-3.570001e+00	-3.499999e+00	2.764335e-02	2.613730e-03	3.008438e-03
-3.500000e+00	-3.430000e+00	3.970735e-02	5.035327e-03	6.290327e-03
-3.430000e+00	-3.360000e+00	3.058076e-02	3.042202e-03	3.493994e-03
-3.360000e+00	-3.290000e+00	2.280665e-02	2.716260e-03	1.725387e-03
-3.290000e+00	-3.220000e+00	3.476716e-02	4.033625e-03	4.872750e-03
-3.220000e+00	-3.150000e+00	3.271135e-02	3.543762e-03	4.141403e-03
-3.150000e+00	-3.080000e+00	3.250198e-02	3.479859e-03	4.008254e-03
-3.080000e+00	-3.010000e+00	3.422355e-02	3.820715e-03	4.469355e-03
-3.010000e+00	-2.940002e+00	3.899299e-02	4.912884e-03	6.038333e-03
-2.940001e+00	-2.870001e+00	3.457430e-02	3.820895e-03	4.417887e-03
-2.870001e+00	-2.800001e+00	3.325602e-02	3.506111e-03	3.918249e-03
-2.800001e+00	-2.729999e+00	3.331126e-02	3.371690e-03	3.660965e-03
-2.729999e+00	-2.660000e+00	4.023775e-02	4.870727e-03	5.791420e-03
-2.660001e+00	-2.589999e+00	3.856305e-02	4.574104e-03	5.365236e-03
-2.590000e+00	-2.520000e+00	3.734102e-02	4.186276e-03	4.759397e-03
-2.520000e+00	-2.450000e+00	3.953149e-02	4.631173e-03	5.362601e-03
-2.450000e+00	-2.380000e+00	4.341211e-02	5.519233e-03	6.622711e-03
-2.380000e+00	-2.310000e+00	3.750405e-02	4.013631e-03	4.387743e-03
-2.310000e+00	-2.240000e+00	3.850143e-02	4.306149e-03	4.817291e-03
-2.240000e+00	-2.170000e+00	4.231225e-02	5.144726e-03	5.992382e-03
-2.170000e+00	-2.100000e+00	3.853899e-02	4.213526e-03	4.633915e-03
-2.100000e+00	-2.030000e+00	4.529388e-02	5.760284e-03	6.819903e-03
-2.030000e+00	-1.960000e+00	4.252975e-02	4.921013e-03	5.529564e-03
-1.960000e+00	-1.890000e+00	4.638685e-02	5.842614e-03	6.870994e-03
-1.890000e+00	-1.820000e+00	4.333256e-02	4.996565e-03	5.551143e-03
-1.820000e+00	-1.750000e+00	3.985183e-02	4.072978e-03	4.171053e-03
-1.750000e+00	-1.680000e+00	5.119477e-02	6.777097e-03	8.053818e-03
-1.680000e+00	-1.610000e+00	4.764469e-02	5.870095e-03	6.747611e-03
-1.610000e+00	-1.540000e+00	4.945684e-02	6.266775e-03	7.314645e-03
-1.540000e+00	-1.470000e+00	4.769992e-02	5.716863e-03	6.436812e-03
-1.470000e+00	-1.400000e+00	4.801208e-02	5.713151e-03	6.422279e-03
-1.400000e+00	-1.330000e+00	5.349847e-02	7.002374e-03	8.251051e-03
-1.330000e+00	-1.260000e+00	5.195524e-02	6.503945e-03	7.482966e-03
-1.260000e+00	-1.190000e+00	4.764933e-02	5.248432e-03	5.579638e-03
-1.190000e+00	-1.120000e+00	5.567104e-02	7.084766e-03	8.188011e-03
-1.120000e+00	-1.050000e+00	7.312972e-02	1.849351e-02	1.430965e-02
-1.050000e+00	-9.799997e-01	7.185296e-02	1.132773e-02	1.462540e-02
-9.799994e-01	-9.099996e-01	6.073498e-02	9.526208e-03	1.159257e-02
-9.099995e-01	-8.399999e-01	5.218366e-02	9.285177e-03	1.148573e-02
-8.399999e-01	-7.700009e-01	4.964807e-02	8.427802e-03	1.113624e-02
-7.700009e-01	-7.000005e-01	3.668872e-02	7.705016e-03	1.093762e-02
-7.000005e-01	-6.299997e-01	2.805219e-02	6.540978e-03	1.022980e-02
-6.299998e-01	-5.599998e-01	1.395942e-02	4.936121e-03	8.856114e-03
-5.599998e-01	-4.899996e-01	4.897131e-03	2.781651e-03	5.782383e-03
-4.899995e-01	-4.200005e-01	4.644013e-04	2.626602e-04	7.219984e-04
-4.200004e-01	-3.499996e-01	3.172972e-09	7.631236e-10	1.097175e-09
-3.499996e-01	-2.800004e-01	0.000000e+00	0.000000e+00	0.000000e+00
-2.800004e-01	-2.100000e-01	0.000000e+00	0.000000e+00	0.000000e+00
-2.100000e-01	-1.400000e-01	0.000000e+00	0.000000e+00	0.000000e+00
-1.400000e-01	-7.000002e-02	0.000000e+00	0.000000e+00	0.000000e+00
-7.000002e-02	0.000000e+00	0.000000e+00	0.000000e+00	0.000000e+00
# END HISTO1D

