# BEGIN PLOT
LegendOnly=/zj_ps_nlo_mer_mur1_muf0.5_R4.yoda/PAPER_FIN_R4_CH/lin_l20_pT_326_408
DrawOnly=/zj_ps_nlo_mer_mur1_muf0.5_R4.yoda/PAPER_FIN_R4_CH/lin_l20_pT_326_408
Legend=1
LogY=1
# END PLOT

# BEGIN HISTO1D /zj_ps_nlo_mer_mur1_muf0.5_R4.yoda/PAPER_FIN_R4_CH/lin_l20_pT_326_408
LineColor=red
LineStyle=solid
Path=/zj_ps_nlo_mer_mur1_muf0.5_R4.yoda/PAPER_FIN_R4_CH/lin_l20_pT_326_408
Title=zj_ps_nlo_mer_mur1_muf0.5_R4
XLabel=~
YLabel=~
# xlow	 xhigh	 val	 errminus	 errplus
0.000000e+00	5.000000e-03	2.398094e+10	6.664932e+08	6.664932e+08
5.000000e-03	1.250000e-02	1.075138e+10	9.001595e+08	9.001595e+08
1.250000e-02	2.250000e-02	7.745885e+09	2.229323e+08	2.229323e+08
2.250000e-02	3.500000e-02	4.542160e+09	1.926122e+08	1.926122e+08
3.500000e-02	5.000000e-02	2.890889e+09	1.382056e+08	1.382056e+08
5.000000e-02	7.000000e-02	1.855194e+09	8.076548e+07	8.076548e+07
7.000000e-02	9.250000e-02	1.248633e+09	7.996278e+07	7.996278e+07
9.250000e-02	1.200000e-01	8.199273e+08	5.184081e+07	5.184081e+07
1.200000e-01	1.520000e-01	5.060147e+08	3.887775e+07	3.887775e+07
1.520000e-01	1.880000e-01	3.206769e+08	1.930218e+07	1.930218e+07
1.880000e-01	2.280000e-01	1.929894e+08	1.593862e+07	1.593862e+07
2.280000e-01	1.000000e+00	8.136425e+06	9.729480e+05	9.729480e+05
# END HISTO1D

