# BEGIN PLOT
LegendOnly=/zj_ps_nlo_mer_mur1_muf0.5_R4.yoda/PAPER_FIN_R4/ch_lin_l10_pT_50_65
DrawOnly=/zj_ps_nlo_mer_mur1_muf0.5_R4.yoda/PAPER_FIN_R4/ch_lin_l10_pT_50_65
Legend=1
LogY=1
# END PLOT

# BEGIN HISTO1D /zj_ps_nlo_mer_mur1_muf0.5_R4.yoda/PAPER_FIN_R4/ch_lin_l10_pT_50_65
LineColor=red
LineStyle=solid
Path=/zj_ps_nlo_mer_mur1_muf0.5_R4.yoda/PAPER_FIN_R4/ch_lin_l10_pT_50_65
Title=zj_ps_nlo_mer_mur1_muf0.5_R4
XLabel=~
YLabel=~
# xlow	 xhigh	 val	 errminus	 errplus
0.000000e+00	2.250000e-02	9.662267e+11	3.049518e+10	3.049518e+10
2.250000e-02	4.000000e-02	2.210153e+10	1.306553e+09	1.306553e+09
4.000000e-02	5.750000e-02	2.123289e+10	1.677690e+09	1.677690e+09
5.750000e-02	7.750000e-02	2.085004e+10	6.455947e+08	6.455947e+08
7.750000e-02	1.000000e-01	1.886756e+10	1.530982e+09	1.530982e+09
1.000000e-01	1.250000e-01	1.374637e+10	1.091415e+09	1.091415e+09
1.250000e-01	1.520000e-01	1.312933e+10	4.662592e+08	4.662592e+08
1.520000e-01	1.850000e-01	1.036286e+10	4.242935e+08	4.242935e+08
1.850000e-01	2.200000e-01	8.478974e+09	3.990809e+08	3.990809e+08
2.200000e-01	2.600000e-01	6.457710e+09	5.059270e+08	5.059270e+08
2.600000e-01	3.070000e-01	4.531874e+09	4.994213e+08	4.994213e+08
3.070000e-01	3.620000e-01	1.413323e+09	1.321531e+09	1.321531e+09
3.620000e-01	4.250000e-01	1.309948e+09	8.720361e+07	8.720361e+07
4.250000e-01	4.970000e-01	6.080432e+08	4.886604e+07	4.886604e+07
4.970000e-01	1.000000e+00	1.867349e+07	4.951157e+06	4.951157e+06
# END HISTO1D

