# BEGIN PLOT
LegendOnly=/zj_ps_nlo_mer_mur2_muf2_R4.yoda/PAPER_FIN_R4_CH/lin_l10_pT_326_408
DrawOnly=/zj_ps_nlo_mer_mur2_muf2_R4.yoda/PAPER_FIN_R4_CH/lin_l10_pT_326_408
Legend=1
LogY=1
# END PLOT

# BEGIN HISTO1D /zj_ps_nlo_mer_mur2_muf2_R4.yoda/PAPER_FIN_R4_CH/lin_l10_pT_326_408
LineColor=red
LineStyle=solid
Path=/zj_ps_nlo_mer_mur2_muf2_R4.yoda/PAPER_FIN_R4_CH/lin_l10_pT_326_408
Title=zj_ps_nlo_mer_mur2_muf2_R4
XLabel=~
YLabel=~
# xlow	 xhigh	 val	 errminus	 errplus
0.000000e+00	2.250000e-02	7.065813e+08	3.558429e+07	3.558429e+07
2.250000e-02	4.000000e-02	4.381973e+09	1.384636e+08	1.384636e+08
4.000000e-02	5.750000e-02	4.776963e+09	1.829757e+08	1.829757e+08
5.750000e-02	7.750000e-02	3.314262e+09	1.031154e+08	1.031154e+08
7.750000e-02	1.000000e-01	2.421105e+09	6.313297e+07	6.313297e+07
1.000000e-01	1.250000e-01	1.571001e+09	7.201769e+07	7.201769e+07
1.250000e-01	1.520000e-01	1.207883e+09	3.742405e+07	3.742405e+07
1.520000e-01	1.850000e-01	8.984561e+08	6.026625e+07	6.026625e+07
1.850000e-01	2.200000e-01	6.065891e+08	2.011048e+07	2.011048e+07
2.200000e-01	2.600000e-01	4.340462e+08	2.190244e+07	2.190244e+07
2.600000e-01	3.070000e-01	2.677596e+08	1.980905e+07	1.980905e+07
3.070000e-01	3.620000e-01	2.043902e+08	1.240627e+07	1.240627e+07
3.620000e-01	4.250000e-01	1.225569e+08	8.232702e+06	8.232702e+06
4.250000e-01	4.970000e-01	6.000547e+07	5.964897e+06	5.964897e+06
4.970000e-01	1.000000e+00	5.472692e+06	6.584978e+05	6.584978e+05
# END HISTO1D

