# BEGIN PLOT
LegendOnly=/zj_ps_nlo_mer_mur2_muf2_R4.yoda/PAPER_FIN_R4/ch_SD_l05_pT_408_1500
DrawOnly=/zj_ps_nlo_mer_mur2_muf2_R4.yoda/PAPER_FIN_R4/ch_SD_l05_pT_408_1500
Legend=1
LogY=1
# END PLOT

# BEGIN HISTO1D /zj_ps_nlo_mer_mur2_muf2_R4.yoda/PAPER_FIN_R4/ch_SD_l05_pT_408_1500
LineColor=red
LineStyle=solid
Path=/zj_ps_nlo_mer_mur2_muf2_R4.yoda/PAPER_FIN_R4/ch_SD_l05_pT_408_1500
Title=zj_ps_nlo_mer_mur2_muf2_R4
XLabel=~
YLabel=~
# xlow	 xhigh	 val	 errminus	 errplus
-7.000000e+00	-6.930000e+00	0.000000e+00	0.000000e+00	0.000000e+00
-6.930000e+00	-6.860000e+00	8.128543e+07	5.082876e+06	5.082876e+06
-6.860000e+00	-6.790000e+00	0.000000e+00	0.000000e+00	0.000000e+00
-6.790000e+00	-6.720000e+00	0.000000e+00	0.000000e+00	0.000000e+00
-6.720000e+00	-6.650000e+00	0.000000e+00	0.000000e+00	0.000000e+00
-6.650000e+00	-6.580000e+00	0.000000e+00	0.000000e+00	0.000000e+00
-6.580000e+00	-6.510000e+00	0.000000e+00	0.000000e+00	0.000000e+00
-6.510000e+00	-6.440000e+00	0.000000e+00	0.000000e+00	0.000000e+00
-6.440000e+00	-6.370000e+00	0.000000e+00	0.000000e+00	0.000000e+00
-6.370000e+00	-6.300000e+00	0.000000e+00	0.000000e+00	0.000000e+00
-6.300000e+00	-6.230000e+00	0.000000e+00	0.000000e+00	0.000000e+00
-6.230000e+00	-6.160000e+00	0.000000e+00	0.000000e+00	0.000000e+00
-6.160000e+00	-6.090000e+00	0.000000e+00	0.000000e+00	0.000000e+00
-6.090000e+00	-6.020000e+00	0.000000e+00	0.000000e+00	0.000000e+00
-6.020000e+00	-5.950000e+00	0.000000e+00	0.000000e+00	0.000000e+00
-5.950000e+00	-5.880000e+00	0.000000e+00	0.000000e+00	0.000000e+00
-5.880000e+00	-5.810000e+00	0.000000e+00	0.000000e+00	0.000000e+00
-5.810000e+00	-5.740000e+00	0.000000e+00	0.000000e+00	0.000000e+00
-5.740000e+00	-5.670000e+00	0.000000e+00	0.000000e+00	0.000000e+00
-5.670000e+00	-5.600000e+00	0.000000e+00	0.000000e+00	0.000000e+00
-5.600000e+00	-5.530000e+00	0.000000e+00	0.000000e+00	0.000000e+00
-5.530000e+00	-5.460000e+00	0.000000e+00	0.000000e+00	0.000000e+00
-5.460000e+00	-5.390000e+00	0.000000e+00	0.000000e+00	0.000000e+00
-5.390000e+00	-5.320000e+00	0.000000e+00	0.000000e+00	0.000000e+00
-5.320000e+00	-5.250000e+00	0.000000e+00	0.000000e+00	0.000000e+00
-5.250000e+00	-5.180000e+00	0.000000e+00	0.000000e+00	0.000000e+00
-5.180000e+00	-5.110000e+00	0.000000e+00	0.000000e+00	0.000000e+00
-5.110000e+00	-5.040000e+00	0.000000e+00	0.000000e+00	0.000000e+00
-5.040000e+00	-4.970000e+00	0.000000e+00	0.000000e+00	0.000000e+00
-4.970000e+00	-4.900000e+00	0.000000e+00	0.000000e+00	0.000000e+00
-4.900000e+00	-4.830000e+00	0.000000e+00	0.000000e+00	0.000000e+00
-4.830000e+00	-4.760000e+00	0.000000e+00	0.000000e+00	0.000000e+00
-4.760000e+00	-4.690000e+00	0.000000e+00	0.000000e+00	0.000000e+00
-4.690000e+00	-4.620000e+00	0.000000e+00	0.000000e+00	0.000000e+00
-4.620000e+00	-4.550000e+00	0.000000e+00	0.000000e+00	0.000000e+00
-4.550000e+00	-4.480000e+00	0.000000e+00	0.000000e+00	0.000000e+00
-4.480000e+00	-4.410000e+00	0.000000e+00	0.000000e+00	0.000000e+00
-4.410000e+00	-4.340000e+00	0.000000e+00	0.000000e+00	0.000000e+00
-4.340000e+00	-4.270000e+00	0.000000e+00	0.000000e+00	0.000000e+00
-4.270000e+00	-4.200000e+00	0.000000e+00	0.000000e+00	0.000000e+00
-4.200000e+00	-4.130000e+00	0.000000e+00	0.000000e+00	0.000000e+00
-4.130000e+00	-4.060000e+00	0.000000e+00	0.000000e+00	0.000000e+00
-4.060000e+00	-3.990000e+00	0.000000e+00	0.000000e+00	0.000000e+00
-3.990000e+00	-3.920000e+00	0.000000e+00	0.000000e+00	0.000000e+00
-3.920000e+00	-3.850000e+00	0.000000e+00	0.000000e+00	0.000000e+00
-3.850000e+00	-3.780000e+00	0.000000e+00	0.000000e+00	0.000000e+00
-3.780000e+00	-3.710000e+00	0.000000e+00	0.000000e+00	0.000000e+00
-3.710000e+00	-3.640000e+00	0.000000e+00	0.000000e+00	0.000000e+00
-3.640000e+00	-3.570000e+00	0.000000e+00	0.000000e+00	0.000000e+00
-3.570000e+00	-3.500000e+00	0.000000e+00	0.000000e+00	0.000000e+00
-3.500000e+00	-3.430000e+00	0.000000e+00	0.000000e+00	0.000000e+00
-3.430000e+00	-3.360000e+00	0.000000e+00	0.000000e+00	0.000000e+00
-3.360000e+00	-3.290000e+00	0.000000e+00	0.000000e+00	0.000000e+00
-3.290000e+00	-3.220000e+00	0.000000e+00	0.000000e+00	0.000000e+00
-3.220000e+00	-3.150000e+00	0.000000e+00	0.000000e+00	0.000000e+00
-3.150000e+00	-3.080000e+00	0.000000e+00	0.000000e+00	0.000000e+00
-3.080000e+00	-3.010000e+00	0.000000e+00	0.000000e+00	0.000000e+00
-3.010000e+00	-2.940000e+00	1.356429e+01	9.221813e+00	9.221813e+00
-2.940000e+00	-2.870000e+00	-3.185150e+01	3.179156e+01	3.179156e+01
-2.870000e+00	-2.800000e+00	1.789573e+03	1.839768e+03	1.839768e+03
-2.800000e+00	-2.730000e+00	-9.677091e+02	8.006416e+02	8.006416e+02
-2.730000e+00	-2.660000e+00	1.499229e+04	1.516748e+04	1.516748e+04
-2.660000e+00	-2.590000e+00	4.916259e+03	2.813623e+03	2.813623e+03
-2.590000e+00	-2.520000e+00	4.677933e+03	1.930219e+04	1.930219e+04
-2.520000e+00	-2.450000e+00	7.013987e+04	4.316694e+04	4.316694e+04
-2.450000e+00	-2.380000e+00	1.065122e+05	9.771799e+04	9.771799e+04
-2.380000e+00	-2.310000e+00	3.672907e+05	1.662774e+05	1.662774e+05
-2.310000e+00	-2.240000e+00	-3.395694e+04	3.988639e+05	3.988639e+05
-2.240000e+00	-2.170000e+00	9.734094e+05	3.407478e+05	3.407478e+05
-2.170000e+00	-2.100000e+00	1.356252e+06	4.181166e+05	4.181166e+05
-2.100000e+00	-2.030000e+00	2.287489e+06	5.541349e+05	5.541349e+05
-2.030000e+00	-1.960000e+00	4.943521e+06	9.371230e+05	9.371230e+05
-1.960000e+00	-1.890000e+00	6.864087e+06	1.358837e+06	1.358837e+06
-1.890000e+00	-1.820000e+00	1.421315e+07	2.048703e+06	2.048703e+06
-1.820000e+00	-1.750000e+00	1.539487e+07	2.924519e+06	2.924519e+06
-1.750000e+00	-1.680000e+00	1.911757e+07	5.179991e+06	5.179991e+06
-1.680000e+00	-1.610000e+00	3.471427e+07	3.091524e+06	3.091524e+06
-1.610000e+00	-1.540000e+00	4.678899e+07	1.004782e+07	1.004782e+07
-1.540000e+00	-1.470000e+00	6.599994e+07	4.752729e+06	4.752729e+06
-1.470000e+00	-1.400000e+00	7.781516e+07	7.706013e+06	7.706013e+06
-1.400000e+00	-1.330000e+00	1.414210e+08	1.186738e+07	1.186738e+07
-1.330000e+00	-1.260000e+00	1.584140e+08	1.228473e+07	1.228473e+07
-1.260000e+00	-1.190000e+00	2.063209e+08	1.115945e+07	1.115945e+07
-1.190000e+00	-1.120000e+00	2.768460e+08	1.260955e+07	1.260955e+07
-1.120000e+00	-1.050000e+00	3.159349e+08	1.581201e+07	1.581201e+07
-1.050000e+00	-9.800000e-01	3.379071e+08	1.245122e+07	1.245122e+07
-9.800000e-01	-9.100000e-01	3.508286e+08	1.252756e+07	1.252756e+07
-9.100000e-01	-8.400000e-01	3.309271e+08	1.333865e+07	1.333865e+07
-8.400000e-01	-7.700000e-01	3.423189e+08	1.021782e+07	1.021782e+07
-7.700000e-01	-7.000000e-01	3.336471e+08	1.179308e+07	1.179308e+07
-7.000000e-01	-6.300000e-01	3.099046e+08	3.183351e+07	3.183351e+07
-6.300000e-01	-5.600000e-01	3.336789e+08	1.240415e+07	1.240415e+07
-5.600000e-01	-4.900000e-01	3.071263e+08	1.293624e+07	1.293624e+07
-4.900000e-01	-4.200000e-01	2.916604e+08	2.185957e+07	2.185957e+07
-4.200000e-01	-3.500000e-01	2.184634e+08	1.199084e+07	1.199084e+07
-3.500000e-01	-2.800000e-01	1.274608e+08	6.063433e+06	6.063433e+06
-2.800000e-01	-2.100000e-01	6.098750e+07	5.095094e+06	5.095094e+06
-2.100000e-01	-1.400000e-01	1.203954e+07	2.832912e+06	2.832912e+06
-1.400000e-01	-7.000000e-02	-7.700701e+04	4.052874e+05	4.052874e+05
-7.000000e-02	0.000000e+00	3.123297e-02	3.123298e-02	3.123298e-02
# END HISTO1D

