# BEGIN PLOT
LegendOnly=/zj_ps_nlo_mer_mur1_muf2_R8.yoda/PAPER_FIN_R8_CH/lin_l10_pT_50_65
DrawOnly=/zj_ps_nlo_mer_mur1_muf2_R8.yoda/PAPER_FIN_R8_CH/lin_l10_pT_50_65
Legend=1
LogY=1
# END PLOT

# BEGIN HISTO1D /zj_ps_nlo_mer_mur1_muf2_R8.yoda/PAPER_FIN_R8_CH/lin_l10_pT_50_65
LineColor=red
LineStyle=solid
Path=/zj_ps_nlo_mer_mur1_muf2_R8.yoda/PAPER_FIN_R8_CH/lin_l10_pT_50_65
Title=zj_ps_nlo_mer_mur1_muf2_R8
XLabel=~
YLabel=~
# xlow	 xhigh	 val	 errminus	 errplus
0.000000e+00	2.250000e-02	-1.154172e+02	8.964702e+01	8.964702e+01
2.250000e-02	4.000000e-02	-9.835086e+01	1.188467e+02	1.188467e+02
4.000000e-02	5.750000e-02	-7.918846e+02	2.928938e+02	2.928938e+02
5.750000e-02	7.750000e-02	-1.511624e+03	2.660930e+02	2.660930e+02
7.750000e-02	1.000000e-01	4.710653e+03	2.047514e+04	2.047514e+04
1.000000e-01	1.250000e-01	2.326120e+05	2.373045e+05	2.373045e+05
1.250000e-01	1.520000e-01	-5.515515e+04	6.610445e+04	6.610445e+04
1.520000e-01	1.850000e-01	-1.823888e+04	2.463237e+04	2.463237e+04
1.850000e-01	2.200000e-01	2.601663e+04	2.263059e+04	2.263059e+04
2.200000e-01	2.600000e-01	-4.024577e+03	8.774288e+02	8.774288e+02
2.600000e-01	3.070000e-01	-2.886102e+03	4.204608e+03	4.204608e+03
3.070000e-01	3.620000e-01	-3.913738e+03	1.218595e+03	1.218595e+03
3.620000e-01	4.250000e-01	-3.824090e+03	3.273882e+03	3.273882e+03
4.250000e-01	4.970000e-01	3.428603e+03	5.056527e+03	5.056527e+03
4.970000e-01	1.000000e+00	-2.993654e+02	1.470818e+02	1.470818e+02
# END HISTO1D

