# BEGIN PLOT
LegendOnly=/zj_ps_nlo_mer_mur1_muf2_R8.yoda/PAPER_FIN_R8/ch_lin_SD_l10_pT_120_150
DrawOnly=/zj_ps_nlo_mer_mur1_muf2_R8.yoda/PAPER_FIN_R8/ch_lin_SD_l10_pT_120_150
Legend=1
LogY=1
# END PLOT

# BEGIN HISTO1D /zj_ps_nlo_mer_mur1_muf2_R8.yoda/PAPER_FIN_R8/ch_lin_SD_l10_pT_120_150
LineColor=red
LineStyle=solid
Path=/zj_ps_nlo_mer_mur1_muf2_R8.yoda/PAPER_FIN_R8/ch_lin_SD_l10_pT_120_150
Title=zj_ps_nlo_mer_mur1_muf2_R8
XLabel=~
YLabel=~
# xlow	 xhigh	 val	 errminus	 errplus
0.000000e+00	1.250000e-02	3.736366e+08	2.548616e+07	2.548616e+07
1.250000e-02	2.250000e-02	4.940403e+08	2.497672e+07	2.497672e+07
2.250000e-02	3.500000e-02	4.323878e+08	5.452695e+07	5.452695e+07
3.500000e-02	5.000000e-02	2.332682e+08	4.965498e+07	4.965498e+07
5.000000e-02	7.000000e-02	1.933309e+08	1.320492e+07	1.320492e+07
7.000000e-02	9.500000e-02	1.416908e+08	1.057029e+07	1.057029e+07
9.500000e-02	1.280000e-01	1.250342e+08	1.007253e+07	1.007253e+07
1.280000e-01	1.700000e-01	1.001882e+08	5.145295e+06	5.145295e+06
1.700000e-01	2.250000e-01	8.210311e+07	5.138172e+06	5.138172e+06
2.250000e-01	2.900000e-01	5.905202e+07	3.742244e+06	3.742244e+06
2.900000e-01	3.650000e-01	4.135584e+07	2.889910e+06	2.889910e+06
3.650000e-01	4.500000e-01	1.873019e+07	1.916273e+06	1.916273e+06
4.500000e-01	1.000000e+00	1.706607e+06	1.984807e+05	1.984807e+05
# END HISTO1D

