# BEGIN PLOT
LegendOnly=/zj_ps_nlo_mer_mur1_muf2_R8.yoda/PAPER_FIN_R8/ch_SD_l05_pT_88_120
DrawOnly=/zj_ps_nlo_mer_mur1_muf2_R8.yoda/PAPER_FIN_R8/ch_SD_l05_pT_88_120
Legend=1
LogY=1
# END PLOT

# BEGIN HISTO1D /zj_ps_nlo_mer_mur1_muf2_R8.yoda/PAPER_FIN_R8/ch_SD_l05_pT_88_120
LineColor=red
LineStyle=solid
Path=/zj_ps_nlo_mer_mur1_muf2_R8.yoda/PAPER_FIN_R8/ch_SD_l05_pT_88_120
Title=zj_ps_nlo_mer_mur1_muf2_R8
XLabel=~
YLabel=~
# xlow	 xhigh	 val	 errminus	 errplus
-7.000000e+00	-6.930000e+00	0.000000e+00	0.000000e+00	0.000000e+00
-6.930000e+00	-6.860000e+00	1.253640e+06	7.740097e+05	7.740097e+05
-6.860000e+00	-6.790000e+00	0.000000e+00	0.000000e+00	0.000000e+00
-6.790000e+00	-6.720000e+00	0.000000e+00	0.000000e+00	0.000000e+00
-6.720000e+00	-6.650000e+00	0.000000e+00	0.000000e+00	0.000000e+00
-6.650000e+00	-6.580000e+00	0.000000e+00	0.000000e+00	0.000000e+00
-6.580000e+00	-6.510000e+00	0.000000e+00	0.000000e+00	0.000000e+00
-6.510000e+00	-6.440000e+00	0.000000e+00	0.000000e+00	0.000000e+00
-6.440000e+00	-6.370000e+00	0.000000e+00	0.000000e+00	0.000000e+00
-6.370000e+00	-6.300000e+00	0.000000e+00	0.000000e+00	0.000000e+00
-6.300000e+00	-6.230000e+00	0.000000e+00	0.000000e+00	0.000000e+00
-6.230000e+00	-6.160000e+00	0.000000e+00	0.000000e+00	0.000000e+00
-6.160000e+00	-6.090000e+00	0.000000e+00	0.000000e+00	0.000000e+00
-6.090000e+00	-6.020000e+00	0.000000e+00	0.000000e+00	0.000000e+00
-6.020000e+00	-5.950000e+00	0.000000e+00	0.000000e+00	0.000000e+00
-5.950000e+00	-5.880000e+00	0.000000e+00	0.000000e+00	0.000000e+00
-5.880000e+00	-5.810000e+00	0.000000e+00	0.000000e+00	0.000000e+00
-5.810000e+00	-5.740000e+00	0.000000e+00	0.000000e+00	0.000000e+00
-5.740000e+00	-5.670000e+00	0.000000e+00	0.000000e+00	0.000000e+00
-5.670000e+00	-5.600000e+00	0.000000e+00	0.000000e+00	0.000000e+00
-5.600000e+00	-5.530000e+00	0.000000e+00	0.000000e+00	0.000000e+00
-5.530000e+00	-5.460000e+00	0.000000e+00	0.000000e+00	0.000000e+00
-5.460000e+00	-5.390000e+00	0.000000e+00	0.000000e+00	0.000000e+00
-5.390000e+00	-5.320000e+00	0.000000e+00	0.000000e+00	0.000000e+00
-5.320000e+00	-5.250000e+00	0.000000e+00	0.000000e+00	0.000000e+00
-5.250000e+00	-5.180000e+00	0.000000e+00	0.000000e+00	0.000000e+00
-5.180000e+00	-5.110000e+00	0.000000e+00	0.000000e+00	0.000000e+00
-5.110000e+00	-5.040000e+00	0.000000e+00	0.000000e+00	0.000000e+00
-5.040000e+00	-4.970000e+00	0.000000e+00	0.000000e+00	0.000000e+00
-4.970000e+00	-4.900000e+00	0.000000e+00	0.000000e+00	0.000000e+00
-4.900000e+00	-4.830000e+00	0.000000e+00	0.000000e+00	0.000000e+00
-4.830000e+00	-4.760000e+00	0.000000e+00	0.000000e+00	0.000000e+00
-4.760000e+00	-4.690000e+00	0.000000e+00	0.000000e+00	0.000000e+00
-4.690000e+00	-4.620000e+00	0.000000e+00	0.000000e+00	0.000000e+00
-4.620000e+00	-4.550000e+00	0.000000e+00	0.000000e+00	0.000000e+00
-4.550000e+00	-4.480000e+00	0.000000e+00	0.000000e+00	0.000000e+00
-4.480000e+00	-4.410000e+00	0.000000e+00	0.000000e+00	0.000000e+00
-4.410000e+00	-4.340000e+00	0.000000e+00	0.000000e+00	0.000000e+00
-4.340000e+00	-4.270000e+00	0.000000e+00	0.000000e+00	0.000000e+00
-4.270000e+00	-4.200000e+00	0.000000e+00	0.000000e+00	0.000000e+00
-4.200000e+00	-4.130000e+00	0.000000e+00	0.000000e+00	0.000000e+00
-4.130000e+00	-4.060000e+00	0.000000e+00	0.000000e+00	0.000000e+00
-4.060000e+00	-3.990000e+00	0.000000e+00	0.000000e+00	0.000000e+00
-3.990000e+00	-3.920000e+00	0.000000e+00	0.000000e+00	0.000000e+00
-3.920000e+00	-3.850000e+00	0.000000e+00	0.000000e+00	0.000000e+00
-3.850000e+00	-3.780000e+00	0.000000e+00	0.000000e+00	0.000000e+00
-3.780000e+00	-3.710000e+00	0.000000e+00	0.000000e+00	0.000000e+00
-3.710000e+00	-3.640000e+00	0.000000e+00	0.000000e+00	0.000000e+00
-3.640000e+00	-3.570000e+00	0.000000e+00	0.000000e+00	0.000000e+00
-3.570000e+00	-3.500000e+00	0.000000e+00	0.000000e+00	0.000000e+00
-3.500000e+00	-3.430000e+00	0.000000e+00	0.000000e+00	0.000000e+00
-3.430000e+00	-3.360000e+00	0.000000e+00	0.000000e+00	0.000000e+00
-3.360000e+00	-3.290000e+00	0.000000e+00	0.000000e+00	0.000000e+00
-3.290000e+00	-3.220000e+00	0.000000e+00	0.000000e+00	0.000000e+00
-3.220000e+00	-3.150000e+00	0.000000e+00	0.000000e+00	0.000000e+00
-3.150000e+00	-3.080000e+00	0.000000e+00	0.000000e+00	0.000000e+00
-3.080000e+00	-3.010000e+00	0.000000e+00	0.000000e+00	0.000000e+00
-3.010000e+00	-2.940000e+00	0.000000e+00	0.000000e+00	0.000000e+00
-2.940000e+00	-2.870000e+00	0.000000e+00	0.000000e+00	0.000000e+00
-2.870000e+00	-2.800000e+00	0.000000e+00	0.000000e+00	0.000000e+00
-2.800000e+00	-2.730000e+00	0.000000e+00	0.000000e+00	0.000000e+00
-2.730000e+00	-2.660000e+00	0.000000e+00	0.000000e+00	0.000000e+00
-2.660000e+00	-2.590000e+00	6.739761e-02	6.739762e-02	6.739762e-02
-2.590000e+00	-2.520000e+00	-1.020034e+01	8.711873e+00	8.711873e+00
-2.520000e+00	-2.450000e+00	0.000000e+00	0.000000e+00	0.000000e+00
-2.450000e+00	-2.380000e+00	1.149150e+03	1.146301e+03	1.146301e+03
-2.380000e+00	-2.310000e+00	4.378071e+00	9.850327e+00	9.850327e+00
-2.310000e+00	-2.240000e+00	-3.108921e+03	3.534395e+03	3.534395e+03
-2.240000e+00	-2.170000e+00	8.540120e+02	1.437577e+03	1.437577e+03
-2.170000e+00	-2.100000e+00	-6.970213e+03	7.019691e+03	7.019691e+03
-2.100000e+00	-2.030000e+00	1.406037e+04	1.498604e+04	1.498604e+04
-2.030000e+00	-1.960000e+00	2.441296e+03	5.342781e+03	5.342781e+03
-1.960000e+00	-1.890000e+00	1.063929e+04	2.035632e+04	2.035632e+04
-1.890000e+00	-1.820000e+00	3.753261e+04	8.851145e+04	8.851145e+04
-1.820000e+00	-1.750000e+00	2.311179e+04	1.297712e+05	1.297712e+05
-1.750000e+00	-1.680000e+00	-1.450141e+04	9.262428e+04	9.262428e+04
-1.680000e+00	-1.610000e+00	2.114144e+05	9.784495e+04	9.784495e+04
-1.610000e+00	-1.540000e+00	4.194266e+05	1.236739e+05	1.236739e+05
-1.540000e+00	-1.470000e+00	3.818137e+05	3.620449e+05	3.620449e+05
-1.470000e+00	-1.400000e+00	2.720781e+05	2.513941e+05	2.513941e+05
-1.400000e+00	-1.330000e+00	6.822323e+05	2.160575e+05	2.160575e+05
-1.330000e+00	-1.260000e+00	5.242257e+04	5.693589e+05	5.693589e+05
-1.260000e+00	-1.190000e+00	1.013843e+06	3.289932e+05	3.289932e+05
-1.190000e+00	-1.120000e+00	3.441756e+06	1.077248e+06	1.077248e+06
-1.120000e+00	-1.050000e+00	2.085757e+06	5.689055e+05	5.689055e+05
-1.050000e+00	-9.800000e-01	3.812337e+06	7.921586e+05	7.921586e+05
-9.800000e-01	-9.100000e-01	5.028290e+06	8.185166e+05	8.185166e+05
-9.100000e-01	-8.400000e-01	6.847890e+06	1.069357e+06	1.069357e+06
-8.400000e-01	-7.700000e-01	6.436736e+06	1.190194e+06	1.190194e+06
-7.700000e-01	-7.000000e-01	1.050500e+07	2.013885e+06	2.013885e+06
-7.000000e-01	-6.300000e-01	8.137544e+06	1.246956e+06	1.246956e+06
-6.300000e-01	-5.600000e-01	3.782963e+06	2.950651e+06	2.950651e+06
-5.600000e-01	-4.900000e-01	5.624214e+06	1.717711e+06	1.717711e+06
-4.900000e-01	-4.200000e-01	7.825560e+06	2.178836e+06	2.178836e+06
-4.200000e-01	-3.500000e-01	7.379731e+06	2.490776e+06	2.490776e+06
-3.500000e-01	-2.800000e-01	6.302430e+06	1.460137e+06	1.460137e+06
-2.800000e-01	-2.100000e-01	2.829931e+06	9.806359e+05	9.806359e+05
-2.100000e-01	-1.400000e-01	1.107906e+06	4.023872e+05	4.023872e+05
-1.400000e-01	-7.000000e-02	8.163117e+04	5.622197e+04	5.622197e+04
-7.000000e-02	0.000000e+00	4.820496e-02	3.767323e-02	3.767323e-02
# END HISTO1D

