# BEGIN PLOT
LegendOnly=/zj_ps_nlo_mer_mur1_muf2_R8.yoda/PAPER_FIN_R8_CH/XS_CUTS_pT_408_1500
DrawOnly=/zj_ps_nlo_mer_mur1_muf2_R8.yoda/PAPER_FIN_R8_CH/XS_CUTS_pT_408_1500
Legend=1
LogY=1
# END PLOT

# BEGIN HISTO1D /zj_ps_nlo_mer_mur1_muf2_R8.yoda/PAPER_FIN_R8_CH/XS_CUTS_pT_408_1500
LineColor=red
LineStyle=solid
Path=/zj_ps_nlo_mer_mur1_muf2_R8.yoda/PAPER_FIN_R8_CH/XS_CUTS_pT_408_1500
Title=zj_ps_nlo_mer_mur1_muf2_R8
XLabel=~
YLabel=~
# xlow	 xhigh	 val	 errminus	 errplus
-5.000000e-01	5.000000e-01	1.618384e+02	5.153366e+00	5.153366e+00
# END HISTO1D

