# BEGIN PLOT
LegendOnly=/zj_ps_nlo_mer_mur1_muf2_R8.yoda/PAPER_FIN_R8/ch_SD_l05_pT_150_186
DrawOnly=/zj_ps_nlo_mer_mur1_muf2_R8.yoda/PAPER_FIN_R8/ch_SD_l05_pT_150_186
Legend=1
LogY=1
# END PLOT

# BEGIN HISTO1D /zj_ps_nlo_mer_mur1_muf2_R8.yoda/PAPER_FIN_R8/ch_SD_l05_pT_150_186
LineColor=red
LineStyle=solid
Path=/zj_ps_nlo_mer_mur1_muf2_R8.yoda/PAPER_FIN_R8/ch_SD_l05_pT_150_186
Title=zj_ps_nlo_mer_mur1_muf2_R8
XLabel=~
YLabel=~
# xlow	 xhigh	 val	 errminus	 errplus
-7.000000e+00	-6.930000e+00	0.000000e+00	0.000000e+00	0.000000e+00
-6.930000e+00	-6.860000e+00	2.707597e+07	3.151956e+06	3.151956e+06
-6.860000e+00	-6.790000e+00	0.000000e+00	0.000000e+00	0.000000e+00
-6.790000e+00	-6.720000e+00	0.000000e+00	0.000000e+00	0.000000e+00
-6.720000e+00	-6.650000e+00	0.000000e+00	0.000000e+00	0.000000e+00
-6.650000e+00	-6.580000e+00	0.000000e+00	0.000000e+00	0.000000e+00
-6.580000e+00	-6.510000e+00	0.000000e+00	0.000000e+00	0.000000e+00
-6.510000e+00	-6.440000e+00	0.000000e+00	0.000000e+00	0.000000e+00
-6.440000e+00	-6.370000e+00	0.000000e+00	0.000000e+00	0.000000e+00
-6.370000e+00	-6.300000e+00	0.000000e+00	0.000000e+00	0.000000e+00
-6.300000e+00	-6.230000e+00	0.000000e+00	0.000000e+00	0.000000e+00
-6.230000e+00	-6.160000e+00	0.000000e+00	0.000000e+00	0.000000e+00
-6.160000e+00	-6.090000e+00	0.000000e+00	0.000000e+00	0.000000e+00
-6.090000e+00	-6.020000e+00	0.000000e+00	0.000000e+00	0.000000e+00
-6.020000e+00	-5.950000e+00	0.000000e+00	0.000000e+00	0.000000e+00
-5.950000e+00	-5.880000e+00	0.000000e+00	0.000000e+00	0.000000e+00
-5.880000e+00	-5.810000e+00	0.000000e+00	0.000000e+00	0.000000e+00
-5.810000e+00	-5.740000e+00	0.000000e+00	0.000000e+00	0.000000e+00
-5.740000e+00	-5.670000e+00	0.000000e+00	0.000000e+00	0.000000e+00
-5.670000e+00	-5.600000e+00	0.000000e+00	0.000000e+00	0.000000e+00
-5.600000e+00	-5.530000e+00	0.000000e+00	0.000000e+00	0.000000e+00
-5.530000e+00	-5.460000e+00	0.000000e+00	0.000000e+00	0.000000e+00
-5.460000e+00	-5.390000e+00	0.000000e+00	0.000000e+00	0.000000e+00
-5.390000e+00	-5.320000e+00	0.000000e+00	0.000000e+00	0.000000e+00
-5.320000e+00	-5.250000e+00	0.000000e+00	0.000000e+00	0.000000e+00
-5.250000e+00	-5.180000e+00	0.000000e+00	0.000000e+00	0.000000e+00
-5.180000e+00	-5.110000e+00	0.000000e+00	0.000000e+00	0.000000e+00
-5.110000e+00	-5.040000e+00	0.000000e+00	0.000000e+00	0.000000e+00
-5.040000e+00	-4.970000e+00	0.000000e+00	0.000000e+00	0.000000e+00
-4.970000e+00	-4.900000e+00	0.000000e+00	0.000000e+00	0.000000e+00
-4.900000e+00	-4.830000e+00	0.000000e+00	0.000000e+00	0.000000e+00
-4.830000e+00	-4.760000e+00	0.000000e+00	0.000000e+00	0.000000e+00
-4.760000e+00	-4.690000e+00	0.000000e+00	0.000000e+00	0.000000e+00
-4.690000e+00	-4.620000e+00	0.000000e+00	0.000000e+00	0.000000e+00
-4.620000e+00	-4.550000e+00	0.000000e+00	0.000000e+00	0.000000e+00
-4.550000e+00	-4.480000e+00	0.000000e+00	0.000000e+00	0.000000e+00
-4.480000e+00	-4.410000e+00	0.000000e+00	0.000000e+00	0.000000e+00
-4.410000e+00	-4.340000e+00	0.000000e+00	0.000000e+00	0.000000e+00
-4.340000e+00	-4.270000e+00	0.000000e+00	0.000000e+00	0.000000e+00
-4.270000e+00	-4.200000e+00	0.000000e+00	0.000000e+00	0.000000e+00
-4.200000e+00	-4.130000e+00	0.000000e+00	0.000000e+00	0.000000e+00
-4.130000e+00	-4.060000e+00	0.000000e+00	0.000000e+00	0.000000e+00
-4.060000e+00	-3.990000e+00	0.000000e+00	0.000000e+00	0.000000e+00
-3.990000e+00	-3.920000e+00	0.000000e+00	0.000000e+00	0.000000e+00
-3.920000e+00	-3.850000e+00	0.000000e+00	0.000000e+00	0.000000e+00
-3.850000e+00	-3.780000e+00	0.000000e+00	0.000000e+00	0.000000e+00
-3.780000e+00	-3.710000e+00	0.000000e+00	0.000000e+00	0.000000e+00
-3.710000e+00	-3.640000e+00	0.000000e+00	0.000000e+00	0.000000e+00
-3.640000e+00	-3.570000e+00	0.000000e+00	0.000000e+00	0.000000e+00
-3.570000e+00	-3.500000e+00	0.000000e+00	0.000000e+00	0.000000e+00
-3.500000e+00	-3.430000e+00	0.000000e+00	0.000000e+00	0.000000e+00
-3.430000e+00	-3.360000e+00	0.000000e+00	0.000000e+00	0.000000e+00
-3.360000e+00	-3.290000e+00	0.000000e+00	0.000000e+00	0.000000e+00
-3.290000e+00	-3.220000e+00	0.000000e+00	0.000000e+00	0.000000e+00
-3.220000e+00	-3.150000e+00	-1.637240e-01	1.637239e-01	1.637239e-01
-3.150000e+00	-3.080000e+00	0.000000e+00	0.000000e+00	0.000000e+00
-3.080000e+00	-3.010000e+00	-1.474297e+00	1.474297e+00	1.474297e+00
-3.010000e+00	-2.940000e+00	-1.679396e+00	1.679396e+00	1.679396e+00
-2.940000e+00	-2.870000e+00	9.123901e+00	9.123901e+00	9.123901e+00
-2.870000e+00	-2.800000e+00	-7.702407e+02	7.702408e+02	7.702408e+02
-2.800000e+00	-2.730000e+00	1.850136e+04	1.567307e+04	1.567307e+04
-2.730000e+00	-2.660000e+00	9.264579e+03	9.373044e+03	9.373044e+03
-2.660000e+00	-2.590000e+00	6.859931e+03	7.820692e+03	7.820692e+03
-2.590000e+00	-2.520000e+00	-3.975923e+03	6.031514e+03	6.031514e+03
-2.520000e+00	-2.450000e+00	-5.936280e+02	3.658762e+02	3.658762e+02
-2.450000e+00	-2.380000e+00	1.758016e+04	1.941538e+04	1.941538e+04
-2.380000e+00	-2.310000e+00	-2.269001e+04	8.229358e+04	8.229358e+04
-2.310000e+00	-2.240000e+00	-4.077107e+04	6.874543e+04	6.874543e+04
-2.240000e+00	-2.170000e+00	2.061746e+05	9.886600e+04	9.886600e+04
-2.170000e+00	-2.100000e+00	2.719917e+05	1.927531e+05	1.927531e+05
-2.100000e+00	-2.030000e+00	4.030316e+05	1.492555e+05	1.492555e+05
-2.030000e+00	-1.960000e+00	1.149191e+06	2.263459e+05	2.263459e+05
-1.960000e+00	-1.890000e+00	1.012745e+06	3.104669e+05	3.104669e+05
-1.890000e+00	-1.820000e+00	1.429781e+06	6.197631e+05	6.197631e+05
-1.820000e+00	-1.750000e+00	4.292320e+06	7.126033e+05	7.126033e+05
-1.750000e+00	-1.680000e+00	5.490586e+06	9.915710e+05	9.915710e+05
-1.680000e+00	-1.610000e+00	9.000707e+06	1.227000e+06	1.227000e+06
-1.610000e+00	-1.540000e+00	9.161649e+06	1.744421e+06	1.744421e+06
-1.540000e+00	-1.470000e+00	1.545541e+07	1.739548e+06	1.739548e+06
-1.470000e+00	-1.400000e+00	1.768590e+07	4.757840e+06	4.757840e+06
-1.400000e+00	-1.330000e+00	2.982417e+07	2.512282e+06	2.512282e+06
-1.330000e+00	-1.260000e+00	4.174681e+07	5.070682e+06	5.070682e+06
-1.260000e+00	-1.190000e+00	5.746640e+07	4.519066e+06	4.519066e+06
-1.190000e+00	-1.120000e+00	7.583783e+07	6.246129e+06	6.246129e+06
-1.120000e+00	-1.050000e+00	1.098287e+08	5.577354e+06	5.577354e+06
-1.050000e+00	-9.800000e-01	1.403460e+08	5.275192e+06	5.275192e+06
-9.800000e-01	-9.100000e-01	1.477887e+08	5.992407e+06	5.992407e+06
-9.100000e-01	-8.400000e-01	1.741859e+08	7.158025e+06	7.158025e+06
-8.400000e-01	-7.700000e-01	1.806833e+08	9.108541e+06	9.108541e+06
-7.700000e-01	-7.000000e-01	1.776653e+08	7.350059e+06	7.350059e+06
-7.000000e-01	-6.300000e-01	1.826283e+08	8.545327e+06	8.545327e+06
-6.300000e-01	-5.600000e-01	2.045256e+08	9.737209e+06	9.737209e+06
-5.600000e-01	-4.900000e-01	2.148764e+08	8.212933e+06	8.212933e+06
-4.900000e-01	-4.200000e-01	2.073579e+08	8.555346e+06	8.555346e+06
-4.200000e-01	-3.500000e-01	1.986516e+08	6.643207e+06	6.643207e+06
-3.500000e-01	-2.800000e-01	1.555980e+08	7.164373e+06	7.164373e+06
-2.800000e-01	-2.100000e-01	7.789470e+07	4.833303e+06	4.833303e+06
-2.100000e-01	-1.400000e-01	2.154181e+07	2.434026e+06	2.434026e+06
-1.400000e-01	-7.000000e-02	1.307981e+06	4.662727e+05	4.662727e+05
-7.000000e-02	0.000000e+00	-3.099093e+03	2.035290e+03	2.035290e+03
# END HISTO1D

