# BEGIN PLOT
LegendOnly=/zj_ps_nlo_mer_mur1_muf1_R4.yoda/PAPER_FIN_R4_CH/lin_l10_pT_254_326
DrawOnly=/zj_ps_nlo_mer_mur1_muf1_R4.yoda/PAPER_FIN_R4_CH/lin_l10_pT_254_326
Legend=1
LogY=1
# END PLOT

# BEGIN HISTO1D /zj_ps_nlo_mer_mur1_muf1_R4.yoda/PAPER_FIN_R4_CH/lin_l10_pT_254_326
LineColor=red
LineStyle=solid
Path=/zj_ps_nlo_mer_mur1_muf1_R4.yoda/PAPER_FIN_R4_CH/lin_l10_pT_254_326
Title=zj_ps_nlo_mer_mur1_muf1_R4
XLabel=~
YLabel=~
# xlow	 xhigh	 val	 errminus	 errplus
0.000000e+00	2.250000e-02	1.105784e+09	3.781168e+07	3.781168e+07
2.250000e-02	4.000000e-02	8.607657e+09	7.290497e+07	7.290497e+07
4.000000e-02	5.750000e-02	1.309806e+10	1.286819e+08	1.286819e+08
5.750000e-02	7.750000e-02	1.067282e+10	1.949190e+08	1.949190e+08
7.750000e-02	1.000000e-01	7.369422e+09	6.966247e+07	6.966247e+07
1.000000e-01	1.250000e-01	5.156444e+09	6.902373e+07	6.902373e+07
1.250000e-01	1.520000e-01	3.821785e+09	8.826889e+07	8.826889e+07
1.520000e-01	1.850000e-01	2.660362e+09	2.882484e+07	2.882484e+07
1.850000e-01	2.200000e-01	1.860838e+09	3.220530e+07	3.220530e+07
2.200000e-01	2.600000e-01	1.338202e+09	1.497527e+07	1.497527e+07
2.600000e-01	3.070000e-01	9.391696e+08	1.856655e+07	1.856655e+07
3.070000e-01	3.620000e-01	6.166449e+08	1.177979e+07	1.177979e+07
3.620000e-01	4.250000e-01	3.762898e+08	1.626282e+07	1.626282e+07
4.250000e-01	4.970000e-01	2.024354e+08	5.759116e+06	5.759116e+06
4.970000e-01	1.000000e+00	1.381131e+07	6.124823e+05	6.124823e+05
# END HISTO1D

