# BEGIN PLOT
LegendOnly=/zj_ps_nlo_mer_mur1_muf1_R4.yoda/PAPER_FIN_R4_CH/lin_SD_l05_pT_186_254
DrawOnly=/zj_ps_nlo_mer_mur1_muf1_R4.yoda/PAPER_FIN_R4_CH/lin_SD_l05_pT_186_254
Legend=1
LogY=1
# END PLOT

# BEGIN HISTO1D /zj_ps_nlo_mer_mur1_muf1_R4.yoda/PAPER_FIN_R4_CH/lin_SD_l05_pT_186_254
LineColor=red
LineStyle=solid
Path=/zj_ps_nlo_mer_mur1_muf1_R4.yoda/PAPER_FIN_R4_CH/lin_SD_l05_pT_186_254
Title=zj_ps_nlo_mer_mur1_muf1_R4
XLabel=~
YLabel=~
# xlow	 xhigh	 val	 errminus	 errplus
0.000000e+00	6.000000e-02	1.905752e+09	3.387304e+07	3.387304e+07
6.000000e-02	9.000000e-02	6.811750e+09	9.752078e+07	9.752078e+07
9.000000e-02	1.200000e-01	9.888333e+09	1.265769e+08	1.265769e+08
1.200000e-01	1.500000e-01	1.073117e+10	1.079026e+08	1.079026e+08
1.500000e-01	1.900000e-01	8.859465e+09	1.228012e+08	1.228012e+08
1.900000e-01	2.300000e-01	6.749985e+09	6.778257e+07	6.778257e+07
2.300000e-01	2.700000e-01	5.005710e+09	6.802529e+07	6.802529e+07
2.700000e-01	3.200000e-01	3.907552e+09	7.342596e+07	7.342596e+07
3.200000e-01	3.700000e-01	2.991218e+09	4.682427e+07	4.682427e+07
3.700000e-01	4.200000e-01	2.156342e+09	6.773436e+07	6.773436e+07
4.200000e-01	4.800000e-01	1.509499e+09	4.951232e+07	4.951232e+07
4.800000e-01	5.400000e-01	9.202633e+08	4.213022e+07	4.213022e+07
5.400000e-01	6.000000e-01	5.113312e+08	3.515768e+07	3.515768e+07
6.000000e-01	1.000000e+00	4.253355e+07	1.676764e+06	1.676764e+06
# END HISTO1D

