# BEGIN PLOT
# END PLOT

# BEGIN HISTO1D
LineColor=red
LineStyle=solid
Title=Z+Jet RES+NP
# Sigma = 1.820246e+00 pb
# xlow	xhigh	val	errminus	errplus
0.000000e+00	5.000000e-03	3.242218e+00	1.782402e+00	1.845958e+00
5.000000e-03	1.250000e-02	1.475610e+01	3.167230e+00	2.861941e+00
1.250000e-02	2.250000e-02	1.592463e+01	2.108598e+00	2.418815e+00
2.250000e-02	3.500000e-02	1.377897e+01	1.996972e+00	2.428580e+00
3.500000e-02	5.000000e-02	1.038101e+01	1.620804e+00	1.976968e+00
5.000000e-02	7.000000e-02	7.201428e+00	1.159003e+00	1.422915e+00
7.000000e-02	9.250000e-02	4.683748e+00	8.052351e-01	9.710556e-01
9.250000e-02	1.200000e-01	3.065775e+00	5.066098e-01	6.131045e-01
1.200000e-01	1.520000e-01	1.896550e+00	3.567627e-01	4.294447e-01
1.520000e-01	1.880000e-01	1.204515e+00	2.298083e-01	3.053321e-01
1.880000e-01	2.280000e-01	7.199152e-01	1.459800e-01	2.197367e-01
2.280000e-01	1.000000e+00	2.600583e-02	9.849545e-03	1.787723e-02
# END HISTO1D