# BEGIN PLOT
# END PLOT

# BEGIN HISTO1D
LineColor=red
LineStyle=solid
Title=Z+Jet SHERPA MESP@NLO+NP
# Sigma = 1.821772e-01 pb
# xlow	xhigh	val	errminus	errplus
0.000000e+00	2.500000e-03	1.905433e+02	2.111554e+00	1.204003e+01
2.500000e-03	5.000000e-03	3.264449e+01	2.311905e+00	1.267166e+00
5.000000e-03	7.500000e-03	1.753622e+01	1.078636e+00	1.526580e+00
7.500000e-03	1.250000e-02	1.082424e+01	7.712874e-01	2.250008e-01
1.250000e-02	2.000000e-02	6.842180e+00	5.112523e-01	4.140718e-02
2.000000e-02	3.250000e-02	4.294314e+00	3.043143e-01	1.423322e-01
3.250000e-02	5.000000e-02	3.062222e+00	2.885257e-01	2.946341e-01
5.000000e-02	7.750000e-02	1.815617e+00	1.415850e-01	5.968720e-02
7.750000e-02	1.150000e-01	1.393536e+00	1.274713e-01	9.078382e-02
1.150000e-01	1.600000e-01	9.167982e-01	7.449586e-02	5.419609e-02
1.600000e-01	2.100000e-01	4.785993e-01	4.359605e-02	3.297954e-02
2.100000e-01	1.000000e+00	2.292628e-02	2.921999e-03	2.182135e-03
# END HISTO1D