# BEGIN PLOT
# END PLOT

# BEGIN HISTO1D
LineColor=red
LineStyle=solid
Title=Z+Jet RES+NP
# Sigma = 7.352420e+00 pb
# xlow	xhigh	val	errminus	errplus
0.000000e+00	1.050000e-01	3.582885e+00	4.524455e-01	3.784386e-01
1.050000e-01	1.650000e-01	4.765736e+00	7.382239e-01	8.777484e-01
1.650000e-01	2.300000e-01	2.664926e+00	4.531120e-01	5.401681e-01
2.300000e-01	3.050000e-01	1.411261e+00	2.535200e-01	3.347107e-01
3.050000e-01	3.800000e-01	7.412716e-01	1.436243e-01	2.051887e-01
3.800000e-01	4.600000e-01	3.773688e-01	7.912465e-02	1.265500e-01
4.600000e-01	5.500000e-01	1.378168e-01	4.346540e-02	7.616410e-02
5.500000e-01	1.000000e+00	9.142111e-03	4.741792e-03	8.979690e-03
# END HISTO1D