# BEGIN PLOT
# END PLOT

# BEGIN HISTO1D
LineColor=red
LineStyle=solid
Title=Z+Jet SHERPA MESP@NLO+NP
# Sigma = 1.397564e+01 pb
# xlow	xhigh	val	errminus	errplus
0.000000e+00	6.000000e-02	5.284195e-03	1.758551e-03	6.512107e-03
6.000000e-02	1.100000e-01	1.108749e-01	8.576155e-03	2.502299e-02
1.100000e-01	1.500000e-01	4.859557e-01	5.486687e-02	6.302447e-02
1.500000e-01	1.900000e-01	1.245805e+00	1.509510e-01	1.274194e-01
1.900000e-01	2.300000e-01	2.239225e+00	2.698553e-01	2.197064e-01
2.300000e-01	2.700000e-01	3.007459e+00	1.424655e-01	2.303390e-01
2.700000e-01	3.100000e-01	3.333718e+00	3.606209e-01	1.719010e-01
3.100000e-01	3.500000e-01	3.192622e+00	2.735200e-01	1.632165e-01
3.500000e-01	3.900000e-01	2.826570e+00	1.469788e-01	1.264335e-01
3.900000e-01	4.400000e-01	2.290670e+00	1.488152e-01	1.046522e-01
4.400000e-01	4.900000e-01	1.670278e+00	1.117787e-01	5.106478e-01
4.900000e-01	5.400000e-01	1.213181e+00	8.560369e-02	4.759423e-02
5.400000e-01	6.000000e-01	7.591094e-01	5.664850e-02	2.336707e-02
6.000000e-01	1.000000e+00	9.157995e-02	7.527079e-03	2.120707e-03
# END HISTO1D