# BEGIN PLOT
# END PLOT

# BEGIN HISTO1D
LineColor=red
LineStyle=solid
Title=Z+Jet RES+NP
# Sigma = 4.607657e-01 pb
# xlow	xhigh	val	errminus	errplus
0.000000e+00	6.000000e-02	3.026686e-01	1.750945e-01	1.624355e-01
6.000000e-02	1.100000e-01	3.684279e+00	3.860898e-01	4.145107e-01
1.100000e-01	1.500000e-01	5.246526e+00	8.362878e-01	9.445318e-01
1.500000e-01	1.900000e-01	4.205644e+00	6.367415e-01	7.749753e-01
1.900000e-01	2.300000e-01	3.235241e+00	5.343606e-01	6.451791e-01
2.300000e-01	2.700000e-01	2.443219e+00	4.343319e-01	5.320280e-01
2.700000e-01	3.100000e-01	1.841010e+00	3.514077e-01	4.518305e-01
3.100000e-01	3.500000e-01	1.380560e+00	2.719117e-01	3.694430e-01
3.500000e-01	3.900000e-01	1.030603e+00	2.078668e-01	2.947587e-01
3.900000e-01	4.400000e-01	7.228603e-01	1.524287e-01	2.251409e-01
4.400000e-01	4.900000e-01	4.411371e-01	1.099115e-01	1.619412e-01
4.900000e-01	5.400000e-01	2.152803e-01	7.232447e-02	1.124270e-01
5.400000e-01	6.000000e-01	9.263506e-02	4.336420e-02	6.616068e-02
6.000000e-01	1.000000e+00	4.871455e-03	2.632878e-03	4.001176e-03
# END HISTO1D