# BEGIN PLOT
# END PLOT

# BEGIN HISTO1D
LineColor=red
LineStyle=solid
Title=Z+Jet SHERPA MESP@NLO+NP
# Sigma = 2.645828e+00 pb
# xlow	xhigh	val	errminus	errplus
0.000000e+00	2.500000e-03	1.047753e+02	2.839113e+00	1.309377e+01
2.500000e-03	5.000000e-03	4.447346e+01	2.053981e+00	4.584631e+00
5.000000e-03	7.500000e-03	2.920428e+01	1.480727e+00	2.706718e+00
7.500000e-03	1.250000e-02	1.764752e+01	8.023483e-01	1.566023e+00
1.250000e-02	2.000000e-02	1.018586e+01	7.104131e-01	8.694995e-01
2.000000e-02	3.250000e-02	6.103612e+00	4.862552e-01	4.522295e-01
3.250000e-02	5.000000e-02	3.746316e+00	3.303578e-01	3.662568e-01
5.000000e-02	7.750000e-02	2.603446e+00	2.592901e-01	3.210208e-01
7.750000e-02	1.150000e-01	1.769008e+00	1.550520e-01	9.884854e-02
1.150000e-01	1.600000e-01	1.138356e+00	1.008992e-01	1.536283e-01
1.600000e-01	2.100000e-01	6.640424e-01	6.988530e-02	7.374819e-02
2.100000e-01	1.000000e+00	3.167029e-02	3.710566e-03	2.994525e-03
# END HISTO1D