# BEGIN PLOT
# END PLOT

# BEGIN HISTO1D
LineColor=red
LineStyle=solid
Title=Z+Jet SHERPA MESP@NLO+NP
# Sigma = 9.320595e+00 pb
# xlow	xhigh	val	errminus	errplus
0.000000e+00	1.700000e-01	3.983627e-01	1.864784e-02	6.503008e-02
1.700000e-01	2.500000e-01	2.606505e+00	1.158882e-01	3.270187e-01
2.500000e-01	3.200000e-01	3.662518e+00	2.134734e-01	3.838085e-01
3.200000e-01	3.800000e-01	2.989853e+00	2.212636e-01	4.751690e-01
3.800000e-01	4.500000e-01	1.989566e+00	1.679008e-01	1.580726e-01
4.500000e-01	5.200000e-01	1.132590e+00	1.142375e-01	7.206076e-02
5.200000e-01	5.900000e-01	6.052203e-01	6.636213e-02	2.592218e-02
5.900000e-01	1.000000e+00	6.603462e-02	7.757167e-03	3.397096e-03
# END HISTO1D