# BEGIN PLOT
# END PLOT

# BEGIN HISTO1D
LineColor=red
LineStyle=solid
Title=Z+Jet SHERPA MESP@NLO+NP
# Sigma = 1.201387e+00 pb
# xlow	xhigh	val	errminus	errplus
0.000000e+00	2.000000e-02	1.071593e+01	8.460049e-02	9.784370e-01
2.000000e-02	5.000000e-02	1.207238e+01	2.451290e-01	8.338991e-01
5.000000e-02	9.500000e-02	4.867753e+00	2.803729e-01	1.589617e-01
9.500000e-02	1.470000e-01	2.601789e+00	2.265480e-01	5.063776e-02
1.470000e-01	2.250000e-01	1.521742e+00	9.874205e-02	7.932264e-02
2.250000e-01	3.070000e-01	8.729045e-01	1.033203e-01	5.728440e-02
3.070000e-01	3.880000e-01	5.248402e-01	5.637011e-02	6.890540e-02
3.880000e-01	4.680000e-01	2.857363e-01	2.782973e-02	2.878962e-02
4.680000e-01	1.000000e+00	2.802636e-02	3.523098e-03	2.942473e-03
# END HISTO1D