# BEGIN PLOT
# END PLOT

# BEGIN HISTO1D
LineColor=red
LineStyle=solid
Title=Z+Jet SHERPA MESP@NLO+NP
# Sigma = 9.320595e+00 pb
# xlow	xhigh	val	errminus	errplus
0.000000e+00	1.700000e-01	3.712977e+00	1.738090e-01	6.061190e-01
1.700000e-01	2.500000e-01	2.429418e+01	1.080147e+00	3.048009e+00
2.500000e-01	3.200000e-01	3.413684e+01	1.989699e+00	3.577323e+00
3.200000e-01	3.800000e-01	2.786721e+01	2.062308e+00	4.428858e+00
3.800000e-01	4.500000e-01	1.854394e+01	1.564935e+00	1.473330e+00
4.500000e-01	5.200000e-01	1.055641e+01	1.064762e+00	6.716491e-01
5.200000e-01	5.900000e-01	5.641013e+00	6.185346e-01	2.416102e-01
5.900000e-01	1.000000e+00	6.154819e-01	7.230141e-02	3.166295e-02
# END HISTO1D