# BEGIN PLOT
# END PLOT

# BEGIN HISTO1D
LineColor=red
LineStyle=solid
Title=Z+Jet SHERPA MESP@NLO+NP
# Sigma = 5.583372e-01 pb
# xlow	xhigh	val	errminus	errplus
0.000000e+00	6.000000e-02	2.014207e-01	4.284727e-04	2.184468e-02
6.000000e-02	1.100000e-01	1.497664e+00	0.000000e+00	1.266600e-01
1.100000e-01	1.500000e-01	2.206822e+00	3.748250e-02	9.436920e-02
1.500000e-01	1.900000e-01	2.021153e+00	1.019866e-01	8.151987e-02
1.900000e-01	2.300000e-01	1.663190e+00	1.052483e-01	7.449120e-02
2.300000e-01	2.700000e-01	1.359980e+00	9.798837e-02	7.969182e-02
2.700000e-01	3.100000e-01	1.095343e+00	8.257939e-02	7.972241e-02
3.100000e-01	3.500000e-01	8.934527e-01	7.292169e-02	5.975189e-02
3.500000e-01	3.900000e-01	7.272747e-01	6.795872e-02	5.769701e-02
3.900000e-01	4.400000e-01	5.525130e-01	6.172581e-02	5.180994e-02
4.400000e-01	4.900000e-01	3.900109e-01	4.263574e-02	4.997182e-02
4.900000e-01	5.400000e-01	2.559661e-01	3.136263e-02	2.836187e-02
5.400000e-01	6.000000e-01	1.421782e-01	1.655845e-02	8.417054e-03
6.000000e-01	1.000000e+00	1.056240e-02	1.264366e-03	1.502777e-03
# END HISTO1D