# BEGIN PLOT
# END PLOT

# BEGIN HISTO1D
LineColor=red
LineStyle=solid
Title=Z+Jet RES+NP
# Sigma = 1.243787e+00 pb
# xlow	xhigh	val	errminus	errplus
0.000000e+00	5.000000e-03	9.403216e+00	4.020457e+00	3.988305e+00
5.000000e-03	1.250000e-02	3.076493e+01	5.181151e+00	5.133434e+00
1.250000e-02	2.250000e-02	2.400513e+01	3.458417e+00	3.917082e+00
2.250000e-02	3.500000e-02	1.684860e+01	2.505934e+00	3.077382e+00
3.500000e-02	5.000000e-02	9.743232e+00	1.381281e+00	1.706099e+00
5.000000e-02	7.000000e-02	6.500245e+00	9.803337e-01	1.244532e+00
7.000000e-02	9.250000e-02	4.012648e+00	6.237070e-01	7.850689e-01
9.250000e-02	1.200000e-01	2.599290e+00	4.084159e-01	4.918759e-01
1.200000e-01	1.520000e-01	1.620301e+00	2.849440e-01	3.664470e-01
1.520000e-01	1.880000e-01	9.767549e-01	1.930766e-01	2.705840e-01
1.880000e-01	2.280000e-01	6.262917e-01	1.266103e-01	2.006151e-01
2.280000e-01	1.000000e+00	1.838737e-02	7.022461e-03	1.373173e-02
# END HISTO1D