# BEGIN PLOT
# END PLOT

# BEGIN HISTO1D
LineColor=red
LineStyle=solid
Title=Z+Jet RES+NP
# Sigma = 1.716487e-01 pb
# xlow	xhigh	val	errminus	errplus
0.000000e+00	1.000000e-01	3.668368e-01	1.091310e-01	9.151884e-02
1.000000e-01	1.800000e-01	9.558895e-01	1.315270e-01	1.556583e-01
1.800000e-01	2.600000e-01	4.245554e-01	7.734620e-02	8.970367e-02
2.600000e-01	3.400000e-01	2.486392e-01	5.425876e-02	7.421256e-02
3.400000e-01	4.200000e-01	1.328138e-01	3.348329e-02	5.149719e-02
4.200000e-01	5.000000e-01	6.761981e-02	1.948532e-02	3.256372e-02
5.000000e-01	5.700000e-01	2.382961e-02	1.068004e-02	1.916657e-02
5.700000e-01	6.400000e-01	1.036220e-02	6.165969e-03	1.069559e-02
6.400000e-01	1.000000e+00	1.737897e-04	1.025112e-04	1.664543e-04
# END HISTO1D