# BEGIN PLOT
# END PLOT

# BEGIN HISTO1D
LineColor=red
LineStyle=solid
Title=Z+Jet RES+NP
# Sigma = 1.606410e+01 pb
# xlow	xhigh	val	errminus	errplus
0.000000e+00	1.700000e-01	3.919643e+00	1.228762e+00	9.234901e-01
1.700000e-01	2.500000e-01	4.431953e+01	1.004514e+01	1.170220e+01
2.500000e-01	3.200000e-01	6.034977e+01	1.381432e+01	1.975310e+01
3.200000e-01	3.800000e-01	5.324239e+01	1.223480e+01	1.925875e+01
3.800000e-01	4.500000e-01	3.721292e+01	8.975809e+00	1.473935e+01
4.500000e-01	5.200000e-01	2.148799e+01	5.963789e+00	9.801517e+00
5.200000e-01	5.900000e-01	8.005805e+00	3.412691e+00	5.585732e+00
5.900000e-01	1.000000e+00	5.931575e-01	3.381305e-01	4.803876e-01
# END HISTO1D