central	Number of Files = 999
env_mur0.5_muf0.5	Number of Files = 999
env_mur0.5_muf1	Number of Files = 999
env_mur1_muf0.5	Number of Files = 999
env_mur1_muf1	Number of Files = 999
env_mur1_muf2	Number of Files = 999
env_mur2_muf1	Number of Files = 999
env_mur2_muf2	Number of Files = 999
