# BEGIN PLOT
LegendOnly=/zj_ps_nlo_mer_mur2_muf2_R8.yoda/PAPER_FIN_R8/ch_SD_l05_pT_254_326
DrawOnly=/zj_ps_nlo_mer_mur2_muf2_R8.yoda/PAPER_FIN_R8/ch_SD_l05_pT_254_326
Legend=1
LogY=1
# END PLOT

# BEGIN HISTO1D /zj_ps_nlo_mer_mur2_muf2_R8.yoda/PAPER_FIN_R8/ch_SD_l05_pT_254_326
LineColor=red
LineStyle=solid
Path=/zj_ps_nlo_mer_mur2_muf2_R8.yoda/PAPER_FIN_R8/ch_SD_l05_pT_254_326
Title=zj_ps_nlo_mer_mur2_muf2_R8
XLabel=~
YLabel=~
# xlow	 xhigh	 val	 errminus	 errplus
-7.000000e+00	-6.930000e+00	0.000000e+00	0.000000e+00	0.000000e+00
-6.930000e+00	-6.860000e+00	3.194149e+08	1.744057e+07	1.744057e+07
-6.860000e+00	-6.790000e+00	0.000000e+00	0.000000e+00	0.000000e+00
-6.790000e+00	-6.720000e+00	0.000000e+00	0.000000e+00	0.000000e+00
-6.720000e+00	-6.650000e+00	0.000000e+00	0.000000e+00	0.000000e+00
-6.650000e+00	-6.580000e+00	0.000000e+00	0.000000e+00	0.000000e+00
-6.580000e+00	-6.510000e+00	0.000000e+00	0.000000e+00	0.000000e+00
-6.510000e+00	-6.440000e+00	0.000000e+00	0.000000e+00	0.000000e+00
-6.440000e+00	-6.370000e+00	0.000000e+00	0.000000e+00	0.000000e+00
-6.370000e+00	-6.300000e+00	0.000000e+00	0.000000e+00	0.000000e+00
-6.300000e+00	-6.230000e+00	0.000000e+00	0.000000e+00	0.000000e+00
-6.230000e+00	-6.160000e+00	0.000000e+00	0.000000e+00	0.000000e+00
-6.160000e+00	-6.090000e+00	0.000000e+00	0.000000e+00	0.000000e+00
-6.090000e+00	-6.020000e+00	0.000000e+00	0.000000e+00	0.000000e+00
-6.020000e+00	-5.950000e+00	0.000000e+00	0.000000e+00	0.000000e+00
-5.950000e+00	-5.880000e+00	0.000000e+00	0.000000e+00	0.000000e+00
-5.880000e+00	-5.810000e+00	0.000000e+00	0.000000e+00	0.000000e+00
-5.810000e+00	-5.740000e+00	0.000000e+00	0.000000e+00	0.000000e+00
-5.740000e+00	-5.670000e+00	0.000000e+00	0.000000e+00	0.000000e+00
-5.670000e+00	-5.600000e+00	0.000000e+00	0.000000e+00	0.000000e+00
-5.600000e+00	-5.530000e+00	0.000000e+00	0.000000e+00	0.000000e+00
-5.530000e+00	-5.460000e+00	0.000000e+00	0.000000e+00	0.000000e+00
-5.460000e+00	-5.390000e+00	0.000000e+00	0.000000e+00	0.000000e+00
-5.390000e+00	-5.320000e+00	0.000000e+00	0.000000e+00	0.000000e+00
-5.320000e+00	-5.250000e+00	0.000000e+00	0.000000e+00	0.000000e+00
-5.250000e+00	-5.180000e+00	0.000000e+00	0.000000e+00	0.000000e+00
-5.180000e+00	-5.110000e+00	0.000000e+00	0.000000e+00	0.000000e+00
-5.110000e+00	-5.040000e+00	0.000000e+00	0.000000e+00	0.000000e+00
-5.040000e+00	-4.970000e+00	0.000000e+00	0.000000e+00	0.000000e+00
-4.970000e+00	-4.900000e+00	0.000000e+00	0.000000e+00	0.000000e+00
-4.900000e+00	-4.830000e+00	0.000000e+00	0.000000e+00	0.000000e+00
-4.830000e+00	-4.760000e+00	0.000000e+00	0.000000e+00	0.000000e+00
-4.760000e+00	-4.690000e+00	0.000000e+00	0.000000e+00	0.000000e+00
-4.690000e+00	-4.620000e+00	0.000000e+00	0.000000e+00	0.000000e+00
-4.620000e+00	-4.550000e+00	0.000000e+00	0.000000e+00	0.000000e+00
-4.550000e+00	-4.480000e+00	0.000000e+00	0.000000e+00	0.000000e+00
-4.480000e+00	-4.410000e+00	0.000000e+00	0.000000e+00	0.000000e+00
-4.410000e+00	-4.340000e+00	0.000000e+00	0.000000e+00	0.000000e+00
-4.340000e+00	-4.270000e+00	0.000000e+00	0.000000e+00	0.000000e+00
-4.270000e+00	-4.200000e+00	0.000000e+00	0.000000e+00	0.000000e+00
-4.200000e+00	-4.130000e+00	0.000000e+00	0.000000e+00	0.000000e+00
-4.130000e+00	-4.060000e+00	0.000000e+00	0.000000e+00	0.000000e+00
-4.060000e+00	-3.990000e+00	0.000000e+00	0.000000e+00	0.000000e+00
-3.990000e+00	-3.920000e+00	0.000000e+00	0.000000e+00	0.000000e+00
-3.920000e+00	-3.850000e+00	0.000000e+00	0.000000e+00	0.000000e+00
-3.850000e+00	-3.780000e+00	0.000000e+00	0.000000e+00	0.000000e+00
-3.780000e+00	-3.710000e+00	0.000000e+00	0.000000e+00	0.000000e+00
-3.710000e+00	-3.640000e+00	0.000000e+00	0.000000e+00	0.000000e+00
-3.640000e+00	-3.570000e+00	0.000000e+00	0.000000e+00	0.000000e+00
-3.570000e+00	-3.500000e+00	0.000000e+00	0.000000e+00	0.000000e+00
-3.500000e+00	-3.430000e+00	0.000000e+00	0.000000e+00	0.000000e+00
-3.430000e+00	-3.360000e+00	0.000000e+00	0.000000e+00	0.000000e+00
-3.360000e+00	-3.290000e+00	0.000000e+00	0.000000e+00	0.000000e+00
-3.290000e+00	-3.220000e+00	0.000000e+00	0.000000e+00	0.000000e+00
-3.220000e+00	-3.150000e+00	0.000000e+00	0.000000e+00	0.000000e+00
-3.150000e+00	-3.080000e+00	0.000000e+00	0.000000e+00	0.000000e+00
-3.080000e+00	-3.010000e+00	0.000000e+00	0.000000e+00	0.000000e+00
-3.010000e+00	-2.940000e+00	-4.879900e+01	4.879900e+01	4.879900e+01
-2.940000e+00	-2.870000e+00	5.325047e+04	5.276391e+04	5.276391e+04
-2.870000e+00	-2.800000e+00	-1.689154e+03	1.741642e+03	1.741642e+03
-2.800000e+00	-2.730000e+00	6.228076e+02	1.794391e+03	1.794391e+03
-2.730000e+00	-2.660000e+00	3.431360e+03	3.094673e+03	3.094673e+03
-2.660000e+00	-2.590000e+00	5.124953e+04	4.926820e+04	4.926820e+04
-2.590000e+00	-2.520000e+00	-7.400940e+03	2.210225e+04	2.210225e+04
-2.520000e+00	-2.450000e+00	9.878023e+04	8.436631e+04	8.436631e+04
-2.450000e+00	-2.380000e+00	6.716416e+04	7.338879e+04	7.338879e+04
-2.380000e+00	-2.310000e+00	-3.712331e+04	3.228382e+05	3.228382e+05
-2.310000e+00	-2.240000e+00	1.265433e+06	4.886074e+05	4.886074e+05
-2.240000e+00	-2.170000e+00	3.206077e+06	1.029596e+06	1.029596e+06
-2.170000e+00	-2.100000e+00	2.764551e+06	1.023591e+06	1.023591e+06
-2.100000e+00	-2.030000e+00	1.373707e+07	2.529292e+06	2.529292e+06
-2.030000e+00	-1.960000e+00	2.138124e+07	3.951076e+06	3.951076e+06
-1.960000e+00	-1.890000e+00	3.029811e+07	8.343807e+06	8.343807e+06
-1.890000e+00	-1.820000e+00	5.703107e+07	7.678595e+06	7.678595e+06
-1.820000e+00	-1.750000e+00	7.576627e+07	8.691755e+06	8.691755e+06
-1.750000e+00	-1.680000e+00	1.192561e+08	9.019195e+06	9.019195e+06
-1.680000e+00	-1.610000e+00	1.705437e+08	1.264032e+07	1.264032e+07
-1.610000e+00	-1.540000e+00	2.397371e+08	1.344587e+07	1.344587e+07
-1.540000e+00	-1.470000e+00	2.674283e+08	1.731283e+07	1.731283e+07
-1.470000e+00	-1.400000e+00	4.472793e+08	2.752719e+07	2.752719e+07
-1.400000e+00	-1.330000e+00	6.387319e+08	4.031177e+07	4.031177e+07
-1.330000e+00	-1.260000e+00	7.024983e+08	2.996824e+07	2.996824e+07
-1.260000e+00	-1.190000e+00	9.250299e+08	3.734478e+07	3.734478e+07
-1.190000e+00	-1.120000e+00	1.223376e+09	4.105641e+07	4.105641e+07
-1.120000e+00	-1.050000e+00	1.366894e+09	5.164194e+07	5.164194e+07
-1.050000e+00	-9.800000e-01	1.405939e+09	4.414859e+07	4.414859e+07
-9.800000e-01	-9.100000e-01	1.490259e+09	4.391036e+07	4.391036e+07
-9.100000e-01	-8.400000e-01	1.520866e+09	3.972618e+07	3.972618e+07
-8.400000e-01	-7.700000e-01	1.479029e+09	4.686405e+07	4.686405e+07
-7.700000e-01	-7.000000e-01	1.450977e+09	3.547288e+07	3.547288e+07
-7.000000e-01	-6.300000e-01	1.553593e+09	4.281000e+07	4.281000e+07
-6.300000e-01	-5.600000e-01	1.519714e+09	3.852051e+07	3.852051e+07
-5.600000e-01	-4.900000e-01	1.634677e+09	5.819959e+07	5.819959e+07
-4.900000e-01	-4.200000e-01	1.414135e+09	3.680432e+07	3.680432e+07
-4.200000e-01	-3.500000e-01	1.164314e+09	4.461148e+07	4.461148e+07
-3.500000e-01	-2.800000e-01	9.275957e+08	3.016208e+07	3.016208e+07
-2.800000e-01	-2.100000e-01	4.606840e+08	1.966716e+07	1.966716e+07
-2.100000e-01	-1.400000e-01	1.040544e+08	6.897790e+06	6.897790e+06
-1.400000e-01	-7.000000e-02	6.775047e+06	2.536019e+06	2.536019e+06
-7.000000e-02	0.000000e+00	3.671941e+01	3.692627e+01	3.692627e+01
# END HISTO1D

