# BEGIN PLOT
LegendOnly=/zj_ps_nlo_mer_mur2_muf2_R8.yoda/PAPER_FIN_R8/ch_lin_SD_l20_pT_254_326
DrawOnly=/zj_ps_nlo_mer_mur2_muf2_R8.yoda/PAPER_FIN_R8/ch_lin_SD_l20_pT_254_326
Legend=1
LogY=1
# END PLOT

# BEGIN HISTO1D /zj_ps_nlo_mer_mur2_muf2_R8.yoda/PAPER_FIN_R8/ch_lin_SD_l20_pT_254_326
LineColor=red
LineStyle=solid
Path=/zj_ps_nlo_mer_mur2_muf2_R8.yoda/PAPER_FIN_R8/ch_lin_SD_l20_pT_254_326
Title=zj_ps_nlo_mer_mur2_muf2_R8
XLabel=~
YLabel=~
# xlow	 xhigh	 val	 errminus	 errplus
0.000000e+00	2.500000e-03	3.123003e+11	3.604080e+09	3.604080e+09
2.500000e-03	5.000000e-03	3.978096e+10	9.081351e+08	9.081351e+08
5.000000e-03	7.500000e-03	2.157117e+10	7.420380e+08	7.420380e+08
7.500000e-03	1.250000e-02	1.477646e+10	4.762771e+08	4.762771e+08
1.250000e-02	2.000000e-02	9.074347e+09	2.631107e+08	2.631107e+08
2.000000e-02	3.250000e-02	6.057930e+09	1.711777e+08	1.711777e+08
3.250000e-02	5.000000e-02	4.355419e+09	1.523347e+08	1.523347e+08
5.000000e-02	7.750000e-02	3.335314e+09	8.456139e+07	8.456139e+07
7.750000e-02	1.150000e-01	2.660221e+09	1.099991e+08	1.099991e+08
1.150000e-01	1.600000e-01	1.805687e+09	6.857002e+07	6.857002e+07
1.600000e-01	2.100000e-01	1.073337e+09	4.235672e+07	4.235672e+07
2.100000e-01	1.000000e+00	4.895759e+07	1.976768e+06	1.976768e+06
# END HISTO1D

