# BEGIN PLOT
LegendOnly=/zj_ps_nlo_mer_mur2_muf2_R8.yoda/PAPER_FIN_R8_CH/lin_l05_pT_408_1500
DrawOnly=/zj_ps_nlo_mer_mur2_muf2_R8.yoda/PAPER_FIN_R8_CH/lin_l05_pT_408_1500
Legend=1
LogY=1
# END PLOT

# BEGIN HISTO1D /zj_ps_nlo_mer_mur2_muf2_R8.yoda/PAPER_FIN_R8_CH/lin_l05_pT_408_1500
LineColor=red
LineStyle=solid
Path=/zj_ps_nlo_mer_mur2_muf2_R8.yoda/PAPER_FIN_R8_CH/lin_l05_pT_408_1500
Title=zj_ps_nlo_mer_mur2_muf2_R8
XLabel=~
YLabel=~
# xlow	 xhigh	 val	 errminus	 errplus
0.000000e+00	6.000000e-02	1.923452e+08	1.364653e+07	1.364653e+07
6.000000e-02	1.100000e-01	2.089278e+09	6.121563e+07	6.121563e+07
1.100000e-01	1.500000e-01	2.279035e+09	5.857004e+07	5.857004e+07
1.500000e-01	1.900000e-01	1.750615e+09	5.130021e+07	5.130021e+07
1.900000e-01	2.300000e-01	1.347477e+09	4.447345e+07	4.447345e+07
2.300000e-01	2.700000e-01	1.038283e+09	3.179616e+07	3.179616e+07
2.700000e-01	3.100000e-01	1.024172e+09	1.796880e+08	1.796880e+08
3.100000e-01	3.500000e-01	6.589080e+08	3.407499e+07	3.407499e+07
3.500000e-01	3.900000e-01	5.114902e+08	3.130011e+07	3.130011e+07
3.900000e-01	4.400000e-01	3.586708e+08	2.099593e+07	2.099593e+07
4.400000e-01	4.900000e-01	2.539882e+08	1.339837e+07	1.339837e+07
4.900000e-01	5.400000e-01	1.608902e+08	1.088841e+07	1.088841e+07
5.400000e-01	6.000000e-01	8.431205e+07	1.068322e+07	1.068322e+07
6.000000e-01	1.000000e+00	8.060882e+06	2.343480e+06	2.343480e+06
# END HISTO1D

