# BEGIN PLOT
LegendOnly=/zj_ps_nlo_mer_cent_R4.yoda/PAPER_FIN_R4/ch_l10_pT_186_254
DrawOnly=/zj_ps_nlo_mer_cent_R4.yoda/PAPER_FIN_R4/ch_l10_pT_186_254
Legend=1
LogY=1
# END PLOT

# BEGIN HISTO1D /zj_ps_nlo_mer_cent_R4.yoda/PAPER_FIN_R4/ch_l10_pT_186_254
LineColor=red
LineStyle=solid
Path=/zj_ps_nlo_mer_cent_R4.yoda/PAPER_FIN_R4/ch_l10_pT_186_254
Title=zj_ps_nlo_mer_cent_R4
XLabel=~
YLabel=~
# xlow	 xhigh	 val	 errminus	 errplus
-7.000000e+00	-6.930000e+00	0.000000e+00	0.000000e+00	0.000000e+00
-6.930000e+00	-6.860000e+00	2.705877e+07	1.560097e+06	1.560097e+06
-6.860000e+00	-6.790000e+00	0.000000e+00	0.000000e+00	0.000000e+00
-6.790000e+00	-6.720000e+00	0.000000e+00	0.000000e+00	0.000000e+00
-6.720000e+00	-6.650000e+00	0.000000e+00	0.000000e+00	0.000000e+00
-6.650000e+00	-6.580000e+00	0.000000e+00	0.000000e+00	0.000000e+00
-6.580000e+00	-6.510000e+00	0.000000e+00	0.000000e+00	0.000000e+00
-6.510000e+00	-6.440000e+00	0.000000e+00	0.000000e+00	0.000000e+00
-6.440000e+00	-6.370000e+00	0.000000e+00	0.000000e+00	0.000000e+00
-6.370000e+00	-6.300000e+00	0.000000e+00	0.000000e+00	0.000000e+00
-6.300000e+00	-6.230000e+00	0.000000e+00	0.000000e+00	0.000000e+00
-6.230000e+00	-6.160000e+00	0.000000e+00	0.000000e+00	0.000000e+00
-6.160000e+00	-6.090000e+00	0.000000e+00	0.000000e+00	0.000000e+00
-6.090000e+00	-6.020000e+00	0.000000e+00	0.000000e+00	0.000000e+00
-6.020000e+00	-5.950000e+00	0.000000e+00	0.000000e+00	0.000000e+00
-5.950000e+00	-5.880000e+00	0.000000e+00	0.000000e+00	0.000000e+00
-5.880000e+00	-5.810000e+00	0.000000e+00	0.000000e+00	0.000000e+00
-5.810000e+00	-5.740000e+00	0.000000e+00	0.000000e+00	0.000000e+00
-5.740000e+00	-5.670000e+00	0.000000e+00	0.000000e+00	0.000000e+00
-5.670000e+00	-5.600000e+00	0.000000e+00	0.000000e+00	0.000000e+00
-5.600000e+00	-5.530000e+00	0.000000e+00	0.000000e+00	0.000000e+00
-5.530000e+00	-5.460000e+00	0.000000e+00	0.000000e+00	0.000000e+00
-5.460000e+00	-5.390000e+00	0.000000e+00	0.000000e+00	0.000000e+00
-5.390000e+00	-5.320000e+00	0.000000e+00	0.000000e+00	0.000000e+00
-5.320000e+00	-5.250000e+00	5.208206e+00	5.208206e+00	5.208206e+00
-5.250000e+00	-5.180000e+00	0.000000e+00	0.000000e+00	0.000000e+00
-5.180000e+00	-5.110000e+00	0.000000e+00	0.000000e+00	0.000000e+00
-5.110000e+00	-5.040000e+00	3.459196e+01	3.421314e+01	3.421314e+01
-5.040000e+00	-4.970000e+00	5.590754e+01	5.590754e+01	5.590754e+01
-4.970000e+00	-4.900000e+00	0.000000e+00	0.000000e+00	0.000000e+00
-4.900000e+00	-4.830000e+00	-2.627103e+02	2.627103e+02	2.627103e+02
-4.830000e+00	-4.760000e+00	8.493370e+03	8.493371e+03	8.493371e+03
-4.760000e+00	-4.690000e+00	-5.518697e+02	5.505311e+02	5.505311e+02
-4.690000e+00	-4.620000e+00	1.222079e+02	9.975633e+01	9.975633e+01
-4.620000e+00	-4.550000e+00	1.323709e+03	2.777546e+03	2.777546e+03
-4.550000e+00	-4.480000e+00	7.541729e+02	6.774591e+02	6.774591e+02
-4.480000e+00	-4.410000e+00	6.823563e+03	5.960563e+03	5.960563e+03
-4.410000e+00	-4.340000e+00	3.170617e+02	2.068204e+02	2.068204e+02
-4.340000e+00	-4.270000e+00	1.624769e+04	1.256355e+04	1.256355e+04
-4.270000e+00	-4.200000e+00	2.612629e+03	5.945307e+03	5.945307e+03
-4.200000e+00	-4.130000e+00	2.038214e+03	2.231054e+04	2.231054e+04
-4.130000e+00	-4.060000e+00	1.813509e+04	1.520460e+04	1.520460e+04
-4.060000e+00	-3.990000e+00	1.827204e+04	2.024348e+04	2.024348e+04
-3.990000e+00	-3.920000e+00	4.617396e+04	2.241803e+04	2.241803e+04
-3.920000e+00	-3.850000e+00	-6.954869e+03	2.041223e+04	2.041223e+04
-3.850000e+00	-3.780000e+00	-1.204910e+05	9.270771e+04	9.270771e+04
-3.780000e+00	-3.710000e+00	7.802040e+04	3.774887e+04	3.774887e+04
-3.710000e+00	-3.640000e+00	7.985473e+04	3.439255e+04	3.439255e+04
-3.640000e+00	-3.570000e+00	7.755149e+04	4.909181e+04	4.909181e+04
-3.570000e+00	-3.500000e+00	2.439964e+05	9.921510e+04	9.921510e+04
-3.500000e+00	-3.430000e+00	5.517390e+04	6.338243e+04	6.338243e+04
-3.430000e+00	-3.360000e+00	-3.666891e+03	1.785793e+05	1.785793e+05
-3.360000e+00	-3.290000e+00	2.253486e+05	2.309765e+05	2.309765e+05
-3.290000e+00	-3.220000e+00	4.059411e+05	1.131669e+05	1.131669e+05
-3.220000e+00	-3.150000e+00	2.144313e+05	2.026796e+05	2.026796e+05
-3.150000e+00	-3.080000e+00	3.151120e+05	1.110008e+05	1.110008e+05
-3.080000e+00	-3.010000e+00	4.548079e+05	1.667758e+05	1.667758e+05
-3.010000e+00	-2.940000e+00	6.359070e+05	1.789459e+05	1.789459e+05
-2.940000e+00	-2.870000e+00	9.022491e+05	2.236768e+05	2.236768e+05
-2.870000e+00	-2.800000e+00	-1.144320e+05	1.228054e+06	1.228054e+06
-2.800000e+00	-2.730000e+00	1.727094e+06	3.105605e+05	3.105605e+05
-2.730000e+00	-2.660000e+00	1.753451e+05	1.839262e+06	1.839262e+06
-2.660000e+00	-2.590000e+00	3.396033e+06	7.278854e+05	7.278854e+05
-2.590000e+00	-2.520000e+00	4.014510e+06	9.205064e+05	9.205064e+05
-2.520000e+00	-2.450000e+00	3.834539e+06	1.006799e+06	1.006799e+06
-2.450000e+00	-2.380000e+00	7.963997e+06	1.237739e+06	1.237739e+06
-2.380000e+00	-2.310000e+00	8.991233e+06	7.622352e+05	7.622352e+05
-2.310000e+00	-2.240000e+00	1.532903e+07	1.741834e+06	1.741834e+06
-2.240000e+00	-2.170000e+00	2.024177e+07	2.062480e+06	2.062480e+06
-2.170000e+00	-2.100000e+00	2.588069e+07	3.056665e+06	3.056665e+06
-2.100000e+00	-2.030000e+00	3.683684e+07	4.885294e+06	4.885294e+06
-2.030000e+00	-1.960000e+00	6.263194e+07	2.874364e+06	2.874364e+06
-1.960000e+00	-1.890000e+00	8.263453e+07	1.079647e+07	1.079647e+07
-1.890000e+00	-1.820000e+00	1.421974e+08	5.624598e+06	5.624598e+06
-1.820000e+00	-1.750000e+00	2.263971e+08	1.161684e+07	1.161684e+07
-1.750000e+00	-1.680000e+00	3.283027e+08	7.995205e+06	7.995205e+06
-1.680000e+00	-1.610000e+00	4.707283e+08	1.845945e+07	1.845945e+07
-1.610000e+00	-1.540000e+00	7.056966e+08	1.684908e+07	1.684908e+07
-1.540000e+00	-1.470000e+00	1.017615e+09	2.299196e+07	2.299196e+07
-1.470000e+00	-1.400000e+00	1.442304e+09	3.703500e+07	3.703500e+07
-1.400000e+00	-1.330000e+00	1.871363e+09	2.492184e+07	2.492184e+07
-1.330000e+00	-1.260000e+00	2.234944e+09	4.671269e+07	4.671269e+07
-1.260000e+00	-1.190000e+00	2.515870e+09	4.382137e+07	4.382137e+07
-1.190000e+00	-1.120000e+00	2.666044e+09	3.566284e+07	3.566284e+07
-1.120000e+00	-1.050000e+00	2.721956e+09	3.321685e+07	3.321685e+07
-1.050000e+00	-9.800000e-01	2.695131e+09	4.326439e+07	4.326439e+07
-9.800000e-01	-9.100000e-01	2.635877e+09	3.541163e+07	3.541163e+07
-9.100000e-01	-8.400000e-01	2.424386e+09	3.815722e+07	3.815722e+07
-8.400000e-01	-7.700000e-01	2.265540e+09	3.719002e+07	3.719002e+07
-7.700000e-01	-7.000000e-01	1.915234e+09	4.992431e+07	4.992431e+07
-7.000000e-01	-6.300000e-01	1.655550e+09	4.696440e+07	4.696440e+07
-6.300000e-01	-5.600000e-01	1.350180e+09	4.818506e+07	4.818506e+07
-5.600000e-01	-4.900000e-01	1.065680e+09	3.923917e+07	3.923917e+07
-4.900000e-01	-4.200000e-01	8.372299e+08	1.761612e+07	1.761612e+07
-4.200000e-01	-3.500000e-01	5.397231e+08	1.161323e+07	1.161323e+07
-3.500000e-01	-2.800000e-01	2.641894e+08	2.971545e+07	2.971545e+07
-2.800000e-01	-2.100000e-01	8.775729e+07	5.444599e+06	5.444599e+06
-2.100000e-01	-1.400000e-01	1.232369e+07	2.657104e+06	2.657104e+06
-1.400000e-01	-7.000000e-02	1.051091e+06	2.751356e+05	2.751356e+05
-7.000000e-02	0.000000e+00	8.293396e+03	8.250445e+03	8.250445e+03
# END HISTO1D

