# BEGIN PLOT
LegendOnly=/zj_ps_nlo_mer_cent_R4.yoda/PAPER_FIN_R4/SD_l20_pT_254_326
DrawOnly=/zj_ps_nlo_mer_cent_R4.yoda/PAPER_FIN_R4/SD_l20_pT_254_326
Legend=1
LogY=1
# END PLOT

# BEGIN HISTO1D /zj_ps_nlo_mer_cent_R4.yoda/PAPER_FIN_R4/SD_l20_pT_254_326
LineColor=red
LineStyle=solid
Path=/zj_ps_nlo_mer_cent_R4.yoda/PAPER_FIN_R4/SD_l20_pT_254_326
Title=zj_ps_nlo_mer_cent_R4
XLabel=~
YLabel=~
# xlow	 xhigh	 val	 errminus	 errplus
-7.000000e+00	-6.930000e+00	4.624227e+04	7.899736e+04	7.899736e+04
-6.930000e+00	-6.860000e+00	4.403440e+07	1.466119e+06	1.466119e+06
-6.860000e+00	-6.790000e+00	1.155444e+05	6.004167e+04	6.004167e+04
-6.790000e+00	-6.720000e+00	3.700260e+05	1.655515e+05	1.655515e+05
-6.720000e+00	-6.650000e+00	1.367650e+05	1.190275e+05	1.190275e+05
-6.650000e+00	-6.580000e+00	4.330806e+05	1.264334e+05	1.264334e+05
-6.580000e+00	-6.510000e+00	3.227511e+05	8.758240e+04	8.758240e+04
-6.510000e+00	-6.440000e+00	5.693379e+05	1.018649e+05	1.018649e+05
-6.440000e+00	-6.370000e+00	6.140896e+05	1.369684e+05	1.369684e+05
-6.370000e+00	-6.300000e+00	1.013382e+06	4.470835e+05	4.470835e+05
-6.300000e+00	-6.230000e+00	5.346759e+05	1.336625e+05	1.336625e+05
-6.230000e+00	-6.160000e+00	6.126899e+05	1.702781e+05	1.702781e+05
-6.160000e+00	-6.090000e+00	9.833933e+05	1.302050e+05	1.302050e+05
-6.090000e+00	-6.020000e+00	1.068648e+06	2.099569e+05	2.099569e+05
-6.020000e+00	-5.950000e+00	4.376381e+05	2.797885e+05	2.797885e+05
-5.950000e+00	-5.880000e+00	1.435709e+06	2.254307e+05	2.254307e+05
-5.880000e+00	-5.810000e+00	1.182157e+06	2.960422e+05	2.960422e+05
-5.810000e+00	-5.740000e+00	2.680011e+06	2.976005e+05	2.976005e+05
-5.740000e+00	-5.670000e+00	3.554159e+06	4.288396e+05	4.288396e+05
-5.670000e+00	-5.600000e+00	3.915954e+06	4.643407e+05	4.643407e+05
-5.600000e+00	-5.530000e+00	4.205826e+06	4.965547e+05	4.965547e+05
-5.530000e+00	-5.460000e+00	5.357123e+06	5.395331e+05	5.395331e+05
-5.460000e+00	-5.390000e+00	4.282626e+06	3.829306e+05	3.829306e+05
-5.390000e+00	-5.320000e+00	4.850424e+06	6.000468e+05	6.000468e+05
-5.320000e+00	-5.250000e+00	3.493444e+06	2.749234e+06	2.749234e+06
-5.250000e+00	-5.180000e+00	6.827786e+06	6.129264e+05	6.129264e+05
-5.180000e+00	-5.110000e+00	8.323820e+06	5.836701e+05	5.836701e+05
-5.110000e+00	-5.040000e+00	1.037271e+07	6.180597e+05	6.180597e+05
-5.040000e+00	-4.970000e+00	1.358958e+07	1.151570e+06	1.151570e+06
-4.970000e+00	-4.900000e+00	1.371244e+07	2.020239e+06	2.020239e+06
-4.900000e+00	-4.830000e+00	1.918154e+07	1.066908e+06	1.066908e+06
-4.830000e+00	-4.760000e+00	2.326354e+07	1.442052e+06	1.442052e+06
-4.760000e+00	-4.690000e+00	2.962984e+07	1.878688e+06	1.878688e+06
-4.690000e+00	-4.620000e+00	3.190830e+07	1.591064e+06	1.591064e+06
-4.620000e+00	-4.550000e+00	4.071714e+07	2.694905e+06	2.694905e+06
-4.550000e+00	-4.480000e+00	4.816749e+07	4.916123e+06	4.916123e+06
-4.480000e+00	-4.410000e+00	6.849236e+07	2.341114e+06	2.341114e+06
-4.410000e+00	-4.340000e+00	8.013644e+07	2.616108e+06	2.616108e+06
-4.340000e+00	-4.270000e+00	8.760264e+07	2.673539e+06	2.673539e+06
-4.270000e+00	-4.200000e+00	1.032172e+08	3.019062e+06	3.019062e+06
-4.200000e+00	-4.130000e+00	1.260649e+08	4.896690e+06	4.896690e+06
-4.130000e+00	-4.060000e+00	1.585620e+08	1.627848e+07	1.627848e+07
-4.060000e+00	-3.990000e+00	1.510764e+08	8.404654e+06	8.404654e+06
-3.990000e+00	-3.920000e+00	1.668226e+08	9.899236e+06	9.899236e+06
-3.920000e+00	-3.850000e+00	2.079597e+08	4.994454e+06	4.994454e+06
-3.850000e+00	-3.780000e+00	2.469886e+08	4.814521e+06	4.814521e+06
-3.780000e+00	-3.710000e+00	2.616247e+08	7.417142e+06	7.417142e+06
-3.710000e+00	-3.640000e+00	3.096421e+08	6.992576e+06	6.992576e+06
-3.640000e+00	-3.570000e+00	3.396599e+08	6.658748e+06	6.658748e+06
-3.570000e+00	-3.500000e+00	3.683480e+08	7.938856e+06	7.938856e+06
-3.500000e+00	-3.430000e+00	3.989094e+08	8.448289e+06	8.448289e+06
-3.430000e+00	-3.360000e+00	4.203276e+08	8.337465e+06	8.337465e+06
-3.360000e+00	-3.290000e+00	4.575823e+08	6.670116e+06	6.670116e+06
-3.290000e+00	-3.220000e+00	4.699803e+08	8.977823e+06	8.977823e+06
-3.220000e+00	-3.150000e+00	5.137591e+08	8.396659e+06	8.396659e+06
-3.150000e+00	-3.080000e+00	5.067373e+08	8.310993e+06	8.310993e+06
-3.080000e+00	-3.010000e+00	4.920149e+08	1.089600e+07	1.089600e+07
-3.010000e+00	-2.940000e+00	4.917593e+08	1.197414e+07	1.197414e+07
-2.940000e+00	-2.870000e+00	5.177716e+08	9.897530e+06	9.897530e+06
-2.870000e+00	-2.800000e+00	5.120609e+08	8.828874e+06	8.828874e+06
-2.800000e+00	-2.730000e+00	4.906443e+08	7.464657e+06	7.464657e+06
-2.730000e+00	-2.660000e+00	4.603597e+08	1.502160e+07	1.502160e+07
-2.660000e+00	-2.590000e+00	4.820996e+08	9.093507e+06	9.093507e+06
-2.590000e+00	-2.520000e+00	4.358346e+08	9.976584e+06	9.976584e+06
-2.520000e+00	-2.450000e+00	3.934426e+08	1.179006e+07	1.179006e+07
-2.450000e+00	-2.380000e+00	4.418009e+08	5.170489e+07	5.170489e+07
-2.380000e+00	-2.310000e+00	3.702114e+08	6.005452e+06	6.005452e+06
-2.310000e+00	-2.240000e+00	3.629300e+08	6.665641e+06	6.665641e+06
-2.240000e+00	-2.170000e+00	3.472064e+08	6.384612e+06	6.384612e+06
-2.170000e+00	-2.100000e+00	3.358501e+08	1.319358e+07	1.319358e+07
-2.100000e+00	-2.030000e+00	3.594953e+08	3.033027e+07	3.033027e+07
-2.030000e+00	-1.960000e+00	3.324121e+08	5.535433e+06	5.535433e+06
-1.960000e+00	-1.890000e+00	3.241297e+08	9.722006e+06	9.722006e+06
-1.890000e+00	-1.820000e+00	3.072010e+08	1.775995e+07	1.775995e+07
-1.820000e+00	-1.750000e+00	3.085367e+08	1.121139e+07	1.121139e+07
-1.750000e+00	-1.680000e+00	3.238406e+08	6.275214e+06	6.275214e+06
-1.680000e+00	-1.610000e+00	3.056093e+08	1.466465e+07	1.466465e+07
-1.610000e+00	-1.540000e+00	3.278001e+08	6.601363e+06	6.601363e+06
-1.540000e+00	-1.470000e+00	3.326547e+08	8.950484e+06	8.950484e+06
-1.470000e+00	-1.400000e+00	3.408984e+08	6.551618e+06	6.551618e+06
-1.400000e+00	-1.330000e+00	3.574937e+08	8.270822e+06	8.270822e+06
-1.330000e+00	-1.260000e+00	3.680130e+08	5.371831e+06	5.371831e+06
-1.260000e+00	-1.190000e+00	3.588623e+08	6.701594e+06	6.701594e+06
-1.190000e+00	-1.120000e+00	3.982019e+08	6.207323e+06	6.207323e+06
-1.120000e+00	-1.050000e+00	3.975887e+08	9.889198e+06	9.889198e+06
-1.050000e+00	-9.800000e-01	4.085217e+08	6.634203e+06	6.634203e+06
-9.800000e-01	-9.100000e-01	3.770057e+08	8.056716e+06	8.056716e+06
-9.100000e-01	-8.400000e-01	3.660383e+08	5.897694e+06	5.897694e+06
-8.400000e-01	-7.700000e-01	3.361393e+08	1.052954e+07	1.052954e+07
-7.700000e-01	-7.000000e-01	2.831726e+08	8.421911e+06	8.421911e+06
-7.000000e-01	-6.300000e-01	2.130473e+08	1.208506e+07	1.208506e+07
-6.300000e-01	-5.600000e-01	1.340267e+08	3.695823e+06	3.695823e+06
-5.600000e-01	-4.900000e-01	4.647384e+07	4.448250e+06	4.448250e+06
-4.900000e-01	-4.200000e-01	7.960956e+06	1.012637e+06	1.012637e+06
-4.200000e-01	-3.500000e-01	9.576979e+05	3.875648e+05	3.875648e+05
-3.500000e-01	-2.800000e-01	5.190197e+04	3.458829e+04	3.458829e+04
-2.800000e-01	-2.100000e-01	1.889461e+02	1.967207e+02	1.967207e+02
-2.100000e-01	-1.400000e-01	0.000000e+00	0.000000e+00	0.000000e+00
-1.400000e-01	-7.000000e-02	0.000000e+00	0.000000e+00	0.000000e+00
-7.000000e-02	0.000000e+00	0.000000e+00	0.000000e+00	0.000000e+00
# END HISTO1D

