# BEGIN PLOT
LegendOnly=/zj_ps_nlo_mer_cent_R4.yoda/PAPER_FIN_R4/ch_SD_l05_pT_186_254
DrawOnly=/zj_ps_nlo_mer_cent_R4.yoda/PAPER_FIN_R4/ch_SD_l05_pT_186_254
Legend=1
LogY=1
# END PLOT

# BEGIN HISTO1D /zj_ps_nlo_mer_cent_R4.yoda/PAPER_FIN_R4/ch_SD_l05_pT_186_254
LineColor=red
LineStyle=solid
Path=/zj_ps_nlo_mer_cent_R4.yoda/PAPER_FIN_R4/ch_SD_l05_pT_186_254
Title=zj_ps_nlo_mer_cent_R4
XLabel=~
YLabel=~
# xlow	 xhigh	 val	 errminus	 errplus
-7.000000e+00	-6.930000e+00	0.000000e+00	0.000000e+00	0.000000e+00
-6.930000e+00	-6.860000e+00	6.936831e+08	1.629846e+07	1.629846e+07
-6.860000e+00	-6.790000e+00	0.000000e+00	0.000000e+00	0.000000e+00
-6.790000e+00	-6.720000e+00	0.000000e+00	0.000000e+00	0.000000e+00
-6.720000e+00	-6.650000e+00	0.000000e+00	0.000000e+00	0.000000e+00
-6.650000e+00	-6.580000e+00	0.000000e+00	0.000000e+00	0.000000e+00
-6.580000e+00	-6.510000e+00	0.000000e+00	0.000000e+00	0.000000e+00
-6.510000e+00	-6.440000e+00	0.000000e+00	0.000000e+00	0.000000e+00
-6.440000e+00	-6.370000e+00	0.000000e+00	0.000000e+00	0.000000e+00
-6.370000e+00	-6.300000e+00	0.000000e+00	0.000000e+00	0.000000e+00
-6.300000e+00	-6.230000e+00	0.000000e+00	0.000000e+00	0.000000e+00
-6.230000e+00	-6.160000e+00	0.000000e+00	0.000000e+00	0.000000e+00
-6.160000e+00	-6.090000e+00	0.000000e+00	0.000000e+00	0.000000e+00
-6.090000e+00	-6.020000e+00	0.000000e+00	0.000000e+00	0.000000e+00
-6.020000e+00	-5.950000e+00	0.000000e+00	0.000000e+00	0.000000e+00
-5.950000e+00	-5.880000e+00	0.000000e+00	0.000000e+00	0.000000e+00
-5.880000e+00	-5.810000e+00	0.000000e+00	0.000000e+00	0.000000e+00
-5.810000e+00	-5.740000e+00	0.000000e+00	0.000000e+00	0.000000e+00
-5.740000e+00	-5.670000e+00	0.000000e+00	0.000000e+00	0.000000e+00
-5.670000e+00	-5.600000e+00	0.000000e+00	0.000000e+00	0.000000e+00
-5.600000e+00	-5.530000e+00	0.000000e+00	0.000000e+00	0.000000e+00
-5.530000e+00	-5.460000e+00	0.000000e+00	0.000000e+00	0.000000e+00
-5.460000e+00	-5.390000e+00	0.000000e+00	0.000000e+00	0.000000e+00
-5.390000e+00	-5.320000e+00	0.000000e+00	0.000000e+00	0.000000e+00
-5.320000e+00	-5.250000e+00	0.000000e+00	0.000000e+00	0.000000e+00
-5.250000e+00	-5.180000e+00	0.000000e+00	0.000000e+00	0.000000e+00
-5.180000e+00	-5.110000e+00	0.000000e+00	0.000000e+00	0.000000e+00
-5.110000e+00	-5.040000e+00	0.000000e+00	0.000000e+00	0.000000e+00
-5.040000e+00	-4.970000e+00	0.000000e+00	0.000000e+00	0.000000e+00
-4.970000e+00	-4.900000e+00	0.000000e+00	0.000000e+00	0.000000e+00
-4.900000e+00	-4.830000e+00	0.000000e+00	0.000000e+00	0.000000e+00
-4.830000e+00	-4.760000e+00	0.000000e+00	0.000000e+00	0.000000e+00
-4.760000e+00	-4.690000e+00	0.000000e+00	0.000000e+00	0.000000e+00
-4.690000e+00	-4.620000e+00	0.000000e+00	0.000000e+00	0.000000e+00
-4.620000e+00	-4.550000e+00	0.000000e+00	0.000000e+00	0.000000e+00
-4.550000e+00	-4.480000e+00	0.000000e+00	0.000000e+00	0.000000e+00
-4.480000e+00	-4.410000e+00	0.000000e+00	0.000000e+00	0.000000e+00
-4.410000e+00	-4.340000e+00	0.000000e+00	0.000000e+00	0.000000e+00
-4.340000e+00	-4.270000e+00	0.000000e+00	0.000000e+00	0.000000e+00
-4.270000e+00	-4.200000e+00	0.000000e+00	0.000000e+00	0.000000e+00
-4.200000e+00	-4.130000e+00	0.000000e+00	0.000000e+00	0.000000e+00
-4.130000e+00	-4.060000e+00	0.000000e+00	0.000000e+00	0.000000e+00
-4.060000e+00	-3.990000e+00	0.000000e+00	0.000000e+00	0.000000e+00
-3.990000e+00	-3.920000e+00	0.000000e+00	0.000000e+00	0.000000e+00
-3.920000e+00	-3.850000e+00	0.000000e+00	0.000000e+00	0.000000e+00
-3.850000e+00	-3.780000e+00	0.000000e+00	0.000000e+00	0.000000e+00
-3.780000e+00	-3.710000e+00	0.000000e+00	0.000000e+00	0.000000e+00
-3.710000e+00	-3.640000e+00	0.000000e+00	0.000000e+00	0.000000e+00
-3.640000e+00	-3.570000e+00	0.000000e+00	0.000000e+00	0.000000e+00
-3.570000e+00	-3.500000e+00	0.000000e+00	0.000000e+00	0.000000e+00
-3.500000e+00	-3.430000e+00	0.000000e+00	0.000000e+00	0.000000e+00
-3.430000e+00	-3.360000e+00	0.000000e+00	0.000000e+00	0.000000e+00
-3.360000e+00	-3.290000e+00	0.000000e+00	0.000000e+00	0.000000e+00
-3.290000e+00	-3.220000e+00	1.329164e+02	1.331342e+02	1.331342e+02
-3.220000e+00	-3.150000e+00	0.000000e+00	0.000000e+00	0.000000e+00
-3.150000e+00	-3.080000e+00	0.000000e+00	0.000000e+00	0.000000e+00
-3.080000e+00	-3.010000e+00	1.117102e+04	8.496442e+03	8.496442e+03
-3.010000e+00	-2.940000e+00	1.510073e+03	1.509453e+03	1.509453e+03
-2.940000e+00	-2.870000e+00	6.138166e+03	6.036635e+03	6.036635e+03
-2.870000e+00	-2.800000e+00	-1.816769e+02	3.506352e+02	3.506352e+02
-2.800000e+00	-2.730000e+00	-3.243991e+03	3.903836e+03	3.903836e+03
-2.730000e+00	-2.660000e+00	9.603733e+04	5.782186e+04	5.782186e+04
-2.660000e+00	-2.590000e+00	4.262660e+04	4.457243e+04	4.457243e+04
-2.590000e+00	-2.520000e+00	-1.658151e+04	4.919669e+04	4.919669e+04
-2.520000e+00	-2.450000e+00	7.787037e+04	6.485198e+04	6.485198e+04
-2.450000e+00	-2.380000e+00	2.255294e+05	8.780914e+04	8.780914e+04
-2.380000e+00	-2.310000e+00	3.966267e+05	1.520687e+05	1.520687e+05
-2.310000e+00	-2.240000e+00	3.659836e+04	5.814552e+05	5.814552e+05
-2.240000e+00	-2.170000e+00	9.894346e+05	3.698819e+05	3.698819e+05
-2.170000e+00	-2.100000e+00	1.693639e+06	3.789347e+05	3.789347e+05
-2.100000e+00	-2.030000e+00	4.972710e+06	6.286133e+05	6.286133e+05
-2.030000e+00	-1.960000e+00	7.461594e+06	7.534576e+05	7.534576e+05
-1.960000e+00	-1.890000e+00	9.020319e+06	4.833364e+06	4.833364e+06
-1.890000e+00	-1.820000e+00	2.661277e+07	2.110387e+06	2.110387e+06
-1.820000e+00	-1.750000e+00	4.617017e+07	2.391664e+06	2.391664e+06
-1.750000e+00	-1.680000e+00	6.955784e+07	8.753686e+06	8.753686e+06
-1.680000e+00	-1.610000e+00	1.156055e+08	5.610177e+06	5.610177e+06
-1.610000e+00	-1.540000e+00	1.621519e+08	8.979762e+06	8.979762e+06
-1.540000e+00	-1.470000e+00	2.326243e+08	1.610685e+07	1.610685e+07
-1.470000e+00	-1.400000e+00	3.274939e+08	1.058626e+07	1.058626e+07
-1.400000e+00	-1.330000e+00	4.576617e+08	1.276688e+07	1.276688e+07
-1.330000e+00	-1.260000e+00	6.534436e+08	1.387557e+07	1.387557e+07
-1.260000e+00	-1.190000e+00	9.005461e+08	2.398006e+07	2.398006e+07
-1.190000e+00	-1.120000e+00	1.216248e+09	1.975925e+07	1.975925e+07
-1.120000e+00	-1.050000e+00	1.590069e+09	2.469379e+07	2.469379e+07
-1.050000e+00	-9.800000e-01	2.034833e+09	3.296067e+07	3.296067e+07
-9.800000e-01	-9.100000e-01	2.428753e+09	4.301548e+07	4.301548e+07
-9.100000e-01	-8.400000e-01	2.839710e+09	4.979165e+07	4.979165e+07
-8.400000e-01	-7.700000e-01	3.119770e+09	4.252124e+07	4.252124e+07
-7.700000e-01	-7.000000e-01	3.094990e+09	4.363344e+07	4.363344e+07
-7.000000e-01	-6.300000e-01	2.967913e+09	3.999190e+07	3.999190e+07
-6.300000e-01	-5.600000e-01	2.706509e+09	5.384136e+07	5.384136e+07
-5.600000e-01	-4.900000e-01	2.673366e+09	3.490846e+07	3.490846e+07
-4.900000e-01	-4.200000e-01	2.280877e+09	5.430889e+07	5.430889e+07
-4.200000e-01	-3.500000e-01	1.718624e+09	6.241981e+07	6.241981e+07
-3.500000e-01	-2.800000e-01	1.262176e+09	3.297959e+07	3.297959e+07
-2.800000e-01	-2.100000e-01	6.156157e+08	1.762835e+07	1.762835e+07
-2.100000e-01	-1.400000e-01	1.325649e+08	6.311132e+06	6.311132e+06
-1.400000e-01	-7.000000e-02	4.975504e+06	7.615690e+05	7.615690e+05
-7.000000e-02	0.000000e+00	6.563156e+03	7.991364e+03	7.991364e+03
# END HISTO1D

