# BEGIN PLOT
LegendOnly=/zj_ps_nlo_mer_cent_R4.yoda/PAPER_FIN_R4_CH/lin_SD_l20_pT_408_1500
DrawOnly=/zj_ps_nlo_mer_cent_R4.yoda/PAPER_FIN_R4_CH/lin_SD_l20_pT_408_1500
Legend=1
LogY=1
# END PLOT

# BEGIN HISTO1D /zj_ps_nlo_mer_cent_R4.yoda/PAPER_FIN_R4_CH/lin_SD_l20_pT_408_1500
LineColor=red
LineStyle=solid
Path=/zj_ps_nlo_mer_cent_R4.yoda/PAPER_FIN_R4_CH/lin_SD_l20_pT_408_1500
Title=zj_ps_nlo_mer_cent_R4
XLabel=~
YLabel=~
# xlow	 xhigh	 val	 errminus	 errplus
0.000000e+00	2.500000e-03	8.860836e+10	4.100749e+08	4.100749e+08
2.500000e-03	5.000000e-03	1.068985e+10	1.195624e+08	1.195624e+08
5.000000e-03	7.500000e-03	5.955376e+09	7.836883e+07	7.836883e+07
7.500000e-03	1.250000e-02	3.986264e+09	5.605944e+07	5.605944e+07
1.250000e-02	2.000000e-02	2.523776e+09	4.522546e+07	4.522546e+07
2.000000e-02	3.250000e-02	1.532037e+09	2.739267e+07	2.739267e+07
3.250000e-02	5.000000e-02	1.060073e+09	1.643476e+07	1.643476e+07
5.000000e-02	7.750000e-02	7.558960e+08	1.953360e+07	1.953360e+07
7.750000e-02	1.150000e-01	5.468165e+08	8.033827e+06	8.033827e+06
1.150000e-01	1.600000e-01	3.414089e+08	6.935944e+06	6.935944e+06
1.600000e-01	2.100000e-01	1.883331e+08	5.723767e+06	5.723767e+06
2.100000e-01	1.000000e+00	8.598876e+06	3.072059e+05	3.072059e+05
# END HISTO1D

