# BEGIN PLOT
LegendOnly=/zj_ps_nlo_mer_cent_R4.yoda/PAPER_FIN_R4/SD_l10_pT_326_408
DrawOnly=/zj_ps_nlo_mer_cent_R4.yoda/PAPER_FIN_R4/SD_l10_pT_326_408
Legend=1
LogY=1
# END PLOT

# BEGIN HISTO1D /zj_ps_nlo_mer_cent_R4.yoda/PAPER_FIN_R4/SD_l10_pT_326_408
LineColor=red
LineStyle=solid
Path=/zj_ps_nlo_mer_cent_R4.yoda/PAPER_FIN_R4/SD_l10_pT_326_408
Title=zj_ps_nlo_mer_cent_R4
XLabel=~
YLabel=~
# xlow	 xhigh	 val	 errminus	 errplus
-7.000000e+00	-6.930000e+00	0.000000e+00	0.000000e+00	0.000000e+00
-6.930000e+00	-6.860000e+00	1.380408e+07	1.215272e+06	1.215272e+06
-6.860000e+00	-6.790000e+00	0.000000e+00	0.000000e+00	0.000000e+00
-6.790000e+00	-6.720000e+00	0.000000e+00	0.000000e+00	0.000000e+00
-6.720000e+00	-6.650000e+00	0.000000e+00	0.000000e+00	0.000000e+00
-6.650000e+00	-6.580000e+00	0.000000e+00	0.000000e+00	0.000000e+00
-6.580000e+00	-6.510000e+00	0.000000e+00	0.000000e+00	0.000000e+00
-6.510000e+00	-6.440000e+00	0.000000e+00	0.000000e+00	0.000000e+00
-6.440000e+00	-6.370000e+00	0.000000e+00	0.000000e+00	0.000000e+00
-6.370000e+00	-6.300000e+00	0.000000e+00	0.000000e+00	0.000000e+00
-6.300000e+00	-6.230000e+00	0.000000e+00	0.000000e+00	0.000000e+00
-6.230000e+00	-6.160000e+00	0.000000e+00	0.000000e+00	0.000000e+00
-6.160000e+00	-6.090000e+00	0.000000e+00	0.000000e+00	0.000000e+00
-6.090000e+00	-6.020000e+00	0.000000e+00	0.000000e+00	0.000000e+00
-6.020000e+00	-5.950000e+00	0.000000e+00	0.000000e+00	0.000000e+00
-5.950000e+00	-5.880000e+00	0.000000e+00	0.000000e+00	0.000000e+00
-5.880000e+00	-5.810000e+00	0.000000e+00	0.000000e+00	0.000000e+00
-5.810000e+00	-5.740000e+00	0.000000e+00	0.000000e+00	0.000000e+00
-5.740000e+00	-5.670000e+00	0.000000e+00	0.000000e+00	0.000000e+00
-5.670000e+00	-5.600000e+00	0.000000e+00	0.000000e+00	0.000000e+00
-5.600000e+00	-5.530000e+00	0.000000e+00	0.000000e+00	0.000000e+00
-5.530000e+00	-5.460000e+00	0.000000e+00	0.000000e+00	0.000000e+00
-5.460000e+00	-5.390000e+00	0.000000e+00	0.000000e+00	0.000000e+00
-5.390000e+00	-5.320000e+00	1.434777e+01	2.458483e+01	2.458483e+01
-5.320000e+00	-5.250000e+00	2.512017e+01	2.512017e+01	2.512017e+01
-5.250000e+00	-5.180000e+00	-9.169757e-01	1.012279e+00	1.012279e+00
-5.180000e+00	-5.110000e+00	4.819244e+00	5.045331e+00	5.045331e+00
-5.110000e+00	-5.040000e+00	-2.089904e+00	2.837685e+00	2.837685e+00
-5.040000e+00	-4.970000e+00	-2.983511e+01	4.136428e+01	4.136428e+01
-4.970000e+00	-4.900000e+00	4.028074e+02	2.821042e+02	2.821042e+02
-4.900000e+00	-4.830000e+00	1.410686e+01	1.444123e+01	1.444123e+01
-4.830000e+00	-4.760000e+00	1.005840e+03	9.864465e+02	9.864465e+02
-4.760000e+00	-4.690000e+00	2.008356e+03	1.549196e+03	1.549196e+03
-4.690000e+00	-4.620000e+00	3.568270e+03	3.216151e+03	3.216151e+03
-4.620000e+00	-4.550000e+00	2.621134e+03	1.408787e+03	1.408787e+03
-4.550000e+00	-4.480000e+00	8.298613e+03	6.674883e+03	6.674883e+03
-4.480000e+00	-4.410000e+00	7.360444e+03	4.223875e+03	4.223875e+03
-4.410000e+00	-4.340000e+00	2.606841e+03	1.966151e+03	1.966151e+03
-4.340000e+00	-4.270000e+00	3.796186e+03	1.781649e+03	1.781649e+03
-4.270000e+00	-4.200000e+00	2.098703e+04	1.422682e+04	1.422682e+04
-4.200000e+00	-4.130000e+00	-1.609961e+04	3.352871e+04	3.352871e+04
-4.130000e+00	-4.060000e+00	4.585667e+04	1.782015e+04	1.782015e+04
-4.060000e+00	-3.990000e+00	3.162517e+04	3.954947e+04	3.954947e+04
-3.990000e+00	-3.920000e+00	7.178263e+04	2.874658e+04	2.874658e+04
-3.920000e+00	-3.850000e+00	1.123486e+05	3.718694e+04	3.718694e+04
-3.850000e+00	-3.780000e+00	1.445027e+05	5.155009e+04	5.155009e+04
-3.780000e+00	-3.710000e+00	1.316594e+05	5.725377e+04	5.725377e+04
-3.710000e+00	-3.640000e+00	1.371442e+05	5.103572e+04	5.103572e+04
-3.640000e+00	-3.570000e+00	1.160119e+05	1.059132e+05	1.059132e+05
-3.570000e+00	-3.500000e+00	4.971054e+05	9.382546e+04	9.382546e+04
-3.500000e+00	-3.430000e+00	6.185070e+05	1.243802e+05	1.243802e+05
-3.430000e+00	-3.360000e+00	3.636360e+04	5.302323e+05	5.302323e+05
-3.360000e+00	-3.290000e+00	9.339589e+05	1.545737e+05	1.545737e+05
-3.290000e+00	-3.220000e+00	1.579267e+06	1.834988e+05	1.834988e+05
-3.220000e+00	-3.150000e+00	1.469970e+06	3.853569e+05	3.853569e+05
-3.150000e+00	-3.080000e+00	2.243799e+06	3.129670e+05	3.129670e+05
-3.080000e+00	-3.010000e+00	3.646761e+06	3.024823e+05	3.024823e+05
-3.010000e+00	-2.940000e+00	4.154673e+06	4.929410e+05	4.929410e+05
-2.940000e+00	-2.870000e+00	6.766976e+06	5.388949e+05	5.388949e+05
-2.870000e+00	-2.800000e+00	7.597820e+06	7.573593e+05	7.573593e+05
-2.800000e+00	-2.730000e+00	1.174349e+07	5.781499e+05	5.781499e+05
-2.730000e+00	-2.660000e+00	1.529889e+07	1.117361e+06	1.117361e+06
-2.660000e+00	-2.590000e+00	2.139271e+07	1.154547e+06	1.154547e+06
-2.590000e+00	-2.520000e+00	3.270481e+07	1.153526e+06	1.153526e+06
-2.520000e+00	-2.450000e+00	4.190756e+07	1.410011e+06	1.410011e+06
-2.450000e+00	-2.380000e+00	5.593607e+07	3.387418e+06	3.387418e+06
-2.380000e+00	-2.310000e+00	7.627596e+07	2.452335e+06	2.452335e+06
-2.310000e+00	-2.240000e+00	1.048200e+08	3.814262e+06	3.814262e+06
-2.240000e+00	-2.170000e+00	1.242477e+08	3.234292e+06	3.234292e+06
-2.170000e+00	-2.100000e+00	1.668574e+08	3.726118e+06	3.726118e+06
-2.100000e+00	-2.030000e+00	2.091084e+08	5.377140e+06	5.377140e+06
-2.030000e+00	-1.960000e+00	2.583189e+08	3.976025e+06	3.976025e+06
-1.960000e+00	-1.890000e+00	3.094939e+08	9.908720e+06	9.908720e+06
-1.890000e+00	-1.820000e+00	3.538083e+08	7.594102e+06	7.594102e+06
-1.820000e+00	-1.750000e+00	3.899296e+08	5.284712e+06	5.284712e+06
-1.750000e+00	-1.680000e+00	3.894081e+08	6.317480e+06	6.317480e+06
-1.680000e+00	-1.610000e+00	3.944281e+08	1.071842e+07	1.071842e+07
-1.610000e+00	-1.540000e+00	4.063101e+08	5.703613e+06	5.703613e+06
-1.540000e+00	-1.470000e+00	3.745063e+08	5.694704e+06	5.694704e+06
-1.470000e+00	-1.400000e+00	3.315133e+08	1.438138e+07	1.438138e+07
-1.400000e+00	-1.330000e+00	3.306151e+08	1.756715e+07	1.756715e+07
-1.330000e+00	-1.260000e+00	2.547844e+08	1.977070e+07	1.977070e+07
-1.260000e+00	-1.190000e+00	2.812731e+08	5.594325e+06	5.594325e+06
-1.190000e+00	-1.120000e+00	2.695897e+08	5.197054e+06	5.197054e+06
-1.120000e+00	-1.050000e+00	2.759281e+08	4.965409e+06	4.965409e+06
-1.050000e+00	-9.800000e-01	2.854200e+08	4.317244e+06	4.317244e+06
-9.800000e-01	-9.100000e-01	2.901389e+08	5.222336e+06	5.222336e+06
-9.100000e-01	-8.400000e-01	3.120657e+08	4.612381e+06	4.612381e+06
-8.400000e-01	-7.700000e-01	2.989114e+08	4.906295e+06	4.906295e+06
-7.700000e-01	-7.000000e-01	2.827219e+08	5.783391e+06	5.783391e+06
-7.000000e-01	-6.300000e-01	2.542211e+08	7.749781e+06	7.749781e+06
-6.300000e-01	-5.600000e-01	2.376281e+08	5.420946e+06	5.420946e+06
-5.600000e-01	-4.900000e-01	2.109894e+08	6.374035e+06	6.374035e+06
-4.900000e-01	-4.200000e-01	1.789074e+08	7.823181e+06	7.823181e+06
-4.200000e-01	-3.500000e-01	1.128395e+08	1.109629e+07	1.109629e+07
-3.500000e-01	-2.800000e-01	6.893641e+07	2.522745e+06	2.522745e+06
-2.800000e-01	-2.100000e-01	2.224563e+07	1.358181e+06	1.358181e+06
-2.100000e-01	-1.400000e-01	2.927864e+06	9.332981e+05	9.332981e+05
-1.400000e-01	-7.000000e-02	3.052444e+05	6.133505e+04	6.133505e+04
-7.000000e-02	0.000000e+00	1.936697e+03	2.776058e+03	2.776058e+03
# END HISTO1D

