# BEGIN PLOT
LegendOnly=/zj_ps_nlo_mer_mur0.5_muf0.5_R8.yoda/PAPER_FIN_R8_CH/lin_SD_l10_pT_186_254
DrawOnly=/zj_ps_nlo_mer_mur0.5_muf0.5_R8.yoda/PAPER_FIN_R8_CH/lin_SD_l10_pT_186_254
Legend=1
LogY=1
# END PLOT

# BEGIN HISTO1D /zj_ps_nlo_mer_mur0.5_muf0.5_R8.yoda/PAPER_FIN_R8_CH/lin_SD_l10_pT_186_254
LineColor=red
LineStyle=solid
Path=/zj_ps_nlo_mer_mur0.5_muf0.5_R8.yoda/PAPER_FIN_R8_CH/lin_SD_l10_pT_186_254
Title=zj_ps_nlo_mer_mur0.5_muf0.5_R8
XLabel=~
YLabel=~
# xlow	 xhigh	 val	 errminus	 errplus
0.000000e+00	1.250000e-02	7.982354e+10	7.836304e+08	7.836304e+08
1.250000e-02	2.250000e-02	2.632063e+10	3.671684e+08	3.671684e+08
2.250000e-02	3.500000e-02	1.728749e+10	3.237342e+08	3.237342e+08
3.500000e-02	5.000000e-02	1.185689e+10	1.813124e+08	1.813124e+08
5.000000e-02	7.000000e-02	9.170990e+09	1.469349e+08	1.469349e+08
7.000000e-02	9.500000e-02	6.732676e+09	2.670728e+08	2.670728e+08
9.500000e-02	1.280000e-01	5.774542e+09	6.754765e+07	6.754765e+07
1.280000e-01	1.700000e-01	4.482971e+09	5.044531e+07	5.044531e+07
1.700000e-01	2.250000e-01	3.206555e+09	1.153193e+08	1.153193e+08
2.250000e-01	2.900000e-01	2.322872e+09	6.349516e+07	6.349516e+07
2.900000e-01	3.650000e-01	1.369411e+09	2.233927e+07	2.233927e+07
3.650000e-01	4.500000e-01	7.667684e+08	6.489529e+07	6.489529e+07
4.500000e-01	1.000000e+00	4.660753e+07	1.419283e+06	1.419283e+06
# END HISTO1D

