# BEGIN PLOT
LegendOnly=/zj_ps_nlo_mer_mur2_muf2_R4.yoda/PAPER_FIN_R4_CH/lin_l20_pT_120_150
DrawOnly=/zj_ps_nlo_mer_mur2_muf2_R4.yoda/PAPER_FIN_R4_CH/lin_l20_pT_120_150
Legend=1
LogY=1
# END PLOT

# BEGIN HISTO1D /zj_ps_nlo_mer_mur2_muf2_R4.yoda/PAPER_FIN_R4_CH/lin_l20_pT_120_150
LineColor=red
LineStyle=solid
Path=/zj_ps_nlo_mer_mur2_muf2_R4.yoda/PAPER_FIN_R4_CH/lin_l20_pT_120_150
Title=zj_ps_nlo_mer_mur2_muf2_R4
XLabel=~
YLabel=~
# xlow	 xhigh	 val	 errminus	 errplus
0.000000e+00	5.000000e-03	1.995045e+10	6.066607e+08	6.066607e+08
5.000000e-03	1.250000e-02	6.807048e+10	8.774279e+08	8.774279e+08
1.250000e-02	2.250000e-02	1.084690e+11	1.095364e+09	1.095364e+09
2.250000e-02	3.500000e-02	1.024222e+11	1.037980e+09	1.037980e+09
3.500000e-02	5.000000e-02	7.106060e+10	6.526919e+08	6.526919e+08
5.000000e-02	7.000000e-02	4.227638e+10	8.833898e+08	8.833898e+08
7.000000e-02	9.250000e-02	2.504848e+10	4.051300e+08	4.051300e+08
9.250000e-02	1.200000e-01	1.489739e+10	1.857013e+08	1.857013e+08
1.200000e-01	1.520000e-01	8.912144e+09	1.380704e+08	1.380704e+08
1.520000e-01	1.880000e-01	5.319297e+09	8.989968e+07	8.989968e+07
1.880000e-01	2.280000e-01	3.050262e+09	6.971823e+07	6.971823e+07
2.280000e-01	1.000000e+00	1.609593e+08	3.534324e+06	3.534324e+06
# END HISTO1D

