# BEGIN PLOT
LegendOnly=/zj_ps_nlo_mer_mur2_muf2_R4.yoda/PAPER_FIN_R4/lin_SD_l10_pT_120_150
DrawOnly=/zj_ps_nlo_mer_mur2_muf2_R4.yoda/PAPER_FIN_R4/lin_SD_l10_pT_120_150
Legend=1
LogY=1
# END PLOT

# BEGIN HISTO1D /zj_ps_nlo_mer_mur2_muf2_R4.yoda/PAPER_FIN_R4/lin_SD_l10_pT_120_150
LineColor=red
LineStyle=solid
Path=/zj_ps_nlo_mer_mur2_muf2_R4.yoda/PAPER_FIN_R4/lin_SD_l10_pT_120_150
Title=zj_ps_nlo_mer_mur2_muf2_R4
XLabel=~
YLabel=~
# xlow	 xhigh	 val	 errminus	 errplus
0.000000e+00	2.000000e-02	3.243684e+10	3.751707e+08	3.751707e+08
2.000000e-02	5.000000e-02	5.823377e+10	4.694910e+08	4.694910e+08
5.000000e-02	9.500000e-02	3.604976e+10	2.862122e+08	2.862122e+08
9.500000e-02	1.470000e-01	1.717008e+10	1.638519e+08	1.638519e+08
1.470000e-01	2.250000e-01	9.534922e+09	2.395093e+08	2.395093e+08
2.250000e-01	3.070000e-01	5.572509e+09	6.577957e+07	6.577957e+07
3.070000e-01	3.880000e-01	3.064430e+09	5.201380e+07	5.201380e+07
3.880000e-01	4.680000e-01	1.641017e+09	3.199089e+07	3.199089e+07
4.680000e-01	1.000000e+00	1.727523e+08	5.203135e+06	5.203135e+06
# END HISTO1D

