# BEGIN PLOT
LegendOnly=/zj_ps_nlo_mer_mur2_muf2_R4.yoda/PAPER_FIN_R4/ch_SD_l10_pT_326_408
DrawOnly=/zj_ps_nlo_mer_mur2_muf2_R4.yoda/PAPER_FIN_R4/ch_SD_l10_pT_326_408
Legend=1
LogY=1
# END PLOT

# BEGIN HISTO1D /zj_ps_nlo_mer_mur2_muf2_R4.yoda/PAPER_FIN_R4/ch_SD_l10_pT_326_408
LineColor=red
LineStyle=solid
Path=/zj_ps_nlo_mer_mur2_muf2_R4.yoda/PAPER_FIN_R4/ch_SD_l10_pT_326_408
Title=zj_ps_nlo_mer_mur2_muf2_R4
XLabel=~
YLabel=~
# xlow	 xhigh	 val	 errminus	 errplus
-7.000000e+00	-6.930000e+00	0.000000e+00	0.000000e+00	0.000000e+00
-6.930000e+00	-6.860000e+00	1.250876e+08	6.299653e+06	6.299653e+06
-6.860000e+00	-6.790000e+00	0.000000e+00	0.000000e+00	0.000000e+00
-6.790000e+00	-6.720000e+00	0.000000e+00	0.000000e+00	0.000000e+00
-6.720000e+00	-6.650000e+00	0.000000e+00	0.000000e+00	0.000000e+00
-6.650000e+00	-6.580000e+00	0.000000e+00	0.000000e+00	0.000000e+00
-6.580000e+00	-6.510000e+00	0.000000e+00	0.000000e+00	0.000000e+00
-6.510000e+00	-6.440000e+00	0.000000e+00	0.000000e+00	0.000000e+00
-6.440000e+00	-6.370000e+00	0.000000e+00	0.000000e+00	0.000000e+00
-6.370000e+00	-6.300000e+00	0.000000e+00	0.000000e+00	0.000000e+00
-6.300000e+00	-6.230000e+00	0.000000e+00	0.000000e+00	0.000000e+00
-6.230000e+00	-6.160000e+00	0.000000e+00	0.000000e+00	0.000000e+00
-6.160000e+00	-6.090000e+00	0.000000e+00	0.000000e+00	0.000000e+00
-6.090000e+00	-6.020000e+00	0.000000e+00	0.000000e+00	0.000000e+00
-6.020000e+00	-5.950000e+00	0.000000e+00	0.000000e+00	0.000000e+00
-5.950000e+00	-5.880000e+00	0.000000e+00	0.000000e+00	0.000000e+00
-5.880000e+00	-5.810000e+00	0.000000e+00	0.000000e+00	0.000000e+00
-5.810000e+00	-5.740000e+00	0.000000e+00	0.000000e+00	0.000000e+00
-5.740000e+00	-5.670000e+00	0.000000e+00	0.000000e+00	0.000000e+00
-5.670000e+00	-5.600000e+00	0.000000e+00	0.000000e+00	0.000000e+00
-5.600000e+00	-5.530000e+00	1.847329e+01	1.847328e+01	1.847328e+01
-5.530000e+00	-5.460000e+00	0.000000e+00	0.000000e+00	0.000000e+00
-5.460000e+00	-5.390000e+00	0.000000e+00	0.000000e+00	0.000000e+00
-5.390000e+00	-5.320000e+00	0.000000e+00	0.000000e+00	0.000000e+00
-5.320000e+00	-5.250000e+00	0.000000e+00	0.000000e+00	0.000000e+00
-5.250000e+00	-5.180000e+00	0.000000e+00	0.000000e+00	0.000000e+00
-5.180000e+00	-5.110000e+00	0.000000e+00	0.000000e+00	0.000000e+00
-5.110000e+00	-5.040000e+00	3.945201e+01	3.425575e+01	3.425575e+01
-5.040000e+00	-4.970000e+00	0.000000e+00	0.000000e+00	0.000000e+00
-4.970000e+00	-4.900000e+00	7.937763e+02	6.740977e+02	6.740977e+02
-4.900000e+00	-4.830000e+00	-6.150151e+03	6.136101e+03	6.136101e+03
-4.830000e+00	-4.760000e+00	1.495846e+04	1.325036e+04	1.325036e+04
-4.760000e+00	-4.690000e+00	-2.026686e+03	3.163326e+03	3.163326e+03
-4.690000e+00	-4.620000e+00	1.146372e+04	8.349440e+03	8.349440e+03
-4.620000e+00	-4.550000e+00	-7.400349e+03	7.395879e+03	7.395879e+03
-4.550000e+00	-4.480000e+00	1.615710e+04	1.566239e+04	1.566239e+04
-4.480000e+00	-4.410000e+00	-7.928739e+02	8.740440e+02	8.740440e+02
-4.410000e+00	-4.340000e+00	-1.242194e+03	5.481916e+03	5.481916e+03
-4.340000e+00	-4.270000e+00	2.339944e+04	2.189797e+04	2.189797e+04
-4.270000e+00	-4.200000e+00	1.440817e+04	1.171899e+04	1.171899e+04
-4.200000e+00	-4.130000e+00	5.723507e+03	8.729882e+03	8.729882e+03
-4.130000e+00	-4.060000e+00	9.933420e+03	5.843860e+03	5.843860e+03
-4.060000e+00	-3.990000e+00	-1.166090e+04	5.459369e+04	5.459369e+04
-3.990000e+00	-3.920000e+00	7.015469e+04	4.898615e+04	4.898615e+04
-3.920000e+00	-3.850000e+00	6.030000e+04	4.177117e+04	4.177117e+04
-3.850000e+00	-3.780000e+00	1.560317e+05	1.168922e+05	1.168922e+05
-3.780000e+00	-3.710000e+00	7.459471e+05	2.745301e+05	2.745301e+05
-3.710000e+00	-3.640000e+00	1.115449e+05	1.474275e+05	1.474275e+05
-3.640000e+00	-3.570000e+00	5.177450e+05	2.771577e+05	2.771577e+05
-3.570000e+00	-3.500000e+00	5.888204e+05	2.531394e+05	2.531394e+05
-3.500000e+00	-3.430000e+00	5.446031e+05	1.734638e+05	1.734638e+05
-3.430000e+00	-3.360000e+00	3.996167e+05	4.210928e+05	4.210928e+05
-3.360000e+00	-3.290000e+00	2.317764e+06	5.158959e+05	5.158959e+05
-3.290000e+00	-3.220000e+00	1.497957e+06	5.296318e+05	5.296318e+05
-3.220000e+00	-3.150000e+00	1.941969e+06	4.933710e+05	4.933710e+05
-3.150000e+00	-3.080000e+00	3.236931e+06	7.699726e+05	7.699726e+05
-3.080000e+00	-3.010000e+00	3.113500e+06	6.257469e+05	6.257469e+05
-3.010000e+00	-2.940000e+00	1.642309e+06	4.793282e+06	4.793282e+06
-2.940000e+00	-2.870000e+00	9.594411e+06	1.157332e+06	1.157332e+06
-2.870000e+00	-2.800000e+00	9.587210e+06	1.461806e+06	1.461806e+06
-2.800000e+00	-2.730000e+00	1.420314e+07	1.550262e+06	1.550262e+06
-2.730000e+00	-2.660000e+00	1.780194e+07	2.433298e+06	2.433298e+06
-2.660000e+00	-2.590000e+00	2.763801e+07	2.827440e+06	2.827440e+06
-2.590000e+00	-2.520000e+00	3.376107e+07	2.205077e+06	2.205077e+06
-2.520000e+00	-2.450000e+00	4.390691e+07	2.522421e+06	2.522421e+06
-2.450000e+00	-2.380000e+00	5.592521e+07	3.862340e+06	3.862340e+06
-2.380000e+00	-2.310000e+00	7.993027e+07	9.273756e+06	9.273756e+06
-2.310000e+00	-2.240000e+00	8.165556e+07	4.732937e+06	4.732937e+06
-2.240000e+00	-2.170000e+00	1.155549e+08	8.513208e+06	8.513208e+06
-2.170000e+00	-2.100000e+00	1.303370e+08	7.135621e+06	7.135621e+06
-2.100000e+00	-2.030000e+00	1.714403e+08	6.672963e+06	6.672963e+06
-2.030000e+00	-1.960000e+00	1.960866e+08	6.659757e+06	6.659757e+06
-1.960000e+00	-1.890000e+00	2.376616e+08	9.834342e+06	9.834342e+06
-1.890000e+00	-1.820000e+00	2.393063e+08	8.835684e+06	8.835684e+06
-1.820000e+00	-1.750000e+00	2.548956e+08	1.264629e+07	1.264629e+07
-1.750000e+00	-1.680000e+00	2.780016e+08	1.580968e+07	1.580968e+07
-1.680000e+00	-1.610000e+00	2.957617e+08	8.540857e+06	8.540857e+06
-1.610000e+00	-1.540000e+00	2.988413e+08	9.052445e+06	9.052445e+06
-1.540000e+00	-1.470000e+00	3.019150e+08	8.445803e+06	8.445803e+06
-1.470000e+00	-1.400000e+00	2.544716e+08	9.660444e+06	9.660444e+06
-1.400000e+00	-1.330000e+00	2.609877e+08	7.785503e+06	7.785503e+06
-1.330000e+00	-1.260000e+00	2.362669e+08	7.235512e+06	7.235512e+06
-1.260000e+00	-1.190000e+00	2.388419e+08	7.133603e+06	7.133603e+06
-1.190000e+00	-1.120000e+00	2.291987e+08	9.165761e+06	9.165761e+06
-1.120000e+00	-1.050000e+00	2.275151e+08	7.668868e+06	7.668868e+06
-1.050000e+00	-9.800000e-01	2.334584e+08	7.363867e+06	7.363867e+06
-9.800000e-01	-9.100000e-01	2.383911e+08	8.049723e+06	8.049723e+06
-9.100000e-01	-8.400000e-01	2.427566e+08	7.263791e+06	7.263791e+06
-8.400000e-01	-7.700000e-01	2.389590e+08	1.134173e+07	1.134173e+07
-7.700000e-01	-7.000000e-01	2.374129e+08	7.718819e+06	7.718819e+06
-7.000000e-01	-6.300000e-01	2.098649e+08	9.073595e+06	9.073595e+06
-6.300000e-01	-5.600000e-01	1.766243e+08	1.406993e+07	1.406993e+07
-5.600000e-01	-4.900000e-01	1.718647e+08	1.457650e+07	1.457650e+07
-4.900000e-01	-4.200000e-01	1.379100e+08	6.176516e+06	6.176516e+06
-4.200000e-01	-3.500000e-01	1.034855e+08	6.239904e+06	6.239904e+06
-3.500000e-01	-2.800000e-01	5.147716e+07	2.897392e+06	2.897392e+06
-2.800000e-01	-2.100000e-01	1.051642e+07	4.325979e+06	4.325979e+06
-2.100000e-01	-1.400000e-01	2.306659e+06	3.898899e+05	3.898899e+05
-1.400000e-01	-7.000000e-02	7.642756e+04	3.421343e+04	3.421343e+04
-7.000000e-02	0.000000e+00	-2.788829e+02	2.858917e+02	2.858917e+02
# END HISTO1D

