# BEGIN PLOT
LegendOnly=/pythia_ps_pt408_s1_1e3.yoda/PAPER_FIN_R8/ch_lin_SD_l05_pT_186_254
DrawOnly=/pythia_ps_pt408_s1_1e3.yoda/PAPER_FIN_R8/ch_lin_SD_l05_pT_186_254
Legend=1
LogY=1
# END PLOT

# BEGIN HISTO1D /pythia_ps_pt408_s1_1e3.yoda/PAPER_FIN_R8/ch_lin_SD_l05_pT_186_254
LineColor=red
LineStyle=solid
Path=/pythia_ps_pt408_s1_1e3.yoda/PAPER_FIN_R8/ch_lin_SD_l05_pT_186_254
Title=pythia_ps_pt408_s1_1e3
XLabel=~
YLabel=~
# xlow	 xhigh	 val	 errminus	 errplus
0.000000e+00	6.000000e-02	2.459400e+09	2.024599e+05	2.024599e+05
6.000000e-02	9.000000e-02	2.787111e+08	9.638657e+04	9.638657e+04
9.000000e-02	1.200000e-01	2.675740e+08	9.444117e+04	9.444117e+04
1.200000e-01	1.500000e-01	2.182190e+08	8.528756e+04	8.528756e+04
1.500000e-01	1.900000e-01	1.706431e+08	6.531523e+04	6.531523e+04
1.900000e-01	2.300000e-01	1.294466e+08	5.688731e+04	5.688731e+04
2.300000e-01	2.700000e-01	9.813292e+07	4.953103e+04	4.953103e+04
2.700000e-01	3.200000e-01	7.152018e+07	3.782068e+04	3.782068e+04
3.200000e-01	3.700000e-01	4.924286e+07	3.138243e+04	3.138243e+04
3.700000e-01	4.200000e-01	3.234582e+07	2.543455e+04	2.543455e+04
4.200000e-01	4.800000e-01	1.813057e+07	1.738321e+04	1.738321e+04
4.800000e-01	5.400000e-01	7.390450e+06	1.109839e+04	1.109839e+04
5.400000e-01	6.000000e-01	2.536983e+06	6.502542e+03	6.502542e+03
6.000000e-01	1.000000e+00	1.072175e+05	5.177294e+02	5.177294e+02
# END HISTO1D

