# BEGIN PLOT
LegendOnly=/pythia_ps_pt408_s1_1e3.yoda/PAPER_FIN_R8_CH/XS_CUTS_pT_65_88
DrawOnly=/pythia_ps_pt408_s1_1e3.yoda/PAPER_FIN_R8_CH/XS_CUTS_pT_65_88
Legend=1
LogY=1
# END PLOT

# BEGIN HISTO1D /pythia_ps_pt408_s1_1e3.yoda/PAPER_FIN_R8_CH/XS_CUTS_pT_65_88
LineColor=red
LineStyle=solid
Path=/pythia_ps_pt408_s1_1e3.yoda/PAPER_FIN_R8_CH/XS_CUTS_pT_65_88
Title=pythia_ps_pt408_s1_1e3
XLabel=~
YLabel=~
# xlow	 xhigh	 val	 errminus	 errplus
-5.000000e-01	5.000000e-01	9.667435e-05	1.463193e-05	1.463193e-05
# END HISTO1D

