# BEGIN PLOT
LegendOnly=/pythia_ps_pt408_s1_1e3.yoda/PAPER_FIN_R8_CH/lin_l05_pT_150_186
DrawOnly=/pythia_ps_pt408_s1_1e3.yoda/PAPER_FIN_R8_CH/lin_l05_pT_150_186
Legend=1
LogY=1
# END PLOT

# BEGIN HISTO1D /pythia_ps_pt408_s1_1e3.yoda/PAPER_FIN_R8_CH/lin_l05_pT_150_186
LineColor=red
LineStyle=solid
Path=/pythia_ps_pt408_s1_1e3.yoda/PAPER_FIN_R8_CH/lin_l05_pT_150_186
Title=pythia_ps_pt408_s1_1e3
XLabel=~
YLabel=~
# xlow	 xhigh	 val	 errminus	 errplus
0.000000e+00	6.000000e-02	3.151970e+07	2.292004e+04	2.292004e+04
6.000000e-02	1.100000e-01	5.069686e+07	3.184238e+04	3.184238e+04
1.100000e-01	1.500000e-01	5.108063e+07	3.573536e+04	3.573536e+04
1.500000e-01	1.900000e-01	4.580022e+07	3.383793e+04	3.383793e+04
1.900000e-01	2.300000e-01	3.929420e+07	3.134254e+04	3.134254e+04
2.300000e-01	2.700000e-01	3.258535e+07	2.854179e+04	2.854179e+04
2.700000e-01	3.100000e-01	2.642743e+07	2.570381e+04	2.570381e+04
3.100000e-01	3.500000e-01	2.097008e+07	2.289655e+04	2.289655e+04
3.500000e-01	3.900000e-01	1.633912e+07	2.021084e+04	2.021084e+04
3.900000e-01	4.400000e-01	1.210996e+07	1.556275e+04	1.556275e+04
4.400000e-01	4.900000e-01	8.205840e+06	1.281081e+04	1.281081e+04
4.900000e-01	5.400000e-01	5.124920e+06	1.012415e+04	1.012415e+04
5.400000e-01	6.000000e-01	2.590167e+06	6.570346e+03	6.570346e+03
6.000000e-01	1.000000e+00	1.841125e+05	6.784403e+02	6.784403e+02
# END HISTO1D

