# BEGIN PLOT
LegendOnly=/scale_1.yoda/MC_XS/pmN
DrawOnly=/scale_1.yoda/MC_XS/pmN
Title=Number of positive and negative weighted events
XMajorTickMarks=20
LogY=0
XLabel=$\pm$
ShowZero=0
XMax=1
YLabel=$N_\pm$
XMin=-1
XMinorTickMarks=0
Legend=1
# END PLOT

# BEGIN HISTO1D /scale_1.yoda/MC_XS/pmN
LineColor=red
LineStyle=solid
Path=/scale_1.yoda/MC_XS/pmN
Title=scale_1
XLabel=~
YLabel=~
# xlow	 xhigh	 val	 errminus	 errplus
-1.000000e+00	0.000000e+00	8.680912e+08	2.946339e+04	2.946339e+04
0.000000e+00	1.000000e+00	1.131909e+09	3.364386e+04	3.364386e+04
# END HISTO1D

