# BEGIN PLOT
LegendOnly=/herwig_ps_lo_r8_pt408_s1_1e3.yoda/PAPER_FIN_R8/lin_l20_pT_186_254
DrawOnly=/herwig_ps_lo_r8_pt408_s1_1e3.yoda/PAPER_FIN_R8/lin_l20_pT_186_254
Legend=1
LogY=1
# END PLOT

# BEGIN HISTO1D /herwig_ps_lo_r8_pt408_s1_1e3.yoda/PAPER_FIN_R8/lin_l20_pT_186_254
LineColor=red
LineStyle=solid
Path=/herwig_ps_lo_r8_pt408_s1_1e3.yoda/PAPER_FIN_R8/lin_l20_pT_186_254
Title=herwig_ps_lo_r8_pt408_s1_1e3
XLabel=~
YLabel=~
# xlow	 xhigh	 val	 errminus	 errplus
0.000000e+00	5.000000e-02	3.413378e+09	2.725449e+07	2.725449e+07
5.000000e-02	9.000000e-02	7.324068e+08	1.363446e+05	1.363446e+05
9.000000e-02	1.500000e-01	3.111648e+08	7.251776e+04	7.251776e+04
1.500000e-01	2.050000e-01	1.357040e+08	4.998384e+04	4.998384e+04
2.050000e-01	1.000000e+00	5.332430e+06	2.613846e+03	2.613846e+03
# END HISTO1D

