# BEGIN PLOT
LegendOnly=/herwig_ps_lo_r8_pt408_s1_1e3.yoda/PAPER_FIN_R8/l10_pT_150_186
DrawOnly=/herwig_ps_lo_r8_pt408_s1_1e3.yoda/PAPER_FIN_R8/l10_pT_150_186
Legend=1
LogY=1
# END PLOT

# BEGIN HISTO1D /herwig_ps_lo_r8_pt408_s1_1e3.yoda/PAPER_FIN_R8/l10_pT_150_186
LineColor=red
LineStyle=solid
Path=/herwig_ps_lo_r8_pt408_s1_1e3.yoda/PAPER_FIN_R8/l10_pT_150_186
Title=herwig_ps_lo_r8_pt408_s1_1e3
XLabel=~
YLabel=~
# xlow	 xhigh	 val	 errminus	 errplus
-7.000000e+00	-6.930000e+00	4.857143e+02	8.329931e+01	8.329931e+01
-6.930000e+00	-6.860000e+00	2.252630e+07	1.797867e+04	1.797867e+04
-6.860000e+00	-6.790000e+00	5.428571e+02	8.806306e+01	8.806306e+01
-6.790000e+00	-6.720000e+00	4.571429e+02	8.081220e+01	8.081220e+01
-6.720000e+00	-6.650000e+00	5.428571e+02	8.806306e+01	8.806306e+01
-6.650000e+00	-6.580000e+00	3.714286e+02	7.284314e+01	7.284314e+01
-6.580000e+00	-6.510000e+00	5.000000e+02	8.451543e+01	8.451543e+01
-6.510000e+00	-6.440000e+00	6.285714e+02	9.476071e+01	9.476071e+01
-6.440000e+00	-6.370000e+00	3.285714e+02	6.851188e+01	6.851188e+01
-6.370000e+00	-6.300000e+00	4.000000e+02	7.559289e+01	7.559289e+01
-6.300000e+00	-6.230000e+00	4.285714e+02	7.824608e+01	7.824608e+01
-6.230000e+00	-6.160000e+00	4.142857e+02	7.693093e+01	7.693093e+01
-6.160000e+00	-6.090000e+00	4.574209e+02	8.086181e+01	8.086181e+01
-6.090000e+00	-6.020000e+00	3.285714e+02	6.851188e+01	6.851188e+01
-6.020000e+00	-5.950000e+00	4.571429e+02	8.081220e+01	8.081220e+01
-5.950000e+00	-5.880000e+00	4.000000e+02	7.559289e+01	7.559289e+01
-5.880000e+00	-5.810000e+00	3.857143e+02	7.423075e+01	7.423075e+01
-5.810000e+00	-5.740000e+00	4.285714e+02	7.824608e+01	7.824608e+01
-5.740000e+00	-5.670000e+00	3.857143e+02	7.423075e+01	7.423075e+01
-5.670000e+00	-5.600000e+00	4.857143e+02	8.329931e+01	8.329931e+01
-5.600000e+00	-5.530000e+00	4.714286e+02	8.206518e+01	8.206518e+01
-5.530000e+00	-5.460000e+00	3.142857e+02	6.700594e+01	6.700594e+01
-5.460000e+00	-5.390000e+00	4.000000e+02	7.559289e+01	7.559289e+01
-5.390000e+00	-5.320000e+00	4.000000e+02	7.559289e+01	7.559289e+01
-5.320000e+00	-5.250000e+00	4.428571e+02	7.953949e+01	7.953949e+01
-5.250000e+00	-5.180000e+00	4.571429e+02	8.081220e+01	8.081220e+01
-5.180000e+00	-5.110000e+00	3.857143e+02	7.423075e+01	7.423075e+01
-5.110000e+00	-5.040000e+00	3.571429e+02	7.142857e+01	7.142857e+01
-5.040000e+00	-4.970000e+00	4.428571e+02	7.953949e+01	7.953949e+01
-4.970000e+00	-4.900000e+00	4.000000e+02	7.559289e+01	7.559289e+01
-4.900000e+00	-4.830000e+00	3.285714e+02	6.851188e+01	6.851188e+01
-4.830000e+00	-4.760000e+00	5.000000e+02	8.451543e+01	8.451543e+01
-4.760000e+00	-4.690000e+00	4.142857e+02	7.693093e+01	7.693093e+01
-4.690000e+00	-4.620000e+00	3.571429e+02	7.142857e+01	7.142857e+01
-4.620000e+00	-4.550000e+00	6.571429e+02	9.689043e+01	9.689043e+01
-4.550000e+00	-4.480000e+00	4.714286e+02	8.206518e+01	8.206518e+01
-4.480000e+00	-4.410000e+00	6.571429e+02	9.689043e+01	9.689043e+01
-4.410000e+00	-4.340000e+00	6.571429e+02	9.689043e+01	9.689043e+01
-4.340000e+00	-4.270000e+00	5.857143e+02	9.147320e+01	9.147320e+01
-4.270000e+00	-4.200000e+00	6.714286e+02	9.793792e+01	9.793792e+01
-4.200000e+00	-4.130000e+00	8.428571e+02	1.097307e+02	1.097307e+02
-4.130000e+00	-4.060000e+00	1.228571e+03	1.324803e+02	1.324803e+02
-4.060000e+00	-3.990000e+00	1.257143e+03	1.340119e+02	1.340119e+02
-3.990000e+00	-3.920000e+00	1.214286e+03	1.317078e+02	1.317078e+02
-3.920000e+00	-3.850000e+00	1.657143e+03	1.538619e+02	1.538619e+02
-3.850000e+00	-3.780000e+00	1.943529e+03	1.679346e+02	1.679346e+02
-3.780000e+00	-3.710000e+00	2.528571e+03	1.900591e+02	1.900591e+02
-3.710000e+00	-3.640000e+00	3.214286e+03	2.142857e+02	2.142857e+02
-3.640000e+00	-3.570000e+00	4.342857e+03	2.490799e+02	2.490799e+02
-3.570000e+00	-3.500000e+00	4.942857e+03	2.657296e+02	2.657296e+02
-3.500000e+00	-3.430000e+00	7.357143e+03	3.241944e+02	3.241944e+02
-3.430000e+00	-3.360000e+00	9.775366e+03	3.737912e+02	3.737912e+02
-3.360000e+00	-3.290000e+00	1.233739e+04	4.208472e+02	4.208472e+02
-3.290000e+00	-3.220000e+00	1.597143e+04	4.776644e+02	4.776644e+02
-3.220000e+00	-3.150000e+00	2.194644e+04	5.602665e+02	5.602665e+02
-3.150000e+00	-3.080000e+00	2.880000e+04	6.414270e+02	6.414270e+02
-3.080000e+00	-3.010000e+00	3.597869e+04	7.176263e+02	7.176263e+02
-3.010000e+00	-2.940000e+00	4.976547e+04	8.436762e+02	8.436762e+02
-2.940000e+00	-2.870000e+00	6.360520e+04	9.534725e+02	9.534725e+02
-2.870000e+00	-2.800000e+00	8.162966e+04	1.080204e+03	1.080204e+03
-2.800000e+00	-2.730000e+00	1.043074e+05	1.221409e+03	1.221409e+03
-2.730000e+00	-2.660000e+00	1.349619e+05	1.389463e+03	1.389463e+03
-2.660000e+00	-2.590000e+00	1.712820e+05	1.565157e+03	1.565157e+03
-2.590000e+00	-2.520000e+00	2.193037e+05	1.771038e+03	1.771038e+03
-2.520000e+00	-2.450000e+00	2.889110e+05	2.033160e+03	2.033160e+03
-2.450000e+00	-2.380000e+00	3.791967e+05	2.329014e+03	2.329014e+03
-2.380000e+00	-2.310000e+00	5.152037e+05	2.715564e+03	2.715564e+03
-2.310000e+00	-2.240000e+00	7.270930e+05	3.227758e+03	3.227758e+03
-2.240000e+00	-2.170000e+00	1.124592e+06	4.016972e+03	4.016972e+03
-2.170000e+00	-2.100000e+00	2.312614e+06	5.795144e+03	5.795144e+03
-2.100000e+00	-2.030000e+00	4.323460e+06	7.871938e+03	7.871938e+03
-2.030000e+00	-1.960000e+00	5.329207e+06	8.741371e+03	8.741371e+03
-1.960000e+00	-1.890000e+00	5.621850e+06	8.976542e+03	8.976542e+03
-1.890000e+00	-1.820000e+00	5.892790e+06	9.188353e+03	9.188353e+03
-1.820000e+00	-1.750000e+00	6.662677e+06	9.776000e+03	9.776000e+03
-1.750000e+00	-1.680000e+00	8.072130e+06	1.091790e+04	1.091790e+04
-1.680000e+00	-1.610000e+00	9.540351e+06	1.284558e+04	1.284558e+04
-1.610000e+00	-1.540000e+00	1.095068e+07	1.258684e+04	1.258684e+04
-1.540000e+00	-1.470000e+00	1.249759e+07	1.338555e+04	1.338555e+04
-1.470000e+00	-1.400000e+00	1.412729e+07	1.509269e+04	1.509269e+04
-1.400000e+00	-1.330000e+00	1.577987e+07	1.513695e+04	1.513695e+04
-1.330000e+00	-1.260000e+00	1.739896e+07	1.586206e+04	1.586206e+04
-1.260000e+00	-1.190000e+00	1.891014e+07	1.650456e+04	1.650456e+04
-1.190000e+00	-1.120000e+00	2.027809e+07	1.717013e+04	1.717013e+04
-1.120000e+00	-1.050000e+00	2.131144e+07	1.751286e+04	1.751286e+04
-1.050000e+00	-9.800000e-01	2.202613e+07	1.777381e+04	1.777381e+04
-9.800000e-01	-9.100000e-01	2.232520e+07	1.802515e+04	1.802515e+04
-9.100000e-01	-8.400000e-01	2.210389e+07	1.792581e+04	1.792581e+04
-8.400000e-01	-7.700000e-01	2.142961e+07	1.753940e+04	1.753940e+04
-7.700000e-01	-7.000000e-01	2.022576e+07	1.704019e+04	1.704019e+04
-7.000000e-01	-6.300000e-01	1.855701e+07	1.631248e+04	1.631248e+04
-6.300000e-01	-5.600000e-01	1.650500e+07	1.543148e+04	1.543148e+04
-5.600000e-01	-4.900000e-01	1.389660e+07	1.414193e+04	1.414193e+04
-4.900000e-01	-4.200000e-01	1.086305e+07	1.275795e+04	1.275795e+04
-4.200000e-01	-3.500000e-01	7.328081e+06	1.025283e+04	1.025283e+04
-3.500000e-01	-2.800000e-01	3.757637e+06	7.346843e+03	7.346843e+03
-2.800000e-01	-2.100000e-01	1.163005e+06	4.093937e+03	4.093937e+03
-2.100000e-01	-1.400000e-01	1.930326e+05	1.664123e+03	1.664123e+03
-1.400000e-01	-7.000000e-02	1.170000e+04	4.088311e+02	4.088311e+02
-7.000000e-02	0.000000e+00	1.428571e+02	4.517540e+01	4.517540e+01
# END HISTO1D

