# BEGIN PLOT
LegendOnly=/zj_ps_nlo_mer_mur2_muf1_R8.yoda/MC_XS/pmN
DrawOnly=/zj_ps_nlo_mer_mur2_muf1_R8.yoda/MC_XS/pmN
Title=Number of positive and negative weighted events
XMajorTickMarks=20
LogY=0
XLabel=$\pm$
ShowZero=0
XMax=1
YLabel=$N_\pm$
XMin=-1
XMinorTickMarks=0
Legend=1
# END PLOT

# BEGIN HISTO1D /zj_ps_nlo_mer_mur2_muf1_R8.yoda/MC_XS/pmN
LineColor=red
LineStyle=solid
Path=/zj_ps_nlo_mer_mur2_muf1_R8.yoda/MC_XS/pmN
Title=zj_ps_nlo_mer_mur2_muf1_R8
XLabel=~
YLabel=~
# xlow	 xhigh	 val	 errminus	 errplus
-1.000000e+00	0.000000e+00	4.526671e+08	2.127597e+04	2.127597e+04
0.000000e+00	1.000000e+00	5.463329e+08	2.337377e+04	2.337377e+04
# END HISTO1D

