# BEGIN PLOT
LegendOnly=/zj_ps_nlo_mer_mur0.5_muf0.5_R8.yoda/PAPER_FIN_R8_CH/lin_l20_pT_326_408
DrawOnly=/zj_ps_nlo_mer_mur0.5_muf0.5_R8.yoda/PAPER_FIN_R8_CH/lin_l20_pT_326_408
Legend=1
LogY=1
# END PLOT

# BEGIN HISTO1D /zj_ps_nlo_mer_mur0.5_muf0.5_R8.yoda/PAPER_FIN_R8_CH/lin_l20_pT_326_408
LineColor=red
LineStyle=solid
Path=/zj_ps_nlo_mer_mur0.5_muf0.5_R8.yoda/PAPER_FIN_R8_CH/lin_l20_pT_326_408
Title=zj_ps_nlo_mer_mur0.5_muf0.5_R8
XLabel=~
YLabel=~
# xlow	 xhigh	 val	 errminus	 errplus
0.000000e+00	5.000000e-03	7.613120e+09	1.204520e+08	1.204520e+08
5.000000e-03	1.250000e-02	1.779917e+10	2.334488e+08	2.334488e+08
1.250000e-02	2.250000e-02	1.458942e+10	1.476213e+08	1.476213e+08
2.250000e-02	3.500000e-02	7.882578e+09	1.377975e+09	1.377975e+09
3.500000e-02	5.000000e-02	5.468617e+09	6.675830e+07	6.675830e+07
5.000000e-02	7.000000e-02	3.413309e+09	4.775702e+07	4.775702e+07
7.000000e-02	9.250000e-02	2.232930e+09	5.434605e+07	5.434605e+07
9.250000e-02	1.200000e-01	1.534868e+09	3.476754e+07	3.476754e+07
1.200000e-01	1.520000e-01	1.028265e+09	1.580583e+07	1.580583e+07
1.520000e-01	1.880000e-01	6.892592e+08	1.468064e+07	1.468064e+07
1.880000e-01	2.280000e-01	4.117510e+08	6.740201e+06	6.740201e+06
2.280000e-01	1.000000e+00	1.692150e+07	3.124988e+05	3.124988e+05
# END HISTO1D

