# BEGIN PLOT
LegendOnly=/zj_ps_nlo_mer_mur0.5_muf0.5_R8.yoda/PAPER_FIN_R8_CH/lin_l20_pT_186_254
DrawOnly=/zj_ps_nlo_mer_mur0.5_muf0.5_R8.yoda/PAPER_FIN_R8_CH/lin_l20_pT_186_254
Legend=1
LogY=1
# END PLOT

# BEGIN HISTO1D /zj_ps_nlo_mer_mur0.5_muf0.5_R8.yoda/PAPER_FIN_R8_CH/lin_l20_pT_186_254
LineColor=red
LineStyle=solid
Path=/zj_ps_nlo_mer_mur0.5_muf0.5_R8.yoda/PAPER_FIN_R8_CH/lin_l20_pT_186_254
Title=zj_ps_nlo_mer_mur0.5_muf0.5_R8
XLabel=~
YLabel=~
# xlow	 xhigh	 val	 errminus	 errplus
0.000000e+00	5.000000e-03	1.531086e+10	3.777373e+08	3.777373e+08
5.000000e-03	1.250000e-02	4.890555e+10	1.942571e+09	1.942571e+09
1.250000e-02	2.250000e-02	5.326532e+10	6.760253e+08	6.760253e+08
2.250000e-02	3.500000e-02	3.952038e+10	3.262299e+08	3.262299e+08
3.500000e-02	5.000000e-02	2.458337e+10	3.163563e+08	3.163563e+08
5.000000e-02	7.000000e-02	1.486470e+10	1.582221e+08	1.582221e+08
7.000000e-02	9.250000e-02	9.391049e+09	1.174355e+08	1.174355e+08
9.250000e-02	1.200000e-01	-4.449716e+09	1.033449e+10	1.033449e+10
1.200000e-01	1.520000e-01	4.007300e+09	7.253291e+07	7.253291e+07
1.520000e-01	1.880000e-01	2.345373e+09	6.342672e+07	6.342672e+07
1.880000e-01	2.280000e-01	1.315967e+09	4.228682e+07	4.228682e+07
2.280000e-01	1.000000e+00	5.266312e+07	1.415589e+06	1.415589e+06
# END HISTO1D

