# BEGIN PLOT
# END PLOT

# BEGIN HISTO1D
LineColor=red
LineStyle=solid
Title=Z+Jet RES+NP
# Sigma = 1.281424e-01 pb
# xlow	xhigh	val	errminus	errplus
0.000000e+00	1.250000e-02	2.494504e+01	3.798733e+00	4.079612e+00
1.250000e-02	2.250000e-02	1.138195e+01	1.422288e+00	1.655621e+00
2.250000e-02	3.500000e-02	6.382824e+00	7.795842e-01	8.830497e-01
3.500000e-02	5.000000e-02	4.449118e+00	5.444078e-01	6.104835e-01
5.000000e-02	7.000000e-02	3.335063e+00	4.077253e-01	4.530057e-01
7.000000e-02	9.500000e-02	2.613174e+00	3.205708e-01	3.544803e-01
9.500000e-02	1.280000e-01	2.513337e+00	3.812397e-01	4.729962e-01
1.280000e-01	1.700000e-01	1.700754e+00	2.857002e-01	3.500797e-01
1.700000e-01	2.250000e-01	1.172539e+00	1.859704e-01	2.341619e-01
2.250000e-01	2.900000e-01	7.287864e-01	1.166219e-01	1.470630e-01
2.900000e-01	3.650000e-01	4.084322e-01	6.825932e-02	8.948668e-02
3.650000e-01	4.500000e-01	2.184575e-01	3.978609e-02	5.937974e-02
4.500000e-01	1.000000e+00	1.430134e-02	5.159247e-03	8.621952e-03
# END HISTO1D