# BEGIN PLOT
LegendOnly=/zj_ps_nlo_mer_mur1_muf2_R8.yoda/PAPER_FIN_R8/ch_l05_pT_65_88
DrawOnly=/zj_ps_nlo_mer_mur1_muf2_R8.yoda/PAPER_FIN_R8/ch_l05_pT_65_88
Legend=1
LogY=1
# END PLOT

# BEGIN HISTO1D /zj_ps_nlo_mer_mur1_muf2_R8.yoda/PAPER_FIN_R8/ch_l05_pT_65_88
LineColor=red
LineStyle=solid
Path=/zj_ps_nlo_mer_mur1_muf2_R8.yoda/PAPER_FIN_R8/ch_l05_pT_65_88
Title=zj_ps_nlo_mer_mur1_muf2_R8
XLabel=~
YLabel=~
# xlow	 xhigh	 val	 errminus	 errplus
-7.000000e+00	-6.930000e+00	0.000000e+00	0.000000e+00	0.000000e+00
-6.930000e+00	-6.860000e+00	1.773229e+08	3.832615e+06	3.832615e+06
-6.860000e+00	-6.790000e+00	0.000000e+00	0.000000e+00	0.000000e+00
-6.790000e+00	-6.720000e+00	0.000000e+00	0.000000e+00	0.000000e+00
-6.720000e+00	-6.650000e+00	0.000000e+00	0.000000e+00	0.000000e+00
-6.650000e+00	-6.580000e+00	0.000000e+00	0.000000e+00	0.000000e+00
-6.580000e+00	-6.510000e+00	0.000000e+00	0.000000e+00	0.000000e+00
-6.510000e+00	-6.440000e+00	0.000000e+00	0.000000e+00	0.000000e+00
-6.440000e+00	-6.370000e+00	0.000000e+00	0.000000e+00	0.000000e+00
-6.370000e+00	-6.300000e+00	0.000000e+00	0.000000e+00	0.000000e+00
-6.300000e+00	-6.230000e+00	0.000000e+00	0.000000e+00	0.000000e+00
-6.230000e+00	-6.160000e+00	0.000000e+00	0.000000e+00	0.000000e+00
-6.160000e+00	-6.090000e+00	0.000000e+00	0.000000e+00	0.000000e+00
-6.090000e+00	-6.020000e+00	0.000000e+00	0.000000e+00	0.000000e+00
-6.020000e+00	-5.950000e+00	0.000000e+00	0.000000e+00	0.000000e+00
-5.950000e+00	-5.880000e+00	0.000000e+00	0.000000e+00	0.000000e+00
-5.880000e+00	-5.810000e+00	0.000000e+00	0.000000e+00	0.000000e+00
-5.810000e+00	-5.740000e+00	0.000000e+00	0.000000e+00	0.000000e+00
-5.740000e+00	-5.670000e+00	0.000000e+00	0.000000e+00	0.000000e+00
-5.670000e+00	-5.600000e+00	0.000000e+00	0.000000e+00	0.000000e+00
-5.600000e+00	-5.530000e+00	0.000000e+00	0.000000e+00	0.000000e+00
-5.530000e+00	-5.460000e+00	0.000000e+00	0.000000e+00	0.000000e+00
-5.460000e+00	-5.390000e+00	0.000000e+00	0.000000e+00	0.000000e+00
-5.390000e+00	-5.320000e+00	0.000000e+00	0.000000e+00	0.000000e+00
-5.320000e+00	-5.250000e+00	0.000000e+00	0.000000e+00	0.000000e+00
-5.250000e+00	-5.180000e+00	0.000000e+00	0.000000e+00	0.000000e+00
-5.180000e+00	-5.110000e+00	0.000000e+00	0.000000e+00	0.000000e+00
-5.110000e+00	-5.040000e+00	0.000000e+00	0.000000e+00	0.000000e+00
-5.040000e+00	-4.970000e+00	0.000000e+00	0.000000e+00	0.000000e+00
-4.970000e+00	-4.900000e+00	0.000000e+00	0.000000e+00	0.000000e+00
-4.900000e+00	-4.830000e+00	0.000000e+00	0.000000e+00	0.000000e+00
-4.830000e+00	-4.760000e+00	0.000000e+00	0.000000e+00	0.000000e+00
-4.760000e+00	-4.690000e+00	0.000000e+00	0.000000e+00	0.000000e+00
-4.690000e+00	-4.620000e+00	0.000000e+00	0.000000e+00	0.000000e+00
-4.620000e+00	-4.550000e+00	0.000000e+00	0.000000e+00	0.000000e+00
-4.550000e+00	-4.480000e+00	0.000000e+00	0.000000e+00	0.000000e+00
-4.480000e+00	-4.410000e+00	0.000000e+00	0.000000e+00	0.000000e+00
-4.410000e+00	-4.340000e+00	0.000000e+00	0.000000e+00	0.000000e+00
-4.340000e+00	-4.270000e+00	0.000000e+00	0.000000e+00	0.000000e+00
-4.270000e+00	-4.200000e+00	0.000000e+00	0.000000e+00	0.000000e+00
-4.200000e+00	-4.130000e+00	0.000000e+00	0.000000e+00	0.000000e+00
-4.130000e+00	-4.060000e+00	1.037531e+03	1.037531e+03	1.037531e+03
-4.060000e+00	-3.990000e+00	0.000000e+00	0.000000e+00	0.000000e+00
-3.990000e+00	-3.920000e+00	0.000000e+00	0.000000e+00	0.000000e+00
-3.920000e+00	-3.850000e+00	0.000000e+00	0.000000e+00	0.000000e+00
-3.850000e+00	-3.780000e+00	2.308244e+04	1.634162e+04	1.634162e+04
-3.780000e+00	-3.710000e+00	3.723024e+04	3.723025e+04	3.723025e+04
-3.710000e+00	-3.640000e+00	6.315383e+04	6.315383e+04	6.315383e+04
-3.640000e+00	-3.570000e+00	3.776776e+04	3.372664e+04	3.372664e+04
-3.570000e+00	-3.500000e+00	1.373197e+04	1.373197e+04	1.373197e+04
-3.500000e+00	-3.430000e+00	7.627157e+04	6.049955e+04	6.049955e+04
-3.430000e+00	-3.360000e+00	2.581780e+04	2.117390e+04	2.117390e+04
-3.360000e+00	-3.290000e+00	7.418107e+04	3.986893e+04	3.986893e+04
-3.290000e+00	-3.220000e+00	2.394286e+05	1.126451e+05	1.126451e+05
-3.220000e+00	-3.150000e+00	4.830833e+04	2.590350e+04	2.590350e+04
-3.150000e+00	-3.080000e+00	2.720623e+05	1.048583e+05	1.048583e+05
-3.080000e+00	-3.010000e+00	2.084536e+05	6.889714e+04	6.889714e+04
-3.010000e+00	-2.940000e+00	5.799536e+05	1.438525e+05	1.438525e+05
-2.940000e+00	-2.870000e+00	7.482896e+05	1.792321e+05	1.792321e+05
-2.870000e+00	-2.800000e+00	7.135920e+05	1.554612e+05	1.554612e+05
-2.800000e+00	-2.730000e+00	1.311978e+06	2.438008e+05	2.438008e+05
-2.730000e+00	-2.660000e+00	1.029632e+06	1.994254e+05	1.994254e+05
-2.660000e+00	-2.590000e+00	1.603581e+06	3.435612e+05	3.435612e+05
-2.590000e+00	-2.520000e+00	3.392767e+06	6.952558e+05	6.952558e+05
-2.520000e+00	-2.450000e+00	2.919829e+06	4.013448e+05	4.013448e+05
-2.450000e+00	-2.380000e+00	4.899284e+06	5.256015e+05	5.256015e+05
-2.380000e+00	-2.310000e+00	4.670333e+06	5.294069e+05	5.294069e+05
-2.310000e+00	-2.240000e+00	6.413819e+06	6.244114e+05	6.244114e+05
-2.240000e+00	-2.170000e+00	9.489317e+06	9.185700e+05	9.185700e+05
-2.170000e+00	-2.100000e+00	1.093572e+07	7.545013e+05	7.545013e+05
-2.100000e+00	-2.030000e+00	1.382847e+07	8.529159e+05	8.529159e+05
-2.030000e+00	-1.960000e+00	1.760059e+07	9.257533e+05	9.257533e+05
-1.960000e+00	-1.890000e+00	2.676339e+07	1.523505e+06	1.523505e+06
-1.890000e+00	-1.820000e+00	3.381359e+07	1.635558e+06	1.635558e+06
-1.820000e+00	-1.750000e+00	4.684643e+07	2.042538e+06	2.042538e+06
-1.750000e+00	-1.680000e+00	6.307196e+07	2.006127e+06	2.006127e+06
-1.680000e+00	-1.610000e+00	9.128877e+07	4.051836e+06	4.051836e+06
-1.610000e+00	-1.540000e+00	1.206021e+08	2.798878e+06	2.798878e+06
-1.540000e+00	-1.470000e+00	1.749033e+08	3.354285e+06	3.354285e+06
-1.470000e+00	-1.400000e+00	2.665593e+08	4.366522e+06	4.366522e+06
-1.400000e+00	-1.330000e+00	4.131653e+08	5.496071e+06	5.496071e+06
-1.330000e+00	-1.260000e+00	6.550817e+08	7.078801e+06	7.078801e+06
-1.260000e+00	-1.190000e+00	1.077687e+09	9.051785e+06	9.051785e+06
-1.190000e+00	-1.120000e+00	1.800330e+09	1.362585e+07	1.362585e+07
-1.120000e+00	-1.050000e+00	3.019053e+09	1.550821e+07	1.550821e+07
-1.050000e+00	-9.800000e-01	5.236263e+09	2.226443e+07	2.226443e+07
-9.800000e-01	-9.100000e-01	8.848449e+09	2.689971e+07	2.689971e+07
-9.100000e-01	-8.400000e-01	1.486447e+10	3.836105e+07	3.836105e+07
-8.400000e-01	-7.700000e-01	2.356940e+10	4.747582e+07	4.747582e+07
-7.700000e-01	-7.000000e-01	3.489297e+10	8.898730e+07	8.898730e+07
-7.000000e-01	-6.300000e-01	4.650133e+10	8.074563e+07	8.074563e+07
-6.300000e-01	-5.600000e-01	5.560249e+10	8.005717e+07	8.005717e+07
-5.600000e-01	-4.900000e-01	5.914126e+10	7.947934e+07	7.947934e+07
-4.900000e-01	-4.200000e-01	5.638019e+10	7.283759e+07	7.283759e+07
-4.200000e-01	-3.500000e-01	4.878886e+10	6.577254e+07	6.577254e+07
-3.500000e-01	-2.800000e-01	3.704800e+10	7.359402e+07	7.359402e+07
-2.800000e-01	-2.100000e-01	2.169127e+10	4.666701e+07	4.666701e+07
-2.100000e-01	-1.400000e-01	6.352529e+09	2.429782e+07	2.429782e+07
-1.400000e-01	-7.000000e-02	4.161544e+08	5.166079e+06	5.166079e+06
-7.000000e-02	0.000000e+00	1.779793e+06	3.131801e+05	3.131801e+05
# END HISTO1D

