# BEGIN PLOT
LegendOnly=/zj_ps_nlo_mer_mur1_muf2_R8.yoda/PAPER_FIN_R8/l10_pT_88_120
DrawOnly=/zj_ps_nlo_mer_mur1_muf2_R8.yoda/PAPER_FIN_R8/l10_pT_88_120
Legend=1
LogY=1
# END PLOT

# BEGIN HISTO1D /zj_ps_nlo_mer_mur1_muf2_R8.yoda/PAPER_FIN_R8/l10_pT_88_120
LineColor=red
LineStyle=solid
Path=/zj_ps_nlo_mer_mur1_muf2_R8.yoda/PAPER_FIN_R8/l10_pT_88_120
Title=zj_ps_nlo_mer_mur1_muf2_R8
XLabel=~
YLabel=~
# xlow	 xhigh	 val	 errminus	 errplus
-7.000000e+00	-6.930000e+00	0.000000e+00	0.000000e+00	0.000000e+00
-6.930000e+00	-6.860000e+00	0.000000e+00	0.000000e+00	0.000000e+00
-6.860000e+00	-6.790000e+00	0.000000e+00	0.000000e+00	0.000000e+00
-6.790000e+00	-6.720000e+00	0.000000e+00	0.000000e+00	0.000000e+00
-6.720000e+00	-6.650000e+00	0.000000e+00	0.000000e+00	0.000000e+00
-6.650000e+00	-6.580000e+00	0.000000e+00	0.000000e+00	0.000000e+00
-6.580000e+00	-6.510000e+00	0.000000e+00	0.000000e+00	0.000000e+00
-6.510000e+00	-6.440000e+00	0.000000e+00	0.000000e+00	0.000000e+00
-6.440000e+00	-6.370000e+00	0.000000e+00	0.000000e+00	0.000000e+00
-6.370000e+00	-6.300000e+00	0.000000e+00	0.000000e+00	0.000000e+00
-6.300000e+00	-6.230000e+00	0.000000e+00	0.000000e+00	0.000000e+00
-6.230000e+00	-6.160000e+00	0.000000e+00	0.000000e+00	0.000000e+00
-6.160000e+00	-6.090000e+00	0.000000e+00	0.000000e+00	0.000000e+00
-6.090000e+00	-6.020000e+00	0.000000e+00	0.000000e+00	0.000000e+00
-6.020000e+00	-5.950000e+00	0.000000e+00	0.000000e+00	0.000000e+00
-5.950000e+00	-5.880000e+00	0.000000e+00	0.000000e+00	0.000000e+00
-5.880000e+00	-5.810000e+00	0.000000e+00	0.000000e+00	0.000000e+00
-5.810000e+00	-5.740000e+00	0.000000e+00	0.000000e+00	0.000000e+00
-5.740000e+00	-5.670000e+00	0.000000e+00	0.000000e+00	0.000000e+00
-5.670000e+00	-5.600000e+00	0.000000e+00	0.000000e+00	0.000000e+00
-5.600000e+00	-5.530000e+00	0.000000e+00	0.000000e+00	0.000000e+00
-5.530000e+00	-5.460000e+00	0.000000e+00	0.000000e+00	0.000000e+00
-5.460000e+00	-5.390000e+00	0.000000e+00	0.000000e+00	0.000000e+00
-5.390000e+00	-5.320000e+00	0.000000e+00	0.000000e+00	0.000000e+00
-5.320000e+00	-5.250000e+00	0.000000e+00	0.000000e+00	0.000000e+00
-5.250000e+00	-5.180000e+00	0.000000e+00	0.000000e+00	0.000000e+00
-5.180000e+00	-5.110000e+00	0.000000e+00	0.000000e+00	0.000000e+00
-5.110000e+00	-5.040000e+00	0.000000e+00	0.000000e+00	0.000000e+00
-5.040000e+00	-4.970000e+00	0.000000e+00	0.000000e+00	0.000000e+00
-4.970000e+00	-4.900000e+00	0.000000e+00	0.000000e+00	0.000000e+00
-4.900000e+00	-4.830000e+00	0.000000e+00	0.000000e+00	0.000000e+00
-4.830000e+00	-4.760000e+00	0.000000e+00	0.000000e+00	0.000000e+00
-4.760000e+00	-4.690000e+00	0.000000e+00	0.000000e+00	0.000000e+00
-4.690000e+00	-4.620000e+00	0.000000e+00	0.000000e+00	0.000000e+00
-4.620000e+00	-4.550000e+00	0.000000e+00	0.000000e+00	0.000000e+00
-4.550000e+00	-4.480000e+00	0.000000e+00	0.000000e+00	0.000000e+00
-4.480000e+00	-4.410000e+00	0.000000e+00	0.000000e+00	0.000000e+00
-4.410000e+00	-4.340000e+00	0.000000e+00	0.000000e+00	0.000000e+00
-4.340000e+00	-4.270000e+00	0.000000e+00	0.000000e+00	0.000000e+00
-4.270000e+00	-4.200000e+00	0.000000e+00	0.000000e+00	0.000000e+00
-4.200000e+00	-4.130000e+00	0.000000e+00	0.000000e+00	0.000000e+00
-4.130000e+00	-4.060000e+00	0.000000e+00	0.000000e+00	0.000000e+00
-4.060000e+00	-3.990000e+00	0.000000e+00	0.000000e+00	0.000000e+00
-3.990000e+00	-3.920000e+00	0.000000e+00	0.000000e+00	0.000000e+00
-3.920000e+00	-3.850000e+00	0.000000e+00	0.000000e+00	0.000000e+00
-3.850000e+00	-3.780000e+00	0.000000e+00	0.000000e+00	0.000000e+00
-3.780000e+00	-3.710000e+00	1.005160e+04	1.005160e+04	1.005160e+04
-3.710000e+00	-3.640000e+00	0.000000e+00	0.000000e+00	0.000000e+00
-3.640000e+00	-3.570000e+00	0.000000e+00	0.000000e+00	0.000000e+00
-3.570000e+00	-3.500000e+00	0.000000e+00	0.000000e+00	0.000000e+00
-3.500000e+00	-3.430000e+00	0.000000e+00	0.000000e+00	0.000000e+00
-3.430000e+00	-3.360000e+00	0.000000e+00	0.000000e+00	0.000000e+00
-3.360000e+00	-3.290000e+00	0.000000e+00	0.000000e+00	0.000000e+00
-3.290000e+00	-3.220000e+00	2.335260e+03	2.335260e+03	2.335260e+03
-3.220000e+00	-3.150000e+00	0.000000e+00	0.000000e+00	0.000000e+00
-3.150000e+00	-3.080000e+00	1.765603e+03	1.765603e+03	1.765603e+03
-3.080000e+00	-3.010000e+00	1.006439e+05	8.252551e+04	8.252551e+04
-3.010000e+00	-2.940000e+00	7.185091e+03	5.385593e+03	5.385593e+03
-2.940000e+00	-2.870000e+00	0.000000e+00	0.000000e+00	0.000000e+00
-2.870000e+00	-2.800000e+00	2.469729e+03	2.211626e+03	2.211626e+03
-2.800000e+00	-2.730000e+00	3.527561e+04	3.153792e+04	3.153792e+04
-2.730000e+00	-2.660000e+00	1.142294e+05	8.335110e+04	8.335110e+04
-2.660000e+00	-2.590000e+00	3.168094e+05	1.907685e+05	1.907685e+05
-2.590000e+00	-2.520000e+00	2.200833e+05	7.047365e+04	7.047365e+04
-2.520000e+00	-2.450000e+00	4.860793e+05	1.581216e+05	1.581216e+05
-2.450000e+00	-2.380000e+00	7.603607e+05	2.297805e+05	2.297805e+05
-2.380000e+00	-2.310000e+00	1.124592e+06	2.966888e+05	2.966888e+05
-2.310000e+00	-2.240000e+00	1.592583e+06	2.758909e+05	2.758909e+05
-2.240000e+00	-2.170000e+00	3.780816e+06	5.375301e+05	5.375301e+05
-2.170000e+00	-2.100000e+00	6.153037e+06	5.338990e+05	5.338990e+05
-2.100000e+00	-2.030000e+00	9.395476e+06	6.353601e+05	6.353601e+05
-2.030000e+00	-1.960000e+00	1.832240e+07	1.055113e+06	1.055113e+06
-1.960000e+00	-1.890000e+00	3.461911e+07	1.359504e+06	1.359504e+06
-1.890000e+00	-1.820000e+00	6.243731e+07	1.869497e+06	1.869497e+06
-1.820000e+00	-1.750000e+00	1.175006e+08	2.742960e+06	2.742960e+06
-1.750000e+00	-1.680000e+00	2.169706e+08	3.638025e+06	3.638025e+06
-1.680000e+00	-1.610000e+00	4.153700e+08	5.198538e+06	5.198538e+06
-1.610000e+00	-1.540000e+00	7.732936e+08	7.167305e+06	7.167305e+06
-1.540000e+00	-1.470000e+00	1.438651e+09	9.769229e+06	9.769229e+06
-1.470000e+00	-1.400000e+00	2.646047e+09	1.421713e+07	1.421713e+07
-1.400000e+00	-1.330000e+00	4.609411e+09	1.832941e+07	1.832941e+07
-1.330000e+00	-1.260000e+00	7.692940e+09	2.383739e+07	2.383739e+07
-1.260000e+00	-1.190000e+00	1.156937e+10	2.953558e+07	2.953558e+07
-1.190000e+00	-1.120000e+00	1.595960e+10	3.742441e+07	3.742441e+07
-1.120000e+00	-1.050000e+00	1.998636e+10	3.928417e+07	3.928417e+07
-1.050000e+00	-9.800000e-01	2.303473e+10	4.445342e+07	4.445342e+07
-9.800000e-01	-9.100000e-01	2.473543e+10	1.179120e+08	1.179120e+08
-9.100000e-01	-8.400000e-01	2.508317e+10	4.980552e+07	4.980552e+07
-8.400000e-01	-7.700000e-01	2.388210e+10	4.273612e+07	4.273612e+07
-7.700000e-01	-7.000000e-01	2.176554e+10	4.059120e+07	4.059120e+07
-7.000000e-01	-6.300000e-01	1.891344e+10	3.746498e+07	3.746498e+07
-6.300000e-01	-5.600000e-01	1.601691e+10	3.276364e+07	3.276364e+07
-5.600000e-01	-4.900000e-01	1.312962e+10	2.917339e+07	2.917339e+07
-4.900000e-01	-4.200000e-01	1.041163e+10	2.653323e+07	2.653323e+07
-4.200000e-01	-3.500000e-01	7.598313e+09	2.277022e+07	2.277022e+07
-3.500000e-01	-2.800000e-01	4.614977e+09	1.683029e+07	1.683029e+07
-2.800000e-01	-2.100000e-01	1.903653e+09	1.097331e+07	1.097331e+07
-2.100000e-01	-1.400000e-01	3.967890e+08	4.738488e+06	4.738488e+06
-1.400000e-01	-7.000000e-02	4.016404e+07	1.543613e+06	1.543613e+06
-7.000000e-02	0.000000e+00	1.605407e+06	2.234460e+05	2.234460e+05
# END HISTO1D

