# BEGIN PLOT
LegendOnly=/zj_ps_nlo_mer_mur1_muf2_R4.yoda/PAPER_FIN_R4/ch_lin_l20_pT_65_88
DrawOnly=/zj_ps_nlo_mer_mur1_muf2_R4.yoda/PAPER_FIN_R4/ch_lin_l20_pT_65_88
Legend=1
LogY=1
# END PLOT

# BEGIN HISTO1D /zj_ps_nlo_mer_mur1_muf2_R4.yoda/PAPER_FIN_R4/ch_lin_l20_pT_65_88
LineColor=red
LineStyle=solid
Path=/zj_ps_nlo_mer_mur1_muf2_R4.yoda/PAPER_FIN_R4/ch_lin_l20_pT_65_88
Title=zj_ps_nlo_mer_mur1_muf2_R4
XLabel=~
YLabel=~
# xlow	 xhigh	 val	 errminus	 errplus
0.000000e+00	5.000000e-03	1.516312e+11	3.591995e+09	3.591995e+09
5.000000e-03	1.250000e-02	2.020741e+11	3.647316e+09	3.647316e+09
1.250000e-02	2.250000e-02	2.494516e+11	3.948097e+09	3.948097e+09
2.250000e-02	3.500000e-02	2.578246e+11	7.706972e+09	7.706972e+09
3.500000e-02	5.000000e-02	2.417603e+11	4.911836e+09	4.911836e+09
5.000000e-02	7.000000e-02	1.944682e+11	3.894919e+09	3.894919e+09
7.000000e-02	9.250000e-02	1.329833e+11	1.894634e+09	1.894634e+09
9.250000e-02	1.200000e-01	8.653818e+10	1.991435e+09	1.991435e+09
1.200000e-01	1.520000e-01	5.774094e+10	1.242128e+09	1.242128e+09
1.520000e-01	1.880000e-01	3.382547e+10	6.274874e+08	6.274874e+08
1.880000e-01	2.280000e-01	1.874316e+10	7.417974e+08	7.417974e+08
2.280000e-01	1.000000e+00	8.303929e+08	1.970961e+07	1.970961e+07
# END HISTO1D

