# BEGIN PLOT
LegendOnly=/zj_ps_nlo_mer_mur1_muf2_R4.yoda/PAPER_FIN_R4/ch_lin_SD_l20_pT_254_326
DrawOnly=/zj_ps_nlo_mer_mur1_muf2_R4.yoda/PAPER_FIN_R4/ch_lin_SD_l20_pT_254_326
Legend=1
LogY=1
# END PLOT

# BEGIN HISTO1D /zj_ps_nlo_mer_mur1_muf2_R4.yoda/PAPER_FIN_R4/ch_lin_SD_l20_pT_254_326
LineColor=red
LineStyle=solid
Path=/zj_ps_nlo_mer_mur1_muf2_R4.yoda/PAPER_FIN_R4/ch_lin_SD_l20_pT_254_326
Title=zj_ps_nlo_mer_mur1_muf2_R4
XLabel=~
YLabel=~
# xlow	 xhigh	 val	 errminus	 errplus
0.000000e+00	2.500000e-03	2.063702e+11	3.572150e+09	3.572150e+09
2.500000e-03	5.000000e-03	4.694124e+10	1.237573e+09	1.237573e+09
5.000000e-03	7.500000e-03	2.330090e+10	8.350544e+08	8.350544e+08
7.500000e-03	1.250000e-02	1.351603e+10	7.045401e+08	7.045401e+08
1.250000e-02	2.000000e-02	8.895729e+09	3.390126e+08	3.390126e+08
2.000000e-02	3.250000e-02	5.822380e+09	1.842397e+08	1.842397e+08
3.250000e-02	5.000000e-02	3.831519e+09	2.712143e+08	2.712143e+08
5.000000e-02	7.750000e-02	2.603672e+09	8.442333e+07	8.442333e+07
7.750000e-02	1.150000e-01	1.807003e+09	5.384944e+07	5.384944e+07
1.150000e-01	1.600000e-01	1.114068e+09	4.034823e+07	4.034823e+07
1.600000e-01	2.100000e-01	6.298138e+08	4.444566e+07	4.444566e+07
2.100000e-01	1.000000e+00	2.472178e+07	1.349128e+06	1.349128e+06
# END HISTO1D

