# BEGIN PLOT
LegendOnly=/zj_ps_nlo_mer_mur1_muf2_R4.yoda/PAPER_FIN_R4/ch_l05_pT_50_65
DrawOnly=/zj_ps_nlo_mer_mur1_muf2_R4.yoda/PAPER_FIN_R4/ch_l05_pT_50_65
Legend=1
LogY=1
# END PLOT

# BEGIN HISTO1D /zj_ps_nlo_mer_mur1_muf2_R4.yoda/PAPER_FIN_R4/ch_l05_pT_50_65
LineColor=red
LineStyle=solid
Path=/zj_ps_nlo_mer_mur1_muf2_R4.yoda/PAPER_FIN_R4/ch_l05_pT_50_65
Title=zj_ps_nlo_mer_mur1_muf2_R4
XLabel=~
YLabel=~
# xlow	 xhigh	 val	 errminus	 errplus
-7.000000e+00	-6.930000e+00	0.000000e+00	0.000000e+00	0.000000e+00
-6.930000e+00	-6.860000e+00	2.412051e+09	1.211962e+08	1.211962e+08
-6.860000e+00	-6.790000e+00	0.000000e+00	0.000000e+00	0.000000e+00
-6.790000e+00	-6.720000e+00	0.000000e+00	0.000000e+00	0.000000e+00
-6.720000e+00	-6.650000e+00	0.000000e+00	0.000000e+00	0.000000e+00
-6.650000e+00	-6.580000e+00	0.000000e+00	0.000000e+00	0.000000e+00
-6.580000e+00	-6.510000e+00	0.000000e+00	0.000000e+00	0.000000e+00
-6.510000e+00	-6.440000e+00	0.000000e+00	0.000000e+00	0.000000e+00
-6.440000e+00	-6.370000e+00	0.000000e+00	0.000000e+00	0.000000e+00
-6.370000e+00	-6.300000e+00	0.000000e+00	0.000000e+00	0.000000e+00
-6.300000e+00	-6.230000e+00	0.000000e+00	0.000000e+00	0.000000e+00
-6.230000e+00	-6.160000e+00	0.000000e+00	0.000000e+00	0.000000e+00
-6.160000e+00	-6.090000e+00	0.000000e+00	0.000000e+00	0.000000e+00
-6.090000e+00	-6.020000e+00	0.000000e+00	0.000000e+00	0.000000e+00
-6.020000e+00	-5.950000e+00	0.000000e+00	0.000000e+00	0.000000e+00
-5.950000e+00	-5.880000e+00	0.000000e+00	0.000000e+00	0.000000e+00
-5.880000e+00	-5.810000e+00	0.000000e+00	0.000000e+00	0.000000e+00
-5.810000e+00	-5.740000e+00	0.000000e+00	0.000000e+00	0.000000e+00
-5.740000e+00	-5.670000e+00	0.000000e+00	0.000000e+00	0.000000e+00
-5.670000e+00	-5.600000e+00	0.000000e+00	0.000000e+00	0.000000e+00
-5.600000e+00	-5.530000e+00	0.000000e+00	0.000000e+00	0.000000e+00
-5.530000e+00	-5.460000e+00	0.000000e+00	0.000000e+00	0.000000e+00
-5.460000e+00	-5.390000e+00	0.000000e+00	0.000000e+00	0.000000e+00
-5.390000e+00	-5.320000e+00	0.000000e+00	0.000000e+00	0.000000e+00
-5.320000e+00	-5.250000e+00	0.000000e+00	0.000000e+00	0.000000e+00
-5.250000e+00	-5.180000e+00	0.000000e+00	0.000000e+00	0.000000e+00
-5.180000e+00	-5.110000e+00	0.000000e+00	0.000000e+00	0.000000e+00
-5.110000e+00	-5.040000e+00	0.000000e+00	0.000000e+00	0.000000e+00
-5.040000e+00	-4.970000e+00	0.000000e+00	0.000000e+00	0.000000e+00
-4.970000e+00	-4.900000e+00	0.000000e+00	0.000000e+00	0.000000e+00
-4.900000e+00	-4.830000e+00	0.000000e+00	0.000000e+00	0.000000e+00
-4.830000e+00	-4.760000e+00	0.000000e+00	0.000000e+00	0.000000e+00
-4.760000e+00	-4.690000e+00	0.000000e+00	0.000000e+00	0.000000e+00
-4.690000e+00	-4.620000e+00	1.897151e+04	1.897152e+04	1.897152e+04
-4.620000e+00	-4.550000e+00	0.000000e+00	0.000000e+00	0.000000e+00
-4.550000e+00	-4.480000e+00	0.000000e+00	0.000000e+00	0.000000e+00
-4.480000e+00	-4.410000e+00	0.000000e+00	0.000000e+00	0.000000e+00
-4.410000e+00	-4.340000e+00	0.000000e+00	0.000000e+00	0.000000e+00
-4.340000e+00	-4.270000e+00	0.000000e+00	0.000000e+00	0.000000e+00
-4.270000e+00	-4.200000e+00	8.832404e+00	8.832404e+00	8.832404e+00
-4.200000e+00	-4.130000e+00	-3.608689e+01	2.593200e+01	2.593200e+01
-4.130000e+00	-4.060000e+00	0.000000e+00	0.000000e+00	0.000000e+00
-4.060000e+00	-3.990000e+00	0.000000e+00	0.000000e+00	0.000000e+00
-3.990000e+00	-3.920000e+00	3.781857e+04	1.316580e+05	1.316580e+05
-3.920000e+00	-3.850000e+00	-9.487380e+02	9.487379e+02	9.487379e+02
-3.850000e+00	-3.780000e+00	2.844847e+04	5.769413e+04	5.769413e+04
-3.780000e+00	-3.710000e+00	7.512357e+03	1.347759e+05	1.347759e+05
-3.710000e+00	-3.640000e+00	1.020775e+06	5.051627e+05	5.051627e+05
-3.640000e+00	-3.570000e+00	1.565863e+04	4.916478e+04	4.916478e+04
-3.570000e+00	-3.500000e+00	1.326338e+05	1.191841e+05	1.191841e+05
-3.500000e+00	-3.430000e+00	5.856281e+04	9.777301e+04	9.777301e+04
-3.430000e+00	-3.360000e+00	9.492530e+05	6.495570e+05	6.495570e+05
-3.360000e+00	-3.290000e+00	1.295578e+05	5.197601e+05	5.197601e+05
-3.290000e+00	-3.220000e+00	1.143650e+06	9.201820e+05	9.201820e+05
-3.220000e+00	-3.150000e+00	2.557299e+06	1.216741e+06	1.216741e+06
-3.150000e+00	-3.080000e+00	7.004296e+05	6.364684e+05	6.364684e+05
-3.080000e+00	-3.010000e+00	3.163277e+06	1.306222e+06	1.306222e+06
-3.010000e+00	-2.940000e+00	6.301501e+06	4.683933e+06	4.683933e+06
-2.940000e+00	-2.870000e+00	6.447776e+06	2.239299e+06	2.239299e+06
-2.870000e+00	-2.800000e+00	4.431770e+06	2.974745e+06	2.974745e+06
-2.800000e+00	-2.730000e+00	7.726857e+06	1.975971e+06	1.975971e+06
-2.730000e+00	-2.660000e+00	4.499646e+03	1.385423e+07	1.385423e+07
-2.660000e+00	-2.590000e+00	1.510323e+07	3.673606e+06	3.673606e+06
-2.590000e+00	-2.520000e+00	7.313249e+06	8.590664e+06	8.590664e+06
-2.520000e+00	-2.450000e+00	1.838934e+07	5.093796e+06	5.093796e+06
-2.450000e+00	-2.380000e+00	3.441950e+07	1.633335e+07	1.633335e+07
-2.380000e+00	-2.310000e+00	3.690423e+07	6.944528e+06	6.944528e+06
-2.310000e+00	-2.240000e+00	2.601603e+07	1.124624e+07	1.124624e+07
-2.240000e+00	-2.170000e+00	3.722740e+07	9.206441e+06	9.206441e+06
-2.170000e+00	-2.100000e+00	6.384064e+07	1.170130e+07	1.170130e+07
-2.100000e+00	-2.030000e+00	5.944181e+07	2.091834e+07	2.091834e+07
-2.030000e+00	-1.960000e+00	7.768571e+07	2.020303e+07	2.020303e+07
-1.960000e+00	-1.890000e+00	1.137735e+08	1.712268e+07	1.712268e+07
-1.890000e+00	-1.820000e+00	1.574930e+08	3.470538e+07	3.470538e+07
-1.820000e+00	-1.750000e+00	1.620927e+08	2.055645e+07	2.055645e+07
-1.750000e+00	-1.680000e+00	1.611150e+08	4.131191e+07	4.131191e+07
-1.680000e+00	-1.610000e+00	2.623921e+08	3.516096e+07	3.516096e+07
-1.610000e+00	-1.540000e+00	3.471944e+08	4.245628e+07	4.245628e+07
-1.540000e+00	-1.470000e+00	4.421561e+08	4.083488e+07	4.083488e+07
-1.470000e+00	-1.400000e+00	5.560876e+08	4.445673e+07	4.445673e+07
-1.400000e+00	-1.330000e+00	9.817156e+08	6.241628e+07	6.241628e+07
-1.330000e+00	-1.260000e+00	1.156035e+09	8.826928e+07	8.826928e+07
-1.260000e+00	-1.190000e+00	1.652041e+09	9.016050e+07	9.016050e+07
-1.190000e+00	-1.120000e+00	2.024346e+09	1.795820e+08	1.795820e+08
-1.120000e+00	-1.050000e+00	3.760481e+09	1.658226e+08	1.658226e+08
-1.050000e+00	-9.800000e-01	4.987363e+09	1.736882e+08	1.736882e+08
-9.800000e-01	-9.100000e-01	8.491246e+09	4.832454e+08	4.832454e+08
-9.100000e-01	-8.400000e-01	1.201363e+10	2.768045e+08	2.768045e+08
-8.400000e-01	-7.700000e-01	1.887511e+10	3.403380e+08	3.403380e+08
-7.700000e-01	-7.000000e-01	2.846109e+10	5.166683e+08	5.166683e+08
-7.000000e-01	-6.300000e-01	4.037866e+10	5.100926e+08	5.100926e+08
-6.300000e-01	-5.600000e-01	5.441210e+10	1.076579e+09	1.076579e+09
-5.600000e-01	-4.900000e-01	6.177467e+10	2.103242e+09	2.103242e+09
-4.900000e-01	-4.200000e-01	6.802514e+10	1.088920e+09	1.088920e+09
-4.200000e-01	-3.500000e-01	2.553087e+10	3.214266e+10	3.214266e+10
-3.500000e-01	-2.800000e-01	3.960824e+10	6.039666e+08	6.039666e+08
-2.800000e-01	-2.100000e-01	2.155501e+10	6.098404e+08	6.098404e+08
-2.100000e-01	-1.400000e-01	5.147790e+09	1.820056e+08	1.820056e+08
-1.400000e-01	-7.000000e-02	1.772627e+08	8.153975e+07	8.153975e+07
-7.000000e-02	0.000000e+00	1.468167e+06	1.104234e+06	1.104234e+06
# END HISTO1D

