# BEGIN PLOT
LegendOnly=/zj_ps_nlo_mer_mur1_muf2_R4.yoda/PAPER_FIN_R4/ch_l20_pT_120_150
DrawOnly=/zj_ps_nlo_mer_mur1_muf2_R4.yoda/PAPER_FIN_R4/ch_l20_pT_120_150
Legend=1
LogY=1
# END PLOT

# BEGIN HISTO1D /zj_ps_nlo_mer_mur1_muf2_R4.yoda/PAPER_FIN_R4/ch_l20_pT_120_150
LineColor=red
LineStyle=solid
Path=/zj_ps_nlo_mer_mur1_muf2_R4.yoda/PAPER_FIN_R4/ch_l20_pT_120_150
Title=zj_ps_nlo_mer_mur1_muf2_R4
XLabel=~
YLabel=~
# xlow	 xhigh	 val	 errminus	 errplus
-7.000000e+00	-6.930000e+00	-2.041583e+01	2.041584e+01	2.041584e+01
-6.930000e+00	-6.860000e+00	1.375724e+08	2.632435e+07	2.632435e+07
-6.860000e+00	-6.790000e+00	9.645476e+01	9.644723e+01	9.644723e+01
-6.790000e+00	-6.720000e+00	-1.767936e+01	1.767935e+01	1.767935e+01
-6.720000e+00	-6.650000e+00	2.192754e+03	2.192753e+03	2.192753e+03
-6.650000e+00	-6.580000e+00	-1.276343e+05	1.306236e+05	1.306236e+05
-6.580000e+00	-6.510000e+00	4.298396e+02	4.221855e+02	4.221855e+02
-6.510000e+00	-6.440000e+00	2.041110e+03	2.037491e+03	2.037491e+03
-6.440000e+00	-6.370000e+00	0.000000e+00	0.000000e+00	0.000000e+00
-6.370000e+00	-6.300000e+00	-4.356204e+03	4.706043e+03	4.706043e+03
-6.300000e+00	-6.230000e+00	1.286365e+05	1.243838e+05	1.243838e+05
-6.230000e+00	-6.160000e+00	4.018350e+04	2.925001e+04	2.925001e+04
-6.160000e+00	-6.090000e+00	-4.855124e+03	5.922985e+03	5.922985e+03
-6.090000e+00	-6.020000e+00	-1.531814e+04	8.558197e+04	8.558197e+04
-6.020000e+00	-5.950000e+00	-4.022793e+05	5.707798e+05	5.707798e+05
-5.950000e+00	-5.880000e+00	-8.076946e+05	5.498939e+05	5.498939e+05
-5.880000e+00	-5.810000e+00	3.744804e+04	2.694837e+04	2.694837e+04
-5.810000e+00	-5.740000e+00	3.383337e+05	2.838949e+05	2.838949e+05
-5.740000e+00	-5.670000e+00	1.059433e+06	1.003165e+06	1.003165e+06
-5.670000e+00	-5.600000e+00	4.763337e+05	4.642745e+05	4.642745e+05
-5.600000e+00	-5.530000e+00	-1.006431e+05	6.966887e+04	6.966887e+04
-5.530000e+00	-5.460000e+00	-3.123529e+05	3.617314e+05	3.617314e+05
-5.460000e+00	-5.390000e+00	2.595216e+05	3.020857e+05	3.020857e+05
-5.390000e+00	-5.320000e+00	7.009793e+05	5.486055e+05	5.486055e+05
-5.320000e+00	-5.250000e+00	4.073990e+04	7.151128e+04	7.151128e+04
-5.250000e+00	-5.180000e+00	-1.391038e+06	1.489059e+06	1.489059e+06
-5.180000e+00	-5.110000e+00	-5.012937e+05	9.936843e+05	9.936843e+05
-5.110000e+00	-5.040000e+00	-1.217028e+06	1.209897e+06	1.209897e+06
-5.040000e+00	-4.970000e+00	-3.331100e+06	2.698655e+06	2.698655e+06
-4.970000e+00	-4.900000e+00	-7.178163e+05	8.488053e+05	8.488053e+05
-4.900000e+00	-4.830000e+00	4.355689e+05	2.560526e+05	2.560526e+05
-4.830000e+00	-4.760000e+00	9.086173e+05	1.022097e+06	1.022097e+06
-4.760000e+00	-4.690000e+00	1.293416e+06	1.117315e+06	1.117315e+06
-4.690000e+00	-4.620000e+00	-1.757016e+06	2.222068e+06	2.222068e+06
-4.620000e+00	-4.550000e+00	9.338150e+06	5.103082e+06	5.103082e+06
-4.550000e+00	-4.480000e+00	5.908451e+06	2.046260e+06	2.046260e+06
-4.480000e+00	-4.410000e+00	6.161629e+06	3.001463e+06	3.001463e+06
-4.410000e+00	-4.340000e+00	1.105777e+07	8.226526e+06	8.226526e+06
-4.340000e+00	-4.270000e+00	4.028203e+06	1.964436e+06	1.964436e+06
-4.270000e+00	-4.200000e+00	1.009850e+07	2.996777e+06	2.996777e+06
-4.200000e+00	-4.130000e+00	7.782603e+06	2.801249e+06	2.801249e+06
-4.130000e+00	-4.060000e+00	5.947729e+06	3.392775e+06	3.392775e+06
-4.060000e+00	-3.990000e+00	6.484957e+06	4.959353e+06	4.959353e+06
-3.990000e+00	-3.920000e+00	8.185299e+06	3.431137e+06	3.431137e+06
-3.920000e+00	-3.850000e+00	-5.892029e+06	9.728083e+06	9.728083e+06
-3.850000e+00	-3.780000e+00	7.038164e+06	5.876100e+06	5.876100e+06
-3.780000e+00	-3.710000e+00	7.383116e+06	8.769032e+06	8.769032e+06
-3.710000e+00	-3.640000e+00	1.728594e+07	6.132265e+06	6.132265e+06
-3.640000e+00	-3.570000e+00	2.638311e+07	1.010142e+07	1.010142e+07
-3.570000e+00	-3.500000e+00	1.463033e+07	8.855996e+06	8.855996e+06
-3.500000e+00	-3.430000e+00	3.618646e+07	1.276684e+07	1.276684e+07
-3.430000e+00	-3.360000e+00	3.543047e+07	8.707781e+06	8.707781e+06
-3.360000e+00	-3.290000e+00	4.571871e+07	1.386787e+07	1.386787e+07
-3.290000e+00	-3.220000e+00	4.470037e+07	1.516464e+07	1.516464e+07
-3.220000e+00	-3.150000e+00	6.792926e+07	8.518973e+06	8.518973e+06
-3.150000e+00	-3.080000e+00	8.386186e+07	1.473881e+07	1.473881e+07
-3.080000e+00	-3.010000e+00	7.224491e+07	1.380398e+07	1.380398e+07
-3.010000e+00	-2.940000e+00	1.017257e+08	1.566716e+07	1.566716e+07
-2.940000e+00	-2.870000e+00	1.158602e+08	2.234842e+07	2.234842e+07
-2.870000e+00	-2.800000e+00	1.142253e+08	2.285837e+07	2.285837e+07
-2.800000e+00	-2.730000e+00	2.366220e+08	2.032315e+07	2.032315e+07
-2.730000e+00	-2.660000e+00	2.559981e+08	2.520592e+07	2.520592e+07
-2.660000e+00	-2.590000e+00	3.164116e+08	3.160379e+07	3.160379e+07
-2.590000e+00	-2.520000e+00	3.939480e+08	3.585731e+07	3.585731e+07
-2.520000e+00	-2.450000e+00	4.739823e+08	4.439559e+07	4.439559e+07
-2.450000e+00	-2.380000e+00	6.383797e+08	5.907909e+07	5.907909e+07
-2.380000e+00	-2.310000e+00	7.160966e+08	5.249900e+07	5.249900e+07
-2.310000e+00	-2.240000e+00	1.011339e+09	5.798969e+07	5.798969e+07
-2.240000e+00	-2.170000e+00	1.194287e+09	7.468031e+07	7.468031e+07
-2.170000e+00	-2.100000e+00	1.454261e+09	1.146838e+08	1.146838e+08
-2.100000e+00	-2.030000e+00	1.876540e+09	1.098361e+08	1.098361e+08
-2.030000e+00	-1.960000e+00	2.641431e+09	1.099733e+08	1.099733e+08
-1.960000e+00	-1.890000e+00	3.273427e+09	1.620169e+08	1.620169e+08
-1.890000e+00	-1.820000e+00	3.859093e+09	1.284815e+08	1.284815e+08
-1.820000e+00	-1.750000e+00	4.233441e+09	1.732070e+08	1.732070e+08
-1.750000e+00	-1.680000e+00	4.690287e+09	3.256229e+08	3.256229e+08
-1.680000e+00	-1.610000e+00	5.487223e+09	1.818890e+08	1.818890e+08
-1.610000e+00	-1.540000e+00	6.233261e+09	2.023605e+08	2.023605e+08
-1.540000e+00	-1.470000e+00	6.287279e+09	2.036433e+08	2.036433e+08
-1.470000e+00	-1.400000e+00	6.404579e+09	1.961673e+08	1.961673e+08
-1.400000e+00	-1.330000e+00	6.001851e+09	4.815621e+08	4.815621e+08
-1.330000e+00	-1.260000e+00	6.552586e+09	1.439661e+08	1.439661e+08
-1.260000e+00	-1.190000e+00	6.301709e+09	2.033883e+08	2.033883e+08
-1.190000e+00	-1.120000e+00	5.678650e+09	1.898172e+08	1.898172e+08
-1.120000e+00	-1.050000e+00	5.162216e+09	1.316323e+08	1.316323e+08
-1.050000e+00	-9.800000e-01	4.772273e+09	1.421075e+08	1.421075e+08
-9.800000e-01	-9.100000e-01	4.088839e+09	1.105299e+08	1.105299e+08
-9.100000e-01	-8.400000e-01	3.604069e+09	1.026847e+08	1.026847e+08
-8.400000e-01	-7.700000e-01	2.916107e+09	8.503808e+07	8.503808e+07
-7.700000e-01	-7.000000e-01	2.230619e+09	8.103236e+07	8.103236e+07
-7.000000e-01	-6.300000e-01	1.731899e+09	5.876380e+07	5.876380e+07
-6.300000e-01	-5.600000e-01	1.041655e+09	5.573648e+07	5.573648e+07
-5.600000e-01	-4.900000e-01	4.745079e+08	2.591194e+07	2.591194e+07
-4.900000e-01	-4.200000e-01	8.333310e+07	2.642276e+07	2.642276e+07
-4.200000e-01	-3.500000e-01	5.707083e+06	1.756087e+06	1.756087e+06
-3.500000e-01	-2.800000e-01	3.288950e+05	3.276834e+05	3.276834e+05
-2.800000e-01	-2.100000e-01	-1.205101e+04	1.205101e+04	1.205101e+04
-2.100000e-01	-1.400000e-01	0.000000e+00	0.000000e+00	0.000000e+00
-1.400000e-01	-7.000000e-02	0.000000e+00	0.000000e+00	0.000000e+00
-7.000000e-02	0.000000e+00	0.000000e+00	0.000000e+00	0.000000e+00
# END HISTO1D

