# BEGIN PLOT
LegendOnly=/zj_ps_nlo_mer_mur2_muf1_R4.yoda/PAPER_FIN_R4/ch_lin_l20_pT_254_326
DrawOnly=/zj_ps_nlo_mer_mur2_muf1_R4.yoda/PAPER_FIN_R4/ch_lin_l20_pT_254_326
Legend=1
LogY=1
# END PLOT

# BEGIN HISTO1D /zj_ps_nlo_mer_mur2_muf1_R4.yoda/PAPER_FIN_R4/ch_lin_l20_pT_254_326
LineColor=red
LineStyle=solid
Path=/zj_ps_nlo_mer_mur2_muf1_R4.yoda/PAPER_FIN_R4/ch_lin_l20_pT_254_326
Title=zj_ps_nlo_mer_mur2_muf1_R4
XLabel=~
YLabel=~
# xlow	 xhigh	 val	 errminus	 errplus
0.000000e+00	5.000000e-03	1.488483e+11	1.275275e+09	1.275275e+09
5.000000e-03	1.250000e-02	8.180900e+09	1.600874e+08	1.600874e+08
1.250000e-02	2.250000e-02	4.724983e+09	1.033612e+08	1.033612e+08
2.250000e-02	3.500000e-02	2.876874e+09	7.072289e+07	7.072289e+07
3.500000e-02	5.000000e-02	1.712257e+09	5.487529e+07	5.487529e+07
5.000000e-02	7.000000e-02	1.183564e+09	4.280133e+07	4.280133e+07
7.000000e-02	9.250000e-02	7.900178e+08	2.835852e+07	2.835852e+07
9.250000e-02	1.200000e-01	4.819200e+08	5.130159e+07	5.130159e+07
1.200000e-01	1.520000e-01	3.258016e+08	2.706535e+07	2.706535e+07
1.520000e-01	1.880000e-01	2.109257e+08	1.197502e+07	1.197502e+07
1.880000e-01	2.280000e-01	1.014857e+08	1.153836e+07	1.153836e+07
2.280000e-01	1.000000e+00	2.248416e+06	2.355146e+05	2.355146e+05
# END HISTO1D

