# BEGIN PLOT
LegendOnly=/zj_ps_nlo_mer_mur2_muf1_R4.yoda/PAPER_FIN_R4/SD_l10_pT_120_150
DrawOnly=/zj_ps_nlo_mer_mur2_muf1_R4.yoda/PAPER_FIN_R4/SD_l10_pT_120_150
Legend=1
LogY=1
# END PLOT

# BEGIN HISTO1D /zj_ps_nlo_mer_mur2_muf1_R4.yoda/PAPER_FIN_R4/SD_l10_pT_120_150
LineColor=red
LineStyle=solid
Path=/zj_ps_nlo_mer_mur2_muf1_R4.yoda/PAPER_FIN_R4/SD_l10_pT_120_150
Title=zj_ps_nlo_mer_mur2_muf1_R4
XLabel=~
YLabel=~
# xlow	 xhigh	 val	 errminus	 errplus
-7.000000e+00	-6.930000e+00	0.000000e+00	0.000000e+00	0.000000e+00
-6.930000e+00	-6.860000e+00	2.998433e+10	1.820995e+08	1.820995e+08
-6.860000e+00	-6.790000e+00	0.000000e+00	0.000000e+00	0.000000e+00
-6.790000e+00	-6.720000e+00	0.000000e+00	0.000000e+00	0.000000e+00
-6.720000e+00	-6.650000e+00	0.000000e+00	0.000000e+00	0.000000e+00
-6.650000e+00	-6.580000e+00	0.000000e+00	0.000000e+00	0.000000e+00
-6.580000e+00	-6.510000e+00	0.000000e+00	0.000000e+00	0.000000e+00
-6.510000e+00	-6.440000e+00	0.000000e+00	0.000000e+00	0.000000e+00
-6.440000e+00	-6.370000e+00	0.000000e+00	0.000000e+00	0.000000e+00
-6.370000e+00	-6.300000e+00	0.000000e+00	0.000000e+00	0.000000e+00
-6.300000e+00	-6.230000e+00	0.000000e+00	0.000000e+00	0.000000e+00
-6.230000e+00	-6.160000e+00	0.000000e+00	0.000000e+00	0.000000e+00
-6.160000e+00	-6.090000e+00	0.000000e+00	0.000000e+00	0.000000e+00
-6.090000e+00	-6.020000e+00	0.000000e+00	0.000000e+00	0.000000e+00
-6.020000e+00	-5.950000e+00	0.000000e+00	0.000000e+00	0.000000e+00
-5.950000e+00	-5.880000e+00	0.000000e+00	0.000000e+00	0.000000e+00
-5.880000e+00	-5.810000e+00	0.000000e+00	0.000000e+00	0.000000e+00
-5.810000e+00	-5.740000e+00	0.000000e+00	0.000000e+00	0.000000e+00
-5.740000e+00	-5.670000e+00	0.000000e+00	0.000000e+00	0.000000e+00
-5.670000e+00	-5.600000e+00	0.000000e+00	0.000000e+00	0.000000e+00
-5.600000e+00	-5.530000e+00	0.000000e+00	0.000000e+00	0.000000e+00
-5.530000e+00	-5.460000e+00	0.000000e+00	0.000000e+00	0.000000e+00
-5.460000e+00	-5.390000e+00	-1.538340e+01	1.538339e+01	1.538339e+01
-5.390000e+00	-5.320000e+00	0.000000e+00	0.000000e+00	0.000000e+00
-5.320000e+00	-5.250000e+00	0.000000e+00	0.000000e+00	0.000000e+00
-5.250000e+00	-5.180000e+00	0.000000e+00	0.000000e+00	0.000000e+00
-5.180000e+00	-5.110000e+00	0.000000e+00	0.000000e+00	0.000000e+00
-5.110000e+00	-5.040000e+00	2.085923e+02	2.085923e+02	2.085923e+02
-5.040000e+00	-4.970000e+00	0.000000e+00	0.000000e+00	0.000000e+00
-4.970000e+00	-4.900000e+00	0.000000e+00	0.000000e+00	0.000000e+00
-4.900000e+00	-4.830000e+00	0.000000e+00	0.000000e+00	0.000000e+00
-4.830000e+00	-4.760000e+00	0.000000e+00	0.000000e+00	0.000000e+00
-4.760000e+00	-4.690000e+00	2.954940e-01	2.954940e-01	2.954940e-01
-4.690000e+00	-4.620000e+00	0.000000e+00	0.000000e+00	0.000000e+00
-4.620000e+00	-4.550000e+00	5.899777e+01	5.899777e+01	5.899777e+01
-4.550000e+00	-4.480000e+00	8.322360e-01	5.957393e-01	5.957393e-01
-4.480000e+00	-4.410000e+00	8.441989e+04	8.442207e+04	8.442207e+04
-4.410000e+00	-4.340000e+00	-1.067537e-01	8.405079e-02	8.405079e-02
-4.340000e+00	-4.270000e+00	1.219982e+00	9.372632e-01	9.372632e-01
-4.270000e+00	-4.200000e+00	-6.661369e+02	6.713234e+02	6.713234e+02
-4.200000e+00	-4.130000e+00	1.298792e+01	1.615454e+02	1.615454e+02
-4.130000e+00	-4.060000e+00	2.520096e+03	2.562568e+03	2.562568e+03
-4.060000e+00	-3.990000e+00	5.392303e+02	5.392544e+02	5.392544e+02
-3.990000e+00	-3.920000e+00	8.328127e+04	7.960088e+04	7.960088e+04
-3.920000e+00	-3.850000e+00	1.553000e+04	2.170427e+04	2.170427e+04
-3.850000e+00	-3.780000e+00	-4.326050e+04	5.999121e+04	5.999121e+04
-3.780000e+00	-3.710000e+00	-2.059116e+04	1.658323e+04	1.658323e+04
-3.710000e+00	-3.640000e+00	-8.042613e+03	7.390914e+03	7.390914e+03
-3.640000e+00	-3.570000e+00	-2.506097e+06	2.540563e+06	2.540563e+06
-3.570000e+00	-3.500000e+00	-5.772163e+06	6.129585e+06	6.129585e+06
-3.500000e+00	-3.430000e+00	-5.051483e+05	5.282012e+05	5.282012e+05
-3.430000e+00	-3.360000e+00	-1.730936e+06	8.925306e+05	8.925306e+05
-3.360000e+00	-3.290000e+00	-9.979154e+05	7.574603e+05	7.574603e+05
-3.290000e+00	-3.220000e+00	-1.978984e+06	1.651071e+06	1.651071e+06
-3.220000e+00	-3.150000e+00	1.358238e+06	1.107234e+06	1.107234e+06
-3.150000e+00	-3.080000e+00	-9.694843e+04	5.278727e+05	5.278727e+05
-3.080000e+00	-3.010000e+00	-1.583547e+07	1.193952e+07	1.193952e+07
-3.010000e+00	-2.940000e+00	-1.748567e+06	1.552900e+06	1.552900e+06
-2.940000e+00	-2.870000e+00	2.935774e+05	7.884547e+05	7.884547e+05
-2.870000e+00	-2.800000e+00	-4.769057e+06	5.440200e+06	5.440200e+06
-2.800000e+00	-2.730000e+00	2.541990e+06	9.848942e+05	9.848942e+05
-2.730000e+00	-2.660000e+00	-2.487754e+06	3.272470e+06	3.272470e+06
-2.660000e+00	-2.590000e+00	-2.584599e+06	3.219423e+06	3.219423e+06
-2.590000e+00	-2.520000e+00	2.396964e+06	1.538347e+06	1.538347e+06
-2.520000e+00	-2.450000e+00	6.283587e+06	2.010609e+06	2.010609e+06
-2.450000e+00	-2.380000e+00	7.052293e+06	2.826391e+06	2.826391e+06
-2.380000e+00	-2.310000e+00	1.995781e+07	3.263694e+06	3.263694e+06
-2.310000e+00	-2.240000e+00	2.123829e+07	4.137057e+06	4.137057e+06
-2.240000e+00	-2.170000e+00	2.987119e+07	4.063852e+06	4.063852e+06
-2.170000e+00	-2.100000e+00	6.361829e+07	7.467472e+06	7.467472e+06
-2.100000e+00	-2.030000e+00	1.045688e+08	1.160754e+07	1.160754e+07
-2.030000e+00	-1.960000e+00	1.816630e+08	1.054524e+07	1.054524e+07
-1.960000e+00	-1.890000e+00	2.467190e+08	1.441570e+07	1.441570e+07
-1.890000e+00	-1.820000e+00	3.181974e+08	1.808708e+07	1.808708e+07
-1.820000e+00	-1.750000e+00	4.800833e+08	2.203243e+07	2.203243e+07
-1.750000e+00	-1.680000e+00	8.681603e+08	3.126171e+07	3.126171e+07
-1.680000e+00	-1.610000e+00	2.060967e+09	4.598842e+07	4.598842e+07
-1.610000e+00	-1.540000e+00	3.098497e+09	5.304640e+07	5.304640e+07
-1.540000e+00	-1.470000e+00	3.312226e+09	5.044045e+07	5.044045e+07
-1.470000e+00	-1.400000e+00	3.308649e+09	5.656340e+07	5.656340e+07
-1.400000e+00	-1.330000e+00	3.438044e+09	5.157653e+07	5.157653e+07
-1.330000e+00	-1.260000e+00	3.330177e+09	1.084034e+08	1.084034e+08
-1.260000e+00	-1.190000e+00	3.661797e+09	5.411522e+07	5.411522e+07
-1.190000e+00	-1.120000e+00	3.716944e+09	5.147288e+07	5.147288e+07
-1.120000e+00	-1.050000e+00	3.800803e+09	7.251908e+07	7.251908e+07
-1.050000e+00	-9.800000e-01	3.742050e+09	1.072019e+08	1.072019e+08
-9.800000e-01	-9.100000e-01	3.751161e+09	1.687237e+08	1.687237e+08
-9.100000e-01	-8.400000e-01	3.894344e+09	6.170813e+07	6.170813e+07
-8.400000e-01	-7.700000e-01	3.722141e+09	5.509395e+07	5.509395e+07
-7.700000e-01	-7.000000e-01	3.543584e+09	4.757829e+07	4.757829e+07
-7.000000e-01	-6.300000e-01	3.208010e+09	4.601286e+07	4.601286e+07
-6.300000e-01	-5.600000e-01	2.820883e+09	7.624339e+07	7.624339e+07
-5.600000e-01	-4.900000e-01	2.281434e+09	4.714186e+07	4.714186e+07
-4.900000e-01	-4.200000e-01	1.852320e+09	3.767985e+07	3.767985e+07
-4.200000e-01	-3.500000e-01	1.258557e+09	4.910220e+07	4.910220e+07
-3.500000e-01	-2.800000e-01	6.573309e+08	1.817693e+07	1.817693e+07
-2.800000e-01	-2.100000e-01	1.485141e+08	5.092309e+07	5.092309e+07
-2.100000e-01	-1.400000e-01	3.457920e+07	3.438300e+06	3.438300e+06
-1.400000e-01	-7.000000e-02	-6.505843e+04	2.192308e+06	2.192308e+06
-7.000000e-02	0.000000e+00	1.450570e+03	1.412730e+03	1.412730e+03
# END HISTO1D

