# BEGIN PLOT
LegendOnly=/zj_ps_nlo_mer_mur2_muf1_R4.yoda/PAPER_FIN_R4/lin_SD_l10_pT_88_120
DrawOnly=/zj_ps_nlo_mer_mur2_muf1_R4.yoda/PAPER_FIN_R4/lin_SD_l10_pT_88_120
Legend=1
LogY=1
# END PLOT

# BEGIN HISTO1D /zj_ps_nlo_mer_mur2_muf1_R4.yoda/PAPER_FIN_R4/lin_SD_l10_pT_88_120
LineColor=red
LineStyle=solid
Path=/zj_ps_nlo_mer_mur2_muf1_R4.yoda/PAPER_FIN_R4/lin_SD_l10_pT_88_120
Title=zj_ps_nlo_mer_mur2_muf1_R4
XLabel=~
YLabel=~
# xlow	 xhigh	 val	 errminus	 errplus
0.000000e+00	2.000000e-02	2.637026e+11	1.481569e+09	1.481569e+09
2.000000e-02	5.000000e-02	6.865943e+10	4.704653e+08	4.704653e+08
5.000000e-02	9.500000e-02	5.249551e+10	3.657155e+08	3.657155e+08
9.500000e-02	1.470000e-01	3.338410e+10	2.463326e+08	2.463326e+08
1.470000e-01	2.250000e-01	1.955954e+10	1.488597e+08	1.488597e+08
2.250000e-01	3.070000e-01	1.009148e+10	1.031119e+08	1.031119e+08
3.070000e-01	3.880000e-01	5.163225e+09	8.071910e+07	8.071910e+07
3.880000e-01	4.680000e-01	2.489067e+09	4.955852e+07	4.955852e+07
4.680000e-01	1.000000e+00	1.729848e+08	4.261400e+06	4.261400e+06
# END HISTO1D

