# BEGIN PLOT
LegendOnly=/zj_ps_nlo_mer_mur2_muf1_R4.yoda/PAPER_FIN_R4/ch_SD_l10_pT_88_120
DrawOnly=/zj_ps_nlo_mer_mur2_muf1_R4.yoda/PAPER_FIN_R4/ch_SD_l10_pT_88_120
Legend=1
LogY=1
# END PLOT

# BEGIN HISTO1D /zj_ps_nlo_mer_mur2_muf1_R4.yoda/PAPER_FIN_R4/ch_SD_l10_pT_88_120
LineColor=red
LineStyle=solid
Path=/zj_ps_nlo_mer_mur2_muf1_R4.yoda/PAPER_FIN_R4/ch_SD_l10_pT_88_120
Title=zj_ps_nlo_mer_mur2_muf1_R4
XLabel=~
YLabel=~
# xlow	 xhigh	 val	 errminus	 errplus
-7.000000e+00	-6.930000e+00	0.000000e+00	0.000000e+00	0.000000e+00
-6.930000e+00	-6.860000e+00	1.550021e+11	5.622685e+08	5.622685e+08
-6.860000e+00	-6.790000e+00	0.000000e+00	0.000000e+00	0.000000e+00
-6.790000e+00	-6.720000e+00	0.000000e+00	0.000000e+00	0.000000e+00
-6.720000e+00	-6.650000e+00	0.000000e+00	0.000000e+00	0.000000e+00
-6.650000e+00	-6.580000e+00	0.000000e+00	0.000000e+00	0.000000e+00
-6.580000e+00	-6.510000e+00	0.000000e+00	0.000000e+00	0.000000e+00
-6.510000e+00	-6.440000e+00	0.000000e+00	0.000000e+00	0.000000e+00
-6.440000e+00	-6.370000e+00	0.000000e+00	0.000000e+00	0.000000e+00
-6.370000e+00	-6.300000e+00	0.000000e+00	0.000000e+00	0.000000e+00
-6.300000e+00	-6.230000e+00	0.000000e+00	0.000000e+00	0.000000e+00
-6.230000e+00	-6.160000e+00	0.000000e+00	0.000000e+00	0.000000e+00
-6.160000e+00	-6.090000e+00	0.000000e+00	0.000000e+00	0.000000e+00
-6.090000e+00	-6.020000e+00	0.000000e+00	0.000000e+00	0.000000e+00
-6.020000e+00	-5.950000e+00	0.000000e+00	0.000000e+00	0.000000e+00
-5.950000e+00	-5.880000e+00	0.000000e+00	0.000000e+00	0.000000e+00
-5.880000e+00	-5.810000e+00	0.000000e+00	0.000000e+00	0.000000e+00
-5.810000e+00	-5.740000e+00	0.000000e+00	0.000000e+00	0.000000e+00
-5.740000e+00	-5.670000e+00	0.000000e+00	0.000000e+00	0.000000e+00
-5.670000e+00	-5.600000e+00	0.000000e+00	0.000000e+00	0.000000e+00
-5.600000e+00	-5.530000e+00	0.000000e+00	0.000000e+00	0.000000e+00
-5.530000e+00	-5.460000e+00	0.000000e+00	0.000000e+00	0.000000e+00
-5.460000e+00	-5.390000e+00	0.000000e+00	0.000000e+00	0.000000e+00
-5.390000e+00	-5.320000e+00	0.000000e+00	0.000000e+00	0.000000e+00
-5.320000e+00	-5.250000e+00	0.000000e+00	0.000000e+00	0.000000e+00
-5.250000e+00	-5.180000e+00	0.000000e+00	0.000000e+00	0.000000e+00
-5.180000e+00	-5.110000e+00	0.000000e+00	0.000000e+00	0.000000e+00
-5.110000e+00	-5.040000e+00	0.000000e+00	0.000000e+00	0.000000e+00
-5.040000e+00	-4.970000e+00	0.000000e+00	0.000000e+00	0.000000e+00
-4.970000e+00	-4.900000e+00	0.000000e+00	0.000000e+00	0.000000e+00
-4.900000e+00	-4.830000e+00	0.000000e+00	0.000000e+00	0.000000e+00
-4.830000e+00	-4.760000e+00	7.896494e+02	7.896495e+02	7.896495e+02
-4.760000e+00	-4.690000e+00	0.000000e+00	0.000000e+00	0.000000e+00
-4.690000e+00	-4.620000e+00	0.000000e+00	0.000000e+00	0.000000e+00
-4.620000e+00	-4.550000e+00	0.000000e+00	0.000000e+00	0.000000e+00
-4.550000e+00	-4.480000e+00	0.000000e+00	0.000000e+00	0.000000e+00
-4.480000e+00	-4.410000e+00	0.000000e+00	0.000000e+00	0.000000e+00
-4.410000e+00	-4.340000e+00	0.000000e+00	0.000000e+00	0.000000e+00
-4.340000e+00	-4.270000e+00	-2.908341e+04	2.908342e+04	2.908342e+04
-4.270000e+00	-4.200000e+00	0.000000e+00	0.000000e+00	0.000000e+00
-4.200000e+00	-4.130000e+00	0.000000e+00	0.000000e+00	0.000000e+00
-4.130000e+00	-4.060000e+00	-2.886224e+02	2.920743e+02	2.920743e+02
-4.060000e+00	-3.990000e+00	1.351025e+04	1.351419e+04	1.351419e+04
-3.990000e+00	-3.920000e+00	-2.041023e+03	2.041046e+03	2.041046e+03
-3.920000e+00	-3.850000e+00	-1.005322e+01	1.726041e+01	1.726041e+01
-3.850000e+00	-3.780000e+00	-9.044276e+02	8.683200e+02	8.683200e+02
-3.780000e+00	-3.710000e+00	1.589283e+03	1.332684e+03	1.332684e+03
-3.710000e+00	-3.640000e+00	-3.352284e+04	4.735849e+04	4.735849e+04
-3.640000e+00	-3.570000e+00	1.603260e+05	4.981697e+05	4.981697e+05
-3.570000e+00	-3.500000e+00	-1.451321e+06	7.643590e+05	7.643590e+05
-3.500000e+00	-3.430000e+00	-2.728369e+05	4.102970e+05	4.102970e+05
-3.430000e+00	-3.360000e+00	-1.056902e+07	8.991152e+06	8.991152e+06
-3.360000e+00	-3.290000e+00	-5.783227e+06	3.063368e+06	3.063368e+06
-3.290000e+00	-3.220000e+00	-5.114153e+06	2.963786e+06	2.963786e+06
-3.220000e+00	-3.150000e+00	-1.948579e+07	9.248494e+06	9.248494e+06
-3.150000e+00	-3.080000e+00	-5.512896e+06	2.720907e+06	2.720907e+06
-3.080000e+00	-3.010000e+00	-2.467437e+07	1.364592e+07	1.364592e+07
-3.010000e+00	-2.940000e+00	-2.427101e+06	1.790780e+06	1.790780e+06
-2.940000e+00	-2.870000e+00	-6.500514e+06	3.385342e+06	3.385342e+06
-2.870000e+00	-2.800000e+00	-1.011393e+06	2.794092e+06	2.794092e+06
-2.800000e+00	-2.730000e+00	-2.425753e+06	1.717645e+06	1.717645e+06
-2.730000e+00	-2.660000e+00	-9.162264e+06	4.346146e+06	4.346146e+06
-2.660000e+00	-2.590000e+00	-7.234696e+05	2.207692e+06	2.207692e+06
-2.590000e+00	-2.520000e+00	-2.236727e+06	2.499541e+06	2.499541e+06
-2.520000e+00	-2.450000e+00	-3.800020e+06	4.840842e+06	4.840842e+06
-2.450000e+00	-2.380000e+00	-4.898020e+06	4.352586e+06	4.352586e+06
-2.380000e+00	-2.310000e+00	-8.295606e+05	3.231954e+06	3.231954e+06
-2.310000e+00	-2.240000e+00	-1.310261e+07	1.459789e+07	1.459789e+07
-2.240000e+00	-2.170000e+00	1.000284e+07	6.251819e+06	6.251819e+06
-2.170000e+00	-2.100000e+00	1.310267e+07	3.275328e+06	3.275328e+06
-2.100000e+00	-2.030000e+00	2.419414e+07	5.584856e+06	5.584856e+06
-2.030000e+00	-1.960000e+00	5.363130e+07	6.159024e+06	6.159024e+06
-1.960000e+00	-1.890000e+00	9.052481e+07	8.911024e+06	8.911024e+06
-1.890000e+00	-1.820000e+00	1.685060e+08	1.053492e+07	1.053492e+07
-1.820000e+00	-1.750000e+00	2.638356e+08	1.228895e+07	1.228895e+07
-1.750000e+00	-1.680000e+00	3.653914e+08	1.554019e+07	1.554019e+07
-1.680000e+00	-1.610000e+00	4.961220e+08	1.874172e+07	1.874172e+07
-1.610000e+00	-1.540000e+00	6.535006e+08	2.070891e+07	2.070891e+07
-1.540000e+00	-1.470000e+00	7.865256e+08	2.440764e+07	2.440764e+07
-1.470000e+00	-1.400000e+00	9.291003e+08	2.842304e+07	2.842304e+07
-1.400000e+00	-1.330000e+00	1.181152e+09	3.446196e+07	3.446196e+07
-1.330000e+00	-1.260000e+00	1.342214e+09	4.330699e+07	4.330699e+07
-1.260000e+00	-1.190000e+00	1.535313e+09	3.688235e+07	3.688235e+07
-1.190000e+00	-1.120000e+00	1.727761e+09	4.261165e+07	4.261165e+07
-1.120000e+00	-1.050000e+00	1.954849e+09	3.824797e+07	3.824797e+07
-1.050000e+00	-9.800000e-01	2.092900e+09	3.886754e+07	3.886754e+07
-9.800000e-01	-9.100000e-01	2.184433e+09	4.394325e+07	4.394325e+07
-9.100000e-01	-8.400000e-01	2.061149e+09	4.415174e+07	4.415174e+07
-8.400000e-01	-7.700000e-01	1.977566e+09	5.552633e+07	5.552633e+07
-7.700000e-01	-7.000000e-01	1.773870e+09	4.288008e+07	4.288008e+07
-7.000000e-01	-6.300000e-01	1.610816e+09	5.182114e+07	5.182114e+07
-6.300000e-01	-5.600000e-01	1.447056e+09	3.085737e+07	3.085737e+07
-5.600000e-01	-4.900000e-01	1.156459e+09	2.785342e+07	2.785342e+07
-4.900000e-01	-4.200000e-01	7.938417e+08	2.457041e+07	2.457041e+07
-4.200000e-01	-3.500000e-01	5.152550e+08	3.652278e+07	3.652278e+07
-3.500000e-01	-2.800000e-01	1.653430e+08	1.683138e+07	1.683138e+07
-2.800000e-01	-2.100000e-01	4.448033e+07	1.551459e+07	1.551459e+07
-2.100000e-01	-1.400000e-01	1.903440e+06	8.709655e+05	8.709655e+05
-1.400000e-01	-7.000000e-02	6.125950e+04	4.633932e+04	4.633932e+04
-7.000000e-02	0.000000e+00	0.000000e+00	0.000000e+00	0.000000e+00
# END HISTO1D

