# BEGIN PLOT
LegendOnly=/zj_ps_nlo_mer_mur1_muf1_R4.yoda/PAPER_FIN_R4/SD_l20_pT_65_88
DrawOnly=/zj_ps_nlo_mer_mur1_muf1_R4.yoda/PAPER_FIN_R4/SD_l20_pT_65_88
Legend=1
LogY=1
# END PLOT

# BEGIN HISTO1D /zj_ps_nlo_mer_mur1_muf1_R4.yoda/PAPER_FIN_R4/SD_l20_pT_65_88
LineColor=red
LineStyle=solid
Path=/zj_ps_nlo_mer_mur1_muf1_R4.yoda/PAPER_FIN_R4/SD_l20_pT_65_88
Title=zj_ps_nlo_mer_mur1_muf1_R4
XLabel=~
YLabel=~
# xlow	 xhigh	 val	 errminus	 errplus
-7.000000e+00	-6.930000e+00	4.145117e+05	4.146706e+05	4.146706e+05
-6.930000e+00	-6.860000e+00	1.301110e+11	1.331376e+09	1.331376e+09
-6.860000e+00	-6.790000e+00	-9.302651e+03	8.652692e+03	8.652692e+03
-6.790000e+00	-6.720000e+00	-5.581261e+02	5.344631e+02	5.344631e+02
-6.720000e+00	-6.650000e+00	2.137076e+05	2.166976e+05	2.166976e+05
-6.650000e+00	-6.580000e+00	4.690740e+06	4.680173e+06	4.680173e+06
-6.580000e+00	-6.510000e+00	6.412757e+06	6.419947e+06	6.419947e+06
-6.510000e+00	-6.440000e+00	3.432896e+04	4.964671e+04	4.964671e+04
-6.440000e+00	-6.370000e+00	1.208030e+05	1.735346e+05	1.735346e+05
-6.370000e+00	-6.300000e+00	6.503741e+05	6.546241e+05	6.546241e+05
-6.300000e+00	-6.230000e+00	-5.863063e+03	6.219292e+04	6.219292e+04
-6.230000e+00	-6.160000e+00	9.881323e+05	6.738912e+05	6.738912e+05
-6.160000e+00	-6.090000e+00	9.906636e+05	6.799676e+05	6.799676e+05
-6.090000e+00	-6.020000e+00	1.667450e+06	1.773667e+06	1.773667e+06
-6.020000e+00	-5.950000e+00	1.083023e+06	8.108043e+05	8.108043e+05
-5.950000e+00	-5.880000e+00	3.646103e+07	3.178735e+07	3.178735e+07
-5.880000e+00	-5.810000e+00	3.881081e+06	2.914364e+06	2.914364e+06
-5.810000e+00	-5.740000e+00	1.726527e+06	1.786974e+06	1.786974e+06
-5.740000e+00	-5.670000e+00	5.722456e+06	4.936344e+06	4.936344e+06
-5.670000e+00	-5.600000e+00	2.478456e+06	4.615838e+06	4.615838e+06
-5.600000e+00	-5.530000e+00	-1.295931e+06	8.828912e+05	8.828912e+05
-5.530000e+00	-5.460000e+00	-2.953679e+06	2.644876e+06	2.644876e+06
-5.460000e+00	-5.390000e+00	1.106070e+05	1.415423e+06	1.415423e+06
-5.390000e+00	-5.320000e+00	1.176396e+06	3.043957e+06	3.043957e+06
-5.320000e+00	-5.250000e+00	4.563280e+06	2.692058e+06	2.692058e+06
-5.250000e+00	-5.180000e+00	2.873161e+06	1.085973e+07	1.085973e+07
-5.180000e+00	-5.110000e+00	5.448309e+06	1.092562e+07	1.092562e+07
-5.110000e+00	-5.040000e+00	1.604553e+07	8.688470e+06	8.688470e+06
-5.040000e+00	-4.970000e+00	1.627970e+06	3.201667e+06	3.201667e+06
-4.970000e+00	-4.900000e+00	4.022624e+06	3.519347e+06	3.519347e+06
-4.900000e+00	-4.830000e+00	-7.786259e+05	2.706595e+06	2.706595e+06
-4.830000e+00	-4.760000e+00	1.778703e+07	1.665211e+07	1.665211e+07
-4.760000e+00	-4.690000e+00	4.377117e+06	4.946262e+06	4.946262e+06
-4.690000e+00	-4.620000e+00	1.165004e+07	8.371625e+06	8.371625e+06
-4.620000e+00	-4.550000e+00	1.361862e+07	4.786023e+06	4.786023e+06
-4.550000e+00	-4.480000e+00	-3.655366e+06	5.291697e+06	5.291697e+06
-4.480000e+00	-4.410000e+00	4.621899e+07	2.849940e+07	2.849940e+07
-4.410000e+00	-4.340000e+00	1.679987e+06	5.298583e+06	5.298583e+06
-4.340000e+00	-4.270000e+00	4.885827e+06	8.585395e+06	8.585395e+06
-4.270000e+00	-4.200000e+00	-3.285931e+05	7.426395e+06	7.426395e+06
-4.200000e+00	-4.130000e+00	1.233825e+07	4.084122e+06	4.084122e+06
-4.130000e+00	-4.060000e+00	3.439786e+07	1.846603e+07	1.846603e+07
-4.060000e+00	-3.990000e+00	1.136844e+07	7.645961e+06	7.645961e+06
-3.990000e+00	-3.920000e+00	3.638541e+07	2.088751e+07	2.088751e+07
-3.920000e+00	-3.850000e+00	4.675311e+07	1.259593e+07	1.259593e+07
-3.850000e+00	-3.780000e+00	1.894531e+07	7.964165e+06	7.964165e+06
-3.780000e+00	-3.710000e+00	2.960431e+07	1.454147e+07	1.454147e+07
-3.710000e+00	-3.640000e+00	3.941436e+07	1.053238e+07	1.053238e+07
-3.640000e+00	-3.570000e+00	4.172081e+07	1.542079e+07	1.542079e+07
-3.570000e+00	-3.500000e+00	5.278306e+07	1.633000e+07	1.633000e+07
-3.500000e+00	-3.430000e+00	7.489196e+07	9.945538e+06	9.945538e+06
-3.430000e+00	-3.360000e+00	6.765429e+07	1.148262e+07	1.148262e+07
-3.360000e+00	-3.290000e+00	8.485130e+07	1.359555e+07	1.359555e+07
-3.290000e+00	-3.220000e+00	8.235374e+07	1.876334e+07	1.876334e+07
-3.220000e+00	-3.150000e+00	1.558561e+08	3.069016e+07	3.069016e+07
-3.150000e+00	-3.080000e+00	1.584560e+08	2.071234e+07	2.071234e+07
-3.080000e+00	-3.010000e+00	2.077909e+08	2.000573e+07	2.000573e+07
-3.010000e+00	-2.940000e+00	2.573201e+08	2.207110e+07	2.207110e+07
-2.940000e+00	-2.870000e+00	3.533696e+08	4.408462e+07	4.408462e+07
-2.870000e+00	-2.800000e+00	5.978444e+08	4.214547e+07	4.214547e+07
-2.800000e+00	-2.730000e+00	9.123629e+08	5.419694e+07	5.419694e+07
-2.730000e+00	-2.660000e+00	1.212438e+09	8.259617e+07	8.259617e+07
-2.660000e+00	-2.590000e+00	1.711311e+09	8.746221e+07	8.746221e+07
-2.590000e+00	-2.520000e+00	2.098397e+09	1.209470e+08	1.209470e+08
-2.520000e+00	-2.450000e+00	2.846404e+09	9.667833e+07	9.667833e+07
-2.450000e+00	-2.380000e+00	2.958460e+09	1.606964e+08	1.606964e+08
-2.380000e+00	-2.310000e+00	3.780874e+09	1.522456e+08	1.522456e+08
-2.310000e+00	-2.240000e+00	4.470673e+09	1.371445e+08	1.371445e+08
-2.240000e+00	-2.170000e+00	5.103619e+09	1.616386e+08	1.616386e+08
-2.170000e+00	-2.100000e+00	5.882896e+09	1.549106e+08	1.549106e+08
-2.100000e+00	-2.030000e+00	6.582963e+09	1.530194e+08	1.530194e+08
-2.030000e+00	-1.960000e+00	7.146970e+09	1.786478e+08	1.786478e+08
-1.960000e+00	-1.890000e+00	7.788000e+09	1.790902e+08	1.790902e+08
-1.890000e+00	-1.820000e+00	8.120589e+09	2.056272e+08	2.056272e+08
-1.820000e+00	-1.750000e+00	8.651056e+09	1.817638e+08	1.817638e+08
-1.750000e+00	-1.680000e+00	9.210629e+09	1.768938e+08	1.768938e+08
-1.680000e+00	-1.610000e+00	9.363953e+09	2.485620e+08	2.485620e+08
-1.610000e+00	-1.540000e+00	9.508976e+09	1.865024e+08	1.865024e+08
-1.540000e+00	-1.470000e+00	9.447287e+09	2.084204e+08	2.084204e+08
-1.470000e+00	-1.400000e+00	9.749883e+09	1.930968e+08	1.930968e+08
-1.400000e+00	-1.330000e+00	1.044779e+10	1.861441e+08	1.861441e+08
-1.330000e+00	-1.260000e+00	1.084115e+10	2.087726e+08	2.087726e+08
-1.260000e+00	-1.190000e+00	1.013811e+10	2.234326e+08	2.234326e+08
-1.190000e+00	-1.120000e+00	1.082763e+10	2.136927e+08	2.136927e+08
-1.120000e+00	-1.050000e+00	1.127837e+10	3.323201e+08	3.323201e+08
-1.050000e+00	-9.800000e-01	1.037567e+10	3.952121e+08	3.952121e+08
-9.800000e-01	-9.100000e-01	1.073591e+10	1.834973e+08	1.834973e+08
-9.100000e-01	-8.400000e-01	9.708921e+09	1.764190e+08	1.764190e+08
-8.400000e-01	-7.700000e-01	9.028420e+09	2.316486e+08	2.316486e+08
-7.700000e-01	-7.000000e-01	7.060869e+09	1.640588e+08	1.640588e+08
-7.000000e-01	-6.300000e-01	5.325270e+09	1.412065e+08	1.412065e+08
-6.300000e-01	-5.600000e-01	3.128663e+09	9.312340e+07	9.312340e+07
-5.600000e-01	-4.900000e-01	9.115416e+08	1.172017e+08	1.172017e+08
-4.900000e-01	-4.200000e-01	1.903020e+08	2.594486e+07	2.594486e+07
-4.200000e-01	-3.500000e-01	2.616824e+07	5.331834e+06	5.331834e+06
-3.500000e-01	-2.800000e-01	1.166132e+05	1.037273e+05	1.037273e+05
-2.800000e-01	-2.100000e-01	0.000000e+00	0.000000e+00	0.000000e+00
-2.100000e-01	-1.400000e-01	0.000000e+00	0.000000e+00	0.000000e+00
-1.400000e-01	-7.000000e-02	0.000000e+00	0.000000e+00	0.000000e+00
-7.000000e-02	0.000000e+00	0.000000e+00	0.000000e+00	0.000000e+00
# END HISTO1D

