# BEGIN PLOT
LegendOnly=/zj_ps_nlo_mer_mur1_muf1_R4.yoda/PAPER_FIN_R4/ch_SD_l05_pT_65_88
DrawOnly=/zj_ps_nlo_mer_mur1_muf1_R4.yoda/PAPER_FIN_R4/ch_SD_l05_pT_65_88
Legend=1
LogY=1
# END PLOT

# BEGIN HISTO1D /zj_ps_nlo_mer_mur1_muf1_R4.yoda/PAPER_FIN_R4/ch_SD_l05_pT_65_88
LineColor=red
LineStyle=solid
Path=/zj_ps_nlo_mer_mur1_muf1_R4.yoda/PAPER_FIN_R4/ch_SD_l05_pT_65_88
Title=zj_ps_nlo_mer_mur1_muf1_R4
XLabel=~
YLabel=~
# xlow	 xhigh	 val	 errminus	 errplus
-7.000000e+00	-6.930000e+00	0.000000e+00	0.000000e+00	0.000000e+00
-6.930000e+00	-6.860000e+00	2.652247e+11	1.594149e+09	1.594149e+09
-6.860000e+00	-6.790000e+00	0.000000e+00	0.000000e+00	0.000000e+00
-6.790000e+00	-6.720000e+00	0.000000e+00	0.000000e+00	0.000000e+00
-6.720000e+00	-6.650000e+00	0.000000e+00	0.000000e+00	0.000000e+00
-6.650000e+00	-6.580000e+00	0.000000e+00	0.000000e+00	0.000000e+00
-6.580000e+00	-6.510000e+00	0.000000e+00	0.000000e+00	0.000000e+00
-6.510000e+00	-6.440000e+00	0.000000e+00	0.000000e+00	0.000000e+00
-6.440000e+00	-6.370000e+00	0.000000e+00	0.000000e+00	0.000000e+00
-6.370000e+00	-6.300000e+00	0.000000e+00	0.000000e+00	0.000000e+00
-6.300000e+00	-6.230000e+00	0.000000e+00	0.000000e+00	0.000000e+00
-6.230000e+00	-6.160000e+00	0.000000e+00	0.000000e+00	0.000000e+00
-6.160000e+00	-6.090000e+00	0.000000e+00	0.000000e+00	0.000000e+00
-6.090000e+00	-6.020000e+00	0.000000e+00	0.000000e+00	0.000000e+00
-6.020000e+00	-5.950000e+00	0.000000e+00	0.000000e+00	0.000000e+00
-5.950000e+00	-5.880000e+00	0.000000e+00	0.000000e+00	0.000000e+00
-5.880000e+00	-5.810000e+00	0.000000e+00	0.000000e+00	0.000000e+00
-5.810000e+00	-5.740000e+00	0.000000e+00	0.000000e+00	0.000000e+00
-5.740000e+00	-5.670000e+00	0.000000e+00	0.000000e+00	0.000000e+00
-5.670000e+00	-5.600000e+00	0.000000e+00	0.000000e+00	0.000000e+00
-5.600000e+00	-5.530000e+00	0.000000e+00	0.000000e+00	0.000000e+00
-5.530000e+00	-5.460000e+00	0.000000e+00	0.000000e+00	0.000000e+00
-5.460000e+00	-5.390000e+00	0.000000e+00	0.000000e+00	0.000000e+00
-5.390000e+00	-5.320000e+00	0.000000e+00	0.000000e+00	0.000000e+00
-5.320000e+00	-5.250000e+00	0.000000e+00	0.000000e+00	0.000000e+00
-5.250000e+00	-5.180000e+00	0.000000e+00	0.000000e+00	0.000000e+00
-5.180000e+00	-5.110000e+00	0.000000e+00	0.000000e+00	0.000000e+00
-5.110000e+00	-5.040000e+00	0.000000e+00	0.000000e+00	0.000000e+00
-5.040000e+00	-4.970000e+00	0.000000e+00	0.000000e+00	0.000000e+00
-4.970000e+00	-4.900000e+00	0.000000e+00	0.000000e+00	0.000000e+00
-4.900000e+00	-4.830000e+00	0.000000e+00	0.000000e+00	0.000000e+00
-4.830000e+00	-4.760000e+00	0.000000e+00	0.000000e+00	0.000000e+00
-4.760000e+00	-4.690000e+00	0.000000e+00	0.000000e+00	0.000000e+00
-4.690000e+00	-4.620000e+00	0.000000e+00	0.000000e+00	0.000000e+00
-4.620000e+00	-4.550000e+00	0.000000e+00	0.000000e+00	0.000000e+00
-4.550000e+00	-4.480000e+00	0.000000e+00	0.000000e+00	0.000000e+00
-4.480000e+00	-4.410000e+00	0.000000e+00	0.000000e+00	0.000000e+00
-4.410000e+00	-4.340000e+00	0.000000e+00	0.000000e+00	0.000000e+00
-4.340000e+00	-4.270000e+00	0.000000e+00	0.000000e+00	0.000000e+00
-4.270000e+00	-4.200000e+00	0.000000e+00	0.000000e+00	0.000000e+00
-4.200000e+00	-4.130000e+00	0.000000e+00	0.000000e+00	0.000000e+00
-4.130000e+00	-4.060000e+00	0.000000e+00	0.000000e+00	0.000000e+00
-4.060000e+00	-3.990000e+00	0.000000e+00	0.000000e+00	0.000000e+00
-3.990000e+00	-3.920000e+00	0.000000e+00	0.000000e+00	0.000000e+00
-3.920000e+00	-3.850000e+00	0.000000e+00	0.000000e+00	0.000000e+00
-3.850000e+00	-3.780000e+00	0.000000e+00	0.000000e+00	0.000000e+00
-3.780000e+00	-3.710000e+00	0.000000e+00	0.000000e+00	0.000000e+00
-3.710000e+00	-3.640000e+00	0.000000e+00	0.000000e+00	0.000000e+00
-3.640000e+00	-3.570000e+00	0.000000e+00	0.000000e+00	0.000000e+00
-3.570000e+00	-3.500000e+00	0.000000e+00	0.000000e+00	0.000000e+00
-3.500000e+00	-3.430000e+00	0.000000e+00	0.000000e+00	0.000000e+00
-3.430000e+00	-3.360000e+00	0.000000e+00	0.000000e+00	0.000000e+00
-3.360000e+00	-3.290000e+00	0.000000e+00	0.000000e+00	0.000000e+00
-3.290000e+00	-3.220000e+00	0.000000e+00	0.000000e+00	0.000000e+00
-3.220000e+00	-3.150000e+00	0.000000e+00	0.000000e+00	0.000000e+00
-3.150000e+00	-3.080000e+00	0.000000e+00	0.000000e+00	0.000000e+00
-3.080000e+00	-3.010000e+00	0.000000e+00	0.000000e+00	0.000000e+00
-3.010000e+00	-2.940000e+00	0.000000e+00	0.000000e+00	0.000000e+00
-2.940000e+00	-2.870000e+00	0.000000e+00	0.000000e+00	0.000000e+00
-2.870000e+00	-2.800000e+00	0.000000e+00	0.000000e+00	0.000000e+00
-2.800000e+00	-2.730000e+00	0.000000e+00	0.000000e+00	0.000000e+00
-2.730000e+00	-2.660000e+00	0.000000e+00	0.000000e+00	0.000000e+00
-2.660000e+00	-2.590000e+00	0.000000e+00	0.000000e+00	0.000000e+00
-2.590000e+00	-2.520000e+00	0.000000e+00	0.000000e+00	0.000000e+00
-2.520000e+00	-2.450000e+00	0.000000e+00	0.000000e+00	0.000000e+00
-2.450000e+00	-2.380000e+00	7.059439e+03	7.011009e+03	7.011009e+03
-2.380000e+00	-2.310000e+00	6.919384e-01	7.502469e-01	7.502469e-01
-2.310000e+00	-2.240000e+00	4.757157e+04	3.410360e+04	3.410360e+04
-2.240000e+00	-2.170000e+00	1.810540e+05	1.659902e+05	1.659902e+05
-2.170000e+00	-2.100000e+00	-1.082195e+06	9.071082e+05	9.071082e+05
-2.100000e+00	-2.030000e+00	-8.863416e+05	1.179420e+06	1.179420e+06
-2.030000e+00	-1.960000e+00	6.078510e+06	6.518035e+06	6.518035e+06
-1.960000e+00	-1.890000e+00	7.419946e+06	7.353894e+06	7.353894e+06
-1.890000e+00	-1.820000e+00	3.940983e+06	1.184578e+07	1.184578e+07
-1.820000e+00	-1.750000e+00	3.856654e+06	8.295659e+06	8.295659e+06
-1.750000e+00	-1.680000e+00	3.774049e+07	3.180338e+07	3.180338e+07
-1.680000e+00	-1.610000e+00	7.477521e+05	1.354797e+07	1.354797e+07
-1.610000e+00	-1.540000e+00	1.396326e+07	7.180791e+06	7.180791e+06
-1.540000e+00	-1.470000e+00	4.520091e+07	2.328204e+07	2.328204e+07
-1.470000e+00	-1.400000e+00	1.220722e+08	1.817363e+07	1.817363e+07
-1.400000e+00	-1.330000e+00	2.276580e+08	3.460738e+07	3.460738e+07
-1.330000e+00	-1.260000e+00	5.415433e+08	4.361497e+07	4.361497e+07
-1.260000e+00	-1.190000e+00	9.300583e+08	6.491316e+07	6.491316e+07
-1.190000e+00	-1.120000e+00	1.349142e+09	6.060089e+07	6.060089e+07
-1.120000e+00	-1.050000e+00	2.102856e+09	1.051726e+08	1.051726e+08
-1.050000e+00	-9.800000e-01	2.818280e+09	9.976821e+07	9.976821e+07
-9.800000e-01	-9.100000e-01	3.726529e+09	1.253362e+08	1.253362e+08
-9.100000e-01	-8.400000e-01	4.148189e+09	1.829499e+08	1.829499e+08
-8.400000e-01	-7.700000e-01	4.452919e+09	1.248705e+08	1.248705e+08
-7.700000e-01	-7.000000e-01	4.956997e+09	1.127799e+08	1.127799e+08
-7.000000e-01	-6.300000e-01	4.887030e+09	1.232286e+08	1.232286e+08
-6.300000e-01	-5.600000e-01	4.150541e+09	3.103938e+08	3.103938e+08
-5.600000e-01	-4.900000e-01	3.631769e+09	2.303822e+08	2.303822e+08
-4.900000e-01	-4.200000e-01	3.392191e+09	9.067299e+07	9.067299e+07
-4.200000e-01	-3.500000e-01	2.212176e+09	7.262773e+07	7.262773e+07
-3.500000e-01	-2.800000e-01	8.592956e+08	8.604370e+07	8.604370e+07
-2.800000e-01	-2.100000e-01	1.918459e+08	2.238894e+07	2.238894e+07
-2.100000e-01	-1.400000e-01	3.083097e+07	4.188920e+06	4.188920e+06
-1.400000e-01	-7.000000e-02	9.892727e+03	1.383125e+04	1.383125e+04
-7.000000e-02	0.000000e+00	0.000000e+00	0.000000e+00	0.000000e+00
# END HISTO1D

