# BEGIN PLOT
LegendOnly=/zj_ps_nlo_mer_mur1_muf1_R4.yoda/PAPER_FIN_R4_CH/lin_l10_pT_254_326
DrawOnly=/zj_ps_nlo_mer_mur1_muf1_R4.yoda/PAPER_FIN_R4_CH/lin_l10_pT_254_326
Legend=1
LogY=1
# END PLOT

# BEGIN HISTO1D /zj_ps_nlo_mer_mur1_muf1_R4.yoda/PAPER_FIN_R4_CH/lin_l10_pT_254_326
LineColor=red
LineStyle=solid
Path=/zj_ps_nlo_mer_mur1_muf1_R4.yoda/PAPER_FIN_R4_CH/lin_l10_pT_254_326
Title=zj_ps_nlo_mer_mur1_muf1_R4
XLabel=~
YLabel=~
# xlow	 xhigh	 val	 errminus	 errplus
0.000000e+00	2.250000e-02	1.135707e+10	2.728548e+08	2.728548e+08
2.250000e-02	4.000000e-02	8.814474e+09	2.654063e+08	2.654063e+08
4.000000e-02	5.750000e-02	7.628343e+09	2.191911e+08	2.191911e+08
5.750000e-02	7.750000e-02	5.955085e+09	1.495461e+08	1.495461e+08
7.750000e-02	1.000000e-01	4.501898e+09	1.373459e+08	1.373459e+08
1.000000e-01	1.250000e-01	3.481927e+09	1.775039e+08	1.775039e+08
1.250000e-01	1.520000e-01	2.732008e+09	8.396979e+07	8.396979e+07
1.520000e-01	1.850000e-01	1.973136e+09	6.516515e+07	6.516515e+07
1.850000e-01	2.200000e-01	1.531170e+09	1.263229e+08	1.263229e+08
2.200000e-01	2.600000e-01	1.057075e+09	6.612493e+07	6.612493e+07
2.600000e-01	3.070000e-01	7.234309e+08	3.120194e+07	3.120194e+07
3.070000e-01	3.620000e-01	5.083922e+08	4.166453e+07	4.166453e+07
3.620000e-01	4.250000e-01	2.958495e+08	2.265008e+07	2.265008e+07
4.250000e-01	4.970000e-01	1.541986e+08	9.472269e+06	9.472269e+06
4.970000e-01	1.000000e+00	1.101670e+07	8.796892e+05	8.796892e+05
# END HISTO1D

