# BEGIN PLOT
LegendOnly=/zj_ps_nlo_mer_mur1_muf1_R4.yoda/PAPER_FIN_R4_CH/lin_l10_pT_88_120
DrawOnly=/zj_ps_nlo_mer_mur1_muf1_R4.yoda/PAPER_FIN_R4_CH/lin_l10_pT_88_120
Legend=1
LogY=1
# END PLOT

# BEGIN HISTO1D /zj_ps_nlo_mer_mur1_muf1_R4.yoda/PAPER_FIN_R4_CH/lin_l10_pT_88_120
LineColor=red
LineStyle=solid
Path=/zj_ps_nlo_mer_mur1_muf1_R4.yoda/PAPER_FIN_R4_CH/lin_l10_pT_88_120
Title=zj_ps_nlo_mer_mur1_muf1_R4
XLabel=~
YLabel=~
# xlow	 xhigh	 val	 errminus	 errplus
0.000000e+00	2.250000e-02	1.667477e+11	2.515311e+09	2.515311e+09
2.250000e-02	4.000000e-02	9.600080e+10	1.596771e+09	1.596771e+09
4.000000e-02	5.750000e-02	8.848011e+10	1.425881e+09	1.425881e+09
5.750000e-02	7.750000e-02	7.412300e+10	1.032240e+09	1.032240e+09
7.750000e-02	1.000000e-01	6.415938e+10	9.621903e+08	9.621903e+08
1.000000e-01	1.250000e-01	4.938416e+10	9.373305e+08	9.373305e+08
1.250000e-01	1.520000e-01	4.209233e+10	6.875583e+08	6.875583e+08
1.520000e-01	1.850000e-01	3.204524e+10	4.433715e+08	4.433715e+08
1.850000e-01	2.200000e-01	2.339813e+10	4.356536e+08	4.356536e+08
2.200000e-01	2.600000e-01	1.766939e+10	4.019328e+08	4.019328e+08
2.600000e-01	3.070000e-01	1.212829e+10	2.654393e+08	2.654393e+08
3.070000e-01	3.620000e-01	8.102600e+09	1.560965e+08	1.560965e+08
3.620000e-01	4.250000e-01	4.851560e+09	1.833599e+08	1.833599e+08
4.250000e-01	4.970000e-01	2.494557e+09	7.192133e+07	7.192133e+07
4.970000e-01	1.000000e+00	1.833411e+08	6.680450e+06	6.680450e+06
# END HISTO1D

