# BEGIN PLOT
LegendOnly=/zj_ps_nlo_mer_mur1_muf1_R4.yoda/PAPER_FIN_R4_CH/lin_SD_l05_pT_408_1500
DrawOnly=/zj_ps_nlo_mer_mur1_muf1_R4.yoda/PAPER_FIN_R4_CH/lin_SD_l05_pT_408_1500
Legend=1
LogY=1
# END PLOT

# BEGIN HISTO1D /zj_ps_nlo_mer_mur1_muf1_R4.yoda/PAPER_FIN_R4_CH/lin_SD_l05_pT_408_1500
LineColor=red
LineStyle=solid
Path=/zj_ps_nlo_mer_mur1_muf1_R4.yoda/PAPER_FIN_R4_CH/lin_SD_l05_pT_408_1500
Title=zj_ps_nlo_mer_mur1_muf1_R4
XLabel=~
YLabel=~
# xlow	 xhigh	 val	 errminus	 errplus
0.000000e+00	6.000000e-02	2.350348e+09	4.131155e+07	4.131155e+07
6.000000e-02	9.000000e-02	1.364366e+09	6.207277e+07	6.207277e+07
9.000000e-02	1.200000e-01	1.071442e+09	3.489094e+07	3.489094e+07
1.200000e-01	1.500000e-01	8.896397e+08	3.575919e+07	3.575919e+07
1.500000e-01	1.900000e-01	7.928945e+08	2.441837e+07	2.441837e+07
1.900000e-01	2.300000e-01	6.172050e+08	2.295637e+07	2.295637e+07
2.300000e-01	2.700000e-01	4.928602e+08	2.384933e+07	2.384933e+07
2.700000e-01	3.200000e-01	3.969912e+08	2.412977e+07	2.412977e+07
3.200000e-01	3.700000e-01	2.654668e+08	3.904415e+07	3.904415e+07
3.700000e-01	4.200000e-01	2.327738e+08	1.506382e+07	1.506382e+07
4.200000e-01	4.800000e-01	1.827170e+08	1.712975e+07	1.712975e+07
4.800000e-01	5.400000e-01	7.374858e+07	8.153043e+06	8.153043e+06
5.400000e-01	6.000000e-01	3.771722e+07	4.445520e+06	4.445520e+06
6.000000e-01	1.000000e+00	2.414587e+06	2.836826e+05	2.836826e+05
# END HISTO1D

