pt, eta, phi
1.7703,-0.970798,0.115414
2.59943,-0.37023,0.386596
4.19555,-0.332317,0.218777
4.06924,-0.401256,0.236933
4.04959,-0.513119,0.0717738
54.1972,-0.380311,0.1376
45.3233,-0.442297,0.0778076
6.37745,-0.385089,0.0789574
79.0385,-0.409036,0.0956621
28.2132,-0.40795,0.0686668
