# BEGIN PLOT
LegendOnly=/pythia_np_pt50_s1_1e3.yoda/PAPER_FIN_R8/SD_l20_pT_88_120
DrawOnly=/pythia_np_pt50_s1_1e3.yoda/PAPER_FIN_R8/SD_l20_pT_88_120
Legend=1
LogY=1
# END PLOT

# BEGIN HISTO1D /pythia_np_pt50_s1_1e3.yoda/PAPER_FIN_R8/SD_l20_pT_88_120
LineColor=red
LineStyle=solid
Path=/pythia_np_pt50_s1_1e3.yoda/PAPER_FIN_R8/SD_l20_pT_88_120
Title=pythia_np_pt50_s1_1e3
XLabel=~
YLabel=~
# xlow	 xhigh	 val	 errminus	 errplus
-7.000000e+00	-6.930000e+00	2.142857e+02	5.532833e+01	5.532833e+01
-6.930000e+00	-6.860000e+00	7.671714e+05	3.310527e+03	3.310527e+03
-6.860000e+00	-6.790000e+00	3.857143e+02	7.423075e+01	7.423075e+01
-6.790000e+00	-6.720000e+00	3.142857e+02	6.700594e+01	6.700594e+01
-6.720000e+00	-6.650000e+00	4.714286e+02	8.206518e+01	8.206518e+01
-6.650000e+00	-6.580000e+00	6.142857e+02	9.367769e+01	9.367769e+01
-6.580000e+00	-6.510000e+00	6.714286e+02	9.793792e+01	9.793792e+01
-6.510000e+00	-6.440000e+00	7.285714e+02	1.020204e+02	1.020204e+02
-6.440000e+00	-6.370000e+00	8.857143e+02	1.124858e+02	1.124858e+02
-6.370000e+00	-6.300000e+00	7.571429e+02	1.040016e+02	1.040016e+02
-6.300000e+00	-6.230000e+00	1.157143e+03	1.285714e+02	1.285714e+02
-6.230000e+00	-6.160000e+00	1.400000e+03	1.414214e+02	1.414214e+02
-6.160000e+00	-6.090000e+00	1.642857e+03	1.531972e+02	1.531972e+02
-6.090000e+00	-6.020000e+00	1.757143e+03	1.584362e+02	1.584362e+02
-6.020000e+00	-5.950000e+00	2.171429e+03	1.761261e+02	1.761261e+02
-5.950000e+00	-5.880000e+00	2.771429e+03	1.989770e+02	1.989770e+02
-5.880000e+00	-5.810000e+00	2.885714e+03	2.030381e+02	2.030381e+02
-5.810000e+00	-5.740000e+00	3.371429e+03	2.194613e+02	2.194613e+02
-5.740000e+00	-5.670000e+00	4.214286e+03	2.453652e+02	2.453652e+02
-5.670000e+00	-5.600000e+00	5.728571e+03	2.860712e+02	2.860712e+02
-5.600000e+00	-5.530000e+00	1.024286e+04	3.825265e+02	3.825265e+02
-5.530000e+00	-5.460000e+00	2.034286e+04	5.390846e+02	5.390846e+02
-5.460000e+00	-5.390000e+00	3.145714e+04	6.703639e+02	6.703639e+02
-5.390000e+00	-5.320000e+00	3.840000e+04	7.406561e+02	7.406561e+02
-5.320000e+00	-5.250000e+00	4.131429e+04	7.682474e+02	7.682474e+02
-5.250000e+00	-5.180000e+00	3.474286e+04	7.045045e+02	7.045045e+02
-5.180000e+00	-5.110000e+00	2.917143e+04	6.455499e+02	6.455499e+02
-5.110000e+00	-5.040000e+00	2.591429e+04	6.084440e+02	6.084440e+02
-5.040000e+00	-4.970000e+00	2.700000e+04	6.210590e+02	6.210590e+02
-4.970000e+00	-4.900000e+00	3.190000e+04	6.750661e+02	6.750661e+02
-4.900000e+00	-4.830000e+00	3.872857e+04	7.438181e+02	7.438181e+02
-4.830000e+00	-4.760000e+00	4.427143e+04	7.952666e+02	7.952666e+02
-4.760000e+00	-4.690000e+00	5.670000e+04	9.000000e+02	9.000000e+02
-4.690000e+00	-4.620000e+00	6.795714e+04	9.853001e+02	9.853001e+02
-4.620000e+00	-4.550000e+00	8.052857e+04	1.072571e+03	1.072571e+03
-4.550000e+00	-4.480000e+00	9.917143e+04	1.190267e+03	1.190267e+03
-4.480000e+00	-4.410000e+00	1.187714e+05	1.302588e+03	1.302588e+03
-4.410000e+00	-4.340000e+00	1.424857e+05	1.426713e+03	1.426713e+03
-4.340000e+00	-4.270000e+00	1.704143e+05	1.560285e+03	1.560285e+03
-4.270000e+00	-4.200000e+00	2.065143e+05	1.717616e+03	1.717616e+03
-4.200000e+00	-4.130000e+00	2.551286e+05	1.909108e+03	1.909108e+03
-4.130000e+00	-4.060000e+00	3.172714e+05	2.128955e+03	2.128955e+03
-4.060000e+00	-3.990000e+00	3.847857e+05	2.344555e+03	2.344555e+03
-3.990000e+00	-3.920000e+00	4.681429e+05	2.586069e+03	2.586069e+03
-3.920000e+00	-3.850000e+00	5.539286e+05	2.813053e+03	2.813053e+03
-3.850000e+00	-3.780000e+00	6.588857e+05	3.068005e+03	3.068005e+03
-3.780000e+00	-3.710000e+00	7.883714e+05	3.355957e+03	3.355957e+03
-3.710000e+00	-3.640000e+00	9.362857e+05	3.657254e+03	3.657254e+03
-3.640000e+00	-3.570000e+00	1.119429e+06	3.998979e+03	3.998979e+03
-3.570000e+00	-3.500000e+00	1.348886e+06	4.389738e+03	4.389738e+03
-3.500000e+00	-3.430000e+00	1.619114e+06	4.809387e+03	4.809387e+03
-3.430000e+00	-3.360000e+00	1.925786e+06	5.245114e+03	5.245114e+03
-3.360000e+00	-3.290000e+00	2.284700e+06	5.713018e+03	5.713018e+03
-3.290000e+00	-3.220000e+00	2.642414e+06	6.144003e+03	6.144003e+03
-3.220000e+00	-3.150000e+00	3.028757e+06	6.577838e+03	6.577838e+03
-3.150000e+00	-3.080000e+00	3.416114e+06	6.985817e+03	6.985817e+03
-3.080000e+00	-3.010000e+00	3.770957e+06	7.339674e+03	7.339674e+03
-3.010000e+00	-2.940000e+00	4.070871e+06	7.625963e+03	7.625963e+03
-2.940000e+00	-2.870000e+00	4.344586e+06	7.878167e+03	7.878167e+03
-2.870000e+00	-2.800000e+00	4.501529e+06	8.019199e+03	8.019199e+03
-2.800000e+00	-2.730000e+00	4.602771e+06	8.108876e+03	8.108876e+03
-2.730000e+00	-2.660000e+00	4.609529e+06	8.114826e+03	8.114826e+03
-2.660000e+00	-2.590000e+00	4.572471e+06	8.082142e+03	8.082142e+03
-2.590000e+00	-2.520000e+00	4.479543e+06	7.999592e+03	7.999592e+03
-2.520000e+00	-2.450000e+00	4.336800e+06	7.871104e+03	7.871104e+03
-2.450000e+00	-2.380000e+00	4.197157e+06	7.743345e+03	7.743345e+03
-2.380000e+00	-2.310000e+00	4.001600e+06	7.560801e+03	7.560801e+03
-2.310000e+00	-2.240000e+00	3.795971e+06	7.363977e+03	7.363977e+03
-2.240000e+00	-2.170000e+00	3.569143e+06	7.140571e+03	7.140571e+03
-2.170000e+00	-2.100000e+00	3.344600e+06	6.912308e+03	6.912308e+03
-2.100000e+00	-2.030000e+00	3.136829e+06	6.694164e+03	6.694164e+03
-2.030000e+00	-1.960000e+00	2.993686e+06	6.539644e+03	6.539644e+03
-1.960000e+00	-1.890000e+00	2.889129e+06	6.424427e+03	6.424427e+03
-1.890000e+00	-1.820000e+00	2.811257e+06	6.337256e+03	6.337256e+03
-1.820000e+00	-1.750000e+00	2.763086e+06	6.282727e+03	6.282727e+03
-1.750000e+00	-1.680000e+00	2.755271e+06	6.273836e+03	6.273836e+03
-1.680000e+00	-1.610000e+00	2.759629e+06	6.278795e+03	6.278795e+03
-1.610000e+00	-1.540000e+00	2.797143e+06	6.321328e+03	6.321328e+03
-1.540000e+00	-1.470000e+00	2.838671e+06	6.368080e+03	6.368080e+03
-1.470000e+00	-1.400000e+00	2.895600e+06	6.431618e+03	6.431618e+03
-1.400000e+00	-1.330000e+00	3.024800e+06	6.573540e+03	6.573540e+03
-1.330000e+00	-1.260000e+00	3.243114e+06	6.806629e+03	6.806629e+03
-1.260000e+00	-1.190000e+00	3.547957e+06	7.119347e+03	7.119347e+03
-1.190000e+00	-1.120000e+00	3.933500e+06	7.496190e+03	7.496190e+03
-1.120000e+00	-1.050000e+00	4.367971e+06	7.899341e+03	7.899341e+03
-1.050000e+00	-9.800000e-01	4.761771e+06	8.247746e+03	8.247746e+03
-9.800000e-01	-9.100000e-01	5.012043e+06	8.461714e+03	8.461714e+03
-9.100000e-01	-8.400000e-01	5.003143e+06	8.454198e+03	8.454198e+03
-8.400000e-01	-7.700000e-01	4.718800e+06	8.210446e+03	8.210446e+03
-7.700000e-01	-7.000000e-01	4.213271e+06	7.758195e+03	7.758195e+03
-7.000000e-01	-6.300000e-01	3.452057e+06	7.022471e+03	7.022471e+03
-6.300000e-01	-5.600000e-01	2.518814e+06	5.998588e+03	5.998588e+03
-5.600000e-01	-4.900000e-01	1.420543e+06	4.504827e+03	4.504827e+03
-4.900000e-01	-4.200000e-01	5.058714e+05	2.688259e+03	2.688259e+03
-4.200000e-01	-3.500000e-01	1.033000e+05	1.214790e+03	1.214790e+03
-3.500000e-01	-2.800000e-01	1.037143e+04	3.849198e+02	3.849198e+02
-2.800000e-01	-2.100000e-01	3.142857e+02	6.700594e+01	6.700594e+01
-2.100000e-01	-1.400000e-01	0.000000e+00	0.000000e+00	0.000000e+00
-1.400000e-01	-7.000000e-02	0.000000e+00	0.000000e+00	0.000000e+00
-7.000000e-02	0.000000e+00	0.000000e+00	0.000000e+00	0.000000e+00
# END HISTO1D

