# BEGIN PLOT
LegendOnly=/pythia_np_pt50_s1_1e3.yoda/PAPER_FIN_R4/ch_SD_l20_pT_120_150
DrawOnly=/pythia_np_pt50_s1_1e3.yoda/PAPER_FIN_R4/ch_SD_l20_pT_120_150
Legend=1
LogY=1
# END PLOT

# BEGIN HISTO1D /pythia_np_pt50_s1_1e3.yoda/PAPER_FIN_R4/ch_SD_l20_pT_120_150
LineColor=red
LineStyle=solid
Path=/pythia_np_pt50_s1_1e3.yoda/PAPER_FIN_R4/ch_SD_l20_pT_120_150
Title=pythia_np_pt50_s1_1e3
XLabel=~
YLabel=~
# xlow	 xhigh	 val	 errminus	 errplus
-7.000000e+00	-6.930000e+00	1.000000e+02	3.779645e+01	3.779645e+01
-6.930000e+00	-6.860000e+00	1.307700e+06	4.322202e+03	4.322202e+03
-6.860000e+00	-6.790000e+00	1.000000e+02	3.779645e+01	3.779645e+01
-6.790000e+00	-6.720000e+00	1.285714e+02	4.285714e+01	4.285714e+01
-6.720000e+00	-6.650000e+00	1.714286e+02	4.948717e+01	4.948717e+01
-6.650000e+00	-6.580000e+00	2.285714e+02	5.714286e+01	5.714286e+01
-6.580000e+00	-6.510000e+00	3.000000e+02	6.546537e+01	6.546537e+01
-6.510000e+00	-6.440000e+00	3.000000e+02	6.546537e+01	6.546537e+01
-6.440000e+00	-6.370000e+00	3.571429e+02	7.142857e+01	7.142857e+01
-6.370000e+00	-6.300000e+00	4.428571e+02	7.953949e+01	7.953949e+01
-6.300000e+00	-6.230000e+00	3.714286e+02	7.284314e+01	7.284314e+01
-6.230000e+00	-6.160000e+00	5.000000e+02	8.451543e+01	8.451543e+01
-6.160000e+00	-6.090000e+00	5.714286e+02	9.035079e+01	9.035079e+01
-6.090000e+00	-6.020000e+00	5.857143e+02	9.147320e+01	9.147320e+01
-6.020000e+00	-5.950000e+00	1.028571e+03	1.212183e+02	1.212183e+02
-5.950000e+00	-5.880000e+00	8.285714e+02	1.087968e+02	1.087968e+02
-5.880000e+00	-5.810000e+00	8.857143e+02	1.124858e+02	1.124858e+02
-5.810000e+00	-5.740000e+00	1.142857e+03	1.277753e+02	1.277753e+02
-5.740000e+00	-5.670000e+00	1.614286e+03	1.518592e+02	1.518592e+02
-5.670000e+00	-5.600000e+00	1.842857e+03	1.622545e+02	1.622545e+02
-5.600000e+00	-5.530000e+00	2.028571e+03	1.702339e+02	1.702339e+02
-5.530000e+00	-5.460000e+00	2.300000e+03	1.812654e+02	1.812654e+02
-5.460000e+00	-5.390000e+00	2.614286e+03	1.932536e+02	1.932536e+02
-5.390000e+00	-5.320000e+00	3.257143e+03	2.157096e+02	2.157096e+02
-5.320000e+00	-5.250000e+00	3.957143e+03	2.377617e+02	2.377617e+02
-5.250000e+00	-5.180000e+00	4.500000e+03	2.535463e+02	2.535463e+02
-5.180000e+00	-5.110000e+00	5.442857e+03	2.788460e+02	2.788460e+02
-5.110000e+00	-5.040000e+00	6.285714e+03	2.996597e+02	2.996597e+02
-5.040000e+00	-4.970000e+00	7.557143e+03	3.285714e+02	3.285714e+02
-4.970000e+00	-4.900000e+00	9.157143e+03	3.616854e+02	3.616854e+02
-4.900000e+00	-4.830000e+00	9.957143e+03	3.771537e+02	3.771537e+02
-4.830000e+00	-4.760000e+00	1.265714e+04	4.252250e+02	4.252250e+02
-4.760000e+00	-4.690000e+00	1.492857e+04	4.618066e+02	4.618066e+02
-4.690000e+00	-4.620000e+00	1.734286e+04	4.977500e+02	4.977500e+02
-4.620000e+00	-4.550000e+00	2.192857e+04	5.597011e+02	5.597011e+02
-4.550000e+00	-4.480000e+00	2.581429e+04	6.072689e+02	6.072689e+02
-4.480000e+00	-4.410000e+00	3.041429e+04	6.591584e+02	6.591584e+02
-4.410000e+00	-4.340000e+00	3.720000e+04	7.289915e+02	7.289915e+02
-4.340000e+00	-4.270000e+00	4.385714e+04	7.915369e+02	7.915369e+02
-4.270000e+00	-4.200000e+00	5.115714e+04	8.548780e+02	8.548780e+02
-4.200000e+00	-4.130000e+00	6.094286e+04	9.330660e+02	9.330660e+02
-4.130000e+00	-4.060000e+00	7.375714e+04	1.026486e+03	1.026486e+03
-4.060000e+00	-3.990000e+00	8.402857e+04	1.095631e+03	1.095631e+03
-3.990000e+00	-3.920000e+00	9.835714e+04	1.185370e+03	1.185370e+03
-3.920000e+00	-3.850000e+00	1.154429e+05	1.284205e+03	1.284205e+03
-3.850000e+00	-3.780000e+00	1.319286e+05	1.372842e+03	1.372842e+03
-3.780000e+00	-3.710000e+00	1.645000e+05	1.532971e+03	1.532971e+03
-3.710000e+00	-3.640000e+00	1.919286e+05	1.655849e+03	1.655849e+03
-3.640000e+00	-3.570000e+00	2.262714e+05	1.797901e+03	1.797901e+03
-3.570000e+00	-3.500000e+00	2.690571e+05	1.960529e+03	1.960529e+03
-3.500000e+00	-3.430000e+00	3.101571e+05	2.104950e+03	2.104950e+03
-3.430000e+00	-3.360000e+00	3.610000e+05	2.270934e+03	2.270934e+03
-3.360000e+00	-3.290000e+00	4.187000e+05	2.445696e+03	2.445696e+03
-3.290000e+00	-3.220000e+00	4.876429e+05	2.639380e+03	2.639380e+03
-3.220000e+00	-3.150000e+00	5.583714e+05	2.824311e+03	2.824311e+03
-3.150000e+00	-3.080000e+00	6.487000e+05	3.044198e+03	3.044198e+03
-3.080000e+00	-3.010000e+00	7.475286e+05	3.267871e+03	3.267871e+03
-3.010000e+00	-2.940000e+00	8.378000e+05	3.459562e+03	3.459562e+03
-2.940000e+00	-2.870000e+00	9.462571e+05	3.676678e+03	3.676678e+03
-2.870000e+00	-2.800000e+00	1.057086e+06	3.886029e+03	3.886029e+03
-2.800000e+00	-2.730000e+00	1.167300e+06	4.083591e+03	4.083591e+03
-2.730000e+00	-2.660000e+00	1.257900e+06	4.239104e+03	4.239104e+03
-2.660000e+00	-2.590000e+00	1.347014e+06	4.386691e+03	4.386691e+03
-2.590000e+00	-2.520000e+00	1.422843e+06	4.508473e+03	4.508473e+03
-2.520000e+00	-2.450000e+00	1.477243e+06	4.593851e+03	4.593851e+03
-2.450000e+00	-2.380000e+00	1.528714e+06	4.673198e+03	4.673198e+03
-2.380000e+00	-2.310000e+00	1.555286e+06	4.713636e+03	4.713636e+03
-2.310000e+00	-2.240000e+00	1.565300e+06	4.728787e+03	4.728787e+03
-2.240000e+00	-2.170000e+00	1.577571e+06	4.747287e+03	4.747287e+03
-2.170000e+00	-2.100000e+00	1.585829e+06	4.759695e+03	4.759695e+03
-2.100000e+00	-2.030000e+00	1.573014e+06	4.740425e+03	4.740425e+03
-2.030000e+00	-1.960000e+00	1.551357e+06	4.707679e+03	4.707679e+03
-1.960000e+00	-1.890000e+00	1.520714e+06	4.660954e+03	4.660954e+03
-1.890000e+00	-1.820000e+00	1.466329e+06	4.576849e+03	4.576849e+03
-1.820000e+00	-1.750000e+00	1.425000e+06	4.511889e+03	4.511889e+03
-1.750000e+00	-1.680000e+00	1.389743e+06	4.455723e+03	4.455723e+03
-1.680000e+00	-1.610000e+00	1.352043e+06	4.394872e+03	4.394872e+03
-1.610000e+00	-1.540000e+00	1.315614e+06	4.335261e+03	4.335261e+03
-1.540000e+00	-1.470000e+00	1.296514e+06	4.303677e+03	4.303677e+03
-1.470000e+00	-1.400000e+00	1.284457e+06	4.283619e+03	4.283619e+03
-1.400000e+00	-1.330000e+00	1.281143e+06	4.278088e+03	4.278088e+03
-1.330000e+00	-1.260000e+00	1.287600e+06	4.288856e+03	4.288856e+03
-1.260000e+00	-1.190000e+00	1.315629e+06	4.335285e+03	4.335285e+03
-1.190000e+00	-1.120000e+00	1.352971e+06	4.396381e+03	4.396381e+03
-1.120000e+00	-1.050000e+00	1.387629e+06	4.452333e+03	4.452333e+03
-1.050000e+00	-9.800000e-01	1.402371e+06	4.475922e+03	4.475922e+03
-9.800000e-01	-9.100000e-01	1.372186e+06	4.427488e+03	4.427488e+03
-9.100000e-01	-8.400000e-01	1.278786e+06	4.274151e+03	4.274151e+03
-8.400000e-01	-7.700000e-01	1.141557e+06	4.038311e+03	4.038311e+03
-7.700000e-01	-7.000000e-01	9.494714e+05	3.682917e+03	3.682917e+03
-7.000000e-01	-6.300000e-01	7.285143e+05	3.226042e+03	3.226042e+03
-6.300000e-01	-5.600000e-01	4.661571e+05	2.580579e+03	2.580579e+03
-5.600000e-01	-4.900000e-01	1.976857e+05	1.680500e+03	1.680500e+03
-4.900000e-01	-4.200000e-01	4.514286e+04	8.030554e+02	8.030554e+02
-4.200000e-01	-3.500000e-01	4.614286e+03	2.567457e+02	2.567457e+02
-3.500000e-01	-2.800000e-01	5.714286e+01	2.857143e+01	2.857143e+01
-2.800000e-01	-2.100000e-01	0.000000e+00	0.000000e+00	0.000000e+00
-2.100000e-01	-1.400000e-01	0.000000e+00	0.000000e+00	0.000000e+00
-1.400000e-01	-7.000000e-02	0.000000e+00	0.000000e+00	0.000000e+00
-7.000000e-02	0.000000e+00	0.000000e+00	0.000000e+00	0.000000e+00
# END HISTO1D

