# BEGIN PLOT
LegendOnly=/pythia_np_pt50_s1_1e3.yoda/PAPER_FIN_R4/ch_lin_SD_l10_pT_88_120
DrawOnly=/pythia_np_pt50_s1_1e3.yoda/PAPER_FIN_R4/ch_lin_SD_l10_pT_88_120
Legend=1
LogY=1
# END PLOT

# BEGIN HISTO1D /pythia_np_pt50_s1_1e3.yoda/PAPER_FIN_R4/ch_lin_SD_l10_pT_88_120
LineColor=red
LineStyle=solid
Path=/pythia_np_pt50_s1_1e3.yoda/PAPER_FIN_R4/ch_lin_SD_l10_pT_88_120
Title=pythia_np_pt50_s1_1e3
XLabel=~
YLabel=~
# xlow	 xhigh	 val	 errminus	 errplus
0.000000e+00	1.250000e-02	3.557816e+07	5.335028e+04	5.335028e+04
1.250000e-02	2.250000e-02	3.965500e+07	6.297222e+04	6.297222e+04
2.250000e-02	3.500000e-02	5.142920e+07	6.414309e+04	6.414309e+04
3.500000e-02	5.000000e-02	5.607647e+07	6.114271e+04	6.114271e+04
5.000000e-02	7.000000e-02	5.081920e+07	5.040794e+04	5.040794e+04
7.000000e-02	9.500000e-02	4.031148e+07	4.015544e+04	4.015544e+04
9.500000e-02	1.280000e-01	3.005994e+07	3.018124e+04	3.018124e+04
1.280000e-01	1.700000e-01	2.176829e+07	2.276604e+04	2.276604e+04
1.700000e-01	2.250000e-01	1.530142e+07	1.667956e+04	1.667956e+04
2.250000e-01	2.900000e-01	1.012138e+07	1.247853e+04	1.247853e+04
2.900000e-01	3.650000e-01	6.083293e+06	9.006141e+03	9.006141e+03
3.650000e-01	4.500000e-01	3.231541e+06	6.165884e+03	6.165884e+03
4.500000e-01	1.000000e+00	3.131636e+05	7.545783e+02	7.545783e+02
# END HISTO1D

