# BEGIN PLOT
LegendOnly=/pythia_np_pt50_s1_1e3.yoda/PAPER_FIN_R4/SD_l10_pT_408_1500
DrawOnly=/pythia_np_pt50_s1_1e3.yoda/PAPER_FIN_R4/SD_l10_pT_408_1500
Legend=1
LogY=1
# END PLOT

# BEGIN HISTO1D /pythia_np_pt50_s1_1e3.yoda/PAPER_FIN_R4/SD_l10_pT_408_1500
LineColor=red
LineStyle=solid
Path=/pythia_np_pt50_s1_1e3.yoda/PAPER_FIN_R4/SD_l10_pT_408_1500
Title=pythia_np_pt50_s1_1e3
XLabel=~
YLabel=~
# xlow	 xhigh	 val	 errminus	 errplus
-7.000000e+00	-6.930000e+00	0.000000e+00	0.000000e+00	0.000000e+00
-6.930000e+00	-6.860000e+00	1.042857e+04	3.859787e+02	3.859787e+02
-6.860000e+00	-6.790000e+00	0.000000e+00	0.000000e+00	0.000000e+00
-6.790000e+00	-6.720000e+00	0.000000e+00	0.000000e+00	0.000000e+00
-6.720000e+00	-6.650000e+00	0.000000e+00	0.000000e+00	0.000000e+00
-6.650000e+00	-6.580000e+00	0.000000e+00	0.000000e+00	0.000000e+00
-6.580000e+00	-6.510000e+00	0.000000e+00	0.000000e+00	0.000000e+00
-6.510000e+00	-6.440000e+00	0.000000e+00	0.000000e+00	0.000000e+00
-6.440000e+00	-6.370000e+00	0.000000e+00	0.000000e+00	0.000000e+00
-6.370000e+00	-6.300000e+00	0.000000e+00	0.000000e+00	0.000000e+00
-6.300000e+00	-6.230000e+00	0.000000e+00	0.000000e+00	0.000000e+00
-6.230000e+00	-6.160000e+00	0.000000e+00	0.000000e+00	0.000000e+00
-6.160000e+00	-6.090000e+00	0.000000e+00	0.000000e+00	0.000000e+00
-6.090000e+00	-6.020000e+00	0.000000e+00	0.000000e+00	0.000000e+00
-6.020000e+00	-5.950000e+00	0.000000e+00	0.000000e+00	0.000000e+00
-5.950000e+00	-5.880000e+00	0.000000e+00	0.000000e+00	0.000000e+00
-5.880000e+00	-5.810000e+00	0.000000e+00	0.000000e+00	0.000000e+00
-5.810000e+00	-5.740000e+00	0.000000e+00	0.000000e+00	0.000000e+00
-5.740000e+00	-5.670000e+00	0.000000e+00	0.000000e+00	0.000000e+00
-5.670000e+00	-5.600000e+00	0.000000e+00	0.000000e+00	0.000000e+00
-5.600000e+00	-5.530000e+00	0.000000e+00	0.000000e+00	0.000000e+00
-5.530000e+00	-5.460000e+00	0.000000e+00	0.000000e+00	0.000000e+00
-5.460000e+00	-5.390000e+00	0.000000e+00	0.000000e+00	0.000000e+00
-5.390000e+00	-5.320000e+00	0.000000e+00	0.000000e+00	0.000000e+00
-5.320000e+00	-5.250000e+00	0.000000e+00	0.000000e+00	0.000000e+00
-5.250000e+00	-5.180000e+00	0.000000e+00	0.000000e+00	0.000000e+00
-5.180000e+00	-5.110000e+00	0.000000e+00	0.000000e+00	0.000000e+00
-5.110000e+00	-5.040000e+00	0.000000e+00	0.000000e+00	0.000000e+00
-5.040000e+00	-4.970000e+00	0.000000e+00	0.000000e+00	0.000000e+00
-4.970000e+00	-4.900000e+00	0.000000e+00	0.000000e+00	0.000000e+00
-4.900000e+00	-4.830000e+00	0.000000e+00	0.000000e+00	0.000000e+00
-4.830000e+00	-4.760000e+00	0.000000e+00	0.000000e+00	0.000000e+00
-4.760000e+00	-4.690000e+00	0.000000e+00	0.000000e+00	0.000000e+00
-4.690000e+00	-4.620000e+00	0.000000e+00	0.000000e+00	0.000000e+00
-4.620000e+00	-4.550000e+00	0.000000e+00	0.000000e+00	0.000000e+00
-4.550000e+00	-4.480000e+00	1.428571e+01	1.428571e+01	1.428571e+01
-4.480000e+00	-4.410000e+00	0.000000e+00	0.000000e+00	0.000000e+00
-4.410000e+00	-4.340000e+00	0.000000e+00	0.000000e+00	0.000000e+00
-4.340000e+00	-4.270000e+00	0.000000e+00	0.000000e+00	0.000000e+00
-4.270000e+00	-4.200000e+00	1.428571e+01	1.428571e+01	1.428571e+01
-4.200000e+00	-4.130000e+00	1.428571e+01	1.428571e+01	1.428571e+01
-4.130000e+00	-4.060000e+00	2.857143e+01	2.020305e+01	2.020305e+01
-4.060000e+00	-3.990000e+00	0.000000e+00	0.000000e+00	0.000000e+00
-3.990000e+00	-3.920000e+00	1.428571e+01	1.428571e+01	1.428571e+01
-3.920000e+00	-3.850000e+00	1.428571e+01	1.428571e+01	1.428571e+01
-3.850000e+00	-3.780000e+00	2.857143e+01	2.020305e+01	2.020305e+01
-3.780000e+00	-3.710000e+00	4.285714e+01	2.474358e+01	2.474358e+01
-3.710000e+00	-3.640000e+00	4.285714e+01	2.474358e+01	2.474358e+01
-3.640000e+00	-3.570000e+00	1.857143e+02	5.150788e+01	5.150788e+01
-3.570000e+00	-3.500000e+00	1.285714e+02	4.285714e+01	4.285714e+01
-3.500000e+00	-3.430000e+00	2.714286e+02	6.226998e+01	6.226998e+01
-3.430000e+00	-3.360000e+00	4.714286e+02	8.206518e+01	8.206518e+01
-3.360000e+00	-3.290000e+00	5.428571e+02	8.806306e+01	8.806306e+01
-3.290000e+00	-3.220000e+00	8.428571e+02	1.097307e+02	1.097307e+02
-3.220000e+00	-3.150000e+00	9.571429e+02	1.169336e+02	1.169336e+02
-3.150000e+00	-3.080000e+00	1.085714e+03	1.245400e+02	1.245400e+02
-3.080000e+00	-3.010000e+00	1.300000e+03	1.362770e+02	1.362770e+02
-3.010000e+00	-2.940000e+00	1.742857e+03	1.577909e+02	1.577909e+02
-2.940000e+00	-2.870000e+00	2.400000e+03	1.851640e+02	1.851640e+02
-2.870000e+00	-2.800000e+00	3.242857e+03	2.152360e+02	2.152360e+02
-2.800000e+00	-2.730000e+00	3.771429e+03	2.321154e+02	2.321154e+02
-2.730000e+00	-2.660000e+00	5.357143e+03	2.766417e+02	2.766417e+02
-2.660000e+00	-2.590000e+00	8.485714e+03	3.481731e+02	3.481731e+02
-2.590000e+00	-2.520000e+00	1.047143e+04	3.867710e+02	3.867710e+02
-2.520000e+00	-2.450000e+00	1.475714e+04	4.591474e+02	4.591474e+02
-2.450000e+00	-2.380000e+00	2.034286e+04	5.390846e+02	5.390846e+02
-2.380000e+00	-2.310000e+00	2.825714e+04	6.353530e+02	6.353530e+02
-2.310000e+00	-2.240000e+00	3.708571e+04	7.278708e+02	7.278708e+02
-2.240000e+00	-2.170000e+00	4.942857e+04	8.403109e+02	8.403109e+02
-2.170000e+00	-2.100000e+00	6.330000e+04	9.509394e+02	9.509394e+02
-2.100000e+00	-2.030000e+00	7.952857e+04	1.065890e+03	1.065890e+03
-2.030000e+00	-1.960000e+00	9.048571e+04	1.136949e+03	1.136949e+03
-1.960000e+00	-1.890000e+00	1.004571e+05	1.197957e+03	1.197957e+03
-1.890000e+00	-1.820000e+00	1.044429e+05	1.221491e+03	1.221491e+03
-1.820000e+00	-1.750000e+00	1.006857e+05	1.199320e+03	1.199320e+03
-1.750000e+00	-1.680000e+00	9.250000e+04	1.149534e+03	1.149534e+03
-1.680000e+00	-1.610000e+00	8.222857e+04	1.083833e+03	1.083833e+03
-1.610000e+00	-1.540000e+00	7.687143e+04	1.047933e+03	1.047933e+03
-1.540000e+00	-1.470000e+00	7.004286e+04	1.000306e+03	1.000306e+03
-1.470000e+00	-1.400000e+00	6.581429e+04	9.696412e+02	9.696412e+02
-1.400000e+00	-1.330000e+00	6.157143e+04	9.378656e+02	9.378656e+02
-1.330000e+00	-1.260000e+00	6.298571e+04	9.485757e+02	9.485757e+02
-1.260000e+00	-1.190000e+00	6.155714e+04	9.377568e+02	9.377568e+02
-1.190000e+00	-1.120000e+00	6.448571e+04	9.598044e+02	9.598044e+02
-1.120000e+00	-1.050000e+00	6.534286e+04	9.661622e+02	9.661622e+02
-1.050000e+00	-9.800000e-01	6.638571e+04	9.738415e+02	9.738415e+02
-9.800000e-01	-9.100000e-01	6.785714e+04	9.845749e+02	9.845749e+02
-9.100000e-01	-8.400000e-01	6.871429e+04	9.907738e+02	9.907738e+02
-8.400000e-01	-7.700000e-01	6.814286e+04	9.866455e+02	9.866455e+02
-7.700000e-01	-7.000000e-01	6.245714e+04	9.445872e+02	9.445872e+02
-7.000000e-01	-6.300000e-01	5.605714e+04	8.948834e+02	8.948834e+02
-6.300000e-01	-5.600000e-01	4.898571e+04	8.365381e+02	8.365381e+02
-5.600000e-01	-4.900000e-01	4.021429e+04	7.579511e+02	7.579511e+02
-4.900000e-01	-4.200000e-01	2.998571e+04	6.544978e+02	6.544978e+02
-4.200000e-01	-3.500000e-01	2.268571e+04	5.692817e+02	5.692817e+02
-3.500000e-01	-2.800000e-01	1.178571e+04	4.103259e+02	4.103259e+02
-2.800000e-01	-2.100000e-01	4.142857e+03	2.432769e+02	2.432769e+02
-2.100000e-01	-1.400000e-01	5.857143e+02	9.147320e+01	9.147320e+01
-1.400000e-01	-7.000000e-02	7.142857e+01	3.194383e+01	3.194383e+01
-7.000000e-02	0.000000e+00	0.000000e+00	0.000000e+00	0.000000e+00
# END HISTO1D

