# BEGIN PLOT
LegendOnly=/pythia_np_pt50_s1_1e3.yoda/PAPER_FIN_R4/ch_l10_pT_50_65
DrawOnly=/pythia_np_pt50_s1_1e3.yoda/PAPER_FIN_R4/ch_l10_pT_50_65
Legend=1
LogY=1
# END PLOT

# BEGIN HISTO1D /pythia_np_pt50_s1_1e3.yoda/PAPER_FIN_R4/ch_l10_pT_50_65
LineColor=red
LineStyle=solid
Path=/pythia_np_pt50_s1_1e3.yoda/PAPER_FIN_R4/ch_l10_pT_50_65
Title=pythia_np_pt50_s1_1e3
XLabel=~
YLabel=~
# xlow	 xhigh	 val	 errminus	 errplus
-7.000000e+00	-6.930000e+00	0.000000e+00	0.000000e+00	0.000000e+00
-6.930000e+00	-6.860000e+00	1.279729e+06	4.275726e+03	4.275726e+03
-6.860000e+00	-6.790000e+00	0.000000e+00	0.000000e+00	0.000000e+00
-6.790000e+00	-6.720000e+00	0.000000e+00	0.000000e+00	0.000000e+00
-6.720000e+00	-6.650000e+00	0.000000e+00	0.000000e+00	0.000000e+00
-6.650000e+00	-6.580000e+00	0.000000e+00	0.000000e+00	0.000000e+00
-6.580000e+00	-6.510000e+00	0.000000e+00	0.000000e+00	0.000000e+00
-6.510000e+00	-6.440000e+00	0.000000e+00	0.000000e+00	0.000000e+00
-6.440000e+00	-6.370000e+00	0.000000e+00	0.000000e+00	0.000000e+00
-6.370000e+00	-6.300000e+00	0.000000e+00	0.000000e+00	0.000000e+00
-6.300000e+00	-6.230000e+00	0.000000e+00	0.000000e+00	0.000000e+00
-6.230000e+00	-6.160000e+00	0.000000e+00	0.000000e+00	0.000000e+00
-6.160000e+00	-6.090000e+00	0.000000e+00	0.000000e+00	0.000000e+00
-6.090000e+00	-6.020000e+00	0.000000e+00	0.000000e+00	0.000000e+00
-6.020000e+00	-5.950000e+00	0.000000e+00	0.000000e+00	0.000000e+00
-5.950000e+00	-5.880000e+00	0.000000e+00	0.000000e+00	0.000000e+00
-5.880000e+00	-5.810000e+00	0.000000e+00	0.000000e+00	0.000000e+00
-5.810000e+00	-5.740000e+00	0.000000e+00	0.000000e+00	0.000000e+00
-5.740000e+00	-5.670000e+00	0.000000e+00	0.000000e+00	0.000000e+00
-5.670000e+00	-5.600000e+00	1.428571e+01	1.428571e+01	1.428571e+01
-5.600000e+00	-5.530000e+00	0.000000e+00	0.000000e+00	0.000000e+00
-5.530000e+00	-5.460000e+00	0.000000e+00	0.000000e+00	0.000000e+00
-5.460000e+00	-5.390000e+00	0.000000e+00	0.000000e+00	0.000000e+00
-5.390000e+00	-5.320000e+00	0.000000e+00	0.000000e+00	0.000000e+00
-5.320000e+00	-5.250000e+00	0.000000e+00	0.000000e+00	0.000000e+00
-5.250000e+00	-5.180000e+00	0.000000e+00	0.000000e+00	0.000000e+00
-5.180000e+00	-5.110000e+00	1.428571e+01	1.428571e+01	1.428571e+01
-5.110000e+00	-5.040000e+00	0.000000e+00	0.000000e+00	0.000000e+00
-5.040000e+00	-4.970000e+00	0.000000e+00	0.000000e+00	0.000000e+00
-4.970000e+00	-4.900000e+00	1.428571e+01	1.428571e+01	1.428571e+01
-4.900000e+00	-4.830000e+00	2.857143e+01	2.020305e+01	2.020305e+01
-4.830000e+00	-4.760000e+00	0.000000e+00	0.000000e+00	0.000000e+00
-4.760000e+00	-4.690000e+00	0.000000e+00	0.000000e+00	0.000000e+00
-4.690000e+00	-4.620000e+00	2.857143e+01	2.020305e+01	2.020305e+01
-4.620000e+00	-4.550000e+00	1.428571e+01	1.428571e+01	1.428571e+01
-4.550000e+00	-4.480000e+00	1.428571e+01	1.428571e+01	1.428571e+01
-4.480000e+00	-4.410000e+00	7.142857e+01	3.194383e+01	3.194383e+01
-4.410000e+00	-4.340000e+00	4.285714e+01	2.474358e+01	2.474358e+01
-4.340000e+00	-4.270000e+00	4.285714e+01	2.474358e+01	2.474358e+01
-4.270000e+00	-4.200000e+00	4.285714e+01	2.474358e+01	2.474358e+01
-4.200000e+00	-4.130000e+00	4.285714e+01	2.474358e+01	2.474358e+01
-4.130000e+00	-4.060000e+00	7.142857e+01	3.194383e+01	3.194383e+01
-4.060000e+00	-3.990000e+00	1.428571e+02	4.517540e+01	4.517540e+01
-3.990000e+00	-3.920000e+00	1.571429e+02	4.738035e+01	4.738035e+01
-3.920000e+00	-3.850000e+00	2.142857e+02	5.532833e+01	5.532833e+01
-3.850000e+00	-3.780000e+00	1.714286e+02	4.948717e+01	4.948717e+01
-3.780000e+00	-3.710000e+00	2.714286e+02	6.226998e+01	6.226998e+01
-3.710000e+00	-3.640000e+00	4.000000e+02	7.559289e+01	7.559289e+01
-3.640000e+00	-3.570000e+00	5.857143e+02	9.147320e+01	9.147320e+01
-3.570000e+00	-3.500000e+00	7.000000e+02	1.000000e+02	1.000000e+02
-3.500000e+00	-3.430000e+00	8.142857e+02	1.078548e+02	1.078548e+02
-3.430000e+00	-3.360000e+00	9.857143e+02	1.186661e+02	1.186661e+02
-3.360000e+00	-3.290000e+00	1.128571e+03	1.269742e+02	1.269742e+02
-3.290000e+00	-3.220000e+00	1.342857e+03	1.385051e+02	1.385051e+02
-3.220000e+00	-3.150000e+00	1.685714e+03	1.551826e+02	1.551826e+02
-3.150000e+00	-3.080000e+00	2.328571e+03	1.823878e+02	1.823878e+02
-3.080000e+00	-3.010000e+00	2.642857e+03	1.943067e+02	1.943067e+02
-3.010000e+00	-2.940000e+00	3.685714e+03	2.294625e+02	2.294625e+02
-2.940000e+00	-2.870000e+00	4.828571e+03	2.626397e+02	2.626397e+02
-2.870000e+00	-2.800000e+00	5.542857e+03	2.813959e+02	2.813959e+02
-2.800000e+00	-2.730000e+00	7.971429e+03	3.374575e+02	3.374575e+02
-2.730000e+00	-2.660000e+00	1.008571e+04	3.795809e+02	3.795809e+02
-2.660000e+00	-2.590000e+00	1.245714e+04	4.218521e+02	4.218521e+02
-2.590000e+00	-2.520000e+00	1.584286e+04	4.757379e+02	4.757379e+02
-2.520000e+00	-2.450000e+00	2.037143e+04	5.394631e+02	5.394631e+02
-2.450000e+00	-2.380000e+00	2.431429e+04	5.893615e+02	5.893615e+02
-2.380000e+00	-2.310000e+00	3.081429e+04	6.634788e+02	6.634788e+02
-2.310000e+00	-2.240000e+00	4.061429e+04	7.617113e+02	7.617113e+02
-2.240000e+00	-2.170000e+00	5.157143e+04	8.583325e+02	8.583325e+02
-2.170000e+00	-2.100000e+00	6.538571e+04	9.664790e+02	9.664790e+02
-2.100000e+00	-2.030000e+00	8.332857e+04	1.091058e+03	1.091058e+03
-2.030000e+00	-1.960000e+00	1.101429e+05	1.254380e+03	1.254380e+03
-1.960000e+00	-1.890000e+00	1.426143e+05	1.427357e+03	1.427357e+03
-1.890000e+00	-1.820000e+00	1.926286e+05	1.658866e+03	1.658866e+03
-1.820000e+00	-1.750000e+00	2.550286e+05	1.908734e+03	1.908734e+03
-1.750000e+00	-1.680000e+00	3.495143e+05	2.234516e+03	2.234516e+03
-1.680000e+00	-1.610000e+00	4.897571e+05	2.645096e+03	2.645096e+03
-1.610000e+00	-1.540000e+00	6.918714e+05	3.143863e+03	3.143863e+03
-1.540000e+00	-1.470000e+00	1.001271e+06	3.782047e+03	3.782047e+03
-1.470000e+00	-1.400000e+00	1.461343e+06	4.569062e+03	4.569062e+03
-1.400000e+00	-1.330000e+00	2.182871e+06	5.584253e+03	5.584253e+03
-1.330000e+00	-1.260000e+00	3.278771e+06	6.843946e+03	6.843946e+03
-1.260000e+00	-1.190000e+00	4.888429e+06	8.356715e+03	8.356715e+03
-1.190000e+00	-1.120000e+00	7.238371e+06	1.016884e+04	1.016884e+04
-1.120000e+00	-1.050000e+00	1.041661e+07	1.219872e+04	1.219872e+04
-1.050000e+00	-9.800000e-01	1.438996e+07	1.433774e+04	1.433774e+04
-9.800000e-01	-9.100000e-01	1.875736e+07	1.636955e+04	1.636955e+04
-9.100000e-01	-8.400000e-01	2.288327e+07	1.808048e+04	1.808048e+04
-8.400000e-01	-7.700000e-01	2.588006e+07	1.922798e+04	1.922798e+04
-7.700000e-01	-7.000000e-01	2.738469e+07	1.977902e+04	1.977902e+04
-7.000000e-01	-6.300000e-01	2.718357e+07	1.970626e+04	1.970626e+04
-6.300000e-01	-5.600000e-01	2.520633e+07	1.897605e+04	1.897605e+04
-5.600000e-01	-4.900000e-01	2.144784e+07	1.750422e+04	1.750422e+04
-4.900000e-01	-4.200000e-01	1.651796e+07	1.536134e+04	1.536134e+04
-4.200000e-01	-3.500000e-01	1.115929e+07	1.262610e+04	1.262610e+04
-3.500000e-01	-2.800000e-01	6.178643e+06	9.395016e+03	9.395016e+03
-2.800000e-01	-2.100000e-01	2.495400e+06	5.970642e+03	5.970642e+03
-2.100000e-01	-1.400000e-01	6.122429e+05	2.957419e+03	2.957419e+03
-1.400000e-01	-7.000000e-02	6.575714e+04	9.692202e+02	9.692202e+02
-7.000000e-02	0.000000e+00	1.571429e+03	1.498298e+02	1.498298e+02
# END HISTO1D

