# BEGIN PLOT
LegendOnly=/pythia_np_pt50_s1_1e3.yoda/PAPER_FIN_R4/ch_SD_l10_pT_88_120
DrawOnly=/pythia_np_pt50_s1_1e3.yoda/PAPER_FIN_R4/ch_SD_l10_pT_88_120
Legend=1
LogY=1
# END PLOT

# BEGIN HISTO1D /pythia_np_pt50_s1_1e3.yoda/PAPER_FIN_R4/ch_SD_l10_pT_88_120
LineColor=red
LineStyle=solid
Path=/pythia_np_pt50_s1_1e3.yoda/PAPER_FIN_R4/ch_SD_l10_pT_88_120
Title=pythia_np_pt50_s1_1e3
XLabel=~
YLabel=~
# xlow	 xhigh	 val	 errminus	 errplus
-7.000000e+00	-6.930000e+00	0.000000e+00	0.000000e+00	0.000000e+00
-6.930000e+00	-6.860000e+00	3.210771e+06	6.772604e+03	6.772604e+03
-6.860000e+00	-6.790000e+00	0.000000e+00	0.000000e+00	0.000000e+00
-6.790000e+00	-6.720000e+00	0.000000e+00	0.000000e+00	0.000000e+00
-6.720000e+00	-6.650000e+00	0.000000e+00	0.000000e+00	0.000000e+00
-6.650000e+00	-6.580000e+00	0.000000e+00	0.000000e+00	0.000000e+00
-6.580000e+00	-6.510000e+00	0.000000e+00	0.000000e+00	0.000000e+00
-6.510000e+00	-6.440000e+00	0.000000e+00	0.000000e+00	0.000000e+00
-6.440000e+00	-6.370000e+00	0.000000e+00	0.000000e+00	0.000000e+00
-6.370000e+00	-6.300000e+00	0.000000e+00	0.000000e+00	0.000000e+00
-6.300000e+00	-6.230000e+00	0.000000e+00	0.000000e+00	0.000000e+00
-6.230000e+00	-6.160000e+00	0.000000e+00	0.000000e+00	0.000000e+00
-6.160000e+00	-6.090000e+00	0.000000e+00	0.000000e+00	0.000000e+00
-6.090000e+00	-6.020000e+00	0.000000e+00	0.000000e+00	0.000000e+00
-6.020000e+00	-5.950000e+00	0.000000e+00	0.000000e+00	0.000000e+00
-5.950000e+00	-5.880000e+00	0.000000e+00	0.000000e+00	0.000000e+00
-5.880000e+00	-5.810000e+00	0.000000e+00	0.000000e+00	0.000000e+00
-5.810000e+00	-5.740000e+00	0.000000e+00	0.000000e+00	0.000000e+00
-5.740000e+00	-5.670000e+00	0.000000e+00	0.000000e+00	0.000000e+00
-5.670000e+00	-5.600000e+00	0.000000e+00	0.000000e+00	0.000000e+00
-5.600000e+00	-5.530000e+00	0.000000e+00	0.000000e+00	0.000000e+00
-5.530000e+00	-5.460000e+00	0.000000e+00	0.000000e+00	0.000000e+00
-5.460000e+00	-5.390000e+00	0.000000e+00	0.000000e+00	0.000000e+00
-5.390000e+00	-5.320000e+00	0.000000e+00	0.000000e+00	0.000000e+00
-5.320000e+00	-5.250000e+00	1.428571e+01	1.428571e+01	1.428571e+01
-5.250000e+00	-5.180000e+00	0.000000e+00	0.000000e+00	0.000000e+00
-5.180000e+00	-5.110000e+00	1.428571e+01	1.428571e+01	1.428571e+01
-5.110000e+00	-5.040000e+00	1.428571e+01	1.428571e+01	1.428571e+01
-5.040000e+00	-4.970000e+00	2.857143e+01	2.020305e+01	2.020305e+01
-4.970000e+00	-4.900000e+00	2.857143e+01	2.020305e+01	2.020305e+01
-4.900000e+00	-4.830000e+00	5.714286e+01	2.857143e+01	2.857143e+01
-4.830000e+00	-4.760000e+00	5.714286e+01	2.857143e+01	2.857143e+01
-4.760000e+00	-4.690000e+00	1.428571e+01	1.428571e+01	1.428571e+01
-4.690000e+00	-4.620000e+00	7.142857e+01	3.194383e+01	3.194383e+01
-4.620000e+00	-4.550000e+00	7.142857e+01	3.194383e+01	3.194383e+01
-4.550000e+00	-4.480000e+00	1.428571e+02	4.517540e+01	4.517540e+01
-4.480000e+00	-4.410000e+00	8.571429e+01	3.499271e+01	3.499271e+01
-4.410000e+00	-4.340000e+00	5.714286e+01	2.857143e+01	2.857143e+01
-4.340000e+00	-4.270000e+00	1.142857e+02	4.040610e+01	4.040610e+01
-4.270000e+00	-4.200000e+00	2.000000e+02	5.345225e+01	5.345225e+01
-4.200000e+00	-4.130000e+00	1.285714e+02	4.285714e+01	4.285714e+01
-4.130000e+00	-4.060000e+00	1.428571e+02	4.517540e+01	4.517540e+01
-4.060000e+00	-3.990000e+00	1.857143e+02	5.150788e+01	5.150788e+01
-3.990000e+00	-3.920000e+00	1.428571e+02	4.517540e+01	4.517540e+01
-3.920000e+00	-3.850000e+00	2.428571e+02	5.890151e+01	5.890151e+01
-3.850000e+00	-3.780000e+00	3.714286e+02	7.284314e+01	7.284314e+01
-3.780000e+00	-3.710000e+00	3.571429e+02	7.142857e+01	7.142857e+01
-3.710000e+00	-3.640000e+00	4.142857e+02	7.693093e+01	7.693093e+01
-3.640000e+00	-3.570000e+00	4.571429e+02	8.081220e+01	8.081220e+01
-3.570000e+00	-3.500000e+00	8.000000e+02	1.069045e+02	1.069045e+02
-3.500000e+00	-3.430000e+00	9.428571e+02	1.160577e+02	1.160577e+02
-3.430000e+00	-3.360000e+00	1.342857e+03	1.385051e+02	1.385051e+02
-3.360000e+00	-3.290000e+00	1.571429e+03	1.498298e+02	1.498298e+02
-3.290000e+00	-3.220000e+00	2.085714e+03	1.726149e+02	1.726149e+02
-3.220000e+00	-3.150000e+00	3.157143e+03	2.123724e+02	2.123724e+02
-3.150000e+00	-3.080000e+00	4.214286e+03	2.453652e+02	2.453652e+02
-3.080000e+00	-3.010000e+00	5.100000e+03	2.699206e+02	2.699206e+02
-3.010000e+00	-2.940000e+00	7.214286e+03	3.210315e+02	3.210315e+02
-2.940000e+00	-2.870000e+00	9.700000e+03	3.722518e+02	3.722518e+02
-2.870000e+00	-2.800000e+00	1.428571e+04	4.517540e+02	4.517540e+02
-2.800000e+00	-2.730000e+00	1.928571e+04	5.248907e+02	5.248907e+02
-2.730000e+00	-2.660000e+00	2.662857e+04	6.167724e+02	6.167724e+02
-2.660000e+00	-2.590000e+00	3.764286e+04	7.333179e+02	7.333179e+02
-2.590000e+00	-2.520000e+00	5.590000e+04	8.936282e+02	8.936282e+02
-2.520000e+00	-2.450000e+00	7.987143e+04	1.068186e+03	1.068186e+03
-2.450000e+00	-2.380000e+00	1.109857e+05	1.259170e+03	1.259170e+03
-2.380000e+00	-2.310000e+00	1.485571e+05	1.456793e+03	1.456793e+03
-2.310000e+00	-2.240000e+00	1.934286e+05	1.662307e+03	1.662307e+03
-2.240000e+00	-2.170000e+00	2.649857e+05	1.945639e+03	1.945639e+03
-2.170000e+00	-2.100000e+00	3.534857e+05	2.247175e+03	2.247175e+03
-2.100000e+00	-2.030000e+00	4.812000e+05	2.621886e+03	2.621886e+03
-2.030000e+00	-1.960000e+00	6.412143e+05	3.026583e+03	3.026583e+03
-1.960000e+00	-1.890000e+00	8.520429e+05	3.488845e+03	3.488845e+03
-1.890000e+00	-1.820000e+00	1.110443e+06	3.982897e+03	3.982897e+03
-1.820000e+00	-1.750000e+00	1.459100e+06	4.565554e+03	4.565554e+03
-1.750000e+00	-1.680000e+00	1.883814e+06	5.187642e+03	5.187642e+03
-1.680000e+00	-1.610000e+00	2.408743e+06	5.866056e+03	5.866056e+03
-1.610000e+00	-1.540000e+00	3.072000e+06	6.624629e+03	6.624629e+03
-1.540000e+00	-1.470000e+00	3.858343e+06	7.424230e+03	7.424230e+03
-1.470000e+00	-1.400000e+00	4.738657e+06	8.227703e+03	8.227703e+03
-1.400000e+00	-1.330000e+00	5.596414e+06	8.941408e+03	8.941408e+03
-1.330000e+00	-1.260000e+00	6.398843e+06	9.560964e+03	9.560964e+03
-1.260000e+00	-1.190000e+00	7.004871e+06	1.000348e+04	1.000348e+04
-1.190000e+00	-1.120000e+00	7.400886e+06	1.028236e+04	1.028236e+04
-1.120000e+00	-1.050000e+00	7.624629e+06	1.043663e+04	1.043663e+04
-1.050000e+00	-9.800000e-01	7.685214e+06	1.047801e+04	1.047801e+04
-9.800000e-01	-9.100000e-01	7.664943e+06	1.046419e+04	1.046419e+04
-9.100000e-01	-8.400000e-01	7.543500e+06	1.038096e+04	1.038096e+04
-8.400000e-01	-7.700000e-01	7.339786e+06	1.023983e+04	1.023983e+04
-7.700000e-01	-7.000000e-01	7.076071e+06	1.005419e+04	1.005419e+04
-7.000000e-01	-6.300000e-01	6.641371e+06	9.740469e+03	9.740469e+03
-6.300000e-01	-5.600000e-01	6.007314e+06	9.263842e+03	9.263842e+03
-5.600000e-01	-4.900000e-01	5.120271e+06	8.552586e+03	8.552586e+03
-4.900000e-01	-4.200000e-01	4.059629e+06	7.615425e+03	7.615425e+03
-4.200000e-01	-3.500000e-01	2.901900e+06	6.438611e+03	6.438611e+03
-3.500000e-01	-2.800000e-01	1.711043e+06	4.944034e+03	4.944034e+03
-2.800000e-01	-2.100000e-01	6.891714e+05	3.137723e+03	3.137723e+03
-2.100000e-01	-1.400000e-01	1.494571e+05	1.461199e+03	1.461199e+03
-1.400000e-01	-7.000000e-02	1.404286e+04	4.478976e+02	4.478976e+02
-7.000000e-02	0.000000e+00	3.142857e+02	6.700594e+01	6.700594e+01
# END HISTO1D

