# BEGIN PLOT
LegendOnly=/pythia_np_pt50_s1_1e3.yoda/PAPER_FIN_R4/ch_l05_pT_150_186
DrawOnly=/pythia_np_pt50_s1_1e3.yoda/PAPER_FIN_R4/ch_l05_pT_150_186
Legend=1
LogY=1
# END PLOT

# BEGIN HISTO1D /pythia_np_pt50_s1_1e3.yoda/PAPER_FIN_R4/ch_l05_pT_150_186
LineColor=red
LineStyle=solid
Path=/pythia_np_pt50_s1_1e3.yoda/PAPER_FIN_R4/ch_l05_pT_150_186
Title=pythia_np_pt50_s1_1e3
XLabel=~
YLabel=~
# xlow	 xhigh	 val	 errminus	 errplus
-7.000000e+00	-6.930000e+00	0.000000e+00	0.000000e+00	0.000000e+00
-6.930000e+00	-6.860000e+00	2.885714e+04	6.420630e+02	6.420630e+02
-6.860000e+00	-6.790000e+00	0.000000e+00	0.000000e+00	0.000000e+00
-6.790000e+00	-6.720000e+00	0.000000e+00	0.000000e+00	0.000000e+00
-6.720000e+00	-6.650000e+00	0.000000e+00	0.000000e+00	0.000000e+00
-6.650000e+00	-6.580000e+00	0.000000e+00	0.000000e+00	0.000000e+00
-6.580000e+00	-6.510000e+00	0.000000e+00	0.000000e+00	0.000000e+00
-6.510000e+00	-6.440000e+00	0.000000e+00	0.000000e+00	0.000000e+00
-6.440000e+00	-6.370000e+00	0.000000e+00	0.000000e+00	0.000000e+00
-6.370000e+00	-6.300000e+00	0.000000e+00	0.000000e+00	0.000000e+00
-6.300000e+00	-6.230000e+00	0.000000e+00	0.000000e+00	0.000000e+00
-6.230000e+00	-6.160000e+00	0.000000e+00	0.000000e+00	0.000000e+00
-6.160000e+00	-6.090000e+00	0.000000e+00	0.000000e+00	0.000000e+00
-6.090000e+00	-6.020000e+00	0.000000e+00	0.000000e+00	0.000000e+00
-6.020000e+00	-5.950000e+00	0.000000e+00	0.000000e+00	0.000000e+00
-5.950000e+00	-5.880000e+00	0.000000e+00	0.000000e+00	0.000000e+00
-5.880000e+00	-5.810000e+00	0.000000e+00	0.000000e+00	0.000000e+00
-5.810000e+00	-5.740000e+00	0.000000e+00	0.000000e+00	0.000000e+00
-5.740000e+00	-5.670000e+00	0.000000e+00	0.000000e+00	0.000000e+00
-5.670000e+00	-5.600000e+00	0.000000e+00	0.000000e+00	0.000000e+00
-5.600000e+00	-5.530000e+00	0.000000e+00	0.000000e+00	0.000000e+00
-5.530000e+00	-5.460000e+00	0.000000e+00	0.000000e+00	0.000000e+00
-5.460000e+00	-5.390000e+00	0.000000e+00	0.000000e+00	0.000000e+00
-5.390000e+00	-5.320000e+00	0.000000e+00	0.000000e+00	0.000000e+00
-5.320000e+00	-5.250000e+00	0.000000e+00	0.000000e+00	0.000000e+00
-5.250000e+00	-5.180000e+00	0.000000e+00	0.000000e+00	0.000000e+00
-5.180000e+00	-5.110000e+00	0.000000e+00	0.000000e+00	0.000000e+00
-5.110000e+00	-5.040000e+00	0.000000e+00	0.000000e+00	0.000000e+00
-5.040000e+00	-4.970000e+00	0.000000e+00	0.000000e+00	0.000000e+00
-4.970000e+00	-4.900000e+00	0.000000e+00	0.000000e+00	0.000000e+00
-4.900000e+00	-4.830000e+00	0.000000e+00	0.000000e+00	0.000000e+00
-4.830000e+00	-4.760000e+00	0.000000e+00	0.000000e+00	0.000000e+00
-4.760000e+00	-4.690000e+00	0.000000e+00	0.000000e+00	0.000000e+00
-4.690000e+00	-4.620000e+00	0.000000e+00	0.000000e+00	0.000000e+00
-4.620000e+00	-4.550000e+00	0.000000e+00	0.000000e+00	0.000000e+00
-4.550000e+00	-4.480000e+00	0.000000e+00	0.000000e+00	0.000000e+00
-4.480000e+00	-4.410000e+00	0.000000e+00	0.000000e+00	0.000000e+00
-4.410000e+00	-4.340000e+00	1.428571e+01	1.428571e+01	1.428571e+01
-4.340000e+00	-4.270000e+00	0.000000e+00	0.000000e+00	0.000000e+00
-4.270000e+00	-4.200000e+00	0.000000e+00	0.000000e+00	0.000000e+00
-4.200000e+00	-4.130000e+00	0.000000e+00	0.000000e+00	0.000000e+00
-4.130000e+00	-4.060000e+00	0.000000e+00	0.000000e+00	0.000000e+00
-4.060000e+00	-3.990000e+00	0.000000e+00	0.000000e+00	0.000000e+00
-3.990000e+00	-3.920000e+00	0.000000e+00	0.000000e+00	0.000000e+00
-3.920000e+00	-3.850000e+00	2.857143e+01	2.020305e+01	2.020305e+01
-3.850000e+00	-3.780000e+00	0.000000e+00	0.000000e+00	0.000000e+00
-3.780000e+00	-3.710000e+00	1.428571e+01	1.428571e+01	1.428571e+01
-3.710000e+00	-3.640000e+00	1.428571e+01	1.428571e+01	1.428571e+01
-3.640000e+00	-3.570000e+00	0.000000e+00	0.000000e+00	0.000000e+00
-3.570000e+00	-3.500000e+00	5.714286e+01	2.857143e+01	2.857143e+01
-3.500000e+00	-3.430000e+00	1.428571e+01	1.428571e+01	1.428571e+01
-3.430000e+00	-3.360000e+00	1.428571e+01	1.428571e+01	1.428571e+01
-3.360000e+00	-3.290000e+00	5.714286e+01	2.857143e+01	2.857143e+01
-3.290000e+00	-3.220000e+00	8.571429e+01	3.499271e+01	3.499271e+01
-3.220000e+00	-3.150000e+00	1.142857e+02	4.040610e+01	4.040610e+01
-3.150000e+00	-3.080000e+00	8.571429e+01	3.499271e+01	3.499271e+01
-3.080000e+00	-3.010000e+00	1.285714e+02	4.285714e+01	4.285714e+01
-3.010000e+00	-2.940000e+00	1.142857e+02	4.040610e+01	4.040610e+01
-2.940000e+00	-2.870000e+00	2.000000e+02	5.345225e+01	5.345225e+01
-2.870000e+00	-2.800000e+00	2.714286e+02	6.226998e+01	6.226998e+01
-2.800000e+00	-2.730000e+00	2.857143e+02	6.388766e+01	6.388766e+01
-2.730000e+00	-2.660000e+00	3.428571e+02	6.998542e+01	6.998542e+01
-2.660000e+00	-2.590000e+00	4.714286e+02	8.206518e+01	8.206518e+01
-2.590000e+00	-2.520000e+00	5.857143e+02	9.147320e+01	9.147320e+01
-2.520000e+00	-2.450000e+00	5.571429e+02	8.921426e+01	8.921426e+01
-2.450000e+00	-2.380000e+00	7.857143e+02	1.059457e+02	1.059457e+02
-2.380000e+00	-2.310000e+00	1.057143e+03	1.228904e+02	1.228904e+02
-2.310000e+00	-2.240000e+00	1.357143e+03	1.392399e+02	1.392399e+02
-2.240000e+00	-2.170000e+00	1.428571e+03	1.428571e+02	1.428571e+02
-2.170000e+00	-2.100000e+00	1.771429e+03	1.590790e+02	1.590790e+02
-2.100000e+00	-2.030000e+00	2.371429e+03	1.840586e+02	1.840586e+02
-2.030000e+00	-1.960000e+00	3.100000e+03	2.104417e+02	2.104417e+02
-1.960000e+00	-1.890000e+00	3.900000e+03	2.360387e+02	2.360387e+02
-1.890000e+00	-1.820000e+00	5.771429e+03	2.871393e+02	2.871393e+02
-1.820000e+00	-1.750000e+00	7.157143e+03	3.197576e+02	3.197576e+02
-1.750000e+00	-1.680000e+00	1.007143e+04	3.793119e+02	3.793119e+02
-1.680000e+00	-1.610000e+00	1.360000e+04	4.407785e+02	4.407785e+02
-1.610000e+00	-1.540000e+00	1.962857e+04	5.295358e+02	5.295358e+02
-1.540000e+00	-1.470000e+00	2.901429e+04	6.438088e+02	6.438088e+02
-1.470000e+00	-1.400000e+00	4.488571e+04	8.007649e+02	8.007649e+02
-1.400000e+00	-1.330000e+00	6.828571e+04	9.876792e+02	9.876792e+02
-1.330000e+00	-1.260000e+00	1.065000e+05	1.233462e+03	1.233462e+03
-1.260000e+00	-1.190000e+00	1.720143e+05	1.567593e+03	1.567593e+03
-1.190000e+00	-1.120000e+00	2.728571e+05	1.974325e+03	1.974325e+03
-1.120000e+00	-1.050000e+00	4.472857e+05	2.527805e+03	2.527805e+03
-1.050000e+00	-9.800000e-01	7.442429e+05	3.260681e+03	3.260681e+03
-9.800000e-01	-9.100000e-01	1.214471e+06	4.165284e+03	4.165284e+03
-9.100000e-01	-8.400000e-01	1.911929e+06	5.226209e+03	5.226209e+03
-8.400000e-01	-7.700000e-01	2.760414e+06	6.279689e+03	6.279689e+03
-7.700000e-01	-7.000000e-01	3.527671e+06	7.098965e+03	7.098965e+03
-7.000000e-01	-6.300000e-01	3.899457e+06	7.463681e+03	7.463681e+03
-6.300000e-01	-5.600000e-01	3.892300e+06	7.456828e+03	7.456828e+03
-5.600000e-01	-4.900000e-01	3.524900e+06	7.096176e+03	7.096176e+03
-4.900000e-01	-4.200000e-01	2.950100e+06	6.491863e+03	6.491863e+03
-4.200000e-01	-3.500000e-01	2.250500e+06	5.670097e+03	5.670097e+03
-3.500000e-01	-2.800000e-01	1.496529e+06	4.623741e+03	4.623741e+03
-2.800000e-01	-2.100000e-01	7.622143e+05	3.299814e+03	3.299814e+03
-2.100000e-01	-1.400000e-01	1.869000e+05	1.634013e+03	1.634013e+03
-1.400000e-01	-7.000000e-02	9.557143e+03	3.695005e+02	3.695005e+02
-7.000000e-02	0.000000e+00	0.000000e+00	0.000000e+00	0.000000e+00
# END HISTO1D

