# BEGIN PLOT
LegendOnly=/pythia_np_pt50_s1_1e3.yoda/PAPER_FIN_R4/ch_lin_SD_l05_pT_254_326
DrawOnly=/pythia_np_pt50_s1_1e3.yoda/PAPER_FIN_R4/ch_lin_SD_l05_pT_254_326
Legend=1
LogY=1
# END PLOT

# BEGIN HISTO1D /pythia_np_pt50_s1_1e3.yoda/PAPER_FIN_R4/ch_lin_SD_l05_pT_254_326
LineColor=red
LineStyle=solid
Path=/pythia_np_pt50_s1_1e3.yoda/PAPER_FIN_R4/ch_lin_SD_l05_pT_254_326
Title=pythia_np_pt50_s1_1e3
XLabel=~
YLabel=~
# xlow	 xhigh	 val	 errminus	 errplus
0.000000e+00	6.000000e-02	9.707667e+05	4.022368e+03	4.022368e+03
6.000000e-02	9.000000e-02	1.997000e+06	8.158840e+03	8.158840e+03
9.000000e-02	1.200000e-01	2.273433e+06	8.705235e+03	8.705235e+03
1.200000e-01	1.500000e-01	2.020000e+06	8.205689e+03	8.205689e+03
1.500000e-01	1.900000e-01	1.577950e+06	6.280824e+03	6.280824e+03
1.900000e-01	2.300000e-01	1.206025e+06	5.490958e+03	5.490958e+03
2.300000e-01	2.700000e-01	9.608750e+05	4.901212e+03	4.901212e+03
2.700000e-01	3.200000e-01	7.599600e+05	3.898615e+03	3.898615e+03
3.200000e-01	3.700000e-01	5.728800e+05	3.384908e+03	3.384908e+03
3.700000e-01	4.200000e-01	4.272400e+05	2.923149e+03	2.923149e+03
4.200000e-01	4.800000e-01	2.911667e+05	2.202902e+03	2.202902e+03
4.800000e-01	5.400000e-01	1.822333e+05	1.742763e+03	1.742763e+03
5.400000e-01	6.000000e-01	9.565000e+04	1.262603e+03	1.262603e+03
6.000000e-01	1.000000e+00	7.682500e+03	1.385866e+02	1.385866e+02
# END HISTO1D

