# BEGIN PLOT
LegendOnly=/pythia_np_pt50_s1_1e3.yoda/PAPER_FIN_R8/SD_l05_pT_88_120
DrawOnly=/pythia_np_pt50_s1_1e3.yoda/PAPER_FIN_R8/SD_l05_pT_88_120
Legend=1
LogY=1
# END PLOT

# BEGIN HISTO1D /pythia_np_pt50_s1_1e3.yoda/PAPER_FIN_R8/SD_l05_pT_88_120
LineColor=red
LineStyle=solid
Path=/pythia_np_pt50_s1_1e3.yoda/PAPER_FIN_R8/SD_l05_pT_88_120
Title=pythia_np_pt50_s1_1e3
XLabel=~
YLabel=~
# xlow	 xhigh	 val	 errminus	 errplus
-7.000000e+00	-6.930000e+00	0.000000e+00	0.000000e+00	0.000000e+00
-6.930000e+00	-6.860000e+00	7.668857e+05	3.309911e+03	3.309911e+03
-6.860000e+00	-6.790000e+00	0.000000e+00	0.000000e+00	0.000000e+00
-6.790000e+00	-6.720000e+00	0.000000e+00	0.000000e+00	0.000000e+00
-6.720000e+00	-6.650000e+00	0.000000e+00	0.000000e+00	0.000000e+00
-6.650000e+00	-6.580000e+00	0.000000e+00	0.000000e+00	0.000000e+00
-6.580000e+00	-6.510000e+00	0.000000e+00	0.000000e+00	0.000000e+00
-6.510000e+00	-6.440000e+00	0.000000e+00	0.000000e+00	0.000000e+00
-6.440000e+00	-6.370000e+00	0.000000e+00	0.000000e+00	0.000000e+00
-6.370000e+00	-6.300000e+00	0.000000e+00	0.000000e+00	0.000000e+00
-6.300000e+00	-6.230000e+00	0.000000e+00	0.000000e+00	0.000000e+00
-6.230000e+00	-6.160000e+00	0.000000e+00	0.000000e+00	0.000000e+00
-6.160000e+00	-6.090000e+00	0.000000e+00	0.000000e+00	0.000000e+00
-6.090000e+00	-6.020000e+00	0.000000e+00	0.000000e+00	0.000000e+00
-6.020000e+00	-5.950000e+00	0.000000e+00	0.000000e+00	0.000000e+00
-5.950000e+00	-5.880000e+00	0.000000e+00	0.000000e+00	0.000000e+00
-5.880000e+00	-5.810000e+00	0.000000e+00	0.000000e+00	0.000000e+00
-5.810000e+00	-5.740000e+00	0.000000e+00	0.000000e+00	0.000000e+00
-5.740000e+00	-5.670000e+00	0.000000e+00	0.000000e+00	0.000000e+00
-5.670000e+00	-5.600000e+00	0.000000e+00	0.000000e+00	0.000000e+00
-5.600000e+00	-5.530000e+00	0.000000e+00	0.000000e+00	0.000000e+00
-5.530000e+00	-5.460000e+00	0.000000e+00	0.000000e+00	0.000000e+00
-5.460000e+00	-5.390000e+00	0.000000e+00	0.000000e+00	0.000000e+00
-5.390000e+00	-5.320000e+00	0.000000e+00	0.000000e+00	0.000000e+00
-5.320000e+00	-5.250000e+00	0.000000e+00	0.000000e+00	0.000000e+00
-5.250000e+00	-5.180000e+00	0.000000e+00	0.000000e+00	0.000000e+00
-5.180000e+00	-5.110000e+00	0.000000e+00	0.000000e+00	0.000000e+00
-5.110000e+00	-5.040000e+00	0.000000e+00	0.000000e+00	0.000000e+00
-5.040000e+00	-4.970000e+00	0.000000e+00	0.000000e+00	0.000000e+00
-4.970000e+00	-4.900000e+00	0.000000e+00	0.000000e+00	0.000000e+00
-4.900000e+00	-4.830000e+00	0.000000e+00	0.000000e+00	0.000000e+00
-4.830000e+00	-4.760000e+00	0.000000e+00	0.000000e+00	0.000000e+00
-4.760000e+00	-4.690000e+00	0.000000e+00	0.000000e+00	0.000000e+00
-4.690000e+00	-4.620000e+00	0.000000e+00	0.000000e+00	0.000000e+00
-4.620000e+00	-4.550000e+00	0.000000e+00	0.000000e+00	0.000000e+00
-4.550000e+00	-4.480000e+00	0.000000e+00	0.000000e+00	0.000000e+00
-4.480000e+00	-4.410000e+00	0.000000e+00	0.000000e+00	0.000000e+00
-4.410000e+00	-4.340000e+00	0.000000e+00	0.000000e+00	0.000000e+00
-4.340000e+00	-4.270000e+00	0.000000e+00	0.000000e+00	0.000000e+00
-4.270000e+00	-4.200000e+00	0.000000e+00	0.000000e+00	0.000000e+00
-4.200000e+00	-4.130000e+00	0.000000e+00	0.000000e+00	0.000000e+00
-4.130000e+00	-4.060000e+00	0.000000e+00	0.000000e+00	0.000000e+00
-4.060000e+00	-3.990000e+00	0.000000e+00	0.000000e+00	0.000000e+00
-3.990000e+00	-3.920000e+00	0.000000e+00	0.000000e+00	0.000000e+00
-3.920000e+00	-3.850000e+00	0.000000e+00	0.000000e+00	0.000000e+00
-3.850000e+00	-3.780000e+00	0.000000e+00	0.000000e+00	0.000000e+00
-3.780000e+00	-3.710000e+00	0.000000e+00	0.000000e+00	0.000000e+00
-3.710000e+00	-3.640000e+00	0.000000e+00	0.000000e+00	0.000000e+00
-3.640000e+00	-3.570000e+00	0.000000e+00	0.000000e+00	0.000000e+00
-3.570000e+00	-3.500000e+00	0.000000e+00	0.000000e+00	0.000000e+00
-3.500000e+00	-3.430000e+00	0.000000e+00	0.000000e+00	0.000000e+00
-3.430000e+00	-3.360000e+00	0.000000e+00	0.000000e+00	0.000000e+00
-3.360000e+00	-3.290000e+00	0.000000e+00	0.000000e+00	0.000000e+00
-3.290000e+00	-3.220000e+00	0.000000e+00	0.000000e+00	0.000000e+00
-3.220000e+00	-3.150000e+00	0.000000e+00	0.000000e+00	0.000000e+00
-3.150000e+00	-3.080000e+00	1.428571e+01	1.428571e+01	1.428571e+01
-3.080000e+00	-3.010000e+00	1.428571e+01	1.428571e+01	1.428571e+01
-3.010000e+00	-2.940000e+00	4.285714e+01	2.474358e+01	2.474358e+01
-2.940000e+00	-2.870000e+00	1.428571e+01	1.428571e+01	1.428571e+01
-2.870000e+00	-2.800000e+00	1.428571e+01	1.428571e+01	1.428571e+01
-2.800000e+00	-2.730000e+00	4.285714e+01	2.474358e+01	2.474358e+01
-2.730000e+00	-2.660000e+00	2.857143e+01	2.020305e+01	2.020305e+01
-2.660000e+00	-2.590000e+00	8.571429e+01	3.499271e+01	3.499271e+01
-2.590000e+00	-2.520000e+00	8.571429e+01	3.499271e+01	3.499271e+01
-2.520000e+00	-2.450000e+00	1.857143e+02	5.150788e+01	5.150788e+01
-2.450000e+00	-2.380000e+00	2.285714e+02	5.714286e+01	5.714286e+01
-2.380000e+00	-2.310000e+00	5.142857e+02	8.571429e+01	8.571429e+01
-2.310000e+00	-2.240000e+00	6.000000e+02	9.258201e+01	9.258201e+01
-2.240000e+00	-2.170000e+00	1.485714e+03	1.456863e+02	1.456863e+02
-2.170000e+00	-2.100000e+00	2.542857e+03	1.905952e+02	1.905952e+02
-2.100000e+00	-2.030000e+00	8.800000e+03	3.545621e+02	3.545621e+02
-2.030000e+00	-1.960000e+00	1.774286e+04	5.034574e+02	5.034574e+02
-1.960000e+00	-1.890000e+00	2.807143e+04	6.332617e+02	6.332617e+02
-1.890000e+00	-1.820000e+00	4.471429e+04	7.992343e+02	7.992343e+02
-1.820000e+00	-1.750000e+00	7.481429e+04	1.033816e+03	1.033816e+03
-1.750000e+00	-1.680000e+00	1.177143e+05	1.296778e+03	1.296778e+03
-1.680000e+00	-1.610000e+00	1.766714e+05	1.588672e+03	1.588672e+03
-1.610000e+00	-1.540000e+00	2.710714e+05	1.967854e+03	1.967854e+03
-1.540000e+00	-1.470000e+00	3.951571e+05	2.375942e+03	2.375942e+03
-1.470000e+00	-1.400000e+00	5.575286e+05	2.822179e+03	2.822179e+03
-1.400000e+00	-1.330000e+00	8.344571e+05	3.452654e+03	3.452654e+03
-1.330000e+00	-1.260000e+00	1.265757e+06	4.252322e+03	4.252322e+03
-1.260000e+00	-1.190000e+00	1.967357e+06	5.301425e+03	5.301425e+03
-1.190000e+00	-1.120000e+00	3.041186e+06	6.591321e+03	6.591321e+03
-1.120000e+00	-1.050000e+00	4.743029e+06	8.231497e+03	8.231497e+03
-1.050000e+00	-9.800000e-01	7.236186e+06	1.016730e+04	1.016730e+04
-9.800000e-01	-9.100000e-01	1.048903e+07	1.224105e+04	1.224105e+04
-9.100000e-01	-8.400000e-01	1.353410e+07	1.390483e+04	1.390483e+04
-8.400000e-01	-7.700000e-01	1.504067e+07	1.465833e+04	1.465833e+04
-7.700000e-01	-7.000000e-01	1.474189e+07	1.451201e+04	1.451201e+04
-7.000000e-01	-6.300000e-01	1.403553e+07	1.416007e+04	1.416007e+04
-6.300000e-01	-5.600000e-01	1.377127e+07	1.402613e+04	1.402613e+04
-5.600000e-01	-4.900000e-01	1.403721e+07	1.416092e+04	1.416092e+04
-4.900000e-01	-4.200000e-01	1.376361e+07	1.402223e+04	1.402223e+04
-4.200000e-01	-3.500000e-01	1.216087e+07	1.318054e+04	1.318054e+04
-3.500000e-01	-2.800000e-01	9.443971e+06	1.161524e+04	1.161524e+04
-2.800000e-01	-2.100000e-01	5.816129e+06	9.115237e+03	9.115237e+03
-2.100000e-01	-1.400000e-01	1.980529e+06	5.319141e+03	5.319141e+03
-1.400000e-01	-7.000000e-02	1.708000e+05	1.562050e+03	1.562050e+03
-7.000000e-02	0.000000e+00	1.900000e+03	1.647509e+02	1.647509e+02
# END HISTO1D

