# BEGIN PLOT
LegendOnly=/pythia_np_pt50_s1_1e3.yoda/PAPER_FIN_R8/SD_l10_pT_150_186
DrawOnly=/pythia_np_pt50_s1_1e3.yoda/PAPER_FIN_R8/SD_l10_pT_150_186
Legend=1
LogY=1
# END PLOT

# BEGIN HISTO1D /pythia_np_pt50_s1_1e3.yoda/PAPER_FIN_R8/SD_l10_pT_150_186
LineColor=red
LineStyle=solid
Path=/pythia_np_pt50_s1_1e3.yoda/PAPER_FIN_R8/SD_l10_pT_150_186
Title=pythia_np_pt50_s1_1e3
XLabel=~
YLabel=~
# xlow	 xhigh	 val	 errminus	 errplus
-7.000000e+00	-6.930000e+00	0.000000e+00	0.000000e+00	0.000000e+00
-6.930000e+00	-6.860000e+00	1.899714e+05	1.647385e+03	1.647385e+03
-6.860000e+00	-6.790000e+00	0.000000e+00	0.000000e+00	0.000000e+00
-6.790000e+00	-6.720000e+00	0.000000e+00	0.000000e+00	0.000000e+00
-6.720000e+00	-6.650000e+00	0.000000e+00	0.000000e+00	0.000000e+00
-6.650000e+00	-6.580000e+00	0.000000e+00	0.000000e+00	0.000000e+00
-6.580000e+00	-6.510000e+00	0.000000e+00	0.000000e+00	0.000000e+00
-6.510000e+00	-6.440000e+00	0.000000e+00	0.000000e+00	0.000000e+00
-6.440000e+00	-6.370000e+00	0.000000e+00	0.000000e+00	0.000000e+00
-6.370000e+00	-6.300000e+00	0.000000e+00	0.000000e+00	0.000000e+00
-6.300000e+00	-6.230000e+00	0.000000e+00	0.000000e+00	0.000000e+00
-6.230000e+00	-6.160000e+00	0.000000e+00	0.000000e+00	0.000000e+00
-6.160000e+00	-6.090000e+00	0.000000e+00	0.000000e+00	0.000000e+00
-6.090000e+00	-6.020000e+00	0.000000e+00	0.000000e+00	0.000000e+00
-6.020000e+00	-5.950000e+00	0.000000e+00	0.000000e+00	0.000000e+00
-5.950000e+00	-5.880000e+00	0.000000e+00	0.000000e+00	0.000000e+00
-5.880000e+00	-5.810000e+00	0.000000e+00	0.000000e+00	0.000000e+00
-5.810000e+00	-5.740000e+00	0.000000e+00	0.000000e+00	0.000000e+00
-5.740000e+00	-5.670000e+00	1.428571e+01	1.428571e+01	1.428571e+01
-5.670000e+00	-5.600000e+00	0.000000e+00	0.000000e+00	0.000000e+00
-5.600000e+00	-5.530000e+00	0.000000e+00	0.000000e+00	0.000000e+00
-5.530000e+00	-5.460000e+00	0.000000e+00	0.000000e+00	0.000000e+00
-5.460000e+00	-5.390000e+00	0.000000e+00	0.000000e+00	0.000000e+00
-5.390000e+00	-5.320000e+00	0.000000e+00	0.000000e+00	0.000000e+00
-5.320000e+00	-5.250000e+00	0.000000e+00	0.000000e+00	0.000000e+00
-5.250000e+00	-5.180000e+00	0.000000e+00	0.000000e+00	0.000000e+00
-5.180000e+00	-5.110000e+00	0.000000e+00	0.000000e+00	0.000000e+00
-5.110000e+00	-5.040000e+00	0.000000e+00	0.000000e+00	0.000000e+00
-5.040000e+00	-4.970000e+00	0.000000e+00	0.000000e+00	0.000000e+00
-4.970000e+00	-4.900000e+00	1.428571e+01	1.428571e+01	1.428571e+01
-4.900000e+00	-4.830000e+00	0.000000e+00	0.000000e+00	0.000000e+00
-4.830000e+00	-4.760000e+00	0.000000e+00	0.000000e+00	0.000000e+00
-4.760000e+00	-4.690000e+00	0.000000e+00	0.000000e+00	0.000000e+00
-4.690000e+00	-4.620000e+00	0.000000e+00	0.000000e+00	0.000000e+00
-4.620000e+00	-4.550000e+00	1.428571e+01	1.428571e+01	1.428571e+01
-4.550000e+00	-4.480000e+00	1.428571e+01	1.428571e+01	1.428571e+01
-4.480000e+00	-4.410000e+00	0.000000e+00	0.000000e+00	0.000000e+00
-4.410000e+00	-4.340000e+00	1.428571e+01	1.428571e+01	1.428571e+01
-4.340000e+00	-4.270000e+00	2.857143e+01	2.020305e+01	2.020305e+01
-4.270000e+00	-4.200000e+00	5.714286e+01	2.857143e+01	2.857143e+01
-4.200000e+00	-4.130000e+00	2.857143e+01	2.020305e+01	2.020305e+01
-4.130000e+00	-4.060000e+00	7.142857e+01	3.194383e+01	3.194383e+01
-4.060000e+00	-3.990000e+00	4.285714e+01	2.474358e+01	2.474358e+01
-3.990000e+00	-3.920000e+00	8.571429e+01	3.499271e+01	3.499271e+01
-3.920000e+00	-3.850000e+00	2.142857e+02	5.532833e+01	5.532833e+01
-3.850000e+00	-3.780000e+00	2.000000e+02	5.345225e+01	5.345225e+01
-3.780000e+00	-3.710000e+00	2.571429e+02	6.060915e+01	6.060915e+01
-3.710000e+00	-3.640000e+00	3.857143e+02	7.423075e+01	7.423075e+01
-3.640000e+00	-3.570000e+00	5.571429e+02	8.921426e+01	8.921426e+01
-3.570000e+00	-3.500000e+00	7.285714e+02	1.020204e+02	1.020204e+02
-3.500000e+00	-3.430000e+00	1.000000e+03	1.195229e+02	1.195229e+02
-3.430000e+00	-3.360000e+00	1.914286e+03	1.653691e+02	1.653691e+02
-3.360000e+00	-3.290000e+00	4.200000e+03	2.449490e+02	2.449490e+02
-3.290000e+00	-3.220000e+00	6.500000e+03	3.047247e+02	3.047247e+02
-3.220000e+00	-3.150000e+00	8.585714e+03	3.502186e+02	3.502186e+02
-3.150000e+00	-3.080000e+00	1.090000e+04	3.946065e+02	3.946065e+02
-3.080000e+00	-3.010000e+00	1.328571e+04	4.356557e+02	4.356557e+02
-3.010000e+00	-2.940000e+00	1.712857e+04	4.946654e+02	4.946654e+02
-2.940000e+00	-2.870000e+00	1.952857e+04	5.281852e+02	5.281852e+02
-2.870000e+00	-2.800000e+00	2.115714e+04	5.497680e+02	5.497680e+02
-2.800000e+00	-2.730000e+00	2.885714e+04	6.420630e+02	6.420630e+02
-2.730000e+00	-2.660000e+00	4.068571e+04	7.623808e+02	7.623808e+02
-2.660000e+00	-2.590000e+00	5.517143e+04	8.877856e+02	8.877856e+02
-2.590000e+00	-2.520000e+00	7.748571e+04	1.052112e+03	1.052112e+03
-2.520000e+00	-2.450000e+00	1.061286e+05	1.231309e+03	1.231309e+03
-2.450000e+00	-2.380000e+00	1.495000e+05	1.461408e+03	1.461408e+03
-2.380000e+00	-2.310000e+00	2.061143e+05	1.715952e+03	1.715952e+03
-2.310000e+00	-2.240000e+00	2.814857e+05	2.005299e+03	2.005299e+03
-2.240000e+00	-2.170000e+00	3.829000e+05	2.338803e+03	2.338803e+03
-2.170000e+00	-2.100000e+00	5.320000e+05	2.756810e+03	2.756810e+03
-2.100000e+00	-2.030000e+00	7.252429e+05	3.218790e+03	3.218790e+03
-2.030000e+00	-1.960000e+00	9.884571e+05	3.757767e+03	3.757767e+03
-1.960000e+00	-1.890000e+00	1.296829e+06	4.304198e+03	4.304198e+03
-1.890000e+00	-1.820000e+00	1.623871e+06	4.816447e+03	4.816447e+03
-1.820000e+00	-1.750000e+00	1.913100e+06	5.227810e+03	5.227810e+03
-1.750000e+00	-1.680000e+00	2.091086e+06	5.465588e+03	5.465588e+03
-1.680000e+00	-1.610000e+00	2.111029e+06	5.491589e+03	5.491589e+03
-1.610000e+00	-1.540000e+00	1.985757e+06	5.326158e+03	5.326158e+03
-1.540000e+00	-1.470000e+00	1.827714e+06	5.109814e+03	5.109814e+03
-1.470000e+00	-1.400000e+00	1.661357e+06	4.871722e+03	4.871722e+03
-1.400000e+00	-1.330000e+00	1.501614e+06	4.631591e+03	4.631591e+03
-1.330000e+00	-1.260000e+00	1.369171e+06	4.422623e+03	4.422623e+03
-1.260000e+00	-1.190000e+00	1.283143e+06	4.281426e+03	4.281426e+03
-1.190000e+00	-1.120000e+00	1.250386e+06	4.226423e+03	4.226423e+03
-1.120000e+00	-1.050000e+00	1.258043e+06	4.239344e+03	4.239344e+03
-1.050000e+00	-9.800000e-01	1.303529e+06	4.315303e+03	4.315303e+03
-9.800000e-01	-9.100000e-01	1.391400e+06	4.458379e+03	4.458379e+03
-9.100000e-01	-8.400000e-01	1.486343e+06	4.607979e+03	4.607979e+03
-8.400000e-01	-7.700000e-01	1.568443e+06	4.733532e+03	4.733532e+03
-7.700000e-01	-7.000000e-01	1.563029e+06	4.725355e+03	4.725355e+03
-7.000000e-01	-6.300000e-01	1.483929e+06	4.604235e+03	4.604235e+03
-6.300000e-01	-5.600000e-01	1.346357e+06	4.385621e+03	4.385621e+03
-5.600000e-01	-4.900000e-01	1.173043e+06	4.093624e+03	4.093624e+03
-4.900000e-01	-4.200000e-01	9.655429e+05	3.713956e+03	3.713956e+03
-4.200000e-01	-3.500000e-01	7.163857e+05	3.199075e+03	3.199075e+03
-3.500000e-01	-2.800000e-01	4.339000e+05	2.489693e+03	2.489693e+03
-2.800000e-01	-2.100000e-01	1.621286e+05	1.521881e+03	1.521881e+03
-2.100000e-01	-1.400000e-01	2.992857e+04	6.538739e+02	6.538739e+02
-1.400000e-01	-7.000000e-02	2.885714e+03	2.030381e+02	2.030381e+02
-7.000000e-02	0.000000e+00	1.428571e+02	4.517540e+01	4.517540e+01
# END HISTO1D

