# BEGIN PLOT
LegendOnly=/zj_ps_nlo_mer_mur1_muf1_R4.yoda/PAPER_FIN_R4/ch_lin_l20_pT_254_326
DrawOnly=/zj_ps_nlo_mer_mur1_muf1_R4.yoda/PAPER_FIN_R4/ch_lin_l20_pT_254_326
Legend=1
LogY=1
# END PLOT

# BEGIN HISTO1D /zj_ps_nlo_mer_mur1_muf1_R4.yoda/PAPER_FIN_R4/ch_lin_l20_pT_254_326
LineColor=red
LineStyle=solid
Path=/zj_ps_nlo_mer_mur1_muf1_R4.yoda/PAPER_FIN_R4/ch_lin_l20_pT_254_326
Title=zj_ps_nlo_mer_mur1_muf1_R4
XLabel=~
YLabel=~
# xlow	 xhigh	 val	 errminus	 errplus
0.000000e+00	5.000000e-03	1.752907e+10	8.802943e+08	8.802943e+08
5.000000e-03	1.250000e-02	2.766501e+10	8.968416e+08	8.968416e+08
1.250000e-02	2.250000e-02	2.226358e+10	5.098573e+08	5.098573e+08
2.250000e-02	3.500000e-02	1.433264e+10	3.795127e+08	3.795127e+08
3.500000e-02	5.000000e-02	8.876093e+09	2.255978e+08	2.255978e+08
5.000000e-02	7.000000e-02	6.009405e+09	3.090186e+08	3.090186e+08
7.000000e-02	9.250000e-02	3.536529e+09	1.017102e+08	1.017102e+08
9.250000e-02	1.200000e-01	2.306136e+09	8.550828e+07	8.550828e+07
1.200000e-01	1.520000e-01	1.392992e+09	5.479574e+07	5.479574e+07
1.520000e-01	1.880000e-01	8.478703e+08	5.734559e+07	5.734559e+07
1.880000e-01	2.280000e-01	5.049120e+08	3.161861e+07	3.161861e+07
2.280000e-01	1.000000e+00	1.685517e+07	1.270504e+06	1.270504e+06
# END HISTO1D

