# BEGIN PLOT
LegendOnly=/zj_ps_nlo_mer_mur1_muf1_R4.yoda/PAPER_FIN_R4/ch_lin_SD_l20_pT_408_1500
DrawOnly=/zj_ps_nlo_mer_mur1_muf1_R4.yoda/PAPER_FIN_R4/ch_lin_SD_l20_pT_408_1500
Legend=1
LogY=1
# END PLOT

# BEGIN HISTO1D /zj_ps_nlo_mer_mur1_muf1_R4.yoda/PAPER_FIN_R4/ch_lin_SD_l20_pT_408_1500
LineColor=red
LineStyle=solid
Path=/zj_ps_nlo_mer_mur1_muf1_R4.yoda/PAPER_FIN_R4/ch_lin_SD_l20_pT_408_1500
Title=zj_ps_nlo_mer_mur1_muf1_R4
XLabel=~
YLabel=~
# xlow	 xhigh	 val	 errminus	 errplus
0.000000e+00	2.500000e-03	7.375432e+10	1.290395e+09	1.290395e+09
2.500000e-03	5.000000e-03	1.082362e+10	3.279887e+08	3.279887e+08
5.000000e-03	7.500000e-03	5.953684e+09	2.867807e+08	2.867807e+08
7.500000e-03	1.250000e-02	3.747270e+09	1.783368e+08	1.783368e+08
1.250000e-02	2.000000e-02	2.232404e+09	3.682908e+08	3.682908e+08
2.000000e-02	3.250000e-02	1.601136e+09	7.283386e+07	7.283386e+07
3.250000e-02	5.000000e-02	1.051581e+09	4.996286e+07	4.996286e+07
5.000000e-02	7.750000e-02	7.421749e+08	3.296655e+07	3.296655e+07
7.750000e-02	1.150000e-01	4.864835e+08	2.595849e+07	2.595849e+07
1.150000e-01	1.600000e-01	2.794784e+08	1.646373e+07	1.646373e+07
1.600000e-01	2.100000e-01	1.492537e+08	9.570774e+06	9.570774e+06
2.100000e-01	1.000000e+00	6.537043e+06	6.719492e+05	6.719492e+05
# END HISTO1D

