# BEGIN PLOT
LegendOnly=/zj_ps_nlo_mer_mur1_muf1_R4.yoda/PAPER_FIN_R4/lin_l10_pT_65_88
DrawOnly=/zj_ps_nlo_mer_mur1_muf1_R4.yoda/PAPER_FIN_R4/lin_l10_pT_65_88
Legend=1
LogY=1
# END PLOT

# BEGIN HISTO1D /zj_ps_nlo_mer_mur1_muf1_R4.yoda/PAPER_FIN_R4/lin_l10_pT_65_88
LineColor=red
LineStyle=solid
Path=/zj_ps_nlo_mer_mur1_muf1_R4.yoda/PAPER_FIN_R4/lin_l10_pT_65_88
Title=zj_ps_nlo_mer_mur1_muf1_R4
XLabel=~
YLabel=~
# xlow	 xhigh	 val	 errminus	 errplus
0.000000e+00	1.050000e-01	5.229173e+10	4.098594e+08	4.098594e+08
1.050000e-01	1.650000e-01	1.278810e+11	1.828843e+09	1.828843e+09
1.650000e-01	2.300000e-01	8.459017e+10	6.523614e+08	6.523614e+08
2.300000e-01	3.050000e-01	4.321488e+10	6.191683e+08	6.191683e+08
3.050000e-01	3.800000e-01	2.165828e+10	2.920671e+08	2.920671e+08
3.800000e-01	4.600000e-01	1.133660e+10	2.317703e+08	2.317703e+08
4.600000e-01	5.500000e-01	5.077637e+09	9.395493e+07	9.395493e+07
5.500000e-01	1.000000e+00	4.461433e+08	1.394778e+07	1.394778e+07
# END HISTO1D

