# BEGIN PLOT
LegendOnly=/zj_ps_nlo_mer_mur1_muf1_R4.yoda/PAPER_FIN_R4/l05_pT_326_408
DrawOnly=/zj_ps_nlo_mer_mur1_muf1_R4.yoda/PAPER_FIN_R4/l05_pT_326_408
Legend=1
LogY=1
# END PLOT

# BEGIN HISTO1D /zj_ps_nlo_mer_mur1_muf1_R4.yoda/PAPER_FIN_R4/l05_pT_326_408
LineColor=red
LineStyle=solid
Path=/zj_ps_nlo_mer_mur1_muf1_R4.yoda/PAPER_FIN_R4/l05_pT_326_408
Title=zj_ps_nlo_mer_mur1_muf1_R4
XLabel=~
YLabel=~
# xlow	 xhigh	 val	 errminus	 errplus
-7.000000e+00	-6.930000e+00	0.000000e+00	0.000000e+00	0.000000e+00
-6.930000e+00	-6.860000e+00	0.000000e+00	0.000000e+00	0.000000e+00
-6.860000e+00	-6.790000e+00	0.000000e+00	0.000000e+00	0.000000e+00
-6.790000e+00	-6.720000e+00	0.000000e+00	0.000000e+00	0.000000e+00
-6.720000e+00	-6.650000e+00	0.000000e+00	0.000000e+00	0.000000e+00
-6.650000e+00	-6.580000e+00	0.000000e+00	0.000000e+00	0.000000e+00
-6.580000e+00	-6.510000e+00	0.000000e+00	0.000000e+00	0.000000e+00
-6.510000e+00	-6.440000e+00	0.000000e+00	0.000000e+00	0.000000e+00
-6.440000e+00	-6.370000e+00	0.000000e+00	0.000000e+00	0.000000e+00
-6.370000e+00	-6.300000e+00	0.000000e+00	0.000000e+00	0.000000e+00
-6.300000e+00	-6.230000e+00	0.000000e+00	0.000000e+00	0.000000e+00
-6.230000e+00	-6.160000e+00	0.000000e+00	0.000000e+00	0.000000e+00
-6.160000e+00	-6.090000e+00	0.000000e+00	0.000000e+00	0.000000e+00
-6.090000e+00	-6.020000e+00	0.000000e+00	0.000000e+00	0.000000e+00
-6.020000e+00	-5.950000e+00	0.000000e+00	0.000000e+00	0.000000e+00
-5.950000e+00	-5.880000e+00	0.000000e+00	0.000000e+00	0.000000e+00
-5.880000e+00	-5.810000e+00	0.000000e+00	0.000000e+00	0.000000e+00
-5.810000e+00	-5.740000e+00	0.000000e+00	0.000000e+00	0.000000e+00
-5.740000e+00	-5.670000e+00	0.000000e+00	0.000000e+00	0.000000e+00
-5.670000e+00	-5.600000e+00	0.000000e+00	0.000000e+00	0.000000e+00
-5.600000e+00	-5.530000e+00	0.000000e+00	0.000000e+00	0.000000e+00
-5.530000e+00	-5.460000e+00	0.000000e+00	0.000000e+00	0.000000e+00
-5.460000e+00	-5.390000e+00	0.000000e+00	0.000000e+00	0.000000e+00
-5.390000e+00	-5.320000e+00	0.000000e+00	0.000000e+00	0.000000e+00
-5.320000e+00	-5.250000e+00	0.000000e+00	0.000000e+00	0.000000e+00
-5.250000e+00	-5.180000e+00	0.000000e+00	0.000000e+00	0.000000e+00
-5.180000e+00	-5.110000e+00	0.000000e+00	0.000000e+00	0.000000e+00
-5.110000e+00	-5.040000e+00	0.000000e+00	0.000000e+00	0.000000e+00
-5.040000e+00	-4.970000e+00	0.000000e+00	0.000000e+00	0.000000e+00
-4.970000e+00	-4.900000e+00	0.000000e+00	0.000000e+00	0.000000e+00
-4.900000e+00	-4.830000e+00	0.000000e+00	0.000000e+00	0.000000e+00
-4.830000e+00	-4.760000e+00	0.000000e+00	0.000000e+00	0.000000e+00
-4.760000e+00	-4.690000e+00	0.000000e+00	0.000000e+00	0.000000e+00
-4.690000e+00	-4.620000e+00	0.000000e+00	0.000000e+00	0.000000e+00
-4.620000e+00	-4.550000e+00	0.000000e+00	0.000000e+00	0.000000e+00
-4.550000e+00	-4.480000e+00	0.000000e+00	0.000000e+00	0.000000e+00
-4.480000e+00	-4.410000e+00	0.000000e+00	0.000000e+00	0.000000e+00
-4.410000e+00	-4.340000e+00	0.000000e+00	0.000000e+00	0.000000e+00
-4.340000e+00	-4.270000e+00	0.000000e+00	0.000000e+00	0.000000e+00
-4.270000e+00	-4.200000e+00	0.000000e+00	0.000000e+00	0.000000e+00
-4.200000e+00	-4.130000e+00	0.000000e+00	0.000000e+00	0.000000e+00
-4.130000e+00	-4.060000e+00	0.000000e+00	0.000000e+00	0.000000e+00
-4.060000e+00	-3.990000e+00	0.000000e+00	0.000000e+00	0.000000e+00
-3.990000e+00	-3.920000e+00	0.000000e+00	0.000000e+00	0.000000e+00
-3.920000e+00	-3.850000e+00	0.000000e+00	0.000000e+00	0.000000e+00
-3.850000e+00	-3.780000e+00	0.000000e+00	0.000000e+00	0.000000e+00
-3.780000e+00	-3.710000e+00	0.000000e+00	0.000000e+00	0.000000e+00
-3.710000e+00	-3.640000e+00	0.000000e+00	0.000000e+00	0.000000e+00
-3.640000e+00	-3.570000e+00	0.000000e+00	0.000000e+00	0.000000e+00
-3.570000e+00	-3.500000e+00	0.000000e+00	0.000000e+00	0.000000e+00
-3.500000e+00	-3.430000e+00	0.000000e+00	0.000000e+00	0.000000e+00
-3.430000e+00	-3.360000e+00	0.000000e+00	0.000000e+00	0.000000e+00
-3.360000e+00	-3.290000e+00	0.000000e+00	0.000000e+00	0.000000e+00
-3.290000e+00	-3.220000e+00	0.000000e+00	0.000000e+00	0.000000e+00
-3.220000e+00	-3.150000e+00	0.000000e+00	0.000000e+00	0.000000e+00
-3.150000e+00	-3.080000e+00	0.000000e+00	0.000000e+00	0.000000e+00
-3.080000e+00	-3.010000e+00	0.000000e+00	0.000000e+00	0.000000e+00
-3.010000e+00	-2.940000e+00	0.000000e+00	0.000000e+00	0.000000e+00
-2.940000e+00	-2.870000e+00	0.000000e+00	0.000000e+00	0.000000e+00
-2.870000e+00	-2.800000e+00	0.000000e+00	0.000000e+00	0.000000e+00
-2.800000e+00	-2.730000e+00	0.000000e+00	0.000000e+00	0.000000e+00
-2.730000e+00	-2.660000e+00	0.000000e+00	0.000000e+00	0.000000e+00
-2.660000e+00	-2.590000e+00	6.425400e+03	6.425396e+03	6.425396e+03
-2.590000e+00	-2.520000e+00	0.000000e+00	0.000000e+00	0.000000e+00
-2.520000e+00	-2.450000e+00	0.000000e+00	0.000000e+00	0.000000e+00
-2.450000e+00	-2.380000e+00	-7.210053e+03	7.210054e+03	7.210054e+03
-2.380000e+00	-2.310000e+00	-2.192849e+02	2.193437e+02	2.193437e+02
-2.310000e+00	-2.240000e+00	1.727533e-02	1.515244e-02	1.515244e-02
-2.240000e+00	-2.170000e+00	1.814271e+03	1.220637e+03	1.220637e+03
-2.170000e+00	-2.100000e+00	-2.956037e+04	2.957180e+04	2.957180e+04
-2.100000e+00	-2.030000e+00	1.616793e+04	1.454160e+04	1.454160e+04
-2.030000e+00	-1.960000e+00	6.482349e+05	5.775813e+05	5.775813e+05
-1.960000e+00	-1.890000e+00	4.355554e+03	9.481578e+03	9.481578e+03
-1.890000e+00	-1.820000e+00	4.160153e+04	3.691583e+04	3.691583e+04
-1.820000e+00	-1.750000e+00	3.578310e+04	1.104700e+05	1.104700e+05
-1.750000e+00	-1.680000e+00	5.885814e+05	2.333755e+05	2.333755e+05
-1.680000e+00	-1.610000e+00	3.856584e+05	3.756415e+05	3.756415e+05
-1.610000e+00	-1.540000e+00	-2.874900e+05	7.142726e+05	7.142726e+05
-1.540000e+00	-1.470000e+00	1.498881e+06	5.701094e+05	5.701094e+05
-1.470000e+00	-1.400000e+00	1.603527e+06	9.996590e+05	9.996590e+05
-1.400000e+00	-1.330000e+00	8.562727e+06	1.511109e+06	1.511109e+06
-1.330000e+00	-1.260000e+00	1.425981e+07	2.204534e+06	2.204534e+06
-1.260000e+00	-1.190000e+00	3.060394e+07	3.313793e+06	3.313793e+06
-1.190000e+00	-1.120000e+00	4.964671e+07	9.781172e+06	9.781172e+06
-1.120000e+00	-1.050000e+00	1.356171e+08	1.098102e+07	1.098102e+07
-1.050000e+00	-9.800000e-01	2.346389e+08	2.698894e+07	2.698894e+07
-9.800000e-01	-9.100000e-01	4.135709e+08	2.566401e+07	2.566401e+07
-9.100000e-01	-8.400000e-01	7.350723e+08	3.515082e+07	3.515082e+07
-8.400000e-01	-7.700000e-01	8.982437e+08	4.474630e+07	4.474630e+07
-7.700000e-01	-7.000000e-01	9.026074e+08	3.086320e+07	3.086320e+07
-7.000000e-01	-6.300000e-01	8.265513e+08	4.591241e+07	4.591241e+07
-6.300000e-01	-5.600000e-01	7.787489e+08	2.290849e+07	2.290849e+07
-5.600000e-01	-4.900000e-01	6.476403e+08	2.061322e+07	2.061322e+07
-4.900000e-01	-4.200000e-01	5.799657e+08	3.713088e+07	3.713088e+07
-4.200000e-01	-3.500000e-01	4.166990e+08	1.947235e+07	1.947235e+07
-3.500000e-01	-2.800000e-01	2.633564e+08	1.275488e+07	1.275488e+07
-2.800000e-01	-2.100000e-01	1.434060e+08	8.721849e+06	8.721849e+06
-2.100000e-01	-1.400000e-01	3.913967e+07	7.917878e+06	7.917878e+06
-1.400000e-01	-7.000000e-02	1.721779e+06	4.670662e+05	4.670662e+05
-7.000000e-02	0.000000e+00	1.878393e+02	1.203968e+02	1.203968e+02
# END HISTO1D

