# BEGIN PLOT
LegendOnly=/zj_ps_nlo_mer_mur0.5_muf1_R4.yoda/PAPER_FIN_R4/lin_SD_l05_pT_326_408
DrawOnly=/zj_ps_nlo_mer_mur0.5_muf1_R4.yoda/PAPER_FIN_R4/lin_SD_l05_pT_326_408
Legend=1
LogY=1
# END PLOT

# BEGIN HISTO1D /zj_ps_nlo_mer_mur0.5_muf1_R4.yoda/PAPER_FIN_R4/lin_SD_l05_pT_326_408
LineColor=red
LineStyle=solid
Path=/zj_ps_nlo_mer_mur0.5_muf1_R4.yoda/PAPER_FIN_R4/lin_SD_l05_pT_326_408
Title=zj_ps_nlo_mer_mur0.5_muf1_R4
XLabel=~
YLabel=~
# xlow	 xhigh	 val	 errminus	 errplus
0.000000e+00	1.000000e-01	1.303864e+09	2.836491e+07	2.836491e+07
1.000000e-01	1.800000e-01	1.953118e+09	3.389208e+07	3.389208e+07
1.800000e-01	2.600000e-01	1.013448e+09	2.712314e+07	2.712314e+07
2.600000e-01	3.400000e-01	6.993351e+08	3.133146e+07	3.133146e+07
3.400000e-01	4.200000e-01	4.820301e+08	1.697072e+07	1.697072e+07
4.200000e-01	5.000000e-01	3.185920e+08	1.849924e+07	1.849924e+07
5.000000e-01	5.700000e-01	1.518390e+08	1.136847e+07	1.136847e+07
5.700000e-01	6.400000e-01	8.552164e+07	9.486705e+06	9.486705e+06
6.400000e-01	1.000000e+00	4.305742e+06	4.058173e+05	4.058173e+05
# END HISTO1D

