# BEGIN PLOT
LegendOnly=/zj_ps_nlo_mer_mur0.5_muf1_R4.yoda/PAPER_FIN_R4_CH/lin_l10_pT_65_88
DrawOnly=/zj_ps_nlo_mer_mur0.5_muf1_R4.yoda/PAPER_FIN_R4_CH/lin_l10_pT_65_88
Legend=1
LogY=1
# END PLOT

# BEGIN HISTO1D /zj_ps_nlo_mer_mur0.5_muf1_R4.yoda/PAPER_FIN_R4_CH/lin_l10_pT_65_88
LineColor=red
LineStyle=solid
Path=/zj_ps_nlo_mer_mur0.5_muf1_R4.yoda/PAPER_FIN_R4_CH/lin_l10_pT_65_88
Title=zj_ps_nlo_mer_mur0.5_muf1_R4
XLabel=~
YLabel=~
# xlow	 xhigh	 val	 errminus	 errplus
0.000000e+00	2.250000e-02	1.610022e+09	1.915757e+08	1.915757e+08
2.250000e-02	4.000000e-02	1.058901e+10	4.289967e+08	4.289967e+08
4.000000e-02	5.750000e-02	2.307282e+10	9.608889e+08	9.608889e+08
5.750000e-02	7.750000e-02	4.702768e+10	1.048065e+09	1.048065e+09
7.750000e-02	1.000000e-01	6.518751e+10	1.526120e+09	1.526120e+09
1.000000e-01	1.250000e-01	7.280804e+10	4.261267e+09	4.261267e+09
1.250000e-01	1.520000e-01	7.416959e+10	1.202480e+09	1.202480e+09
1.520000e-01	1.850000e-01	5.626612e+10	1.205047e+09	1.205047e+09
1.850000e-01	2.200000e-01	4.032097e+10	9.626490e+08	9.626490e+08
2.200000e-01	2.600000e-01	2.744237e+10	7.315073e+08	7.315073e+08
2.600000e-01	3.070000e-01	1.685251e+10	4.876793e+08	4.876793e+08
3.070000e-01	3.620000e-01	9.542244e+09	3.419788e+08	3.419788e+08
3.620000e-01	4.250000e-01	6.028316e+09	2.153346e+08	2.153346e+08
4.250000e-01	4.970000e-01	1.889657e+09	9.444277e+08	9.444277e+08
4.970000e-01	1.000000e+00	2.074284e+08	2.515809e+07	2.515809e+07
# END HISTO1D

