# BEGIN PLOT
LegendOnly=/zj_ps_nlo_mer_mur0.5_muf1_R4.yoda/PAPER_FIN_R4/SD_l05_pT_186_254
DrawOnly=/zj_ps_nlo_mer_mur0.5_muf1_R4.yoda/PAPER_FIN_R4/SD_l05_pT_186_254
Legend=1
LogY=1
# END PLOT

# BEGIN HISTO1D /zj_ps_nlo_mer_mur0.5_muf1_R4.yoda/PAPER_FIN_R4/SD_l05_pT_186_254
LineColor=red
LineStyle=solid
Path=/zj_ps_nlo_mer_mur0.5_muf1_R4.yoda/PAPER_FIN_R4/SD_l05_pT_186_254
Title=zj_ps_nlo_mer_mur0.5_muf1_R4
XLabel=~
YLabel=~
# xlow	 xhigh	 val	 errminus	 errplus
-7.000000e+00	-6.930000e+00	0.000000e+00	0.000000e+00	0.000000e+00
-6.930000e+00	-6.860000e+00	1.221340e+08	1.936500e+07	1.936500e+07
-6.860000e+00	-6.790000e+00	0.000000e+00	0.000000e+00	0.000000e+00
-6.790000e+00	-6.720000e+00	0.000000e+00	0.000000e+00	0.000000e+00
-6.720000e+00	-6.650000e+00	0.000000e+00	0.000000e+00	0.000000e+00
-6.650000e+00	-6.580000e+00	0.000000e+00	0.000000e+00	0.000000e+00
-6.580000e+00	-6.510000e+00	0.000000e+00	0.000000e+00	0.000000e+00
-6.510000e+00	-6.440000e+00	0.000000e+00	0.000000e+00	0.000000e+00
-6.440000e+00	-6.370000e+00	0.000000e+00	0.000000e+00	0.000000e+00
-6.370000e+00	-6.300000e+00	0.000000e+00	0.000000e+00	0.000000e+00
-6.300000e+00	-6.230000e+00	0.000000e+00	0.000000e+00	0.000000e+00
-6.230000e+00	-6.160000e+00	0.000000e+00	0.000000e+00	0.000000e+00
-6.160000e+00	-6.090000e+00	0.000000e+00	0.000000e+00	0.000000e+00
-6.090000e+00	-6.020000e+00	0.000000e+00	0.000000e+00	0.000000e+00
-6.020000e+00	-5.950000e+00	0.000000e+00	0.000000e+00	0.000000e+00
-5.950000e+00	-5.880000e+00	0.000000e+00	0.000000e+00	0.000000e+00
-5.880000e+00	-5.810000e+00	0.000000e+00	0.000000e+00	0.000000e+00
-5.810000e+00	-5.740000e+00	0.000000e+00	0.000000e+00	0.000000e+00
-5.740000e+00	-5.670000e+00	0.000000e+00	0.000000e+00	0.000000e+00
-5.670000e+00	-5.600000e+00	0.000000e+00	0.000000e+00	0.000000e+00
-5.600000e+00	-5.530000e+00	0.000000e+00	0.000000e+00	0.000000e+00
-5.530000e+00	-5.460000e+00	0.000000e+00	0.000000e+00	0.000000e+00
-5.460000e+00	-5.390000e+00	0.000000e+00	0.000000e+00	0.000000e+00
-5.390000e+00	-5.320000e+00	0.000000e+00	0.000000e+00	0.000000e+00
-5.320000e+00	-5.250000e+00	0.000000e+00	0.000000e+00	0.000000e+00
-5.250000e+00	-5.180000e+00	0.000000e+00	0.000000e+00	0.000000e+00
-5.180000e+00	-5.110000e+00	0.000000e+00	0.000000e+00	0.000000e+00
-5.110000e+00	-5.040000e+00	0.000000e+00	0.000000e+00	0.000000e+00
-5.040000e+00	-4.970000e+00	0.000000e+00	0.000000e+00	0.000000e+00
-4.970000e+00	-4.900000e+00	0.000000e+00	0.000000e+00	0.000000e+00
-4.900000e+00	-4.830000e+00	0.000000e+00	0.000000e+00	0.000000e+00
-4.830000e+00	-4.760000e+00	0.000000e+00	0.000000e+00	0.000000e+00
-4.760000e+00	-4.690000e+00	0.000000e+00	0.000000e+00	0.000000e+00
-4.690000e+00	-4.620000e+00	0.000000e+00	0.000000e+00	0.000000e+00
-4.620000e+00	-4.550000e+00	0.000000e+00	0.000000e+00	0.000000e+00
-4.550000e+00	-4.480000e+00	0.000000e+00	0.000000e+00	0.000000e+00
-4.480000e+00	-4.410000e+00	0.000000e+00	0.000000e+00	0.000000e+00
-4.410000e+00	-4.340000e+00	0.000000e+00	0.000000e+00	0.000000e+00
-4.340000e+00	-4.270000e+00	0.000000e+00	0.000000e+00	0.000000e+00
-4.270000e+00	-4.200000e+00	0.000000e+00	0.000000e+00	0.000000e+00
-4.200000e+00	-4.130000e+00	0.000000e+00	0.000000e+00	0.000000e+00
-4.130000e+00	-4.060000e+00	0.000000e+00	0.000000e+00	0.000000e+00
-4.060000e+00	-3.990000e+00	0.000000e+00	0.000000e+00	0.000000e+00
-3.990000e+00	-3.920000e+00	0.000000e+00	0.000000e+00	0.000000e+00
-3.920000e+00	-3.850000e+00	0.000000e+00	0.000000e+00	0.000000e+00
-3.850000e+00	-3.780000e+00	0.000000e+00	0.000000e+00	0.000000e+00
-3.780000e+00	-3.710000e+00	0.000000e+00	0.000000e+00	0.000000e+00
-3.710000e+00	-3.640000e+00	0.000000e+00	0.000000e+00	0.000000e+00
-3.640000e+00	-3.570000e+00	0.000000e+00	0.000000e+00	0.000000e+00
-3.570000e+00	-3.500000e+00	0.000000e+00	0.000000e+00	0.000000e+00
-3.500000e+00	-3.430000e+00	0.000000e+00	0.000000e+00	0.000000e+00
-3.430000e+00	-3.360000e+00	0.000000e+00	0.000000e+00	0.000000e+00
-3.360000e+00	-3.290000e+00	0.000000e+00	0.000000e+00	0.000000e+00
-3.290000e+00	-3.220000e+00	0.000000e+00	0.000000e+00	0.000000e+00
-3.220000e+00	-3.150000e+00	0.000000e+00	0.000000e+00	0.000000e+00
-3.150000e+00	-3.080000e+00	1.433853e+00	1.433852e+00	1.433852e+00
-3.080000e+00	-3.010000e+00	1.018590e+04	1.018590e+04	1.018590e+04
-3.010000e+00	-2.940000e+00	1.217518e+02	1.417791e+02	1.417791e+02
-2.940000e+00	-2.870000e+00	-7.091890e+01	7.091891e+01	7.091891e+01
-2.870000e+00	-2.800000e+00	5.651967e+04	5.654094e+04	5.654094e+04
-2.800000e+00	-2.730000e+00	1.607171e+04	1.299955e+04	1.299955e+04
-2.730000e+00	-2.660000e+00	-6.733639e+03	5.144399e+03	5.144399e+03
-2.660000e+00	-2.590000e+00	-4.489909e+05	4.640533e+05	4.640533e+05
-2.590000e+00	-2.520000e+00	-6.057124e+04	5.809454e+04	5.809454e+04
-2.520000e+00	-2.450000e+00	1.179677e+05	1.213662e+05	1.213662e+05
-2.450000e+00	-2.380000e+00	-1.876443e+04	7.217863e+04	7.217863e+04
-2.380000e+00	-2.310000e+00	5.905897e+05	3.468412e+05	3.468412e+05
-2.310000e+00	-2.240000e+00	5.303921e+05	3.761688e+05	3.761688e+05
-2.240000e+00	-2.170000e+00	7.718624e+05	1.169673e+06	1.169673e+06
-2.170000e+00	-2.100000e+00	3.338223e+06	1.100582e+06	1.100582e+06
-2.100000e+00	-2.030000e+00	6.103440e+06	1.302433e+06	1.302433e+06
-2.030000e+00	-1.960000e+00	7.978687e+06	1.598080e+06	1.598080e+06
-1.960000e+00	-1.890000e+00	1.094503e+07	2.424220e+06	2.424220e+06
-1.890000e+00	-1.820000e+00	1.677726e+07	4.820528e+06	4.820528e+06
-1.820000e+00	-1.750000e+00	3.115690e+07	9.894556e+06	9.894556e+06
-1.750000e+00	-1.680000e+00	4.193599e+07	9.148553e+06	9.148553e+06
-1.680000e+00	-1.610000e+00	7.518367e+07	7.656399e+06	7.656399e+06
-1.610000e+00	-1.540000e+00	1.141434e+08	1.102385e+07	1.102385e+07
-1.540000e+00	-1.470000e+00	1.556577e+08	1.285869e+07	1.285869e+07
-1.470000e+00	-1.400000e+00	2.375306e+08	1.833659e+07	1.833659e+07
-1.400000e+00	-1.330000e+00	3.984729e+08	2.031829e+07	2.031829e+07
-1.330000e+00	-1.260000e+00	5.427843e+08	4.078422e+07	4.078422e+07
-1.260000e+00	-1.190000e+00	9.190724e+08	4.243544e+07	4.243544e+07
-1.190000e+00	-1.120000e+00	1.276694e+09	5.325970e+07	5.325970e+07
-1.120000e+00	-1.050000e+00	1.986171e+09	5.707451e+07	5.707451e+07
-1.050000e+00	-9.800000e-01	2.746073e+09	7.180919e+07	7.180919e+07
-9.800000e-01	-9.100000e-01	3.692109e+09	8.320826e+07	8.320826e+07
-9.100000e-01	-8.400000e-01	4.552259e+09	8.376243e+07	8.376243e+07
-8.400000e-01	-7.700000e-01	4.850139e+09	1.042780e+08	1.042780e+08
-7.700000e-01	-7.000000e-01	4.462670e+09	3.460087e+08	3.460087e+08
-7.000000e-01	-6.300000e-01	4.288379e+09	8.608098e+07	8.608098e+07
-6.300000e-01	-5.600000e-01	4.058996e+09	2.146253e+08	2.146253e+08
-5.600000e-01	-4.900000e-01	3.739320e+09	9.514451e+07	9.514451e+07
-4.900000e-01	-4.200000e-01	3.213656e+09	7.563793e+07	7.563793e+07
-4.200000e-01	-3.500000e-01	2.625490e+09	1.513196e+08	1.513196e+08
-3.500000e-01	-2.800000e-01	2.068383e+09	6.218593e+07	6.218593e+07
-2.800000e-01	-2.100000e-01	1.213862e+09	3.624566e+07	3.624566e+07
-2.100000e-01	-1.400000e-01	3.547966e+08	1.951904e+07	1.951904e+07
-1.400000e-01	-7.000000e-02	2.255643e+07	3.362583e+06	3.362583e+06
-7.000000e-02	0.000000e+00	-1.409717e+04	2.540886e+04	2.540886e+04
# END HISTO1D

