# BEGIN PLOT
LegendOnly=/zj_ps_nlo_mer_mur1_muf0.5_R4.yoda/PAPER_FIN_R4/SD_l05_pT_65_88
DrawOnly=/zj_ps_nlo_mer_mur1_muf0.5_R4.yoda/PAPER_FIN_R4/SD_l05_pT_65_88
Legend=1
LogY=1
# END PLOT

# BEGIN HISTO1D /zj_ps_nlo_mer_mur1_muf0.5_R4.yoda/PAPER_FIN_R4/SD_l05_pT_65_88
LineColor=red
LineStyle=solid
Path=/zj_ps_nlo_mer_mur1_muf0.5_R4.yoda/PAPER_FIN_R4/SD_l05_pT_65_88
Title=zj_ps_nlo_mer_mur1_muf0.5_R4
XLabel=~
YLabel=~
# xlow	 xhigh	 val	 errminus	 errplus
-7.000000e+00	-6.930000e+00	0.000000e+00	0.000000e+00	0.000000e+00
-6.930000e+00	-6.860000e+00	9.068907e+08	1.084008e+08	1.084008e+08
-6.860000e+00	-6.790000e+00	0.000000e+00	0.000000e+00	0.000000e+00
-6.790000e+00	-6.720000e+00	0.000000e+00	0.000000e+00	0.000000e+00
-6.720000e+00	-6.650000e+00	0.000000e+00	0.000000e+00	0.000000e+00
-6.650000e+00	-6.580000e+00	0.000000e+00	0.000000e+00	0.000000e+00
-6.580000e+00	-6.510000e+00	0.000000e+00	0.000000e+00	0.000000e+00
-6.510000e+00	-6.440000e+00	0.000000e+00	0.000000e+00	0.000000e+00
-6.440000e+00	-6.370000e+00	0.000000e+00	0.000000e+00	0.000000e+00
-6.370000e+00	-6.300000e+00	0.000000e+00	0.000000e+00	0.000000e+00
-6.300000e+00	-6.230000e+00	0.000000e+00	0.000000e+00	0.000000e+00
-6.230000e+00	-6.160000e+00	0.000000e+00	0.000000e+00	0.000000e+00
-6.160000e+00	-6.090000e+00	0.000000e+00	0.000000e+00	0.000000e+00
-6.090000e+00	-6.020000e+00	0.000000e+00	0.000000e+00	0.000000e+00
-6.020000e+00	-5.950000e+00	0.000000e+00	0.000000e+00	0.000000e+00
-5.950000e+00	-5.880000e+00	0.000000e+00	0.000000e+00	0.000000e+00
-5.880000e+00	-5.810000e+00	0.000000e+00	0.000000e+00	0.000000e+00
-5.810000e+00	-5.740000e+00	0.000000e+00	0.000000e+00	0.000000e+00
-5.740000e+00	-5.670000e+00	0.000000e+00	0.000000e+00	0.000000e+00
-5.670000e+00	-5.600000e+00	0.000000e+00	0.000000e+00	0.000000e+00
-5.600000e+00	-5.530000e+00	0.000000e+00	0.000000e+00	0.000000e+00
-5.530000e+00	-5.460000e+00	0.000000e+00	0.000000e+00	0.000000e+00
-5.460000e+00	-5.390000e+00	0.000000e+00	0.000000e+00	0.000000e+00
-5.390000e+00	-5.320000e+00	0.000000e+00	0.000000e+00	0.000000e+00
-5.320000e+00	-5.250000e+00	0.000000e+00	0.000000e+00	0.000000e+00
-5.250000e+00	-5.180000e+00	0.000000e+00	0.000000e+00	0.000000e+00
-5.180000e+00	-5.110000e+00	0.000000e+00	0.000000e+00	0.000000e+00
-5.110000e+00	-5.040000e+00	0.000000e+00	0.000000e+00	0.000000e+00
-5.040000e+00	-4.970000e+00	0.000000e+00	0.000000e+00	0.000000e+00
-4.970000e+00	-4.900000e+00	0.000000e+00	0.000000e+00	0.000000e+00
-4.900000e+00	-4.830000e+00	0.000000e+00	0.000000e+00	0.000000e+00
-4.830000e+00	-4.760000e+00	0.000000e+00	0.000000e+00	0.000000e+00
-4.760000e+00	-4.690000e+00	0.000000e+00	0.000000e+00	0.000000e+00
-4.690000e+00	-4.620000e+00	0.000000e+00	0.000000e+00	0.000000e+00
-4.620000e+00	-4.550000e+00	0.000000e+00	0.000000e+00	0.000000e+00
-4.550000e+00	-4.480000e+00	0.000000e+00	0.000000e+00	0.000000e+00
-4.480000e+00	-4.410000e+00	0.000000e+00	0.000000e+00	0.000000e+00
-4.410000e+00	-4.340000e+00	0.000000e+00	0.000000e+00	0.000000e+00
-4.340000e+00	-4.270000e+00	0.000000e+00	0.000000e+00	0.000000e+00
-4.270000e+00	-4.200000e+00	0.000000e+00	0.000000e+00	0.000000e+00
-4.200000e+00	-4.130000e+00	0.000000e+00	0.000000e+00	0.000000e+00
-4.130000e+00	-4.060000e+00	0.000000e+00	0.000000e+00	0.000000e+00
-4.060000e+00	-3.990000e+00	0.000000e+00	0.000000e+00	0.000000e+00
-3.990000e+00	-3.920000e+00	0.000000e+00	0.000000e+00	0.000000e+00
-3.920000e+00	-3.850000e+00	0.000000e+00	0.000000e+00	0.000000e+00
-3.850000e+00	-3.780000e+00	0.000000e+00	0.000000e+00	0.000000e+00
-3.780000e+00	-3.710000e+00	0.000000e+00	0.000000e+00	0.000000e+00
-3.710000e+00	-3.640000e+00	0.000000e+00	0.000000e+00	0.000000e+00
-3.640000e+00	-3.570000e+00	0.000000e+00	0.000000e+00	0.000000e+00
-3.570000e+00	-3.500000e+00	0.000000e+00	0.000000e+00	0.000000e+00
-3.500000e+00	-3.430000e+00	0.000000e+00	0.000000e+00	0.000000e+00
-3.430000e+00	-3.360000e+00	0.000000e+00	0.000000e+00	0.000000e+00
-3.360000e+00	-3.290000e+00	0.000000e+00	0.000000e+00	0.000000e+00
-3.290000e+00	-3.220000e+00	0.000000e+00	0.000000e+00	0.000000e+00
-3.220000e+00	-3.150000e+00	0.000000e+00	0.000000e+00	0.000000e+00
-3.150000e+00	-3.080000e+00	0.000000e+00	0.000000e+00	0.000000e+00
-3.080000e+00	-3.010000e+00	0.000000e+00	0.000000e+00	0.000000e+00
-3.010000e+00	-2.940000e+00	0.000000e+00	0.000000e+00	0.000000e+00
-2.940000e+00	-2.870000e+00	0.000000e+00	0.000000e+00	0.000000e+00
-2.870000e+00	-2.800000e+00	0.000000e+00	0.000000e+00	0.000000e+00
-2.800000e+00	-2.730000e+00	0.000000e+00	0.000000e+00	0.000000e+00
-2.730000e+00	-2.660000e+00	2.317150e+05	2.436122e+05	2.436122e+05
-2.660000e+00	-2.590000e+00	6.713217e+03	6.690381e+03	6.690381e+03
-2.590000e+00	-2.520000e+00	-1.093121e+03	1.834060e+03	1.834060e+03
-2.520000e+00	-2.450000e+00	1.955980e+05	1.559595e+05	1.559595e+05
-2.450000e+00	-2.380000e+00	-3.295503e+05	5.875681e+05	5.875681e+05
-2.380000e+00	-2.310000e+00	4.129681e+05	2.679693e+05	2.679693e+05
-2.310000e+00	-2.240000e+00	2.465427e+06	1.699674e+06	1.699674e+06
-2.240000e+00	-2.170000e+00	5.215369e+05	2.582939e+05	2.582939e+05
-2.170000e+00	-2.100000e+00	3.351904e+06	2.398358e+06	2.398358e+06
-2.100000e+00	-2.030000e+00	4.314190e+06	2.333866e+06	2.333866e+06
-2.030000e+00	-1.960000e+00	2.003626e+06	5.826493e+06	5.826493e+06
-1.960000e+00	-1.890000e+00	1.138303e+07	5.061437e+06	5.061437e+06
-1.890000e+00	-1.820000e+00	7.468709e+06	1.850067e+07	1.850067e+07
-1.820000e+00	-1.750000e+00	5.400090e+07	1.270215e+07	1.270215e+07
-1.750000e+00	-1.680000e+00	1.009760e+08	1.729481e+07	1.729481e+07
-1.680000e+00	-1.610000e+00	1.121951e+08	2.257344e+07	2.257344e+07
-1.610000e+00	-1.540000e+00	1.898277e+08	4.185877e+07	4.185877e+07
-1.540000e+00	-1.470000e+00	3.016023e+08	5.137122e+07	5.137122e+07
-1.470000e+00	-1.400000e+00	4.691423e+08	1.172497e+08	1.172497e+08
-1.400000e+00	-1.330000e+00	8.098857e+08	7.948705e+07	7.948705e+07
-1.330000e+00	-1.260000e+00	1.345508e+09	1.520056e+08	1.520056e+08
-1.260000e+00	-1.190000e+00	1.673177e+09	2.431425e+08	2.431425e+08
-1.190000e+00	-1.120000e+00	2.937961e+09	1.447093e+08	1.447093e+08
-1.120000e+00	-1.050000e+00	4.369707e+09	1.888495e+08	1.888495e+08
-1.050000e+00	-9.800000e-01	7.186053e+09	5.102994e+08	5.102994e+08
-9.800000e-01	-9.100000e-01	1.072714e+10	4.050790e+08	4.050790e+08
-9.100000e-01	-8.400000e-01	1.640024e+10	5.178474e+08	5.178474e+08
-8.400000e-01	-7.700000e-01	2.265583e+10	8.162415e+08	8.162415e+08
-7.700000e-01	-7.000000e-01	3.070947e+10	7.568141e+08	7.568141e+08
-7.000000e-01	-6.300000e-01	4.274041e+10	1.269938e+09	1.269938e+09
-6.300000e-01	-5.600000e-01	4.567180e+10	2.002591e+09	2.002591e+09
-5.600000e-01	-4.900000e-01	4.741354e+10	1.445129e+09	1.445129e+09
-4.900000e-01	-4.200000e-01	4.416509e+10	1.904082e+09	1.904082e+09
-4.200000e-01	-3.500000e-01	3.248794e+10	1.527051e+09	1.527051e+09
-3.500000e-01	-2.800000e-01	2.456706e+10	5.286467e+08	5.286467e+08
-2.800000e-01	-2.100000e-01	1.461019e+10	4.312204e+08	4.312204e+08
-2.100000e-01	-1.400000e-01	5.188606e+09	1.455850e+08	1.455850e+08
-1.400000e-01	-7.000000e-02	2.860887e+08	1.841850e+08	1.841850e+08
-7.000000e-02	0.000000e+00	1.896193e+06	1.585605e+06	1.585605e+06
# END HISTO1D

