# BEGIN PLOT
LegendOnly=/zj_ps_nlo_mer_mur1_muf0.5_R4.yoda/PAPER_FIN_R4/lin_l05_pT_150_186
DrawOnly=/zj_ps_nlo_mer_mur1_muf0.5_R4.yoda/PAPER_FIN_R4/lin_l05_pT_150_186
Legend=1
LogY=1
# END PLOT

# BEGIN HISTO1D /zj_ps_nlo_mer_mur1_muf0.5_R4.yoda/PAPER_FIN_R4/lin_l05_pT_150_186
LineColor=red
LineStyle=solid
Path=/zj_ps_nlo_mer_mur1_muf0.5_R4.yoda/PAPER_FIN_R4/lin_l05_pT_150_186
Title=zj_ps_nlo_mer_mur1_muf0.5_R4
XLabel=~
YLabel=~
# xlow	 xhigh	 val	 errminus	 errplus
0.000000e+00	1.700000e-01	4.240502e+09	1.124640e+08	1.124640e+08
1.700000e-01	2.500000e-01	1.776516e+10	3.206873e+08	3.206873e+08
2.500000e-01	3.200000e-01	1.304116e+10	2.480991e+08	2.480991e+08
3.200000e-01	3.800000e-01	7.938213e+09	1.974731e+08	1.974731e+08
3.800000e-01	4.500000e-01	5.121481e+09	1.528292e+08	1.528292e+08
4.500000e-01	5.200000e-01	3.057221e+09	8.985187e+07	8.985187e+07
5.200000e-01	5.900000e-01	1.872800e+09	1.431906e+08	1.431906e+08
5.900000e-01	1.000000e+00	1.655253e+08	6.262534e+06	6.262534e+06
# END HISTO1D

