# BEGIN PLOT
LegendOnly=/zj_ps_nlo_mer_mur1_muf0.5_R4.yoda/PAPER_FIN_R4_CH/lin_SD_l10_pT_120_150
DrawOnly=/zj_ps_nlo_mer_mur1_muf0.5_R4.yoda/PAPER_FIN_R4_CH/lin_SD_l10_pT_120_150
Legend=1
LogY=1
# END PLOT

# BEGIN HISTO1D /zj_ps_nlo_mer_mur1_muf0.5_R4.yoda/PAPER_FIN_R4_CH/lin_SD_l10_pT_120_150
LineColor=red
LineStyle=solid
Path=/zj_ps_nlo_mer_mur1_muf0.5_R4.yoda/PAPER_FIN_R4_CH/lin_SD_l10_pT_120_150
Title=zj_ps_nlo_mer_mur1_muf0.5_R4
XLabel=~
YLabel=~
# xlow	 xhigh	 val	 errminus	 errplus
0.000000e+00	1.250000e-02	2.476482e+10	8.536101e+08	8.536101e+08
1.250000e-02	2.250000e-02	4.884214e+10	1.887696e+09	1.887696e+09
2.250000e-02	3.500000e-02	6.211779e+10	1.906479e+09	1.906479e+09
3.500000e-02	5.000000e-02	5.980062e+10	1.264986e+09	1.264986e+09
5.000000e-02	7.000000e-02	4.360048e+10	2.612988e+09	2.612988e+09
7.000000e-02	9.500000e-02	3.239714e+10	7.499774e+08	7.499774e+08
9.500000e-02	1.280000e-01	2.104154e+10	6.823149e+08	6.823149e+08
1.280000e-01	1.700000e-01	1.488583e+10	4.075944e+08	4.075944e+08
1.700000e-01	2.250000e-01	9.953029e+09	4.125781e+08	4.125781e+08
2.250000e-01	2.900000e-01	6.800197e+09	1.699498e+08	1.699498e+08
2.900000e-01	3.650000e-01	4.307260e+09	1.051676e+08	1.051676e+08
3.650000e-01	4.500000e-01	2.270595e+09	7.285938e+07	7.285938e+07
4.500000e-01	1.000000e+00	2.571549e+08	9.557335e+06	9.557335e+06
# END HISTO1D

