# BEGIN PLOT
LegendOnly=/zj_ps_nlo_mer_mur1_muf0.5_R4.yoda/PAPER_FIN_R4_CH/lin_l10_pT_326_408
DrawOnly=/zj_ps_nlo_mer_mur1_muf0.5_R4.yoda/PAPER_FIN_R4_CH/lin_l10_pT_326_408
Legend=1
LogY=1
# END PLOT

# BEGIN HISTO1D /zj_ps_nlo_mer_mur1_muf0.5_R4.yoda/PAPER_FIN_R4_CH/lin_l10_pT_326_408
LineColor=red
LineStyle=solid
Path=/zj_ps_nlo_mer_mur1_muf0.5_R4.yoda/PAPER_FIN_R4_CH/lin_l10_pT_326_408
Title=zj_ps_nlo_mer_mur1_muf0.5_R4
XLabel=~
YLabel=~
# xlow	 xhigh	 val	 errminus	 errplus
0.000000e+00	2.250000e-02	7.162831e+08	4.500851e+07	4.500851e+07
2.250000e-02	4.000000e-02	4.292302e+09	1.674506e+08	1.674506e+08
4.000000e-02	5.750000e-02	4.755050e+09	2.438618e+08	2.438618e+08
5.750000e-02	7.750000e-02	3.372840e+09	1.261841e+08	1.261841e+08
7.750000e-02	1.000000e-01	2.576257e+09	8.091558e+07	8.091558e+07
1.000000e-01	1.250000e-01	1.708143e+09	1.237310e+08	1.237310e+08
1.250000e-01	1.520000e-01	1.323973e+09	5.103235e+07	5.103235e+07
1.520000e-01	1.850000e-01	1.026660e+09	8.020891e+07	8.020891e+07
1.850000e-01	2.200000e-01	6.735886e+08	2.512906e+07	2.512906e+07
2.200000e-01	2.600000e-01	4.736097e+08	2.982313e+07	2.982313e+07
2.600000e-01	3.070000e-01	2.960332e+08	2.498388e+07	2.498388e+07
3.070000e-01	3.620000e-01	2.298209e+08	1.428209e+07	1.428209e+07
3.620000e-01	4.250000e-01	1.393010e+08	9.064498e+06	9.064498e+06
4.250000e-01	4.970000e-01	6.692411e+07	8.440438e+06	8.440438e+06
4.970000e-01	1.000000e+00	7.252042e+06	1.222300e+06	1.222300e+06
# END HISTO1D

