# BEGIN PLOT
LegendOnly=/zj_ps_nlo_mer_cent_R4.yoda/PAPER_FIN_R4/l05_pT_88_120
DrawOnly=/zj_ps_nlo_mer_cent_R4.yoda/PAPER_FIN_R4/l05_pT_88_120
Legend=1
LogY=1
# END PLOT

# BEGIN HISTO1D /zj_ps_nlo_mer_cent_R4.yoda/PAPER_FIN_R4/l05_pT_88_120
LineColor=red
LineStyle=solid
Path=/zj_ps_nlo_mer_cent_R4.yoda/PAPER_FIN_R4/l05_pT_88_120
Title=zj_ps_nlo_mer_cent_R4
XLabel=~
YLabel=~
# xlow	 xhigh	 val	 errminus	 errplus
-7.000000e+00	-6.930000e+00	0.000000e+00	0.000000e+00	0.000000e+00
-6.930000e+00	-6.860000e+00	-5.499966e+03	5.819278e+03	5.819278e+03
-6.860000e+00	-6.790000e+00	0.000000e+00	0.000000e+00	0.000000e+00
-6.790000e+00	-6.720000e+00	0.000000e+00	0.000000e+00	0.000000e+00
-6.720000e+00	-6.650000e+00	0.000000e+00	0.000000e+00	0.000000e+00
-6.650000e+00	-6.580000e+00	0.000000e+00	0.000000e+00	0.000000e+00
-6.580000e+00	-6.510000e+00	0.000000e+00	0.000000e+00	0.000000e+00
-6.510000e+00	-6.440000e+00	0.000000e+00	0.000000e+00	0.000000e+00
-6.440000e+00	-6.370000e+00	0.000000e+00	0.000000e+00	0.000000e+00
-6.370000e+00	-6.300000e+00	0.000000e+00	0.000000e+00	0.000000e+00
-6.300000e+00	-6.230000e+00	0.000000e+00	0.000000e+00	0.000000e+00
-6.230000e+00	-6.160000e+00	0.000000e+00	0.000000e+00	0.000000e+00
-6.160000e+00	-6.090000e+00	0.000000e+00	0.000000e+00	0.000000e+00
-6.090000e+00	-6.020000e+00	0.000000e+00	0.000000e+00	0.000000e+00
-6.020000e+00	-5.950000e+00	0.000000e+00	0.000000e+00	0.000000e+00
-5.950000e+00	-5.880000e+00	0.000000e+00	0.000000e+00	0.000000e+00
-5.880000e+00	-5.810000e+00	0.000000e+00	0.000000e+00	0.000000e+00
-5.810000e+00	-5.740000e+00	0.000000e+00	0.000000e+00	0.000000e+00
-5.740000e+00	-5.670000e+00	0.000000e+00	0.000000e+00	0.000000e+00
-5.670000e+00	-5.600000e+00	0.000000e+00	0.000000e+00	0.000000e+00
-5.600000e+00	-5.530000e+00	0.000000e+00	0.000000e+00	0.000000e+00
-5.530000e+00	-5.460000e+00	0.000000e+00	0.000000e+00	0.000000e+00
-5.460000e+00	-5.390000e+00	0.000000e+00	0.000000e+00	0.000000e+00
-5.390000e+00	-5.320000e+00	0.000000e+00	0.000000e+00	0.000000e+00
-5.320000e+00	-5.250000e+00	0.000000e+00	0.000000e+00	0.000000e+00
-5.250000e+00	-5.180000e+00	0.000000e+00	0.000000e+00	0.000000e+00
-5.180000e+00	-5.110000e+00	0.000000e+00	0.000000e+00	0.000000e+00
-5.110000e+00	-5.040000e+00	0.000000e+00	0.000000e+00	0.000000e+00
-5.040000e+00	-4.970000e+00	0.000000e+00	0.000000e+00	0.000000e+00
-4.970000e+00	-4.900000e+00	0.000000e+00	0.000000e+00	0.000000e+00
-4.900000e+00	-4.830000e+00	0.000000e+00	0.000000e+00	0.000000e+00
-4.830000e+00	-4.760000e+00	0.000000e+00	0.000000e+00	0.000000e+00
-4.760000e+00	-4.690000e+00	0.000000e+00	0.000000e+00	0.000000e+00
-4.690000e+00	-4.620000e+00	0.000000e+00	0.000000e+00	0.000000e+00
-4.620000e+00	-4.550000e+00	0.000000e+00	0.000000e+00	0.000000e+00
-4.550000e+00	-4.480000e+00	0.000000e+00	0.000000e+00	0.000000e+00
-4.480000e+00	-4.410000e+00	0.000000e+00	0.000000e+00	0.000000e+00
-4.410000e+00	-4.340000e+00	0.000000e+00	0.000000e+00	0.000000e+00
-4.340000e+00	-4.270000e+00	0.000000e+00	0.000000e+00	0.000000e+00
-4.270000e+00	-4.200000e+00	0.000000e+00	0.000000e+00	0.000000e+00
-4.200000e+00	-4.130000e+00	0.000000e+00	0.000000e+00	0.000000e+00
-4.130000e+00	-4.060000e+00	0.000000e+00	0.000000e+00	0.000000e+00
-4.060000e+00	-3.990000e+00	0.000000e+00	0.000000e+00	0.000000e+00
-3.990000e+00	-3.920000e+00	0.000000e+00	0.000000e+00	0.000000e+00
-3.920000e+00	-3.850000e+00	0.000000e+00	0.000000e+00	0.000000e+00
-3.850000e+00	-3.780000e+00	0.000000e+00	0.000000e+00	0.000000e+00
-3.780000e+00	-3.710000e+00	0.000000e+00	0.000000e+00	0.000000e+00
-3.710000e+00	-3.640000e+00	0.000000e+00	0.000000e+00	0.000000e+00
-3.640000e+00	-3.570000e+00	0.000000e+00	0.000000e+00	0.000000e+00
-3.570000e+00	-3.500000e+00	0.000000e+00	0.000000e+00	0.000000e+00
-3.500000e+00	-3.430000e+00	0.000000e+00	0.000000e+00	0.000000e+00
-3.430000e+00	-3.360000e+00	0.000000e+00	0.000000e+00	0.000000e+00
-3.360000e+00	-3.290000e+00	0.000000e+00	0.000000e+00	0.000000e+00
-3.290000e+00	-3.220000e+00	0.000000e+00	0.000000e+00	0.000000e+00
-3.220000e+00	-3.150000e+00	0.000000e+00	0.000000e+00	0.000000e+00
-3.150000e+00	-3.080000e+00	0.000000e+00	0.000000e+00	0.000000e+00
-3.080000e+00	-3.010000e+00	0.000000e+00	0.000000e+00	0.000000e+00
-3.010000e+00	-2.940000e+00	0.000000e+00	0.000000e+00	0.000000e+00
-2.940000e+00	-2.870000e+00	0.000000e+00	0.000000e+00	0.000000e+00
-2.870000e+00	-2.800000e+00	0.000000e+00	0.000000e+00	0.000000e+00
-2.800000e+00	-2.730000e+00	9.759209e+02	9.759209e+02	9.759209e+02
-2.730000e+00	-2.660000e+00	-2.018581e-05	2.018582e-05	2.018582e-05
-2.660000e+00	-2.590000e+00	0.000000e+00	0.000000e+00	0.000000e+00
-2.590000e+00	-2.520000e+00	1.715726e-03	1.715726e-03	1.715726e-03
-2.520000e+00	-2.450000e+00	-9.246537e+04	9.328434e+04	9.328434e+04
-2.450000e+00	-2.380000e+00	2.067414e+04	1.883904e+04	1.883904e+04
-2.380000e+00	-2.310000e+00	-7.918094e+03	1.133019e+04	1.133019e+04
-2.310000e+00	-2.240000e+00	6.467207e+03	5.219872e+03	5.219872e+03
-2.240000e+00	-2.170000e+00	1.088284e+05	1.059860e+05	1.059860e+05
-2.170000e+00	-2.100000e+00	5.190843e+05	2.610073e+05	2.610073e+05
-2.100000e+00	-2.030000e+00	-2.413370e+04	7.950179e+04	7.950179e+04
-2.030000e+00	-1.960000e+00	5.274316e+03	2.492796e+05	2.492796e+05
-1.960000e+00	-1.890000e+00	1.825379e+06	6.964821e+05	6.964821e+05
-1.890000e+00	-1.820000e+00	1.704490e+06	1.078392e+06	1.078392e+06
-1.820000e+00	-1.750000e+00	2.940494e+06	1.510152e+06	1.510152e+06
-1.750000e+00	-1.680000e+00	5.837116e+06	1.954610e+06	1.954610e+06
-1.680000e+00	-1.610000e+00	5.368509e+06	3.403287e+06	3.403287e+06
-1.610000e+00	-1.540000e+00	7.232319e+06	3.496031e+06	3.496031e+06
-1.540000e+00	-1.470000e+00	1.469554e+07	3.764893e+06	3.764893e+06
-1.470000e+00	-1.400000e+00	3.682067e+07	4.724394e+06	4.724394e+06
-1.400000e+00	-1.330000e+00	3.227113e+07	1.973389e+07	1.973389e+07
-1.330000e+00	-1.260000e+00	1.009225e+08	9.820258e+06	9.820258e+06
-1.260000e+00	-1.190000e+00	1.717799e+08	1.488387e+07	1.488387e+07
-1.190000e+00	-1.120000e+00	3.778357e+08	2.327123e+07	2.327123e+07
-1.120000e+00	-1.050000e+00	7.156260e+08	5.007297e+07	5.007297e+07
-1.050000e+00	-9.800000e-01	1.527500e+09	4.833731e+07	4.833731e+07
-9.800000e-01	-9.100000e-01	2.720566e+09	5.710231e+07	5.710231e+07
-9.100000e-01	-8.400000e-01	5.219557e+09	2.754745e+08	2.754745e+08
-8.400000e-01	-7.700000e-01	1.014738e+10	1.498706e+08	1.498706e+08
-7.700000e-01	-7.000000e-01	1.827336e+10	1.731700e+08	1.731700e+08
-7.000000e-01	-6.300000e-01	2.791280e+10	2.478838e+08	2.478838e+08
-6.300000e-01	-5.600000e-01	3.490909e+10	9.394622e+08	9.394622e+08
-5.600000e-01	-4.900000e-01	3.677720e+10	2.420949e+08	2.420949e+08
-4.900000e-01	-4.200000e-01	3.128789e+10	2.318555e+08	2.318555e+08
-4.200000e-01	-3.500000e-01	2.276227e+10	2.172211e+08	2.172211e+08
-3.500000e-01	-2.800000e-01	1.452900e+10	1.374287e+08	1.374287e+08
-2.800000e-01	-2.100000e-01	7.488174e+09	1.145966e+08	1.145966e+08
-2.100000e-01	-1.400000e-01	1.961926e+09	5.618119e+07	5.618119e+07
-1.400000e-01	-7.000000e-02	9.057134e+07	2.434087e+07	2.434087e+07
-7.000000e-02	0.000000e+00	-1.676201e+06	2.146205e+06	2.146205e+06
# END HISTO1D

