# BEGIN PLOT
LegendOnly=/zj_ps_nlo_mer_cent_R4.yoda/PAPER_FIN_R4_CH/lin_l05_pT_150_186
DrawOnly=/zj_ps_nlo_mer_cent_R4.yoda/PAPER_FIN_R4_CH/lin_l05_pT_150_186
Legend=1
LogY=1
# END PLOT

# BEGIN HISTO1D /zj_ps_nlo_mer_cent_R4.yoda/PAPER_FIN_R4_CH/lin_l05_pT_150_186
LineColor=red
LineStyle=solid
Path=/zj_ps_nlo_mer_cent_R4.yoda/PAPER_FIN_R4_CH/lin_l05_pT_150_186
Title=zj_ps_nlo_mer_cent_R4
XLabel=~
YLabel=~
# xlow	 xhigh	 val	 errminus	 errplus
0.000000e+00	6.000000e-02	1.717992e+08	1.891058e+07	1.891058e+07
6.000000e-02	1.100000e-01	2.074256e+09	1.505833e+08	1.505833e+08
1.100000e-01	1.500000e-01	8.294090e+09	1.430369e+08	1.430369e+08
1.500000e-01	1.900000e-01	1.525004e+10	1.617801e+08	1.617801e+08
1.900000e-01	2.300000e-01	1.808451e+10	1.809100e+08	1.809100e+08
2.300000e-01	2.700000e-01	1.443902e+10	9.696149e+08	9.696149e+08
2.700000e-01	3.100000e-01	1.184879e+10	1.987430e+08	1.987430e+08
3.100000e-01	3.500000e-01	9.136845e+09	1.130084e+08	1.130084e+08
3.500000e-01	3.900000e-01	6.479070e+09	1.134332e+08	1.134332e+08
3.900000e-01	4.400000e-01	4.946402e+09	7.615925e+07	7.615925e+07
4.400000e-01	4.900000e-01	3.416592e+09	4.830321e+07	4.830321e+07
4.900000e-01	5.400000e-01	2.214470e+09	5.032842e+07	5.032842e+07
5.400000e-01	6.000000e-01	1.283675e+09	3.149026e+07	3.149026e+07
6.000000e-01	1.000000e+00	1.253903e+08	4.503924e+06	4.503924e+06
# END HISTO1D

