# BEGIN PLOT
LegendOnly=/zj_ps_nlo_mer_mur2_muf1_R8.yoda/PAPER_FIN_R8/l10_pT_254_326
DrawOnly=/zj_ps_nlo_mer_mur2_muf1_R8.yoda/PAPER_FIN_R8/l10_pT_254_326
Legend=1
LogY=1
# END PLOT

# BEGIN HISTO1D /zj_ps_nlo_mer_mur2_muf1_R8.yoda/PAPER_FIN_R8/l10_pT_254_326
LineColor=red
LineStyle=solid
Path=/zj_ps_nlo_mer_mur2_muf1_R8.yoda/PAPER_FIN_R8/l10_pT_254_326
Title=zj_ps_nlo_mer_mur2_muf1_R8
XLabel=~
YLabel=~
# xlow	 xhigh	 val	 errminus	 errplus
-7.000000e+00	-6.930000e+00	0.000000e+00	0.000000e+00	0.000000e+00
-6.930000e+00	-6.860000e+00	6.588966e+08	2.449893e+07	2.449893e+07
-6.860000e+00	-6.790000e+00	3.178080e-01	3.179672e-01	3.179672e-01
-6.790000e+00	-6.720000e+00	8.557480e-02	2.472471e-01	2.472471e-01
-6.720000e+00	-6.650000e+00	1.105231e+01	1.110975e+01	1.110975e+01
-6.650000e+00	-6.580000e+00	-1.141131e+03	1.142561e+03	1.142561e+03
-6.580000e+00	-6.510000e+00	3.462154e-01	1.072317e+00	1.072317e+00
-6.510000e+00	-6.440000e+00	-2.992613e-01	2.989540e-01	2.989540e-01
-6.440000e+00	-6.370000e+00	6.073094e+00	4.857063e+00	4.857063e+00
-6.370000e+00	-6.300000e+00	2.864577e+00	2.833478e+00	2.833478e+00
-6.300000e+00	-6.230000e+00	-1.508060e+01	1.591995e+01	1.591995e+01
-6.230000e+00	-6.160000e+00	1.606393e+04	1.501792e+04	1.501792e+04
-6.160000e+00	-6.090000e+00	-4.582123e+03	4.596882e+03	4.596882e+03
-6.090000e+00	-6.020000e+00	2.598814e+03	4.553886e+03	4.553886e+03
-6.020000e+00	-5.950000e+00	5.414496e+01	8.983422e+01	8.983422e+01
-5.950000e+00	-5.880000e+00	1.287665e+00	1.304262e+00	1.304262e+00
-5.880000e+00	-5.810000e+00	-9.968421e+04	9.967286e+04	9.967286e+04
-5.810000e+00	-5.740000e+00	2.257977e+04	2.205301e+04	2.205301e+04
-5.740000e+00	-5.670000e+00	-7.008383e+03	7.332596e+03	7.332596e+03
-5.670000e+00	-5.600000e+00	-7.328021e+04	7.376546e+04	7.376546e+04
-5.600000e+00	-5.530000e+00	-2.075463e+04	2.069324e+04	2.069324e+04
-5.530000e+00	-5.460000e+00	8.797144e+03	6.515855e+03	6.515855e+03
-5.460000e+00	-5.390000e+00	-1.037117e+04	1.034240e+04	1.034240e+04
-5.390000e+00	-5.320000e+00	-7.073560e+03	1.017832e+04	1.017832e+04
-5.320000e+00	-5.250000e+00	7.716303e+03	5.500082e+03	5.500082e+03
-5.250000e+00	-5.180000e+00	-5.383130e+01	5.976211e+01	5.976211e+01
-5.180000e+00	-5.110000e+00	-9.262714e+01	2.496857e+02	2.496857e+02
-5.110000e+00	-5.040000e+00	-3.868300e+02	1.077290e+03	1.077290e+03
-5.040000e+00	-4.970000e+00	-7.430226e+04	5.336170e+04	5.336170e+04
-4.970000e+00	-4.900000e+00	3.632844e+03	3.253734e+03	3.253734e+03
-4.900000e+00	-4.830000e+00	-5.882621e+04	4.842541e+04	4.842541e+04
-4.830000e+00	-4.760000e+00	5.809810e+04	5.723300e+04	5.723300e+04
-4.760000e+00	-4.690000e+00	5.172434e+04	3.973885e+04	3.973885e+04
-4.690000e+00	-4.620000e+00	-6.950290e+04	6.211002e+04	6.211002e+04
-4.620000e+00	-4.550000e+00	5.076250e+04	2.991680e+04	2.991680e+04
-4.550000e+00	-4.480000e+00	1.530974e+03	8.386972e+03	8.386972e+03
-4.480000e+00	-4.410000e+00	-6.319267e+03	2.481886e+04	2.481886e+04
-4.410000e+00	-4.340000e+00	7.195474e+04	1.984983e+05	1.984983e+05
-4.340000e+00	-4.270000e+00	3.243109e+05	2.140272e+05	2.140272e+05
-4.270000e+00	-4.200000e+00	2.308636e+05	1.214679e+05	1.214679e+05
-4.200000e+00	-4.130000e+00	-2.368033e+04	6.107523e+04	6.107523e+04
-4.130000e+00	-4.060000e+00	1.031894e+06	7.601278e+05	7.601278e+05
-4.060000e+00	-3.990000e+00	9.081566e+05	5.926184e+05	5.926184e+05
-3.990000e+00	-3.920000e+00	9.794826e+05	5.192324e+05	5.192324e+05
-3.920000e+00	-3.850000e+00	2.883137e+05	5.195005e+05	5.195005e+05
-3.850000e+00	-3.780000e+00	5.736877e+04	1.915146e+05	1.915146e+05
-3.780000e+00	-3.710000e+00	-4.726901e+04	2.078835e+05	2.078835e+05
-3.710000e+00	-3.640000e+00	1.204447e+06	6.083809e+05	6.083809e+05
-3.640000e+00	-3.570000e+00	-1.182253e+05	3.311689e+05	3.311689e+05
-3.570000e+00	-3.500000e+00	2.272944e+06	1.281772e+06	1.281772e+06
-3.500000e+00	-3.430000e+00	1.691579e+06	6.472933e+05	6.472933e+05
-3.430000e+00	-3.360000e+00	1.174274e+06	8.117541e+05	8.117541e+05
-3.360000e+00	-3.290000e+00	-6.105554e+05	2.449031e+06	2.449031e+06
-3.290000e+00	-3.220000e+00	1.486210e+06	1.320179e+06	1.320179e+06
-3.220000e+00	-3.150000e+00	6.021161e+06	1.768069e+06	1.768069e+06
-3.150000e+00	-3.080000e+00	6.229886e+06	3.251262e+06	3.251262e+06
-3.080000e+00	-3.010000e+00	3.560930e+06	1.601327e+06	1.601327e+06
-3.010000e+00	-2.940000e+00	5.183023e+06	3.422462e+06	3.422462e+06
-2.940000e+00	-2.870000e+00	1.250432e+07	3.765093e+06	3.765093e+06
-2.870000e+00	-2.800000e+00	9.821314e+06	3.032199e+06	3.032199e+06
-2.800000e+00	-2.730000e+00	1.200311e+07	2.328070e+06	2.328070e+06
-2.730000e+00	-2.660000e+00	1.370685e+07	2.367717e+06	2.367717e+06
-2.660000e+00	-2.590000e+00	1.564373e+07	6.883255e+06	6.883255e+06
-2.590000e+00	-2.520000e+00	2.952817e+07	6.347143e+06	6.347143e+06
-2.520000e+00	-2.450000e+00	3.189819e+07	4.274983e+06	4.274983e+06
-2.450000e+00	-2.380000e+00	5.071476e+07	1.277037e+07	1.277037e+07
-2.380000e+00	-2.310000e+00	8.111439e+07	8.941204e+06	8.941204e+06
-2.310000e+00	-2.240000e+00	2.000901e+08	1.221577e+07	1.221577e+07
-2.240000e+00	-2.170000e+00	2.137027e+08	1.619045e+07	1.619045e+07
-2.170000e+00	-2.100000e+00	2.447581e+08	1.579684e+07	1.579684e+07
-2.100000e+00	-2.030000e+00	2.733561e+08	1.555244e+07	1.555244e+07
-2.030000e+00	-1.960000e+00	3.220327e+08	2.951707e+07	2.951707e+07
-1.960000e+00	-1.890000e+00	3.723904e+08	2.616842e+07	2.616842e+07
-1.890000e+00	-1.820000e+00	4.713907e+08	2.184042e+07	2.184042e+07
-1.820000e+00	-1.750000e+00	5.817290e+08	3.117430e+07	3.117430e+07
-1.750000e+00	-1.680000e+00	6.515747e+08	2.705708e+07	2.705708e+07
-1.680000e+00	-1.610000e+00	7.468504e+08	3.234763e+07	3.234763e+07
-1.610000e+00	-1.540000e+00	7.646957e+08	2.866833e+07	2.866833e+07
-1.540000e+00	-1.470000e+00	9.830387e+08	5.476706e+07	5.476706e+07
-1.470000e+00	-1.400000e+00	1.024643e+09	3.171733e+07	3.171733e+07
-1.400000e+00	-1.330000e+00	1.065980e+09	5.434056e+07	5.434056e+07
-1.330000e+00	-1.260000e+00	1.123862e+09	2.975347e+07	2.975347e+07
-1.260000e+00	-1.190000e+00	1.058119e+09	5.171186e+07	5.171186e+07
-1.190000e+00	-1.120000e+00	1.152709e+09	2.762578e+07	2.762578e+07
-1.120000e+00	-1.050000e+00	1.182796e+09	3.461615e+07	3.461615e+07
-1.050000e+00	-9.800000e-01	1.340224e+09	2.611784e+08	2.611784e+08
-9.800000e-01	-9.100000e-01	1.116267e+09	4.966919e+07	4.966919e+07
-9.100000e-01	-8.400000e-01	1.085431e+09	2.794719e+07	2.794719e+07
-8.400000e-01	-7.700000e-01	1.031196e+09	2.948932e+07	2.948932e+07
-7.700000e-01	-7.000000e-01	9.764767e+08	4.426129e+07	4.426129e+07
-7.000000e-01	-6.300000e-01	8.799543e+08	3.149147e+07	3.149147e+07
-6.300000e-01	-5.600000e-01	7.798796e+08	2.754375e+07	2.754375e+07
-5.600000e-01	-4.900000e-01	7.438774e+08	3.111182e+07	3.111182e+07
-4.900000e-01	-4.200000e-01	5.759000e+08	2.164089e+07	2.164089e+07
-4.200000e-01	-3.500000e-01	3.975089e+08	2.274217e+07	2.274217e+07
-3.500000e-01	-2.800000e-01	1.920779e+08	1.038120e+07	1.038120e+07
-2.800000e-01	-2.100000e-01	5.462613e+07	8.251554e+06	8.251554e+06
-2.100000e-01	-1.400000e-01	7.213386e+06	1.951365e+06	1.951365e+06
-1.400000e-01	-7.000000e-02	6.186563e+05	4.284811e+05	4.284811e+05
-7.000000e-02	0.000000e+00	1.025386e+03	1.194643e+03	1.194643e+03
# END HISTO1D

