# BEGIN PLOT
LegendOnly=/zj_ps_nlo_mer_mur2_muf1_R8.yoda/PAPER_FIN_R8/lin_SD_l20_pT_408_1500
DrawOnly=/zj_ps_nlo_mer_mur2_muf1_R8.yoda/PAPER_FIN_R8/lin_SD_l20_pT_408_1500
Legend=1
LogY=1
# END PLOT

# BEGIN HISTO1D /zj_ps_nlo_mer_mur2_muf1_R8.yoda/PAPER_FIN_R8/lin_SD_l20_pT_408_1500
LineColor=red
LineStyle=solid
Path=/zj_ps_nlo_mer_mur2_muf1_R8.yoda/PAPER_FIN_R8/lin_SD_l20_pT_408_1500
Title=zj_ps_nlo_mer_mur2_muf1_R8
XLabel=~
YLabel=~
# xlow	 xhigh	 val	 errminus	 errplus
0.000000e+00	2.500000e-03	1.035216e+11	1.618123e+09	1.618123e+09
2.500000e-03	1.000000e-02	7.076117e+09	3.394389e+08	3.394389e+08
1.000000e-02	2.500000e-02	2.748238e+09	9.567226e+07	9.567226e+07
2.500000e-02	6.000000e-02	1.336942e+09	4.905937e+07	4.905937e+07
6.000000e-02	1.200000e-01	7.612987e+08	3.385780e+07	3.385780e+07
1.200000e-01	1.770000e-01	4.156063e+08	2.218415e+07	2.218415e+07
1.770000e-01	2.300000e-01	2.218581e+08	1.352830e+07	1.352830e+07
2.300000e-01	1.000000e+00	7.015800e+06	5.445696e+05	5.445696e+05
# END HISTO1D

