# BEGIN PLOT
LegendOnly=/zj_ps_nlo_mer_mur2_muf1_R8.yoda/PAPER_FIN_R8/ch_l05_pT_120_150
DrawOnly=/zj_ps_nlo_mer_mur2_muf1_R8.yoda/PAPER_FIN_R8/ch_l05_pT_120_150
Legend=1
LogY=1
# END PLOT

# BEGIN HISTO1D /zj_ps_nlo_mer_mur2_muf1_R8.yoda/PAPER_FIN_R8/ch_l05_pT_120_150
LineColor=red
LineStyle=solid
Path=/zj_ps_nlo_mer_mur2_muf1_R8.yoda/PAPER_FIN_R8/ch_l05_pT_120_150
Title=zj_ps_nlo_mer_mur2_muf1_R8
XLabel=~
YLabel=~
# xlow	 xhigh	 val	 errminus	 errplus
-7.000000e+00	-6.930000e+00	0.000000e+00	0.000000e+00	0.000000e+00
-6.930000e+00	-6.860000e+00	7.303509e+10	5.689503e+08	5.689503e+08
-6.860000e+00	-6.790000e+00	0.000000e+00	0.000000e+00	0.000000e+00
-6.790000e+00	-6.720000e+00	-1.603721e+01	1.600355e+01	1.600355e+01
-6.720000e+00	-6.650000e+00	-2.390663e-04	2.390663e-04	2.390663e-04
-6.650000e+00	-6.580000e+00	-3.409839e+01	3.409296e+01	3.409296e+01
-6.580000e+00	-6.510000e+00	1.378852e-02	1.378852e-02	1.378852e-02
-6.510000e+00	-6.440000e+00	-4.150241e+00	3.785696e+00	3.785696e+00
-6.440000e+00	-6.370000e+00	0.000000e+00	0.000000e+00	0.000000e+00
-6.370000e+00	-6.300000e+00	-2.148979e-01	2.148981e-01	2.148981e-01
-6.300000e+00	-6.230000e+00	-1.933009e+00	1.571287e+00	1.571287e+00
-6.230000e+00	-6.160000e+00	-1.692946e+01	1.671394e+01	1.671394e+01
-6.160000e+00	-6.090000e+00	-1.416709e+00	1.171089e+00	1.171089e+00
-6.090000e+00	-6.020000e+00	-1.086606e+02	1.075239e+02	1.075239e+02
-6.020000e+00	-5.950000e+00	7.547177e-01	6.091094e-01	6.091094e-01
-5.950000e+00	-5.880000e+00	-6.685487e+02	3.839513e+02	3.839513e+02
-5.880000e+00	-5.810000e+00	-1.795900e+01	3.405271e+01	3.405271e+01
-5.810000e+00	-5.740000e+00	-1.046417e+02	9.802901e+01	9.802901e+01
-5.740000e+00	-5.670000e+00	-4.553366e+01	3.629969e+01	3.629969e+01
-5.670000e+00	-5.600000e+00	-4.305187e+01	3.802314e+01	3.802314e+01
-5.600000e+00	-5.530000e+00	6.515457e+01	7.980098e+01	7.980098e+01
-5.530000e+00	-5.460000e+00	-2.922296e+01	3.767672e+01	3.767672e+01
-5.460000e+00	-5.390000e+00	-1.620893e+02	1.085121e+02	1.085121e+02
-5.390000e+00	-5.320000e+00	-2.552740e+01	2.104900e+01	2.104900e+01
-5.320000e+00	-5.250000e+00	-1.865114e+02	1.530037e+02	1.530037e+02
-5.250000e+00	-5.180000e+00	-1.259707e+02	1.076163e+02	1.076163e+02
-5.180000e+00	-5.110000e+00	-1.563091e+02	1.017780e+02	1.017780e+02
-5.110000e+00	-5.040000e+00	-2.384220e+01	2.902481e+01	2.902481e+01
-5.040000e+00	-4.970000e+00	-1.487666e+03	1.435225e+03	1.435225e+03
-4.970000e+00	-4.900000e+00	-2.076603e+02	1.110371e+02	1.110371e+02
-4.900000e+00	-4.830000e+00	-1.759029e+02	1.913056e+02	1.913056e+02
-4.830000e+00	-4.760000e+00	1.508179e+04	1.543723e+04	1.543723e+04
-4.760000e+00	-4.690000e+00	-5.207943e+02	3.192526e+02	3.192526e+02
-4.690000e+00	-4.620000e+00	1.897299e+04	2.145830e+04	2.145830e+04
-4.620000e+00	-4.550000e+00	-4.104923e+03	3.249720e+03	3.249720e+03
-4.550000e+00	-4.480000e+00	-5.513711e+02	6.373949e+02	6.373949e+02
-4.480000e+00	-4.410000e+00	2.005044e+04	1.641489e+04	1.641489e+04
-4.410000e+00	-4.340000e+00	4.276873e+05	3.846716e+05	3.846716e+05
-4.340000e+00	-4.270000e+00	5.411679e+05	4.223216e+05	4.223216e+05
-4.270000e+00	-4.200000e+00	9.504590e+05	4.272516e+05	4.272516e+05
-4.200000e+00	-4.130000e+00	3.149586e+05	3.006782e+05	3.006782e+05
-4.130000e+00	-4.060000e+00	3.573977e+06	1.398011e+06	1.398011e+06
-4.060000e+00	-3.990000e+00	1.988121e+06	1.134448e+06	1.134448e+06
-3.990000e+00	-3.920000e+00	4.552144e+06	1.924346e+06	1.924346e+06
-3.920000e+00	-3.850000e+00	6.631384e+06	3.444446e+06	3.444446e+06
-3.850000e+00	-3.780000e+00	1.572186e+07	2.973968e+06	2.973968e+06
-3.780000e+00	-3.710000e+00	5.213511e+06	3.994381e+06	3.994381e+06
-3.710000e+00	-3.640000e+00	1.467330e+07	3.586833e+06	3.586833e+06
-3.640000e+00	-3.570000e+00	1.204900e+07	1.717254e+07	1.717254e+07
-3.570000e+00	-3.500000e+00	1.710669e+07	4.753355e+06	4.753355e+06
-3.500000e+00	-3.430000e+00	1.589281e+07	4.249247e+06	4.249247e+06
-3.430000e+00	-3.360000e+00	1.556077e+07	4.047516e+06	4.047516e+06
-3.360000e+00	-3.290000e+00	7.921719e+06	4.653346e+06	4.653346e+06
-3.290000e+00	-3.220000e+00	1.223818e+07	4.266978e+06	4.266978e+06
-3.220000e+00	-3.150000e+00	2.053620e+07	3.472028e+06	3.472028e+06
-3.150000e+00	-3.080000e+00	2.129629e+07	4.733580e+06	4.733580e+06
-3.080000e+00	-3.010000e+00	2.613701e+07	5.923063e+06	5.923063e+06
-3.010000e+00	-2.940000e+00	2.841583e+07	5.398462e+06	5.398462e+06
-2.940000e+00	-2.870000e+00	4.875450e+07	7.824389e+06	7.824389e+06
-2.870000e+00	-2.800000e+00	6.075060e+07	8.199766e+06	8.199766e+06
-2.800000e+00	-2.730000e+00	6.664287e+07	7.228800e+06	7.228800e+06
-2.730000e+00	-2.660000e+00	8.654257e+07	1.067039e+07	1.067039e+07
-2.660000e+00	-2.590000e+00	9.756089e+07	1.128785e+07	1.128785e+07
-2.590000e+00	-2.520000e+00	1.479961e+08	1.216375e+07	1.216375e+07
-2.520000e+00	-2.450000e+00	1.200437e+08	1.700959e+07	1.700959e+07
-2.450000e+00	-2.380000e+00	1.640337e+08	1.643448e+07	1.643448e+07
-2.380000e+00	-2.310000e+00	2.137393e+08	1.526504e+07	1.526504e+07
-2.310000e+00	-2.240000e+00	2.276607e+08	1.600009e+07	1.600009e+07
-2.240000e+00	-2.170000e+00	2.681999e+08	2.060175e+07	2.060175e+07
-2.170000e+00	-2.100000e+00	3.473107e+08	2.297141e+07	2.297141e+07
-2.100000e+00	-2.030000e+00	3.734566e+08	2.379503e+07	2.379503e+07
-2.030000e+00	-1.960000e+00	4.026243e+08	2.401131e+07	2.401131e+07
-1.960000e+00	-1.890000e+00	4.677929e+08	2.266285e+07	2.266285e+07
-1.890000e+00	-1.820000e+00	4.621889e+08	3.259921e+07	3.259921e+07
-1.820000e+00	-1.750000e+00	5.863193e+08	3.526429e+07	3.526429e+07
-1.750000e+00	-1.680000e+00	6.900076e+08	2.887039e+07	2.887039e+07
-1.680000e+00	-1.610000e+00	8.436833e+08	3.629714e+07	3.629714e+07
-1.610000e+00	-1.540000e+00	9.715974e+08	4.176167e+07	4.176167e+07
-1.540000e+00	-1.470000e+00	9.953767e+08	4.497857e+07	4.497857e+07
-1.470000e+00	-1.400000e+00	1.227461e+09	4.861015e+07	4.861015e+07
-1.400000e+00	-1.330000e+00	1.517991e+09	8.107537e+07	8.107537e+07
-1.330000e+00	-1.260000e+00	1.558473e+09	5.401253e+07	5.401253e+07
-1.260000e+00	-1.190000e+00	1.922453e+09	5.086517e+07	5.086517e+07
-1.190000e+00	-1.120000e+00	2.133776e+09	6.916573e+07	6.916573e+07
-1.120000e+00	-1.050000e+00	2.507807e+09	6.102746e+07	6.102746e+07
-1.050000e+00	-9.800000e-01	2.588990e+09	6.693936e+07	6.693936e+07
-9.800000e-01	-9.100000e-01	2.686101e+09	6.234399e+07	6.234399e+07
-9.100000e-01	-8.400000e-01	2.880514e+09	6.469837e+07	6.469837e+07
-8.400000e-01	-7.700000e-01	2.932601e+09	7.242298e+07	7.242298e+07
-7.700000e-01	-7.000000e-01	2.839101e+09	6.116869e+07	6.116869e+07
-7.000000e-01	-6.300000e-01	2.637427e+09	6.330438e+07	6.330438e+07
-6.300000e-01	-5.600000e-01	2.497773e+09	5.866875e+07	5.866875e+07
-5.600000e-01	-4.900000e-01	2.216287e+09	4.754793e+07	4.754793e+07
-4.900000e-01	-4.200000e-01	1.875906e+09	4.819042e+07	4.819042e+07
-4.200000e-01	-3.500000e-01	1.425567e+09	3.916468e+07	3.916468e+07
-3.500000e-01	-2.800000e-01	6.267949e+08	2.431654e+07	2.431654e+07
-2.800000e-01	-2.100000e-01	1.526397e+08	1.050560e+07	1.050560e+07
-2.100000e-01	-1.400000e-01	4.059390e+06	6.435289e+06	6.435289e+06
-1.400000e-01	-7.000000e-02	3.575286e+04	8.808992e+04	8.808992e+04
-7.000000e-02	0.000000e+00	0.000000e+00	0.000000e+00	0.000000e+00
# END HISTO1D

