# BEGIN PLOT
LegendOnly=/zj_ps_nlo_mer_mur2_muf1_R8.yoda/PAPER_FIN_R8/ch_lin_l20_pT_65_88
DrawOnly=/zj_ps_nlo_mer_mur2_muf1_R8.yoda/PAPER_FIN_R8/ch_lin_l20_pT_65_88
Legend=1
LogY=1
# END PLOT

# BEGIN HISTO1D /zj_ps_nlo_mer_mur2_muf1_R8.yoda/PAPER_FIN_R8/ch_lin_l20_pT_65_88
LineColor=red
LineStyle=solid
Path=/zj_ps_nlo_mer_mur2_muf1_R8.yoda/PAPER_FIN_R8/ch_lin_l20_pT_65_88
Title=zj_ps_nlo_mer_mur2_muf1_R8
XLabel=~
YLabel=~
# xlow	 xhigh	 val	 errminus	 errplus
0.000000e+00	5.000000e-03	4.041548e+12	1.352391e+10	1.352391e+10
5.000000e-03	1.250000e-02	1.706516e+11	1.923623e+09	1.923623e+09
1.250000e-02	2.250000e-02	1.126590e+11	1.635417e+09	1.635417e+09
2.250000e-02	3.500000e-02	7.582190e+10	8.943406e+08	8.943406e+08
3.500000e-02	5.000000e-02	5.252093e+10	1.091384e+09	1.091384e+09
5.000000e-02	7.000000e-02	3.636155e+10	6.734354e+08	6.734354e+08
7.000000e-02	9.250000e-02	2.448455e+10	5.006644e+08	5.006644e+08
9.250000e-02	1.200000e-01	1.700760e+10	3.444301e+08	3.444301e+08
1.200000e-01	1.520000e-01	1.177131e+10	2.310151e+08	2.310151e+08
1.520000e-01	1.880000e-01	7.096503e+09	2.668962e+08	2.668962e+08
1.880000e-01	2.280000e-01	4.128467e+09	1.234239e+08	1.234239e+08
2.280000e-01	1.000000e+00	8.184851e+07	3.785820e+06	3.785820e+06
# END HISTO1D

