# BEGIN PLOT
LegendOnly=/zj_ps_nlo_mer_mur1_muf2_R4.yoda/MC_XS/pmXS
DrawOnly=/zj_ps_nlo_mer_mur1_muf2_R4.yoda/MC_XS/pmXS
Title=Fraction of positive and negative weighted events
XMajorTickMarks=20
LogY=0
XLabel=$\text{sgn}(w)$
ShowZero=0
XMax=1
YLabel=$\text{d}\sigma/\text{d sgn}(w)$ [pb]
XMin=-1
XMinorTickMarks=0
Legend=1
# END PLOT

# BEGIN HISTO1D /zj_ps_nlo_mer_mur1_muf2_R4.yoda/MC_XS/pmXS
LineColor=red
LineStyle=solid
Path=/zj_ps_nlo_mer_mur1_muf2_R4.yoda/MC_XS/pmXS
ScaledBy=3.79382937620306123e-10
Title=zj_ps_nlo_mer_mur1_muf2_R4
XLabel=~
YLabel=~
# xlow	 xhigh	 val	 errminus	 errplus
-1.000000e+00	0.000000e+00	8.833909e+01	1.554568e-01	1.554568e-01
0.000000e+00	1.000000e+00	1.619426e+02	1.862004e-01	1.862004e-01
# END HISTO1D

