# BEGIN PLOT
LegendOnly=/zj_ps_nlo_mer_mur2_muf2_R8.yoda/PAPER_FIN_R4/SD_l20_pT_120_150
DrawOnly=/zj_ps_nlo_mer_mur2_muf2_R8.yoda/PAPER_FIN_R4/SD_l20_pT_120_150
Legend=1
LogY=1
# END PLOT

# BEGIN HISTO1D /zj_ps_nlo_mer_mur2_muf2_R8.yoda/PAPER_FIN_R4/SD_l20_pT_120_150
LineColor=red
LineStyle=solid
Path=/zj_ps_nlo_mer_mur2_muf2_R8.yoda/PAPER_FIN_R4/SD_l20_pT_120_150
Title=zj_ps_nlo_mer_mur2_muf2_R8
XLabel=~
YLabel=~
# xlow	 xhigh	 val	 errminus	 errplus
-7.000000e+00	-6.930000e+00	1.869089e+05	8.031626e+04	8.031626e+04
-6.930000e+00	-6.860000e+00	1.897486e+08	3.818820e+06	3.818820e+06
-6.860000e+00	-6.790000e+00	4.878300e+05	2.288341e+05	2.288341e+05
-6.790000e+00	-6.720000e+00	3.671537e+05	1.558119e+05	1.558119e+05
-6.720000e+00	-6.650000e+00	1.170882e+05	4.436851e+04	4.436851e+04
-6.650000e+00	-6.580000e+00	2.615901e+05	9.178185e+04	9.178185e+04
-6.580000e+00	-6.510000e+00	3.264501e+05	9.529248e+04	9.529248e+04
-6.510000e+00	-6.440000e+00	4.498791e+05	1.477199e+05	1.477199e+05
-6.440000e+00	-6.370000e+00	4.676837e+05	1.382229e+05	1.382229e+05
-6.370000e+00	-6.300000e+00	4.933640e+05	1.247567e+05	1.247567e+05
-6.300000e+00	-6.230000e+00	4.694066e+05	1.236240e+05	1.236240e+05
-6.230000e+00	-6.160000e+00	8.672994e+05	2.130480e+05	2.130480e+05
-6.160000e+00	-6.090000e+00	7.814446e+05	1.877292e+05	1.877292e+05
-6.090000e+00	-6.020000e+00	1.188272e+06	3.723370e+05	3.723370e+05
-6.020000e+00	-5.950000e+00	1.232448e+06	2.221563e+05	2.221563e+05
-5.950000e+00	-5.880000e+00	1.014065e+06	1.639472e+05	1.639472e+05
-5.880000e+00	-5.810000e+00	1.591509e+06	3.036387e+05	3.036387e+05
-5.810000e+00	-5.740000e+00	1.642911e+06	2.461717e+05	2.461717e+05
-5.740000e+00	-5.670000e+00	2.263706e+06	3.785520e+05	3.785520e+05
-5.670000e+00	-5.600000e+00	2.141330e+06	3.716476e+05	3.716476e+05
-5.600000e+00	-5.530000e+00	3.170880e+06	3.698643e+05	3.698643e+05
-5.530000e+00	-5.460000e+00	3.030300e+06	3.320890e+05	3.320890e+05
-5.460000e+00	-5.390000e+00	3.828750e+06	4.778111e+05	4.778111e+05
-5.390000e+00	-5.320000e+00	4.317079e+06	4.241453e+05	4.241453e+05
-5.320000e+00	-5.250000e+00	5.438674e+06	4.648546e+05	4.648546e+05
-5.250000e+00	-5.180000e+00	6.422937e+06	5.496394e+05	5.496394e+05
-5.180000e+00	-5.110000e+00	8.287266e+06	5.474442e+05	5.474442e+05
-5.110000e+00	-5.040000e+00	1.290779e+07	8.168356e+05	8.168356e+05
-5.040000e+00	-4.970000e+00	1.799439e+07	1.098465e+06	1.098465e+06
-4.970000e+00	-4.900000e+00	1.913960e+07	1.013475e+06	1.013475e+06
-4.900000e+00	-4.830000e+00	1.967871e+07	1.071978e+06	1.071978e+06
-4.830000e+00	-4.760000e+00	1.844806e+07	9.050633e+05	9.050633e+05
-4.760000e+00	-4.690000e+00	2.214036e+07	1.124656e+06	1.124656e+06
-4.690000e+00	-4.620000e+00	2.406001e+07	1.026624e+06	1.026624e+06
-4.620000e+00	-4.550000e+00	3.011774e+07	1.699684e+06	1.699684e+06
-4.550000e+00	-4.480000e+00	3.570601e+07	1.426542e+06	1.426542e+06
-4.480000e+00	-4.410000e+00	4.353879e+07	1.612492e+06	1.612492e+06
-4.410000e+00	-4.340000e+00	4.619667e+07	1.668674e+06	1.668674e+06
-4.340000e+00	-4.270000e+00	6.154554e+07	4.163950e+06	4.163950e+06
-4.270000e+00	-4.200000e+00	7.362577e+07	2.033883e+06	2.033883e+06
-4.200000e+00	-4.130000e+00	8.714017e+07	2.145615e+06	2.145615e+06
-4.130000e+00	-4.060000e+00	1.087810e+08	2.592502e+06	2.592502e+06
-4.060000e+00	-3.990000e+00	1.425193e+08	8.829323e+06	8.829323e+06
-3.990000e+00	-3.920000e+00	1.704649e+08	3.210512e+06	3.210512e+06
-3.920000e+00	-3.850000e+00	2.074251e+08	3.425839e+06	3.425839e+06
-3.850000e+00	-3.780000e+00	2.658059e+08	3.965266e+06	3.965266e+06
-3.780000e+00	-3.710000e+00	3.292274e+08	5.464722e+06	5.464722e+06
-3.710000e+00	-3.640000e+00	3.781361e+08	4.523589e+06	4.523589e+06
-3.640000e+00	-3.570000e+00	4.418539e+08	6.680471e+06	6.680471e+06
-3.570000e+00	-3.500000e+00	5.179700e+08	5.556577e+06	5.556577e+06
-3.500000e+00	-3.430000e+00	5.719726e+08	5.926457e+06	5.926457e+06
-3.430000e+00	-3.360000e+00	6.576053e+08	6.004310e+06	6.004310e+06
-3.360000e+00	-3.290000e+00	7.559551e+08	6.856546e+06	6.856546e+06
-3.290000e+00	-3.220000e+00	8.858599e+08	7.711222e+06	7.711222e+06
-3.220000e+00	-3.150000e+00	1.032511e+09	7.881541e+06	7.881541e+06
-3.150000e+00	-3.080000e+00	1.159817e+09	1.013315e+07	1.013315e+07
-3.080000e+00	-3.010000e+00	1.310103e+09	8.793155e+06	8.793155e+06
-3.010000e+00	-2.940000e+00	1.439906e+09	1.007021e+07	1.007021e+07
-2.940000e+00	-2.870000e+00	1.592331e+09	9.809265e+06	9.809265e+06
-2.870000e+00	-2.800000e+00	1.769730e+09	1.060585e+07	1.060585e+07
-2.800000e+00	-2.730000e+00	1.913887e+09	1.083308e+07	1.083308e+07
-2.730000e+00	-2.660000e+00	2.024401e+09	1.061650e+07	1.061650e+07
-2.660000e+00	-2.590000e+00	2.142399e+09	1.108780e+07	1.108780e+07
-2.590000e+00	-2.520000e+00	2.240390e+09	1.183924e+07	1.183924e+07
-2.520000e+00	-2.450000e+00	2.290124e+09	1.303997e+07	1.303997e+07
-2.450000e+00	-2.380000e+00	2.349960e+09	1.236415e+07	1.236415e+07
-2.380000e+00	-2.310000e+00	2.354567e+09	1.204142e+07	1.204142e+07
-2.310000e+00	-2.240000e+00	2.392191e+09	1.286976e+07	1.286976e+07
-2.240000e+00	-2.170000e+00	2.366541e+09	1.235118e+07	1.235118e+07
-2.170000e+00	-2.100000e+00	2.395230e+09	1.351687e+07	1.351687e+07
-2.100000e+00	-2.030000e+00	2.331074e+09	1.342142e+07	1.342142e+07
-2.030000e+00	-1.960000e+00	2.258331e+09	1.564361e+07	1.564361e+07
-1.960000e+00	-1.890000e+00	2.116269e+09	1.138445e+07	1.138445e+07
-1.890000e+00	-1.820000e+00	1.935163e+09	1.039325e+07	1.039325e+07
-1.820000e+00	-1.750000e+00	1.804344e+09	1.090283e+07	1.090283e+07
-1.750000e+00	-1.680000e+00	1.697329e+09	1.078757e+07	1.078757e+07
-1.680000e+00	-1.610000e+00	1.635614e+09	9.006592e+06	9.006592e+06
-1.610000e+00	-1.540000e+00	1.586973e+09	8.911253e+06	8.911253e+06
-1.540000e+00	-1.470000e+00	1.555786e+09	8.813842e+06	8.813842e+06
-1.470000e+00	-1.400000e+00	1.539364e+09	8.966897e+06	8.966897e+06
-1.400000e+00	-1.330000e+00	1.541270e+09	1.282604e+07	1.282604e+07
-1.330000e+00	-1.260000e+00	1.558874e+09	1.001788e+07	1.001788e+07
-1.260000e+00	-1.190000e+00	1.591894e+09	9.642141e+06	9.642141e+06
-1.190000e+00	-1.120000e+00	1.669651e+09	1.034273e+07	1.034273e+07
-1.120000e+00	-1.050000e+00	1.727781e+09	9.442020e+06	9.442020e+06
-1.050000e+00	-9.800000e-01	1.777074e+09	1.083463e+07	1.083463e+07
-9.800000e-01	-9.100000e-01	1.725293e+09	9.475769e+06	9.475769e+06
-9.100000e-01	-8.400000e-01	1.640597e+09	9.761760e+06	9.761760e+06
-8.400000e-01	-7.700000e-01	1.465136e+09	1.515240e+07	1.515240e+07
-7.700000e-01	-7.000000e-01	1.269532e+09	8.168275e+06	8.168275e+06
-7.000000e-01	-6.300000e-01	1.027690e+09	8.609224e+06	8.609224e+06
-6.300000e-01	-5.600000e-01	7.198857e+08	5.911209e+06	5.911209e+06
-5.600000e-01	-4.900000e-01	3.803677e+08	4.429227e+06	4.429227e+06
-4.900000e-01	-4.200000e-01	1.040829e+08	2.085436e+06	2.085436e+06
-4.200000e-01	-3.500000e-01	1.893070e+07	8.519926e+05	8.519926e+05
-3.500000e-01	-2.800000e-01	1.169706e+06	1.885627e+05	1.885627e+05
-2.800000e-01	-2.100000e-01	0.000000e+00	0.000000e+00	0.000000e+00
-2.100000e-01	-1.400000e-01	0.000000e+00	0.000000e+00	0.000000e+00
-1.400000e-01	-7.000000e-02	0.000000e+00	0.000000e+00	0.000000e+00
-7.000000e-02	0.000000e+00	0.000000e+00	0.000000e+00	0.000000e+00
# END HISTO1D

