# BEGIN PLOT
LegendOnly=/zj_ps_nlo_mer_mur1_muf1_R8.yoda/PAPER_FIN_R8/lin_l10_pT_150_186
DrawOnly=/zj_ps_nlo_mer_mur1_muf1_R8.yoda/PAPER_FIN_R8/lin_l10_pT_150_186
Legend=1
LogY=1
# END PLOT

# BEGIN HISTO1D /zj_ps_nlo_mer_mur1_muf1_R8.yoda/PAPER_FIN_R8/lin_l10_pT_150_186
LineColor=red
LineStyle=solid
Path=/zj_ps_nlo_mer_mur1_muf1_R8.yoda/PAPER_FIN_R8/lin_l10_pT_150_186
Title=zj_ps_nlo_mer_mur1_muf1_R8
XLabel=~
YLabel=~
# xlow	 xhigh	 val	 errminus	 errplus
0.000000e+00	1.050000e-01	3.069576e+10	1.253822e+08	1.253822e+08
1.050000e-01	1.650000e-01	1.286490e+10	9.440576e+07	9.440576e+07
1.650000e-01	2.300000e-01	7.429045e+09	1.105749e+08	1.105749e+08
2.300000e-01	3.050000e-01	4.504473e+09	8.651661e+07	8.651661e+07
3.050000e-01	3.800000e-01	2.693148e+09	3.508215e+07	3.508215e+07
3.800000e-01	4.600000e-01	1.395871e+09	1.082982e+08	1.082982e+08
4.600000e-01	5.500000e-01	5.539522e+08	1.735997e+07	1.735997e+07
5.500000e-01	1.000000e+00	2.630807e+07	2.809995e+06	2.809995e+06
# END HISTO1D

