# BEGIN PLOT
LegendOnly=/zj_ps_nlo_mer_mur1_muf1_R8.yoda/PAPER_FIN_R8/SD_l10_pT_408_1500
DrawOnly=/zj_ps_nlo_mer_mur1_muf1_R8.yoda/PAPER_FIN_R8/SD_l10_pT_408_1500
Legend=1
LogY=1
# END PLOT

# BEGIN HISTO1D /zj_ps_nlo_mer_mur1_muf1_R8.yoda/PAPER_FIN_R8/SD_l10_pT_408_1500
LineColor=red
LineStyle=solid
Path=/zj_ps_nlo_mer_mur1_muf1_R8.yoda/PAPER_FIN_R8/SD_l10_pT_408_1500
Title=zj_ps_nlo_mer_mur1_muf1_R8
XLabel=~
YLabel=~
# xlow	 xhigh	 val	 errminus	 errplus
-7.000000e+00	-6.930000e+00	0.000000e+00	0.000000e+00	0.000000e+00
-6.930000e+00	-6.860000e+00	1.113900e+09	1.697072e+07	1.697072e+07
-6.860000e+00	-6.790000e+00	0.000000e+00	0.000000e+00	0.000000e+00
-6.790000e+00	-6.720000e+00	0.000000e+00	0.000000e+00	0.000000e+00
-6.720000e+00	-6.650000e+00	0.000000e+00	0.000000e+00	0.000000e+00
-6.650000e+00	-6.580000e+00	0.000000e+00	0.000000e+00	0.000000e+00
-6.580000e+00	-6.510000e+00	0.000000e+00	0.000000e+00	0.000000e+00
-6.510000e+00	-6.440000e+00	0.000000e+00	0.000000e+00	0.000000e+00
-6.440000e+00	-6.370000e+00	0.000000e+00	0.000000e+00	0.000000e+00
-6.370000e+00	-6.300000e+00	0.000000e+00	0.000000e+00	0.000000e+00
-6.300000e+00	-6.230000e+00	0.000000e+00	0.000000e+00	0.000000e+00
-6.230000e+00	-6.160000e+00	0.000000e+00	0.000000e+00	0.000000e+00
-6.160000e+00	-6.090000e+00	0.000000e+00	0.000000e+00	0.000000e+00
-6.090000e+00	-6.020000e+00	0.000000e+00	0.000000e+00	0.000000e+00
-6.020000e+00	-5.950000e+00	0.000000e+00	0.000000e+00	0.000000e+00
-5.950000e+00	-5.880000e+00	0.000000e+00	0.000000e+00	0.000000e+00
-5.880000e+00	-5.810000e+00	7.926673e+00	7.926673e+00	7.926673e+00
-5.810000e+00	-5.740000e+00	-7.575321e-04	7.575321e-04	7.575321e-04
-5.740000e+00	-5.670000e+00	0.000000e+00	0.000000e+00	0.000000e+00
-5.670000e+00	-5.600000e+00	0.000000e+00	0.000000e+00	0.000000e+00
-5.600000e+00	-5.530000e+00	0.000000e+00	0.000000e+00	0.000000e+00
-5.530000e+00	-5.460000e+00	0.000000e+00	0.000000e+00	0.000000e+00
-5.460000e+00	-5.390000e+00	-1.164034e-04	1.164034e-04	1.164034e-04
-5.390000e+00	-5.320000e+00	0.000000e+00	0.000000e+00	0.000000e+00
-5.320000e+00	-5.250000e+00	0.000000e+00	0.000000e+00	0.000000e+00
-5.250000e+00	-5.180000e+00	-3.521151e+00	3.518249e+00	3.518249e+00
-5.180000e+00	-5.110000e+00	9.749126e-01	9.749125e-01	9.749125e-01
-5.110000e+00	-5.040000e+00	8.981429e-01	8.699369e-01	8.699369e-01
-5.040000e+00	-4.970000e+00	-1.659126e-04	2.608478e-04	2.608478e-04
-4.970000e+00	-4.900000e+00	-1.068013e+00	1.363206e+00	1.363206e+00
-4.900000e+00	-4.830000e+00	2.844857e-01	4.332029e-01	4.332029e-01
-4.830000e+00	-4.760000e+00	-9.763689e+03	9.757520e+03	9.757520e+03
-4.760000e+00	-4.690000e+00	-6.229336e+00	4.854697e+00	4.854697e+00
-4.690000e+00	-4.620000e+00	7.409330e+02	6.210800e+02	6.210800e+02
-4.620000e+00	-4.550000e+00	3.052276e+02	1.424012e+03	1.424012e+03
-4.550000e+00	-4.480000e+00	1.772874e+01	6.378731e+01	6.378731e+01
-4.480000e+00	-4.410000e+00	6.772997e+01	4.213721e+01	4.213721e+01
-4.410000e+00	-4.340000e+00	-2.541477e+02	4.037087e+02	4.037087e+02
-4.340000e+00	-4.270000e+00	4.547214e+03	3.445266e+03	3.445266e+03
-4.270000e+00	-4.200000e+00	2.450976e+03	2.045392e+03	2.045392e+03
-4.200000e+00	-4.130000e+00	2.026267e+04	1.735833e+04	1.735833e+04
-4.130000e+00	-4.060000e+00	1.031279e+03	4.352435e+03	4.352435e+03
-4.060000e+00	-3.990000e+00	2.228290e+04	2.552423e+04	2.552423e+04
-3.990000e+00	-3.920000e+00	-6.041013e+03	2.723240e+04	2.723240e+04
-3.920000e+00	-3.850000e+00	4.024287e+03	1.842033e+04	1.842033e+04
-3.850000e+00	-3.780000e+00	-1.062035e+04	1.082611e+04	1.082611e+04
-3.780000e+00	-3.710000e+00	1.339896e+05	9.596712e+04	9.596712e+04
-3.710000e+00	-3.640000e+00	6.420096e+05	3.608749e+05	3.608749e+05
-3.640000e+00	-3.570000e+00	2.132476e+05	1.085982e+05	1.085982e+05
-3.570000e+00	-3.500000e+00	1.661027e+06	1.221817e+06	1.221817e+06
-3.500000e+00	-3.430000e+00	8.387246e+03	1.064419e+05	1.064419e+05
-3.430000e+00	-3.360000e+00	5.324614e+05	1.386169e+05	1.386169e+05
-3.360000e+00	-3.290000e+00	5.021926e+05	4.583627e+05	4.583627e+05
-3.290000e+00	-3.220000e+00	3.846264e+05	2.665809e+05	2.665809e+05
-3.220000e+00	-3.150000e+00	1.447377e+06	3.376627e+05	3.376627e+05
-3.150000e+00	-3.080000e+00	1.224722e+06	2.096425e+05	2.096425e+05
-3.080000e+00	-3.010000e+00	2.204131e+06	5.813729e+05	5.813729e+05
-3.010000e+00	-2.940000e+00	3.860556e+06	4.612426e+05	4.612426e+05
-2.940000e+00	-2.870000e+00	5.867659e+06	8.334147e+05	8.334147e+05
-2.870000e+00	-2.800000e+00	1.053015e+07	1.249687e+06	1.249687e+06
-2.800000e+00	-2.730000e+00	1.317962e+07	1.661076e+06	1.661076e+06
-2.730000e+00	-2.660000e+00	2.204324e+07	2.148093e+06	2.148093e+06
-2.660000e+00	-2.590000e+00	3.130793e+07	1.938624e+06	1.938624e+06
-2.590000e+00	-2.520000e+00	5.368956e+07	3.689983e+06	3.689983e+06
-2.520000e+00	-2.450000e+00	8.465897e+07	3.979747e+06	3.979747e+06
-2.450000e+00	-2.380000e+00	1.127584e+08	3.828406e+06	3.828406e+06
-2.380000e+00	-2.310000e+00	1.363920e+08	5.778039e+06	5.778039e+06
-2.310000e+00	-2.240000e+00	1.348793e+08	5.541169e+06	5.541169e+06
-2.240000e+00	-2.170000e+00	1.342682e+08	4.267860e+06	4.267860e+06
-2.170000e+00	-2.100000e+00	1.488197e+08	1.145065e+07	1.145065e+07
-2.100000e+00	-2.030000e+00	1.386385e+08	5.525551e+06	5.525551e+06
-2.030000e+00	-1.960000e+00	1.382856e+08	4.993962e+06	4.993962e+06
-1.960000e+00	-1.890000e+00	1.480169e+08	5.887940e+06	5.887940e+06
-1.890000e+00	-1.820000e+00	1.509416e+08	4.982125e+06	4.982125e+06
-1.820000e+00	-1.750000e+00	1.626021e+08	6.696854e+06	6.696854e+06
-1.750000e+00	-1.680000e+00	1.499046e+08	7.966851e+06	7.966851e+06
-1.680000e+00	-1.610000e+00	1.565911e+08	6.438118e+06	6.438118e+06
-1.610000e+00	-1.540000e+00	1.561939e+08	5.326125e+06	5.326125e+06
-1.540000e+00	-1.470000e+00	1.606981e+08	5.962468e+06	5.962468e+06
-1.470000e+00	-1.400000e+00	1.535191e+08	1.091280e+07	1.091280e+07
-1.400000e+00	-1.330000e+00	1.519206e+08	6.024970e+06	6.024970e+06
-1.330000e+00	-1.260000e+00	1.497559e+08	3.203526e+07	3.203526e+07
-1.260000e+00	-1.190000e+00	1.576179e+08	1.347745e+07	1.347745e+07
-1.190000e+00	-1.120000e+00	1.869461e+08	5.645871e+06	5.645871e+06
-1.120000e+00	-1.050000e+00	1.882751e+08	7.653169e+06	7.653169e+06
-1.050000e+00	-9.800000e-01	2.106967e+08	7.336422e+06	7.336422e+06
-9.800000e-01	-9.100000e-01	2.196334e+08	1.028907e+07	1.028907e+07
-9.100000e-01	-8.400000e-01	2.391914e+08	8.102693e+06	8.102693e+06
-8.400000e-01	-7.700000e-01	2.327367e+08	9.408916e+06	9.408916e+06
-7.700000e-01	-7.000000e-01	2.199633e+08	1.281936e+07	1.281936e+07
-7.000000e-01	-6.300000e-01	2.119244e+08	7.064814e+06	7.064814e+06
-6.300000e-01	-5.600000e-01	1.987196e+08	8.451743e+06	8.451743e+06
-5.600000e-01	-4.900000e-01	1.684377e+08	6.057466e+06	6.057466e+06
-4.900000e-01	-4.200000e-01	1.212644e+08	7.412174e+06	7.412174e+06
-4.200000e-01	-3.500000e-01	8.978630e+07	3.661924e+06	3.661924e+06
-3.500000e-01	-2.800000e-01	5.406959e+07	3.480985e+06	3.480985e+06
-2.800000e-01	-2.100000e-01	9.736440e+06	2.994365e+06	2.994365e+06
-2.100000e-01	-1.400000e-01	3.025546e+06	1.162236e+06	1.162236e+06
-1.400000e-01	-7.000000e-02	1.924659e+05	1.091585e+05	1.091585e+05
-7.000000e-02	0.000000e+00	-4.351326e+01	4.114229e+01	4.114229e+01
# END HISTO1D

