# BEGIN PLOT
LegendOnly=/zj_ps_nlo_mer_mur1_muf1_R8.yoda/PAPER_FIN_R8/ch_l10_pT_186_254
DrawOnly=/zj_ps_nlo_mer_mur1_muf1_R8.yoda/PAPER_FIN_R8/ch_l10_pT_186_254
Legend=1
LogY=1
# END PLOT

# BEGIN HISTO1D /zj_ps_nlo_mer_mur1_muf1_R8.yoda/PAPER_FIN_R8/ch_l10_pT_186_254
LineColor=red
LineStyle=solid
Path=/zj_ps_nlo_mer_mur1_muf1_R8.yoda/PAPER_FIN_R8/ch_l10_pT_186_254
Title=zj_ps_nlo_mer_mur1_muf1_R8
XLabel=~
YLabel=~
# xlow	 xhigh	 val	 errminus	 errplus
-7.000000e+00	-6.930000e+00	-2.649840e-02	3.107789e-02	3.107789e-02
-6.930000e+00	-6.860000e+00	2.891033e+10	1.776604e+08	1.776604e+08
-6.860000e+00	-6.790000e+00	-6.138151e-01	4.506533e-01	4.506533e-01
-6.790000e+00	-6.720000e+00	-7.738244e-01	4.231528e-01	4.231528e-01
-6.720000e+00	-6.650000e+00	-2.392034e-01	3.305667e-01	3.305667e-01
-6.650000e+00	-6.580000e+00	-8.170100e+00	6.345686e+00	6.345686e+00
-6.580000e+00	-6.510000e+00	-8.058776e+00	5.683944e+00	5.683944e+00
-6.510000e+00	-6.440000e+00	-9.265537e+00	6.379745e+00	6.379745e+00
-6.440000e+00	-6.370000e+00	-1.293592e+00	9.657914e-01	9.657914e-01
-6.370000e+00	-6.300000e+00	-2.932067e+01	3.759725e+01	3.759725e+01
-6.300000e+00	-6.230000e+00	-7.935007e+00	2.834005e+00	2.834005e+00
-6.230000e+00	-6.160000e+00	-1.685690e+01	1.055160e+01	1.055160e+01
-6.160000e+00	-6.090000e+00	-1.987069e+01	8.459878e+00	8.459878e+00
-6.090000e+00	-6.020000e+00	-2.839490e+01	1.566094e+01	1.566094e+01
-6.020000e+00	-5.950000e+00	2.430259e+02	2.908928e+02	2.908928e+02
-5.950000e+00	-5.880000e+00	9.733784e+00	1.473936e+01	1.473936e+01
-5.880000e+00	-5.810000e+00	-2.257007e+01	3.349766e+01	3.349766e+01
-5.810000e+00	-5.740000e+00	-1.102938e+04	9.675125e+03	9.675125e+03
-5.740000e+00	-5.670000e+00	-5.841923e+03	5.834047e+03	5.834047e+03
-5.670000e+00	-5.600000e+00	-3.272953e+02	3.381454e+02	3.381454e+02
-5.600000e+00	-5.530000e+00	5.592251e+02	5.442471e+02	5.442471e+02
-5.530000e+00	-5.460000e+00	4.687544e+02	7.065426e+02	7.065426e+02
-5.460000e+00	-5.390000e+00	5.607190e+03	5.695611e+03	5.695611e+03
-5.390000e+00	-5.320000e+00	2.132239e+04	2.137453e+04	2.137453e+04
-5.320000e+00	-5.250000e+00	-9.968797e+03	1.091784e+04	1.091784e+04
-5.250000e+00	-5.180000e+00	-1.494511e+04	1.942365e+04	1.942365e+04
-5.180000e+00	-5.110000e+00	6.141430e+04	5.336230e+04	5.336230e+04
-5.110000e+00	-5.040000e+00	-5.787959e+03	7.165571e+03	7.165571e+03
-5.040000e+00	-4.970000e+00	6.118351e+04	4.639234e+04	4.639234e+04
-4.970000e+00	-4.900000e+00	-2.124917e+05	2.126134e+05	2.126134e+05
-4.900000e+00	-4.830000e+00	6.977971e+04	1.066173e+05	1.066173e+05
-4.830000e+00	-4.760000e+00	-2.544736e+05	3.182360e+05	3.182360e+05
-4.760000e+00	-4.690000e+00	-2.125206e+05	3.529027e+05	3.529027e+05
-4.690000e+00	-4.620000e+00	9.780223e+04	6.488445e+04	6.488445e+04
-4.620000e+00	-4.550000e+00	5.666573e+05	3.328117e+05	3.328117e+05
-4.550000e+00	-4.480000e+00	1.013846e+06	2.921599e+05	2.921599e+05
-4.480000e+00	-4.410000e+00	9.599749e+05	4.044136e+05	4.044136e+05
-4.410000e+00	-4.340000e+00	8.677854e+05	3.742017e+05	3.742017e+05
-4.340000e+00	-4.270000e+00	1.415563e+06	4.139573e+05	4.139573e+05
-4.270000e+00	-4.200000e+00	2.162006e+06	4.309534e+05	4.309534e+05
-4.200000e+00	-4.130000e+00	2.065161e+06	7.338552e+05	7.338552e+05
-4.130000e+00	-4.060000e+00	6.870643e+06	1.142493e+06	1.142493e+06
-4.060000e+00	-3.990000e+00	2.809990e+06	3.018383e+06	3.018383e+06
-3.990000e+00	-3.920000e+00	1.863340e+05	3.207486e+06	3.207486e+06
-3.920000e+00	-3.850000e+00	4.990786e+06	1.413275e+06	1.413275e+06
-3.850000e+00	-3.780000e+00	8.175260e+06	2.105962e+06	2.105962e+06
-3.780000e+00	-3.710000e+00	6.495281e+06	1.149539e+06	1.149539e+06
-3.710000e+00	-3.640000e+00	6.366753e+06	1.241334e+06	1.241334e+06
-3.640000e+00	-3.570000e+00	1.215283e+07	4.829943e+06	4.829943e+06
-3.570000e+00	-3.500000e+00	9.404727e+06	1.714117e+06	1.714117e+06
-3.500000e+00	-3.430000e+00	7.602501e+06	1.673999e+06	1.673999e+06
-3.430000e+00	-3.360000e+00	9.471717e+06	2.486999e+06	2.486999e+06
-3.360000e+00	-3.290000e+00	1.333200e+07	1.723868e+06	1.723868e+06
-3.290000e+00	-3.220000e+00	2.297803e+07	3.127045e+06	3.127045e+06
-3.220000e+00	-3.150000e+00	2.523039e+07	2.908369e+06	2.908369e+06
-3.150000e+00	-3.080000e+00	3.119339e+07	2.505764e+06	2.505764e+06
-3.080000e+00	-3.010000e+00	4.021020e+07	6.571092e+06	6.571092e+06
-3.010000e+00	-2.940000e+00	5.730589e+07	1.041461e+07	1.041461e+07
-2.940000e+00	-2.870000e+00	5.322683e+07	3.608638e+06	3.608638e+06
-2.870000e+00	-2.800000e+00	7.254289e+07	5.041600e+06	5.041600e+06
-2.800000e+00	-2.730000e+00	7.582714e+07	5.444263e+06	5.444263e+06
-2.730000e+00	-2.660000e+00	8.982899e+07	5.445048e+06	5.445048e+06
-2.660000e+00	-2.590000e+00	9.911680e+07	6.730027e+06	6.730027e+06
-2.590000e+00	-2.520000e+00	1.341298e+08	6.321707e+06	6.321707e+06
-2.520000e+00	-2.450000e+00	1.569036e+08	6.472581e+06	6.472581e+06
-2.450000e+00	-2.380000e+00	1.848631e+08	6.833228e+06	6.833228e+06
-2.380000e+00	-2.310000e+00	2.001710e+08	1.257405e+07	1.257405e+07
-2.310000e+00	-2.240000e+00	2.086760e+08	9.700856e+06	9.700856e+06
-2.240000e+00	-2.170000e+00	2.541669e+08	2.152266e+07	2.152266e+07
-2.170000e+00	-2.100000e+00	3.314370e+08	1.594185e+07	1.594185e+07
-2.100000e+00	-2.030000e+00	4.422554e+08	1.374762e+07	1.374762e+07
-2.030000e+00	-1.960000e+00	5.424884e+08	1.366607e+07	1.366607e+07
-1.960000e+00	-1.890000e+00	6.466154e+08	1.927432e+07	1.927432e+07
-1.890000e+00	-1.820000e+00	7.035163e+08	2.217986e+07	2.217986e+07
-1.820000e+00	-1.750000e+00	8.052947e+08	1.710565e+07	1.710565e+07
-1.750000e+00	-1.680000e+00	9.100231e+08	2.284306e+07	2.284306e+07
-1.680000e+00	-1.610000e+00	9.989827e+08	2.662188e+07	2.662188e+07
-1.610000e+00	-1.540000e+00	9.974181e+08	2.340296e+07	2.340296e+07
-1.540000e+00	-1.470000e+00	1.117347e+09	2.613843e+07	2.613843e+07
-1.470000e+00	-1.400000e+00	1.132924e+09	3.208799e+07	3.208799e+07
-1.400000e+00	-1.330000e+00	1.111659e+09	2.500407e+07	2.500407e+07
-1.330000e+00	-1.260000e+00	1.135918e+09	2.226385e+07	2.226385e+07
-1.260000e+00	-1.190000e+00	1.164697e+09	2.501568e+07	2.501568e+07
-1.190000e+00	-1.120000e+00	1.155993e+09	2.309328e+07	2.309328e+07
-1.120000e+00	-1.050000e+00	1.151325e+09	2.342832e+07	2.342832e+07
-1.050000e+00	-9.800000e-01	1.177778e+09	3.082740e+07	3.082740e+07
-9.800000e-01	-9.100000e-01	1.127272e+09	3.050371e+07	3.050371e+07
-9.100000e-01	-8.400000e-01	1.075916e+09	2.897891e+07	2.897891e+07
-8.400000e-01	-7.700000e-01	1.004840e+09	2.533343e+07	2.533343e+07
-7.700000e-01	-7.000000e-01	1.008112e+09	2.237984e+07	2.237984e+07
-7.000000e-01	-6.300000e-01	8.873167e+08	2.923771e+07	2.923771e+07
-6.300000e-01	-5.600000e-01	7.876143e+08	1.990103e+07	1.990103e+07
-5.600000e-01	-4.900000e-01	6.385477e+08	2.246896e+07	2.246896e+07
-4.900000e-01	-4.200000e-01	4.892824e+08	2.322518e+07	2.322518e+07
-4.200000e-01	-3.500000e-01	3.177263e+08	1.797836e+07	1.797836e+07
-3.500000e-01	-2.800000e-01	1.205218e+08	6.027039e+06	6.027039e+06
-2.800000e-01	-2.100000e-01	-3.849370e+06	2.722059e+07	2.722059e+07
-2.100000e-01	-1.400000e-01	2.504720e+06	5.356914e+05	5.356914e+05
-1.400000e-01	-7.000000e-02	3.492639e+04	4.418914e+04	4.418914e+04
-7.000000e-02	0.000000e+00	0.000000e+00	0.000000e+00	0.000000e+00
# END HISTO1D

