# BEGIN PLOT
LegendOnly=/zj_ps_nlo_mer_mur1_muf1_R8.yoda/PAPER_FIN_R8/ch_SD_l20_pT_50_65
DrawOnly=/zj_ps_nlo_mer_mur1_muf1_R8.yoda/PAPER_FIN_R8/ch_SD_l20_pT_50_65
Legend=1
LogY=1
# END PLOT

# BEGIN HISTO1D /zj_ps_nlo_mer_mur1_muf1_R8.yoda/PAPER_FIN_R8/ch_SD_l20_pT_50_65
LineColor=red
LineStyle=solid
Path=/zj_ps_nlo_mer_mur1_muf1_R8.yoda/PAPER_FIN_R8/ch_SD_l20_pT_50_65
Title=zj_ps_nlo_mer_mur1_muf1_R8
XLabel=~
YLabel=~
# xlow	 xhigh	 val	 errminus	 errplus
-7.000000e+00	-6.930000e+00	-7.023666e-01	7.023666e-01	7.023666e-01
-6.930000e+00	-6.860000e+00	6.811804e+09	3.083676e+08	3.083676e+08
-6.860000e+00	-6.790000e+00	0.000000e+00	0.000000e+00	0.000000e+00
-6.790000e+00	-6.720000e+00	0.000000e+00	0.000000e+00	0.000000e+00
-6.720000e+00	-6.650000e+00	0.000000e+00	0.000000e+00	0.000000e+00
-6.650000e+00	-6.580000e+00	3.480484e-03	3.480484e-03	3.480484e-03
-6.580000e+00	-6.510000e+00	0.000000e+00	0.000000e+00	0.000000e+00
-6.510000e+00	-6.440000e+00	1.991237e+03	2.068674e+03	2.068674e+03
-6.440000e+00	-6.370000e+00	9.419133e+04	9.431623e+04	9.431623e+04
-6.370000e+00	-6.300000e+00	0.000000e+00	0.000000e+00	0.000000e+00
-6.300000e+00	-6.230000e+00	8.339959e+03	8.339959e+03	8.339959e+03
-6.230000e+00	-6.160000e+00	2.547106e+00	2.477060e+00	2.477060e+00
-6.160000e+00	-6.090000e+00	8.495774e+03	8.478346e+03	8.478346e+03
-6.090000e+00	-6.020000e+00	5.953966e+02	5.952586e+02	5.952586e+02
-6.020000e+00	-5.950000e+00	3.430240e+03	3.043325e+03	3.043325e+03
-5.950000e+00	-5.880000e+00	3.285971e+02	3.889767e+02	3.889767e+02
-5.880000e+00	-5.810000e+00	-8.589874e+04	1.102952e+05	1.102952e+05
-5.810000e+00	-5.740000e+00	4.870424e+04	4.613806e+04	4.613806e+04
-5.740000e+00	-5.670000e+00	1.052433e+04	1.042031e+04	1.042031e+04
-5.670000e+00	-5.600000e+00	5.532364e+04	8.816311e+04	8.816311e+04
-5.600000e+00	-5.530000e+00	2.781939e+04	2.673426e+04	2.673426e+04
-5.530000e+00	-5.460000e+00	3.204876e+05	2.765083e+05	2.765083e+05
-5.460000e+00	-5.390000e+00	9.560707e+04	9.032739e+04	9.032739e+04
-5.390000e+00	-5.320000e+00	1.534140e+05	1.051891e+05	1.051891e+05
-5.320000e+00	-5.250000e+00	4.107987e+05	3.702426e+05	3.702426e+05
-5.250000e+00	-5.180000e+00	-1.082995e+05	6.093354e+04	6.093354e+04
-5.180000e+00	-5.110000e+00	1.693251e+05	1.450659e+05	1.450659e+05
-5.110000e+00	-5.040000e+00	7.327147e+04	6.874448e+04	6.874448e+04
-5.040000e+00	-4.970000e+00	4.334716e+05	2.874289e+05	2.874289e+05
-4.970000e+00	-4.900000e+00	-9.134281e+03	2.791383e+04	2.791383e+04
-4.900000e+00	-4.830000e+00	-7.942189e+04	1.755445e+05	1.755445e+05
-4.830000e+00	-4.760000e+00	-9.496689e+04	2.278021e+05	2.278021e+05
-4.760000e+00	-4.690000e+00	-9.261543e+05	8.585333e+05	8.585333e+05
-4.690000e+00	-4.620000e+00	7.528399e+05	8.227566e+05	8.227566e+05
-4.620000e+00	-4.550000e+00	5.447143e+04	7.623290e+05	7.623290e+05
-4.550000e+00	-4.480000e+00	-5.682624e+03	1.095321e+06	1.095321e+06
-4.480000e+00	-4.410000e+00	2.472107e+05	3.639812e+05	3.639812e+05
-4.410000e+00	-4.340000e+00	3.010510e+05	3.478178e+05	3.478178e+05
-4.340000e+00	-4.270000e+00	-4.999753e+05	6.340313e+05	6.340313e+05
-4.270000e+00	-4.200000e+00	-8.559989e+04	6.976070e+05	6.976070e+05
-4.200000e+00	-4.130000e+00	-4.610379e+05	1.524216e+06	1.524216e+06
-4.130000e+00	-4.060000e+00	1.133720e+06	8.375823e+05	8.375823e+05
-4.060000e+00	-3.990000e+00	1.701307e+06	8.326555e+05	8.326555e+05
-3.990000e+00	-3.920000e+00	1.228757e+06	1.469691e+06	1.469691e+06
-3.920000e+00	-3.850000e+00	-3.561527e+05	9.803297e+05	9.803297e+05
-3.850000e+00	-3.780000e+00	1.418809e+06	1.422712e+06	1.422712e+06
-3.780000e+00	-3.710000e+00	-1.004112e+04	1.392889e+06	1.392889e+06
-3.710000e+00	-3.640000e+00	4.460613e+05	2.440700e+06	2.440700e+06
-3.640000e+00	-3.570000e+00	1.755529e+06	1.521315e+06	1.521315e+06
-3.570000e+00	-3.500000e+00	3.649351e+06	1.674019e+06	1.674019e+06
-3.500000e+00	-3.430000e+00	1.555401e+06	2.346809e+06	2.346809e+06
-3.430000e+00	-3.360000e+00	-1.477457e+06	2.719641e+06	2.719641e+06
-3.360000e+00	-3.290000e+00	3.045239e+06	5.184045e+06	5.184045e+06
-3.290000e+00	-3.220000e+00	9.740693e+06	4.173637e+06	4.173637e+06
-3.220000e+00	-3.150000e+00	5.156106e+06	5.263030e+06	5.263030e+06
-3.150000e+00	-3.080000e+00	2.193121e+07	4.859008e+06	4.859008e+06
-3.080000e+00	-3.010000e+00	1.234788e+07	6.769215e+06	6.769215e+06
-3.010000e+00	-2.940000e+00	2.022243e+07	7.164994e+06	7.164994e+06
-2.940000e+00	-2.870000e+00	2.988357e+07	8.362894e+06	8.362894e+06
-2.870000e+00	-2.800000e+00	1.890574e+07	1.069503e+07	1.069503e+07
-2.800000e+00	-2.730000e+00	2.148547e+07	1.379120e+07	1.379120e+07
-2.730000e+00	-2.660000e+00	4.580990e+07	8.029954e+06	8.029954e+06
-2.660000e+00	-2.590000e+00	6.032586e+07	1.087816e+07	1.087816e+07
-2.590000e+00	-2.520000e+00	5.191441e+07	1.530407e+07	1.530407e+07
-2.520000e+00	-2.450000e+00	5.091773e+07	9.999790e+06	9.999790e+06
-2.450000e+00	-2.380000e+00	8.532786e+07	1.910246e+07	1.910246e+07
-2.380000e+00	-2.310000e+00	3.282210e+07	2.097598e+07	2.097598e+07
-2.310000e+00	-2.240000e+00	4.773669e+07	1.315910e+07	1.315910e+07
-2.240000e+00	-2.170000e+00	6.666099e+07	1.196998e+07	1.196998e+07
-2.170000e+00	-2.100000e+00	5.369251e+07	1.424730e+07	1.424730e+07
-2.100000e+00	-2.030000e+00	8.889550e+07	3.671178e+07	3.671178e+07
-2.030000e+00	-1.960000e+00	7.227770e+07	1.365636e+07	1.365636e+07
-1.960000e+00	-1.890000e+00	6.689184e+07	1.833656e+07	1.833656e+07
-1.890000e+00	-1.820000e+00	5.174234e+07	1.730032e+07	1.730032e+07
-1.820000e+00	-1.750000e+00	1.374314e+08	3.410704e+07	3.410704e+07
-1.750000e+00	-1.680000e+00	9.673906e+07	2.413322e+07	2.413322e+07
-1.680000e+00	-1.610000e+00	1.027249e+08	2.337313e+07	2.337313e+07
-1.610000e+00	-1.540000e+00	1.147096e+08	1.930501e+07	1.930501e+07
-1.540000e+00	-1.470000e+00	5.804013e+07	4.411477e+07	4.411477e+07
-1.470000e+00	-1.400000e+00	8.617506e+07	1.938825e+07	1.938825e+07
-1.400000e+00	-1.330000e+00	8.279264e+07	1.885813e+07	1.885813e+07
-1.330000e+00	-1.260000e+00	8.886949e+07	4.166841e+07	4.166841e+07
-1.260000e+00	-1.190000e+00	1.186517e+08	1.832793e+07	1.832793e+07
-1.190000e+00	-1.120000e+00	1.696037e+08	2.851053e+07	2.851053e+07
-1.120000e+00	-1.050000e+00	1.343591e+08	2.138237e+07	2.138237e+07
-1.050000e+00	-9.800000e-01	1.040187e+08	2.269597e+07	2.269597e+07
-9.800000e-01	-9.100000e-01	1.219037e+08	2.547260e+07	2.547260e+07
-9.100000e-01	-8.400000e-01	1.302021e+08	2.344321e+07	2.344321e+07
-8.400000e-01	-7.700000e-01	8.758196e+07	1.953793e+07	1.953793e+07
-7.700000e-01	-7.000000e-01	8.302634e+07	1.708046e+07	1.708046e+07
-7.000000e-01	-6.300000e-01	5.543559e+07	1.501275e+07	1.501275e+07
-6.300000e-01	-5.600000e-01	2.450679e+07	9.599906e+06	9.599906e+06
-5.600000e-01	-4.900000e-01	5.744219e+06	2.178802e+06	2.178802e+06
-4.900000e-01	-4.200000e-01	1.265541e+06	1.384940e+06	1.384940e+06
-4.200000e-01	-3.500000e-01	9.838389e+03	1.113247e+04	1.113247e+04
-3.500000e-01	-2.800000e-01	0.000000e+00	0.000000e+00	0.000000e+00
-2.800000e-01	-2.100000e-01	0.000000e+00	0.000000e+00	0.000000e+00
-2.100000e-01	-1.400000e-01	0.000000e+00	0.000000e+00	0.000000e+00
-1.400000e-01	-7.000000e-02	0.000000e+00	0.000000e+00	0.000000e+00
-7.000000e-02	0.000000e+00	0.000000e+00	0.000000e+00	0.000000e+00
# END HISTO1D

