# BEGIN PLOT
LegendOnly=/zj_ps_nlo_mer_mur1_muf1_R8.yoda/PAPER_FIN_R8_CH/lin_l10_pT_186_254
DrawOnly=/zj_ps_nlo_mer_mur1_muf1_R8.yoda/PAPER_FIN_R8_CH/lin_l10_pT_186_254
Legend=1
LogY=1
# END PLOT

# BEGIN HISTO1D /zj_ps_nlo_mer_mur1_muf1_R8.yoda/PAPER_FIN_R8_CH/lin_l10_pT_186_254
LineColor=red
LineStyle=solid
Path=/zj_ps_nlo_mer_mur1_muf1_R8.yoda/PAPER_FIN_R8_CH/lin_l10_pT_186_254
Title=zj_ps_nlo_mer_mur1_muf1_R8
XLabel=~
YLabel=~
# xlow	 xhigh	 val	 errminus	 errplus
0.000000e+00	2.250000e-02	3.327274e+10	2.259201e+08	2.259201e+08
2.250000e-02	4.000000e-02	3.126281e+10	2.720490e+08	2.720490e+08
4.000000e-02	5.750000e-02	2.551265e+10	2.076775e+08	2.076775e+08
5.750000e-02	7.750000e-02	1.971351e+10	2.396384e+08	2.396384e+08
7.750000e-02	1.000000e-01	1.525640e+10	1.907251e+08	1.907251e+08
1.000000e-01	1.250000e-01	1.188647e+10	1.538455e+08	1.538455e+08
1.250000e-01	1.520000e-01	9.065993e+09	1.130546e+08	1.130546e+08
1.520000e-01	1.850000e-01	7.020733e+09	9.506783e+07	9.506783e+07
1.850000e-01	2.200000e-01	5.494683e+09	1.049777e+08	1.049777e+08
2.200000e-01	2.600000e-01	4.149730e+09	7.736646e+07	7.736646e+07
2.600000e-01	3.070000e-01	3.009766e+09	8.989658e+07	8.989658e+07
3.070000e-01	3.620000e-01	2.149573e+09	4.344646e+07	4.344646e+07
3.620000e-01	4.250000e-01	1.373811e+09	3.279210e+07	3.279210e+07
4.250000e-01	4.970000e-01	8.578306e+08	1.050015e+08	1.050015e+08
4.970000e-01	1.000000e+00	4.743911e+07	4.093483e+06	4.093483e+06
# END HISTO1D

