# BEGIN PLOT
LegendOnly=/zj_ps_nlo_mer_mur1_muf1_R8.yoda/PAPER_FIN_R8_CH/lin_SD_l05_pT_120_150
DrawOnly=/zj_ps_nlo_mer_mur1_muf1_R8.yoda/PAPER_FIN_R8_CH/lin_SD_l05_pT_120_150
Legend=1
LogY=1
# END PLOT

# BEGIN HISTO1D /zj_ps_nlo_mer_mur1_muf1_R8.yoda/PAPER_FIN_R8_CH/lin_SD_l05_pT_120_150
LineColor=red
LineStyle=solid
Path=/zj_ps_nlo_mer_mur1_muf1_R8.yoda/PAPER_FIN_R8_CH/lin_SD_l05_pT_120_150
Title=zj_ps_nlo_mer_mur1_muf1_R8
XLabel=~
YLabel=~
# xlow	 xhigh	 val	 errminus	 errplus
0.000000e+00	6.000000e-02	4.521495e+10	2.806234e+08	2.806234e+08
6.000000e-02	9.000000e-02	2.807373e+10	2.576831e+08	2.576831e+08
9.000000e-02	1.200000e-01	2.332128e+10	2.401380e+08	2.401380e+08
1.200000e-01	1.500000e-01	2.138668e+10	4.926958e+08	4.926958e+08
1.500000e-01	1.900000e-01	1.782305e+10	1.647846e+08	1.647846e+08
1.900000e-01	2.300000e-01	1.522861e+10	1.190997e+08	1.190997e+08
2.300000e-01	2.700000e-01	1.265143e+10	1.361736e+08	1.361736e+08
2.700000e-01	3.200000e-01	1.019904e+10	1.279582e+08	1.279582e+08
3.200000e-01	3.700000e-01	7.916944e+09	8.378835e+07	8.378835e+07
3.700000e-01	4.200000e-01	6.126344e+09	9.532301e+07	9.532301e+07
4.200000e-01	4.800000e-01	4.233145e+09	6.671003e+07	6.671003e+07
4.800000e-01	5.400000e-01	2.401025e+09	5.926407e+07	5.926407e+07
5.400000e-01	6.000000e-01	1.177045e+09	3.021284e+07	3.021284e+07
6.000000e-01	1.000000e+00	8.592888e+07	3.107194e+06	3.107194e+06
# END HISTO1D

