# BEGIN PLOT
LegendOnly=/zj_ps_nlo_mer_mur1_muf0.5_R8.yoda/PAPER_FIN_R8/ch_l05_pT_254_326
DrawOnly=/zj_ps_nlo_mer_mur1_muf0.5_R8.yoda/PAPER_FIN_R8/ch_l05_pT_254_326
Legend=1
LogY=1
# END PLOT

# BEGIN HISTO1D /zj_ps_nlo_mer_mur1_muf0.5_R8.yoda/PAPER_FIN_R8/ch_l05_pT_254_326
LineColor=red
LineStyle=solid
Path=/zj_ps_nlo_mer_mur1_muf0.5_R8.yoda/PAPER_FIN_R8/ch_l05_pT_254_326
Title=zj_ps_nlo_mer_mur1_muf0.5_R8
XLabel=~
YLabel=~
# xlow	 xhigh	 val	 errminus	 errplus
-7.000000e+00	-6.930000e+00	0.000000e+00	0.000000e+00	0.000000e+00
-6.930000e+00	-6.860000e+00	1.663511e+06	1.012997e+06	1.012997e+06
-6.860000e+00	-6.790000e+00	0.000000e+00	0.000000e+00	0.000000e+00
-6.790000e+00	-6.720000e+00	0.000000e+00	0.000000e+00	0.000000e+00
-6.720000e+00	-6.650000e+00	0.000000e+00	0.000000e+00	0.000000e+00
-6.650000e+00	-6.580000e+00	0.000000e+00	0.000000e+00	0.000000e+00
-6.580000e+00	-6.510000e+00	0.000000e+00	0.000000e+00	0.000000e+00
-6.510000e+00	-6.440000e+00	0.000000e+00	0.000000e+00	0.000000e+00
-6.440000e+00	-6.370000e+00	0.000000e+00	0.000000e+00	0.000000e+00
-6.370000e+00	-6.300000e+00	0.000000e+00	0.000000e+00	0.000000e+00
-6.300000e+00	-6.230000e+00	0.000000e+00	0.000000e+00	0.000000e+00
-6.230000e+00	-6.160000e+00	0.000000e+00	0.000000e+00	0.000000e+00
-6.160000e+00	-6.090000e+00	0.000000e+00	0.000000e+00	0.000000e+00
-6.090000e+00	-6.020000e+00	0.000000e+00	0.000000e+00	0.000000e+00
-6.020000e+00	-5.950000e+00	0.000000e+00	0.000000e+00	0.000000e+00
-5.950000e+00	-5.880000e+00	0.000000e+00	0.000000e+00	0.000000e+00
-5.880000e+00	-5.810000e+00	0.000000e+00	0.000000e+00	0.000000e+00
-5.810000e+00	-5.740000e+00	0.000000e+00	0.000000e+00	0.000000e+00
-5.740000e+00	-5.670000e+00	0.000000e+00	0.000000e+00	0.000000e+00
-5.670000e+00	-5.600000e+00	0.000000e+00	0.000000e+00	0.000000e+00
-5.600000e+00	-5.530000e+00	0.000000e+00	0.000000e+00	0.000000e+00
-5.530000e+00	-5.460000e+00	0.000000e+00	0.000000e+00	0.000000e+00
-5.460000e+00	-5.390000e+00	0.000000e+00	0.000000e+00	0.000000e+00
-5.390000e+00	-5.320000e+00	0.000000e+00	0.000000e+00	0.000000e+00
-5.320000e+00	-5.250000e+00	0.000000e+00	0.000000e+00	0.000000e+00
-5.250000e+00	-5.180000e+00	0.000000e+00	0.000000e+00	0.000000e+00
-5.180000e+00	-5.110000e+00	0.000000e+00	0.000000e+00	0.000000e+00
-5.110000e+00	-5.040000e+00	0.000000e+00	0.000000e+00	0.000000e+00
-5.040000e+00	-4.970000e+00	0.000000e+00	0.000000e+00	0.000000e+00
-4.970000e+00	-4.900000e+00	0.000000e+00	0.000000e+00	0.000000e+00
-4.900000e+00	-4.830000e+00	0.000000e+00	0.000000e+00	0.000000e+00
-4.830000e+00	-4.760000e+00	0.000000e+00	0.000000e+00	0.000000e+00
-4.760000e+00	-4.690000e+00	0.000000e+00	0.000000e+00	0.000000e+00
-4.690000e+00	-4.620000e+00	0.000000e+00	0.000000e+00	0.000000e+00
-4.620000e+00	-4.550000e+00	0.000000e+00	0.000000e+00	0.000000e+00
-4.550000e+00	-4.480000e+00	0.000000e+00	0.000000e+00	0.000000e+00
-4.480000e+00	-4.410000e+00	0.000000e+00	0.000000e+00	0.000000e+00
-4.410000e+00	-4.340000e+00	0.000000e+00	0.000000e+00	0.000000e+00
-4.340000e+00	-4.270000e+00	0.000000e+00	0.000000e+00	0.000000e+00
-4.270000e+00	-4.200000e+00	0.000000e+00	0.000000e+00	0.000000e+00
-4.200000e+00	-4.130000e+00	0.000000e+00	0.000000e+00	0.000000e+00
-4.130000e+00	-4.060000e+00	0.000000e+00	0.000000e+00	0.000000e+00
-4.060000e+00	-3.990000e+00	2.634734e-01	2.634735e-01	2.634735e-01
-3.990000e+00	-3.920000e+00	0.000000e+00	0.000000e+00	0.000000e+00
-3.920000e+00	-3.850000e+00	0.000000e+00	0.000000e+00	0.000000e+00
-3.850000e+00	-3.780000e+00	0.000000e+00	0.000000e+00	0.000000e+00
-3.780000e+00	-3.710000e+00	0.000000e+00	0.000000e+00	0.000000e+00
-3.710000e+00	-3.640000e+00	0.000000e+00	0.000000e+00	0.000000e+00
-3.640000e+00	-3.570000e+00	1.275418e+04	1.257420e+04	1.257420e+04
-3.570000e+00	-3.500000e+00	1.151039e+03	1.151037e+03	1.151037e+03
-3.500000e+00	-3.430000e+00	1.694664e+01	1.627308e+01	1.627308e+01
-3.430000e+00	-3.360000e+00	2.221094e+04	1.585385e+04	1.585385e+04
-3.360000e+00	-3.290000e+00	5.524461e+02	5.524282e+02	5.524282e+02
-3.290000e+00	-3.220000e+00	-1.438784e+02	1.133024e+02	1.133024e+02
-3.220000e+00	-3.150000e+00	4.104246e+02	2.910156e+02	2.910156e+02
-3.150000e+00	-3.080000e+00	6.893339e+04	6.649057e+04	6.649057e+04
-3.080000e+00	-3.010000e+00	3.281793e+03	4.262410e+03	4.262410e+03
-3.010000e+00	-2.940000e+00	1.092676e+02	8.501828e+01	8.501828e+01
-2.940000e+00	-2.870000e+00	-1.480841e+03	1.275128e+03	1.275128e+03
-2.870000e+00	-2.800000e+00	2.574317e+04	2.038146e+04	2.038146e+04
-2.800000e+00	-2.730000e+00	8.115006e+03	5.392693e+03	5.392693e+03
-2.730000e+00	-2.660000e+00	1.966973e+05	2.145861e+05	2.145861e+05
-2.660000e+00	-2.590000e+00	7.281464e+04	9.812303e+04	9.812303e+04
-2.590000e+00	-2.520000e+00	8.077157e+04	6.252526e+04	6.252526e+04
-2.520000e+00	-2.450000e+00	2.727869e+05	4.410836e+05	4.410836e+05
-2.450000e+00	-2.380000e+00	-1.983736e+05	3.270344e+05	3.270344e+05
-2.380000e+00	-2.310000e+00	7.001356e+05	4.266170e+05	4.266170e+05
-2.310000e+00	-2.240000e+00	9.819016e+04	9.459869e+04	9.459869e+04
-2.240000e+00	-2.170000e+00	6.165789e+05	4.675629e+05	4.675629e+05
-2.170000e+00	-2.100000e+00	4.560616e+05	4.892201e+05	4.892201e+05
-2.100000e+00	-2.030000e+00	1.696366e+06	6.602235e+05	6.602235e+05
-2.030000e+00	-1.960000e+00	1.017906e+06	4.418357e+05	4.418357e+05
-1.960000e+00	-1.890000e+00	1.235776e+06	6.708674e+05	6.708674e+05
-1.890000e+00	-1.820000e+00	6.326744e+06	2.465771e+06	2.465771e+06
-1.820000e+00	-1.750000e+00	7.905339e+06	2.489415e+06	2.489415e+06
-1.750000e+00	-1.680000e+00	-3.772936e+06	9.871879e+06	9.871879e+06
-1.680000e+00	-1.610000e+00	6.249666e+06	2.390119e+06	2.390119e+06
-1.610000e+00	-1.540000e+00	1.656936e+07	3.336549e+06	3.336549e+06
-1.540000e+00	-1.470000e+00	3.624663e+07	5.414896e+06	5.414896e+06
-1.470000e+00	-1.400000e+00	4.840637e+07	7.883160e+06	7.883160e+06
-1.400000e+00	-1.330000e+00	9.918001e+07	1.175765e+07	1.175765e+07
-1.330000e+00	-1.260000e+00	1.567121e+08	1.196163e+07	1.196163e+07
-1.260000e+00	-1.190000e+00	3.019143e+08	2.928345e+07	2.928345e+07
-1.190000e+00	-1.120000e+00	4.988911e+08	3.444560e+07	3.444560e+07
-1.120000e+00	-1.050000e+00	8.163746e+08	3.193092e+07	3.193092e+07
-1.050000e+00	-9.800000e-01	1.187322e+09	4.900208e+07	4.900208e+07
-9.800000e-01	-9.100000e-01	1.724283e+09	4.770458e+07	4.770458e+07
-9.100000e-01	-8.400000e-01	2.120087e+09	7.264286e+07	7.264286e+07
-8.400000e-01	-7.700000e-01	2.314731e+09	8.326787e+07	8.326787e+07
-7.700000e-01	-7.000000e-01	2.442507e+09	6.326119e+07	6.326119e+07
-7.000000e-01	-6.300000e-01	2.523189e+09	6.091404e+07	6.091404e+07
-6.300000e-01	-5.600000e-01	2.424477e+09	5.300895e+07	5.300895e+07
-5.600000e-01	-4.900000e-01	2.312461e+09	9.119093e+07	9.119093e+07
-4.900000e-01	-4.200000e-01	1.968306e+09	8.355553e+07	8.355553e+07
-4.200000e-01	-3.500000e-01	1.447599e+09	7.074409e+07	7.074409e+07
-3.500000e-01	-2.800000e-01	1.184445e+09	3.603261e+07	3.603261e+07
-2.800000e-01	-2.100000e-01	5.735754e+08	2.464736e+07	2.464736e+07
-2.100000e-01	-1.400000e-01	1.364344e+08	9.222783e+06	9.222783e+06
-1.400000e-01	-7.000000e-02	6.056411e+06	1.248199e+06	1.248199e+06
-7.000000e-02	0.000000e+00	5.754090e+01	5.833485e+01	5.833485e+01
# END HISTO1D

