# BEGIN PLOT
LegendOnly=/zj_ps_nlo_mer_mur1_muf0.5_R8.yoda/PAPER_FIN_R8_CH/lin_SD_l05_pT_408_1500
DrawOnly=/zj_ps_nlo_mer_mur1_muf0.5_R8.yoda/PAPER_FIN_R8_CH/lin_SD_l05_pT_408_1500
Legend=1
LogY=1
# END PLOT

# BEGIN HISTO1D /zj_ps_nlo_mer_mur1_muf0.5_R8.yoda/PAPER_FIN_R8_CH/lin_SD_l05_pT_408_1500
LineColor=red
LineStyle=solid
Path=/zj_ps_nlo_mer_mur1_muf0.5_R8.yoda/PAPER_FIN_R8_CH/lin_SD_l05_pT_408_1500
Title=zj_ps_nlo_mer_mur1_muf0.5_R8
XLabel=~
YLabel=~
# xlow	 xhigh	 val	 errminus	 errplus
0.000000e+00	6.000000e-02	1.879188e+09	8.969149e+07	8.969149e+07
6.000000e-02	9.000000e-02	2.928646e+09	7.708113e+07	7.708113e+07
9.000000e-02	1.200000e-01	2.017434e+09	6.423115e+07	6.423115e+07
1.200000e-01	1.500000e-01	1.426384e+09	5.806902e+07	5.806902e+07
1.500000e-01	1.900000e-01	1.280701e+09	5.764175e+07	5.764175e+07
1.900000e-01	2.300000e-01	1.424660e+09	3.504701e+08	3.504701e+08
2.300000e-01	2.700000e-01	9.168285e+08	3.779306e+07	3.779306e+07
2.700000e-01	3.200000e-01	7.686996e+08	4.264259e+07	4.264259e+07
3.200000e-01	3.700000e-01	5.802570e+08	2.764014e+07	2.764014e+07
3.700000e-01	4.200000e-01	4.625504e+08	3.061986e+07	3.061986e+07
4.200000e-01	4.800000e-01	2.862733e+08	1.286560e+07	1.286560e+07
4.800000e-01	5.400000e-01	1.950842e+08	1.209482e+07	1.209482e+07
5.400000e-01	6.000000e-01	8.542055e+07	1.051368e+07	1.051368e+07
6.000000e-01	1.000000e+00	9.747465e+06	3.094635e+06	3.094635e+06
# END HISTO1D

