# BEGIN PLOT
LegendOnly=/zj_ps_nlo_mer_mur1_muf0.5_R4.yoda/PAPER_FIN_R4/ch_l10_pT_186_254
DrawOnly=/zj_ps_nlo_mer_mur1_muf0.5_R4.yoda/PAPER_FIN_R4/ch_l10_pT_186_254
Legend=1
LogY=1
# END PLOT

# BEGIN HISTO1D /zj_ps_nlo_mer_mur1_muf0.5_R4.yoda/PAPER_FIN_R4/ch_l10_pT_186_254
LineColor=red
LineStyle=solid
Path=/zj_ps_nlo_mer_mur1_muf0.5_R4.yoda/PAPER_FIN_R4/ch_l10_pT_186_254
Title=zj_ps_nlo_mer_mur1_muf0.5_R4
XLabel=~
YLabel=~
# xlow	 xhigh	 val	 errminus	 errplus
-7.000000e+00	-6.930000e+00	-6.411264e+00	6.408383e+00	6.408383e+00
-6.930000e+00	-6.860000e+00	2.801676e+10	2.482429e+08	2.482429e+08
-6.860000e+00	-6.790000e+00	-1.823349e-01	1.819112e-01	1.819112e-01
-6.790000e+00	-6.720000e+00	-1.083484e-01	8.118916e-02	8.118916e-02
-6.720000e+00	-6.650000e+00	0.000000e+00	0.000000e+00	0.000000e+00
-6.650000e+00	-6.580000e+00	-2.731140e-05	2.172570e-05	2.172570e-05
-6.580000e+00	-6.510000e+00	-5.403807e-01	5.394918e-01	5.394918e-01
-6.510000e+00	-6.440000e+00	7.845106e+01	7.845720e+01	7.845720e+01
-6.440000e+00	-6.370000e+00	-8.568941e-02	6.659322e-02	6.659322e-02
-6.370000e+00	-6.300000e+00	-1.114091e-01	1.095125e-01	1.095125e-01
-6.300000e+00	-6.230000e+00	-2.645439e-01	4.380646e-01	4.380646e-01
-6.230000e+00	-6.160000e+00	-3.359381e+01	3.000844e+01	3.000844e+01
-6.160000e+00	-6.090000e+00	-4.424934e-01	3.371001e-01	3.371001e-01
-6.090000e+00	-6.020000e+00	1.225822e-03	2.552624e-02	2.552624e-02
-6.020000e+00	-5.950000e+00	-1.054117e+01	8.404992e+00	8.404992e+00
-5.950000e+00	-5.880000e+00	-2.659387e+00	1.477275e+00	1.477275e+00
-5.880000e+00	-5.810000e+00	-5.831974e+00	3.600468e+00	3.600468e+00
-5.810000e+00	-5.740000e+00	-1.948547e+04	1.948385e+04	1.948385e+04
-5.740000e+00	-5.670000e+00	5.241456e+03	5.254098e+03	5.254098e+03
-5.670000e+00	-5.600000e+00	-7.201543e+00	7.433402e+00	7.433402e+00
-5.600000e+00	-5.530000e+00	-3.353004e+00	2.387099e+00	2.387099e+00
-5.530000e+00	-5.460000e+00	-5.058457e+00	4.232395e+01	4.232395e+01
-5.460000e+00	-5.390000e+00	1.580751e+02	1.690737e+02	1.690737e+02
-5.390000e+00	-5.320000e+00	-3.415427e+02	4.459638e+02	4.459638e+02
-5.320000e+00	-5.250000e+00	-2.330971e+02	1.973360e+02	1.973360e+02
-5.250000e+00	-5.180000e+00	1.042836e+03	1.545403e+04	1.545403e+04
-5.180000e+00	-5.110000e+00	3.632783e+02	1.184256e+03	1.184256e+03
-5.110000e+00	-5.040000e+00	-4.050563e+02	8.532402e+02	8.532402e+02
-5.040000e+00	-4.970000e+00	2.946124e+04	2.224242e+04	2.224242e+04
-4.970000e+00	-4.900000e+00	-6.090817e+04	6.259452e+04	6.259452e+04
-4.900000e+00	-4.830000e+00	4.925931e+03	6.413654e+03	6.413654e+03
-4.830000e+00	-4.760000e+00	-6.849974e+03	6.381529e+03	6.381529e+03
-4.760000e+00	-4.690000e+00	-5.224437e+03	2.025476e+04	2.025476e+04
-4.690000e+00	-4.620000e+00	7.623616e+04	5.981246e+04	5.981246e+04
-4.620000e+00	-4.550000e+00	-7.110557e+03	6.036243e+04	6.036243e+04
-4.550000e+00	-4.480000e+00	-1.774854e+05	2.658975e+05	2.658975e+05
-4.480000e+00	-4.410000e+00	2.497349e+05	1.089407e+05	1.089407e+05
-4.410000e+00	-4.340000e+00	4.834556e+05	2.229736e+05	2.229736e+05
-4.340000e+00	-4.270000e+00	4.192086e+05	1.578235e+05	1.578235e+05
-4.270000e+00	-4.200000e+00	3.262699e+05	2.773448e+05	2.773448e+05
-4.200000e+00	-4.130000e+00	7.810361e+05	3.240137e+05	3.240137e+05
-4.130000e+00	-4.060000e+00	1.009181e+06	5.724364e+05	5.724364e+05
-4.060000e+00	-3.990000e+00	7.275496e+05	4.498505e+05	4.498505e+05
-3.990000e+00	-3.920000e+00	1.061524e+06	3.145050e+05	3.145050e+05
-3.920000e+00	-3.850000e+00	1.154349e+06	6.061461e+05	6.061461e+05
-3.850000e+00	-3.780000e+00	-1.226227e+06	1.453500e+06	1.453500e+06
-3.780000e+00	-3.710000e+00	4.606079e+06	2.910255e+06	2.910255e+06
-3.710000e+00	-3.640000e+00	3.501614e+05	7.516316e+05	7.516316e+05
-3.640000e+00	-3.570000e+00	3.007180e+06	6.715694e+05	6.715694e+05
-3.570000e+00	-3.500000e+00	1.079266e+07	9.407685e+06	9.407685e+06
-3.500000e+00	-3.430000e+00	5.741689e+06	2.518719e+06	2.518719e+06
-3.430000e+00	-3.360000e+00	5.482556e+06	1.121584e+06	1.121584e+06
-3.360000e+00	-3.290000e+00	1.691490e+06	1.482014e+06	1.482014e+06
-3.290000e+00	-3.220000e+00	3.260071e+06	1.937724e+06	1.937724e+06
-3.220000e+00	-3.150000e+00	9.031320e+06	3.317640e+06	3.317640e+06
-3.150000e+00	-3.080000e+00	8.917584e+06	1.935808e+06	1.935808e+06
-3.080000e+00	-3.010000e+00	1.364867e+07	2.513245e+06	2.513245e+06
-3.010000e+00	-2.940000e+00	1.132873e+07	3.047325e+06	3.047325e+06
-2.940000e+00	-2.870000e+00	1.705150e+07	2.810642e+06	2.810642e+06
-2.870000e+00	-2.800000e+00	2.282263e+07	3.069813e+06	3.069813e+06
-2.800000e+00	-2.730000e+00	2.916400e+07	3.548477e+06	3.548477e+06
-2.730000e+00	-2.660000e+00	2.620224e+07	1.270138e+07	1.270138e+07
-2.660000e+00	-2.590000e+00	4.139883e+07	4.972590e+06	4.972590e+06
-2.590000e+00	-2.520000e+00	4.997656e+07	4.533969e+06	4.533969e+06
-2.520000e+00	-2.450000e+00	5.416640e+07	6.286643e+06	6.286643e+06
-2.450000e+00	-2.380000e+00	8.004844e+07	5.429780e+06	5.429780e+06
-2.380000e+00	-2.310000e+00	8.814020e+07	1.067102e+07	1.067102e+07
-2.310000e+00	-2.240000e+00	1.213365e+08	1.120102e+07	1.120102e+07
-2.240000e+00	-2.170000e+00	1.172382e+08	1.168759e+07	1.168759e+07
-2.170000e+00	-2.100000e+00	1.220311e+08	9.998659e+06	9.998659e+06
-2.100000e+00	-2.030000e+00	1.771647e+08	9.176282e+06	9.176282e+06
-2.030000e+00	-1.960000e+00	1.919154e+08	8.822559e+06	8.822559e+06
-1.960000e+00	-1.890000e+00	2.098431e+08	1.186970e+07	1.186970e+07
-1.890000e+00	-1.820000e+00	2.378599e+08	1.434499e+07	1.434499e+07
-1.820000e+00	-1.750000e+00	3.273166e+08	1.705401e+07	1.705401e+07
-1.750000e+00	-1.680000e+00	3.716291e+08	1.344729e+07	1.344729e+07
-1.680000e+00	-1.610000e+00	4.541537e+08	2.224298e+07	2.224298e+07
-1.610000e+00	-1.540000e+00	5.585637e+08	1.892849e+07	1.892849e+07
-1.540000e+00	-1.470000e+00	6.049871e+08	1.925298e+07	1.925298e+07
-1.470000e+00	-1.400000e+00	6.425501e+08	2.000968e+07	2.000968e+07
-1.400000e+00	-1.330000e+00	6.642800e+08	2.405565e+07	2.405565e+07
-1.330000e+00	-1.260000e+00	7.327067e+08	2.541793e+07	2.541793e+07
-1.260000e+00	-1.190000e+00	6.792154e+08	2.552057e+07	2.552057e+07
-1.190000e+00	-1.120000e+00	6.853061e+08	3.320274e+07	3.320274e+07
-1.120000e+00	-1.050000e+00	6.994509e+08	2.009167e+07	2.009167e+07
-1.050000e+00	-9.800000e-01	7.594116e+08	6.942353e+07	6.942353e+07
-9.800000e-01	-9.100000e-01	6.544671e+08	2.223635e+07	2.223635e+07
-9.100000e-01	-8.400000e-01	6.629666e+08	1.910286e+07	1.910286e+07
-8.400000e-01	-7.700000e-01	6.031984e+08	2.370223e+07	2.370223e+07
-7.700000e-01	-7.000000e-01	5.776489e+08	1.729276e+07	1.729276e+07
-7.000000e-01	-6.300000e-01	5.083409e+08	1.920183e+07	1.920183e+07
-6.300000e-01	-5.600000e-01	4.116260e+08	1.482981e+07	1.482981e+07
-5.600000e-01	-4.900000e-01	3.463871e+08	1.804785e+07	1.804785e+07
-4.900000e-01	-4.200000e-01	2.555179e+08	1.184350e+07	1.184350e+07
-4.200000e-01	-3.500000e-01	1.622939e+08	9.125263e+06	9.125263e+06
-3.500000e-01	-2.800000e-01	5.402627e+07	5.240229e+06	5.240229e+06
-2.800000e-01	-2.100000e-01	1.067693e+07	2.051908e+06	2.051908e+06
-2.100000e-01	-1.400000e-01	1.615616e+06	8.606143e+05	8.606143e+05
-1.400000e-01	-7.000000e-02	4.833366e+03	2.930625e+03	2.930625e+03
-7.000000e-02	0.000000e+00	0.000000e+00	0.000000e+00	0.000000e+00
# END HISTO1D

