# BEGIN PLOT
LegendOnly=/zj_ps_nlo_mer_mur1_muf0.5_R4.yoda/PAPER_FIN_R4/ch_SD_l20_pT_65_88
DrawOnly=/zj_ps_nlo_mer_mur1_muf0.5_R4.yoda/PAPER_FIN_R4/ch_SD_l20_pT_65_88
Legend=1
LogY=1
# END PLOT

# BEGIN HISTO1D /zj_ps_nlo_mer_mur1_muf0.5_R4.yoda/PAPER_FIN_R4/ch_SD_l20_pT_65_88
LineColor=red
LineStyle=solid
Path=/zj_ps_nlo_mer_mur1_muf0.5_R4.yoda/PAPER_FIN_R4/ch_SD_l20_pT_65_88
Title=zj_ps_nlo_mer_mur1_muf0.5_R4
XLabel=~
YLabel=~
# xlow	 xhigh	 val	 errminus	 errplus
-7.000000e+00	-6.930000e+00	5.668696e+03	5.668605e+03	5.668605e+03
-6.930000e+00	-6.860000e+00	1.336039e+11	3.188579e+09	3.188579e+09
-6.860000e+00	-6.790000e+00	7.017039e+02	7.005617e+02	7.005617e+02
-6.790000e+00	-6.720000e+00	3.331029e+02	3.376523e+02	3.376523e+02
-6.720000e+00	-6.650000e+00	2.285849e+04	2.285713e+04	2.285713e+04
-6.650000e+00	-6.580000e+00	1.855827e+05	1.864891e+05	1.864891e+05
-6.580000e+00	-6.510000e+00	1.791390e+05	1.831025e+05	1.831025e+05
-6.510000e+00	-6.440000e+00	-1.641649e+06	1.603877e+06	1.603877e+06
-6.440000e+00	-6.370000e+00	7.739263e+05	7.754296e+05	7.754296e+05
-6.370000e+00	-6.300000e+00	2.183554e+04	2.236308e+04	2.236308e+04
-6.300000e+00	-6.230000e+00	-2.453890e+05	3.474499e+05	3.474499e+05
-6.230000e+00	-6.160000e+00	4.062591e+04	2.979537e+05	2.979537e+05
-6.160000e+00	-6.090000e+00	3.249174e+06	3.261203e+06	3.261203e+06
-6.090000e+00	-6.020000e+00	-3.905560e+05	3.801057e+05	3.801057e+05
-6.020000e+00	-5.950000e+00	-2.778356e+05	5.152808e+05	5.152808e+05
-5.950000e+00	-5.880000e+00	-1.382994e+05	1.280130e+05	1.280130e+05
-5.880000e+00	-5.810000e+00	-2.506896e+05	2.111235e+05	2.111235e+05
-5.810000e+00	-5.740000e+00	1.405293e+05	9.852273e+04	9.852273e+04
-5.740000e+00	-5.670000e+00	-8.988409e+05	6.801449e+05	6.801449e+05
-5.670000e+00	-5.600000e+00	-7.365293e+05	7.300656e+05	7.300656e+05
-5.600000e+00	-5.530000e+00	4.861903e+04	6.300139e+04	6.300139e+04
-5.530000e+00	-5.460000e+00	-4.922837e+06	4.562196e+06	4.562196e+06
-5.460000e+00	-5.390000e+00	1.051956e+06	1.219078e+06	1.219078e+06
-5.390000e+00	-5.320000e+00	-1.806997e+05	4.097920e+05	4.097920e+05
-5.320000e+00	-5.250000e+00	1.254452e+06	2.488952e+06	2.488952e+06
-5.250000e+00	-5.180000e+00	-1.944149e+06	1.997395e+06	1.997395e+06
-5.180000e+00	-5.110000e+00	4.997501e+06	4.463282e+06	4.463282e+06
-5.110000e+00	-5.040000e+00	2.290389e+06	3.226745e+06	3.226745e+06
-5.040000e+00	-4.970000e+00	-5.154613e+05	1.440083e+06	1.440083e+06
-4.970000e+00	-4.900000e+00	-9.951283e+05	2.071902e+06	2.071902e+06
-4.900000e+00	-4.830000e+00	-1.174938e+06	1.472995e+06	1.472995e+06
-4.830000e+00	-4.760000e+00	-6.272659e+05	1.072164e+06	1.072164e+06
-4.760000e+00	-4.690000e+00	-7.430300e+06	6.944446e+06	6.944446e+06
-4.690000e+00	-4.620000e+00	-1.552969e+06	1.896747e+06	1.896747e+06
-4.620000e+00	-4.550000e+00	1.047107e+06	5.470973e+05	5.470973e+05
-4.550000e+00	-4.480000e+00	-8.522761e+06	7.315895e+06	7.315895e+06
-4.480000e+00	-4.410000e+00	1.972094e+06	8.219866e+05	8.219866e+05
-4.410000e+00	-4.340000e+00	-1.865183e+06	2.099598e+06	2.099598e+06
-4.340000e+00	-4.270000e+00	-5.615293e+05	2.291378e+06	2.291378e+06
-4.270000e+00	-4.200000e+00	9.212659e+04	2.510549e+06	2.510549e+06
-4.200000e+00	-4.130000e+00	1.538263e+05	1.856524e+06	1.856524e+06
-4.130000e+00	-4.060000e+00	1.054509e+06	2.358855e+06	2.358855e+06
-4.060000e+00	-3.990000e+00	-1.332728e+06	3.131661e+06	3.131661e+06
-3.990000e+00	-3.920000e+00	7.430047e+06	3.067103e+06	3.067103e+06
-3.920000e+00	-3.850000e+00	5.185503e+06	1.767827e+06	1.767827e+06
-3.850000e+00	-3.780000e+00	5.469443e+06	2.563017e+06	2.563017e+06
-3.780000e+00	-3.710000e+00	7.023376e+06	1.935045e+06	1.935045e+06
-3.710000e+00	-3.640000e+00	5.926009e+06	3.197648e+06	3.197648e+06
-3.640000e+00	-3.570000e+00	7.553104e+06	4.567878e+06	4.567878e+06
-3.570000e+00	-3.500000e+00	2.551574e+06	6.108268e+06	6.108268e+06
-3.500000e+00	-3.430000e+00	9.200397e+06	4.438508e+06	4.438508e+06
-3.430000e+00	-3.360000e+00	1.093259e+07	5.142655e+06	5.142655e+06
-3.360000e+00	-3.290000e+00	2.275564e+07	3.249027e+06	3.249027e+06
-3.290000e+00	-3.220000e+00	2.006499e+07	4.210025e+06	4.210025e+06
-3.220000e+00	-3.150000e+00	3.290096e+07	1.632854e+07	1.632854e+07
-3.150000e+00	-3.080000e+00	3.205949e+07	6.168728e+06	6.168728e+06
-3.080000e+00	-3.010000e+00	2.785727e+07	9.178415e+06	9.178415e+06
-3.010000e+00	-2.940000e+00	5.327709e+07	1.134992e+07	1.134992e+07
-2.940000e+00	-2.870000e+00	6.871690e+07	3.633203e+07	3.633203e+07
-2.870000e+00	-2.800000e+00	1.373558e+08	2.206245e+07	2.206245e+07
-2.800000e+00	-2.730000e+00	1.773514e+08	3.057057e+07	3.057057e+07
-2.730000e+00	-2.660000e+00	2.580439e+08	3.515567e+07	3.515567e+07
-2.660000e+00	-2.590000e+00	2.350527e+08	2.593703e+07	2.593703e+07
-2.590000e+00	-2.520000e+00	3.002474e+08	3.615508e+07	3.615508e+07
-2.520000e+00	-2.450000e+00	3.805100e+08	3.509440e+07	3.509440e+07
-2.450000e+00	-2.380000e+00	3.616090e+08	3.314729e+07	3.314729e+07
-2.380000e+00	-2.310000e+00	2.684976e+08	7.530489e+07	7.530489e+07
-2.310000e+00	-2.240000e+00	4.633569e+08	3.790667e+07	3.790667e+07
-2.240000e+00	-2.170000e+00	5.633343e+08	4.620610e+07	4.620610e+07
-2.170000e+00	-2.100000e+00	5.546426e+08	5.901686e+07	5.901686e+07
-2.100000e+00	-2.030000e+00	7.381374e+08	1.146584e+08	1.146584e+08
-2.030000e+00	-1.960000e+00	6.718764e+08	5.462354e+07	5.462354e+07
-1.960000e+00	-1.890000e+00	5.560159e+08	8.537529e+07	8.537529e+07
-1.890000e+00	-1.820000e+00	7.670564e+08	3.805872e+07	3.805872e+07
-1.820000e+00	-1.750000e+00	9.685381e+08	8.829651e+07	8.829651e+07
-1.750000e+00	-1.680000e+00	9.171210e+09	8.093897e+09	8.093897e+09
-1.680000e+00	-1.610000e+00	9.009687e+08	7.008106e+07	7.008106e+07
-1.610000e+00	-1.540000e+00	8.103679e+08	6.454290e+07	6.454290e+07
-1.540000e+00	-1.470000e+00	1.005342e+09	5.350737e+07	5.350737e+07
-1.470000e+00	-1.400000e+00	8.343393e+08	6.906737e+07	6.906737e+07
-1.400000e+00	-1.330000e+00	1.122684e+09	8.241521e+07	8.241521e+07
-1.330000e+00	-1.260000e+00	9.919029e+08	7.076506e+07	7.076506e+07
-1.260000e+00	-1.190000e+00	1.151850e+09	6.415336e+07	6.415336e+07
-1.190000e+00	-1.120000e+00	1.161472e+09	5.638000e+07	5.638000e+07
-1.120000e+00	-1.050000e+00	1.033756e+09	1.157596e+08	1.157596e+08
-1.050000e+00	-9.800000e-01	1.521579e+09	3.107048e+08	3.107048e+08
-9.800000e-01	-9.100000e-01	1.016897e+09	6.724066e+07	6.724066e+07
-9.100000e-01	-8.400000e-01	9.606003e+08	1.497657e+08	1.497657e+08
-8.400000e-01	-7.700000e-01	7.762714e+08	4.933966e+07	4.933966e+07
-7.700000e-01	-7.000000e-01	5.244179e+08	6.245635e+07	6.245635e+07
-7.000000e-01	-6.300000e-01	3.165097e+08	5.386756e+07	5.386756e+07
-6.300000e-01	-5.600000e-01	9.306596e+07	3.763045e+07	3.763045e+07
-5.600000e-01	-4.900000e-01	1.370283e+08	1.329221e+08	1.329221e+08
-4.900000e-01	-4.200000e-01	2.089954e+06	1.458198e+06	1.458198e+06
-4.200000e-01	-3.500000e-01	4.043393e+05	2.987001e+05	2.987001e+05
-3.500000e-01	-2.800000e-01	0.000000e+00	0.000000e+00	0.000000e+00
-2.800000e-01	-2.100000e-01	0.000000e+00	0.000000e+00	0.000000e+00
-2.100000e-01	-1.400000e-01	0.000000e+00	0.000000e+00	0.000000e+00
-1.400000e-01	-7.000000e-02	0.000000e+00	0.000000e+00	0.000000e+00
-7.000000e-02	0.000000e+00	0.000000e+00	0.000000e+00	0.000000e+00
# END HISTO1D

