# BEGIN PLOT
LegendOnly=/zj_ps_nlo_mer_mur1_muf0.5_R4.yoda/PAPER_FIN_R4/SD_l10_pT_150_186
DrawOnly=/zj_ps_nlo_mer_mur1_muf0.5_R4.yoda/PAPER_FIN_R4/SD_l10_pT_150_186
Legend=1
LogY=1
# END PLOT

# BEGIN HISTO1D /zj_ps_nlo_mer_mur1_muf0.5_R4.yoda/PAPER_FIN_R4/SD_l10_pT_150_186
LineColor=red
LineStyle=solid
Path=/zj_ps_nlo_mer_mur1_muf0.5_R4.yoda/PAPER_FIN_R4/SD_l10_pT_150_186
Title=zj_ps_nlo_mer_mur1_muf0.5_R4
XLabel=~
YLabel=~
# xlow	 xhigh	 val	 errminus	 errplus
-7.000000e+00	-6.930000e+00	0.000000e+00	0.000000e+00	0.000000e+00
-6.930000e+00	-6.860000e+00	1.725411e+10	2.788712e+08	2.788712e+08
-6.860000e+00	-6.790000e+00	0.000000e+00	0.000000e+00	0.000000e+00
-6.790000e+00	-6.720000e+00	0.000000e+00	0.000000e+00	0.000000e+00
-6.720000e+00	-6.650000e+00	0.000000e+00	0.000000e+00	0.000000e+00
-6.650000e+00	-6.580000e+00	0.000000e+00	0.000000e+00	0.000000e+00
-6.580000e+00	-6.510000e+00	0.000000e+00	0.000000e+00	0.000000e+00
-6.510000e+00	-6.440000e+00	0.000000e+00	0.000000e+00	0.000000e+00
-6.440000e+00	-6.370000e+00	0.000000e+00	0.000000e+00	0.000000e+00
-6.370000e+00	-6.300000e+00	0.000000e+00	0.000000e+00	0.000000e+00
-6.300000e+00	-6.230000e+00	0.000000e+00	0.000000e+00	0.000000e+00
-6.230000e+00	-6.160000e+00	0.000000e+00	0.000000e+00	0.000000e+00
-6.160000e+00	-6.090000e+00	0.000000e+00	0.000000e+00	0.000000e+00
-6.090000e+00	-6.020000e+00	0.000000e+00	0.000000e+00	0.000000e+00
-6.020000e+00	-5.950000e+00	0.000000e+00	0.000000e+00	0.000000e+00
-5.950000e+00	-5.880000e+00	0.000000e+00	0.000000e+00	0.000000e+00
-5.880000e+00	-5.810000e+00	0.000000e+00	0.000000e+00	0.000000e+00
-5.810000e+00	-5.740000e+00	0.000000e+00	0.000000e+00	0.000000e+00
-5.740000e+00	-5.670000e+00	0.000000e+00	0.000000e+00	0.000000e+00
-5.670000e+00	-5.600000e+00	0.000000e+00	0.000000e+00	0.000000e+00
-5.600000e+00	-5.530000e+00	0.000000e+00	0.000000e+00	0.000000e+00
-5.530000e+00	-5.460000e+00	0.000000e+00	0.000000e+00	0.000000e+00
-5.460000e+00	-5.390000e+00	0.000000e+00	0.000000e+00	0.000000e+00
-5.390000e+00	-5.320000e+00	0.000000e+00	0.000000e+00	0.000000e+00
-5.320000e+00	-5.250000e+00	0.000000e+00	0.000000e+00	0.000000e+00
-5.250000e+00	-5.180000e+00	0.000000e+00	0.000000e+00	0.000000e+00
-5.180000e+00	-5.110000e+00	0.000000e+00	0.000000e+00	0.000000e+00
-5.110000e+00	-5.040000e+00	0.000000e+00	0.000000e+00	0.000000e+00
-5.040000e+00	-4.970000e+00	0.000000e+00	0.000000e+00	0.000000e+00
-4.970000e+00	-4.900000e+00	-6.925261e-01	6.925261e-01	6.925261e-01
-4.900000e+00	-4.830000e+00	0.000000e+00	0.000000e+00	0.000000e+00
-4.830000e+00	-4.760000e+00	0.000000e+00	0.000000e+00	0.000000e+00
-4.760000e+00	-4.690000e+00	-1.746884e+02	1.736252e+02	1.736252e+02
-4.690000e+00	-4.620000e+00	0.000000e+00	0.000000e+00	0.000000e+00
-4.620000e+00	-4.550000e+00	0.000000e+00	0.000000e+00	0.000000e+00
-4.550000e+00	-4.480000e+00	-5.047101e+00	5.436785e+00	5.436785e+00
-4.480000e+00	-4.410000e+00	-3.621447e+01	3.595796e+01	3.595796e+01
-4.410000e+00	-4.340000e+00	-8.157540e+00	1.142399e+01	1.142399e+01
-4.340000e+00	-4.270000e+00	5.101507e+01	6.039496e+01	6.039496e+01
-4.270000e+00	-4.200000e+00	5.933036e+01	6.744559e+01	6.744559e+01
-4.200000e+00	-4.130000e+00	-2.761663e+02	7.877651e+02	7.877651e+02
-4.130000e+00	-4.060000e+00	-3.727247e+03	4.995739e+03	4.995739e+03
-4.060000e+00	-3.990000e+00	5.627054e+03	5.723043e+03	5.723043e+03
-3.990000e+00	-3.920000e+00	4.306727e+01	5.579077e+01	5.579077e+01
-3.920000e+00	-3.850000e+00	1.043921e+03	1.700824e+03	1.700824e+03
-3.850000e+00	-3.780000e+00	1.117429e+03	2.030336e+03	2.030336e+03
-3.780000e+00	-3.710000e+00	6.258500e+03	4.830473e+03	4.830473e+03
-3.710000e+00	-3.640000e+00	1.810021e+05	1.320025e+05	1.320025e+05
-3.640000e+00	-3.570000e+00	6.365660e+04	4.085472e+04	4.085472e+04
-3.570000e+00	-3.500000e+00	-6.057561e+04	8.359609e+04	8.359609e+04
-3.500000e+00	-3.430000e+00	9.525046e+04	2.443503e+05	2.443503e+05
-3.430000e+00	-3.360000e+00	-3.323977e+05	5.962136e+05	5.962136e+05
-3.360000e+00	-3.290000e+00	-1.168102e+06	2.077330e+06	2.077330e+06
-3.290000e+00	-3.220000e+00	4.216140e+05	5.477924e+05	5.477924e+05
-3.220000e+00	-3.150000e+00	-5.837471e+05	1.332097e+06	1.332097e+06
-3.150000e+00	-3.080000e+00	-9.111694e+05	1.398248e+06	1.398248e+06
-3.080000e+00	-3.010000e+00	3.239190e+06	1.653880e+06	1.653880e+06
-3.010000e+00	-2.940000e+00	2.209391e+06	1.601383e+06	1.601383e+06
-2.940000e+00	-2.870000e+00	5.441376e+05	1.039858e+06	1.039858e+06
-2.870000e+00	-2.800000e+00	1.990840e+06	9.209272e+05	9.209272e+05
-2.800000e+00	-2.730000e+00	2.421264e+06	1.805072e+06	1.805072e+06
-2.730000e+00	-2.660000e+00	5.020883e+06	1.453360e+06	1.453360e+06
-2.660000e+00	-2.590000e+00	2.743459e+07	2.125603e+07	2.125603e+07
-2.590000e+00	-2.520000e+00	8.138846e+05	4.349510e+06	4.349510e+06
-2.520000e+00	-2.450000e+00	1.425774e+07	5.523881e+06	5.523881e+06
-2.450000e+00	-2.380000e+00	1.509413e+07	3.102484e+06	3.102484e+06
-2.380000e+00	-2.310000e+00	2.110679e+07	3.061218e+06	3.061218e+06
-2.310000e+00	-2.240000e+00	3.418003e+07	5.044648e+06	5.044648e+06
-2.240000e+00	-2.170000e+00	9.664493e+07	5.383897e+07	5.383897e+07
-2.170000e+00	-2.100000e+00	7.628411e+07	8.437290e+06	8.437290e+06
-2.100000e+00	-2.030000e+00	1.312671e+08	1.221968e+07	1.221968e+07
-2.030000e+00	-1.960000e+00	1.596244e+08	1.077979e+07	1.077979e+07
-1.960000e+00	-1.890000e+00	2.522889e+08	1.603568e+07	1.603568e+07
-1.890000e+00	-1.820000e+00	3.559741e+08	1.975139e+07	1.975139e+07
-1.820000e+00	-1.750000e+00	6.853539e+08	3.573695e+07	3.573695e+07
-1.750000e+00	-1.680000e+00	1.480501e+09	3.981734e+07	3.981734e+07
-1.680000e+00	-1.610000e+00	1.802327e+09	4.824548e+07	4.824548e+07
-1.610000e+00	-1.540000e+00	1.887076e+09	1.094538e+08	1.094538e+08
-1.540000e+00	-1.470000e+00	1.932734e+09	6.348241e+07	6.348241e+07
-1.470000e+00	-1.400000e+00	2.250609e+09	2.809641e+08	2.809641e+08
-1.400000e+00	-1.330000e+00	2.038286e+09	8.830587e+07	8.830587e+07
-1.330000e+00	-1.260000e+00	2.166271e+09	5.459212e+07	5.459212e+07
-1.260000e+00	-1.190000e+00	2.357450e+09	1.309641e+08	1.309641e+08
-1.190000e+00	-1.120000e+00	2.343109e+09	5.070756e+07	5.070756e+07
-1.120000e+00	-1.050000e+00	2.419249e+09	4.985606e+07	4.985606e+07
-1.050000e+00	-9.800000e-01	2.390589e+09	6.490962e+07	6.490962e+07
-9.800000e-01	-9.100000e-01	2.473133e+09	5.068679e+07	5.068679e+07
-9.100000e-01	-8.400000e-01	2.428471e+09	4.584909e+07	4.584909e+07
-8.400000e-01	-7.700000e-01	2.372669e+09	5.139652e+07	5.139652e+07
-7.700000e-01	-7.000000e-01	2.295237e+09	9.198305e+07	9.198305e+07
-7.000000e-01	-6.300000e-01	-5.191907e+08	2.500125e+09	2.500125e+09
-6.300000e-01	-5.600000e-01	1.784579e+09	3.985402e+07	3.985402e+07
-5.600000e-01	-4.900000e-01	1.484703e+09	6.115197e+07	6.115197e+07
-4.900000e-01	-4.200000e-01	1.182619e+09	3.575747e+07	3.575747e+07
-4.200000e-01	-3.500000e-01	8.191533e+08	2.858932e+07	2.858932e+07
-3.500000e-01	-2.800000e-01	4.989881e+08	2.344438e+07	2.344438e+07
-2.800000e-01	-2.100000e-01	1.750971e+08	2.304697e+07	2.304697e+07
-2.100000e-01	-1.400000e-01	3.382607e+07	4.770030e+06	4.770030e+06
-1.400000e-01	-7.000000e-02	1.171874e+06	6.926708e+05	6.926708e+05
-7.000000e-02	0.000000e+00	1.532996e+05	9.385171e+04	9.385171e+04
# END HISTO1D

