# BEGIN PLOT
LegendOnly=/zj_ps_nlo_mer_mur1_muf0.5_R4.yoda/PAPER_FIN_R4/lin_l20_pT_254_326
DrawOnly=/zj_ps_nlo_mer_mur1_muf0.5_R4.yoda/PAPER_FIN_R4/lin_l20_pT_254_326
Legend=1
LogY=1
# END PLOT

# BEGIN HISTO1D /zj_ps_nlo_mer_mur1_muf0.5_R4.yoda/PAPER_FIN_R4/lin_l20_pT_254_326
LineColor=red
LineStyle=solid
Path=/zj_ps_nlo_mer_mur1_muf0.5_R4.yoda/PAPER_FIN_R4/lin_l20_pT_254_326
Title=zj_ps_nlo_mer_mur1_muf0.5_R4
XLabel=~
YLabel=~
# xlow	 xhigh	 val	 errminus	 errplus
0.000000e+00	5.000000e-02	1.677759e+10	1.434526e+08	1.434526e+08
5.000000e-02	9.000000e-02	3.571543e+09	6.209433e+07	6.209433e+07
9.000000e-02	1.500000e-01	1.494920e+09	5.811684e+07	5.811684e+07
1.500000e-01	2.050000e-01	7.743360e+08	7.172991e+07	7.172991e+07
2.050000e-01	1.000000e+00	2.882535e+07	1.226851e+06	1.226851e+06
# END HISTO1D

