# BEGIN PLOT
LegendOnly=/zj_ps_nlo_mer_mur1_muf2_R4.yoda/PAPER_FIN_R4/lin_SD_l20_pT_88_120
DrawOnly=/zj_ps_nlo_mer_mur1_muf2_R4.yoda/PAPER_FIN_R4/lin_SD_l20_pT_88_120
Legend=1
LogY=1
# END PLOT

# BEGIN HISTO1D /zj_ps_nlo_mer_mur1_muf2_R4.yoda/PAPER_FIN_R4/lin_SD_l20_pT_88_120
LineColor=red
LineStyle=solid
Path=/zj_ps_nlo_mer_mur1_muf2_R4.yoda/PAPER_FIN_R4/lin_SD_l20_pT_88_120
Title=zj_ps_nlo_mer_mur1_muf2_R4
XLabel=~
YLabel=~
# xlow	 xhigh	 val	 errminus	 errplus
0.000000e+00	2.500000e-03	1.317230e+08	1.696160e+08	1.696160e+08
2.500000e-03	1.000000e-02	8.948807e+07	7.617677e+07	7.617677e+07
1.000000e-02	2.500000e-02	2.666015e+06	2.089341e+07	2.089341e+07
2.500000e-02	6.000000e-02	2.213648e+06	1.023911e+07	1.023911e+07
6.000000e-02	1.200000e-01	1.245319e+07	1.499608e+07	1.499608e+07
1.200000e-01	1.770000e-01	-7.097009e+06	4.381253e+06	4.381253e+06
1.770000e-01	2.300000e-01	-3.306702e+06	3.141171e+06	3.141171e+06
2.300000e-01	1.000000e+00	-2.795369e+05	1.413147e+05	1.413147e+05
# END HISTO1D

