# BEGIN PLOT
LegendOnly=/zj_ps_nlo_mer_mur1_muf2_R4.yoda/PAPER_FIN_R4/ch_l05_pT_254_326
DrawOnly=/zj_ps_nlo_mer_mur1_muf2_R4.yoda/PAPER_FIN_R4/ch_l05_pT_254_326
Legend=1
LogY=1
# END PLOT

# BEGIN HISTO1D /zj_ps_nlo_mer_mur1_muf2_R4.yoda/PAPER_FIN_R4/ch_l05_pT_254_326
LineColor=red
LineStyle=solid
Path=/zj_ps_nlo_mer_mur1_muf2_R4.yoda/PAPER_FIN_R4/ch_l05_pT_254_326
Title=zj_ps_nlo_mer_mur1_muf2_R4
XLabel=~
YLabel=~
# xlow	 xhigh	 val	 errminus	 errplus
-7.000000e+00	-6.930000e+00	0.000000e+00	0.000000e+00	0.000000e+00
-6.930000e+00	-6.860000e+00	1.050670e+07	9.377755e+05	9.377755e+05
-6.860000e+00	-6.790000e+00	0.000000e+00	0.000000e+00	0.000000e+00
-6.790000e+00	-6.720000e+00	0.000000e+00	0.000000e+00	0.000000e+00
-6.720000e+00	-6.650000e+00	0.000000e+00	0.000000e+00	0.000000e+00
-6.650000e+00	-6.580000e+00	0.000000e+00	0.000000e+00	0.000000e+00
-6.580000e+00	-6.510000e+00	0.000000e+00	0.000000e+00	0.000000e+00
-6.510000e+00	-6.440000e+00	0.000000e+00	0.000000e+00	0.000000e+00
-6.440000e+00	-6.370000e+00	0.000000e+00	0.000000e+00	0.000000e+00
-6.370000e+00	-6.300000e+00	0.000000e+00	0.000000e+00	0.000000e+00
-6.300000e+00	-6.230000e+00	0.000000e+00	0.000000e+00	0.000000e+00
-6.230000e+00	-6.160000e+00	0.000000e+00	0.000000e+00	0.000000e+00
-6.160000e+00	-6.090000e+00	0.000000e+00	0.000000e+00	0.000000e+00
-6.090000e+00	-6.020000e+00	0.000000e+00	0.000000e+00	0.000000e+00
-6.020000e+00	-5.950000e+00	0.000000e+00	0.000000e+00	0.000000e+00
-5.950000e+00	-5.880000e+00	0.000000e+00	0.000000e+00	0.000000e+00
-5.880000e+00	-5.810000e+00	0.000000e+00	0.000000e+00	0.000000e+00
-5.810000e+00	-5.740000e+00	0.000000e+00	0.000000e+00	0.000000e+00
-5.740000e+00	-5.670000e+00	0.000000e+00	0.000000e+00	0.000000e+00
-5.670000e+00	-5.600000e+00	0.000000e+00	0.000000e+00	0.000000e+00
-5.600000e+00	-5.530000e+00	0.000000e+00	0.000000e+00	0.000000e+00
-5.530000e+00	-5.460000e+00	0.000000e+00	0.000000e+00	0.000000e+00
-5.460000e+00	-5.390000e+00	0.000000e+00	0.000000e+00	0.000000e+00
-5.390000e+00	-5.320000e+00	0.000000e+00	0.000000e+00	0.000000e+00
-5.320000e+00	-5.250000e+00	0.000000e+00	0.000000e+00	0.000000e+00
-5.250000e+00	-5.180000e+00	0.000000e+00	0.000000e+00	0.000000e+00
-5.180000e+00	-5.110000e+00	0.000000e+00	0.000000e+00	0.000000e+00
-5.110000e+00	-5.040000e+00	0.000000e+00	0.000000e+00	0.000000e+00
-5.040000e+00	-4.970000e+00	0.000000e+00	0.000000e+00	0.000000e+00
-4.970000e+00	-4.900000e+00	0.000000e+00	0.000000e+00	0.000000e+00
-4.900000e+00	-4.830000e+00	0.000000e+00	0.000000e+00	0.000000e+00
-4.830000e+00	-4.760000e+00	0.000000e+00	0.000000e+00	0.000000e+00
-4.760000e+00	-4.690000e+00	2.343207e+02	1.678506e+02	1.678506e+02
-4.690000e+00	-4.620000e+00	0.000000e+00	0.000000e+00	0.000000e+00
-4.620000e+00	-4.550000e+00	7.199481e+00	4.914138e+00	4.914138e+00
-4.550000e+00	-4.480000e+00	1.166119e+03	1.166119e+03	1.166119e+03
-4.480000e+00	-4.410000e+00	-6.141871e+01	6.611805e+01	6.611805e+01
-4.410000e+00	-4.340000e+00	2.749119e+03	2.737223e+03	2.737223e+03
-4.340000e+00	-4.270000e+00	4.037486e+03	4.136189e+03	4.136189e+03
-4.270000e+00	-4.200000e+00	-2.408421e+02	2.400415e+02	2.400415e+02
-4.200000e+00	-4.130000e+00	2.228980e+04	2.195320e+04	2.195320e+04
-4.130000e+00	-4.060000e+00	-8.590383e+02	8.715013e+02	8.715013e+02
-4.060000e+00	-3.990000e+00	-9.240914e+03	1.357605e+04	1.357605e+04
-3.990000e+00	-3.920000e+00	1.079801e+04	9.639525e+03	9.639525e+03
-3.920000e+00	-3.850000e+00	-9.563036e+03	8.459141e+03	8.459141e+03
-3.850000e+00	-3.780000e+00	8.748871e+03	6.422273e+03	6.422273e+03
-3.780000e+00	-3.710000e+00	2.665237e+04	2.001184e+04	2.001184e+04
-3.710000e+00	-3.640000e+00	2.397179e+04	1.586993e+04	1.586993e+04
-3.640000e+00	-3.570000e+00	2.245176e+04	1.429326e+04	1.429326e+04
-3.570000e+00	-3.500000e+00	1.742227e+04	1.424573e+04	1.424573e+04
-3.500000e+00	-3.430000e+00	8.000879e+03	1.103147e+04	1.103147e+04
-3.430000e+00	-3.360000e+00	9.447171e+04	5.880990e+04	5.880990e+04
-3.360000e+00	-3.290000e+00	9.553883e+04	3.246269e+04	3.246269e+04
-3.290000e+00	-3.220000e+00	-1.890547e+04	5.454410e+04	5.454410e+04
-3.220000e+00	-3.150000e+00	6.952259e+04	2.954515e+04	2.954515e+04
-3.150000e+00	-3.080000e+00	5.174904e+04	5.460665e+04	5.460665e+04
-3.080000e+00	-3.010000e+00	4.178419e+04	6.636924e+04	6.636924e+04
-3.010000e+00	-2.940000e+00	1.277389e+05	3.478536e+04	3.478536e+04
-2.940000e+00	-2.870000e+00	1.022224e+05	4.834316e+04	4.834316e+04
-2.870000e+00	-2.800000e+00	2.269281e+05	1.290049e+05	1.290049e+05
-2.800000e+00	-2.730000e+00	2.783353e+05	7.090115e+04	7.090115e+04
-2.730000e+00	-2.660000e+00	2.122849e+05	5.558676e+04	5.558676e+04
-2.660000e+00	-2.590000e+00	3.188846e+05	1.267898e+05	1.267898e+05
-2.590000e+00	-2.520000e+00	4.577639e+05	9.606628e+04	9.606628e+04
-2.520000e+00	-2.450000e+00	7.367013e+05	1.797189e+05	1.797189e+05
-2.450000e+00	-2.380000e+00	9.486521e+05	1.897575e+05	1.897575e+05
-2.380000e+00	-2.310000e+00	7.492001e+05	1.319057e+05	1.319057e+05
-2.310000e+00	-2.240000e+00	8.926176e+05	1.596449e+05	1.596449e+05
-2.240000e+00	-2.170000e+00	1.302587e+06	2.345525e+05	2.345525e+05
-2.170000e+00	-2.100000e+00	1.530997e+06	3.929240e+05	3.929240e+05
-2.100000e+00	-2.030000e+00	2.056136e+06	3.459892e+05	3.459892e+05
-2.030000e+00	-1.960000e+00	2.110427e+06	3.941674e+05	3.941674e+05
-1.960000e+00	-1.890000e+00	4.738287e+06	4.209270e+05	4.209270e+05
-1.890000e+00	-1.820000e+00	4.507114e+06	6.113258e+05	6.113258e+05
-1.820000e+00	-1.750000e+00	5.076007e+06	2.003749e+06	2.003749e+06
-1.750000e+00	-1.680000e+00	9.075986e+06	6.711849e+05	6.711849e+05
-1.680000e+00	-1.610000e+00	1.296191e+07	1.490327e+06	1.490327e+06
-1.610000e+00	-1.540000e+00	1.877436e+07	1.250367e+06	1.250367e+06
-1.540000e+00	-1.470000e+00	2.757187e+07	1.303082e+06	1.303082e+06
-1.470000e+00	-1.400000e+00	4.374577e+07	1.697787e+06	1.697787e+06
-1.400000e+00	-1.330000e+00	7.468936e+07	6.262478e+06	6.262478e+06
-1.330000e+00	-1.260000e+00	1.193464e+08	3.209386e+06	3.209386e+06
-1.260000e+00	-1.190000e+00	1.854514e+08	4.021950e+06	4.021950e+06
-1.190000e+00	-1.120000e+00	3.190401e+08	6.144369e+06	6.144369e+06
-1.120000e+00	-1.050000e+00	5.127770e+08	1.378294e+07	1.378294e+07
-1.050000e+00	-9.800000e-01	8.333230e+08	9.090191e+06	9.090191e+06
-9.800000e-01	-9.100000e-01	1.243964e+09	2.027813e+07	2.027813e+07
-9.100000e-01	-8.400000e-01	1.746861e+09	6.175933e+07	6.175933e+07
-8.400000e-01	-7.700000e-01	2.056254e+09	1.977869e+07	1.977869e+07
-7.700000e-01	-7.000000e-01	2.220520e+09	2.981673e+07	2.981673e+07
-7.000000e-01	-6.300000e-01	2.182241e+09	2.256736e+07	2.256736e+07
-6.300000e-01	-5.600000e-01	2.049447e+09	2.174882e+07	2.174882e+07
-5.600000e-01	-4.900000e-01	1.803669e+09	3.618881e+07	3.618881e+07
-4.900000e-01	-4.200000e-01	1.489774e+09	1.745562e+07	1.745562e+07
-4.200000e-01	-3.500000e-01	1.151397e+09	1.503889e+07	1.503889e+07
-3.500000e-01	-2.800000e-01	7.563579e+08	1.448990e+07	1.448990e+07
-2.800000e-01	-2.100000e-01	3.722146e+08	8.416097e+06	8.416097e+06
-2.100000e-01	-1.400000e-01	7.371719e+07	2.495081e+06	2.495081e+06
-1.400000e-01	-7.000000e-02	2.611707e+06	4.851183e+05	4.851183e+05
-7.000000e-02	0.000000e+00	6.863531e+03	6.185246e+03	6.185246e+03
# END HISTO1D

