# BEGIN PLOT
LegendOnly=/zj_ps_nlo_mer_mur1_muf2_R4.yoda/PAPER_FIN_R4/ch_SD_l10_pT_120_150
DrawOnly=/zj_ps_nlo_mer_mur1_muf2_R4.yoda/PAPER_FIN_R4/ch_SD_l10_pT_120_150
Legend=1
LogY=1
# END PLOT

# BEGIN HISTO1D /zj_ps_nlo_mer_mur1_muf2_R4.yoda/PAPER_FIN_R4/ch_SD_l10_pT_120_150
LineColor=red
LineStyle=solid
Path=/zj_ps_nlo_mer_mur1_muf2_R4.yoda/PAPER_FIN_R4/ch_SD_l10_pT_120_150
Title=zj_ps_nlo_mer_mur1_muf2_R4
XLabel=~
YLabel=~
# xlow	 xhigh	 val	 errminus	 errplus
-7.000000e+00	-6.930000e+00	0.000000e+00	0.000000e+00	0.000000e+00
-6.930000e+00	-6.860000e+00	1.904629e+06	2.313500e+06	2.313500e+06
-6.860000e+00	-6.790000e+00	0.000000e+00	0.000000e+00	0.000000e+00
-6.790000e+00	-6.720000e+00	0.000000e+00	0.000000e+00	0.000000e+00
-6.720000e+00	-6.650000e+00	0.000000e+00	0.000000e+00	0.000000e+00
-6.650000e+00	-6.580000e+00	0.000000e+00	0.000000e+00	0.000000e+00
-6.580000e+00	-6.510000e+00	0.000000e+00	0.000000e+00	0.000000e+00
-6.510000e+00	-6.440000e+00	0.000000e+00	0.000000e+00	0.000000e+00
-6.440000e+00	-6.370000e+00	0.000000e+00	0.000000e+00	0.000000e+00
-6.370000e+00	-6.300000e+00	0.000000e+00	0.000000e+00	0.000000e+00
-6.300000e+00	-6.230000e+00	0.000000e+00	0.000000e+00	0.000000e+00
-6.230000e+00	-6.160000e+00	0.000000e+00	0.000000e+00	0.000000e+00
-6.160000e+00	-6.090000e+00	0.000000e+00	0.000000e+00	0.000000e+00
-6.090000e+00	-6.020000e+00	0.000000e+00	0.000000e+00	0.000000e+00
-6.020000e+00	-5.950000e+00	0.000000e+00	0.000000e+00	0.000000e+00
-5.950000e+00	-5.880000e+00	0.000000e+00	0.000000e+00	0.000000e+00
-5.880000e+00	-5.810000e+00	0.000000e+00	0.000000e+00	0.000000e+00
-5.810000e+00	-5.740000e+00	0.000000e+00	0.000000e+00	0.000000e+00
-5.740000e+00	-5.670000e+00	0.000000e+00	0.000000e+00	0.000000e+00
-5.670000e+00	-5.600000e+00	0.000000e+00	0.000000e+00	0.000000e+00
-5.600000e+00	-5.530000e+00	0.000000e+00	0.000000e+00	0.000000e+00
-5.530000e+00	-5.460000e+00	0.000000e+00	0.000000e+00	0.000000e+00
-5.460000e+00	-5.390000e+00	0.000000e+00	0.000000e+00	0.000000e+00
-5.390000e+00	-5.320000e+00	0.000000e+00	0.000000e+00	0.000000e+00
-5.320000e+00	-5.250000e+00	0.000000e+00	0.000000e+00	0.000000e+00
-5.250000e+00	-5.180000e+00	0.000000e+00	0.000000e+00	0.000000e+00
-5.180000e+00	-5.110000e+00	8.602899e+00	8.602899e+00	8.602899e+00
-5.110000e+00	-5.040000e+00	0.000000e+00	0.000000e+00	0.000000e+00
-5.040000e+00	-4.970000e+00	0.000000e+00	0.000000e+00	0.000000e+00
-4.970000e+00	-4.900000e+00	0.000000e+00	0.000000e+00	0.000000e+00
-4.900000e+00	-4.830000e+00	0.000000e+00	0.000000e+00	0.000000e+00
-4.830000e+00	-4.760000e+00	-1.874096e+02	1.874095e+02	1.874095e+02
-4.760000e+00	-4.690000e+00	-4.082230e+01	4.082230e+01	4.082230e+01
-4.690000e+00	-4.620000e+00	-2.936690e+01	2.936690e+01	2.936690e+01
-4.620000e+00	-4.550000e+00	0.000000e+00	0.000000e+00	0.000000e+00
-4.550000e+00	-4.480000e+00	-1.353920e+02	1.353920e+02	1.353920e+02
-4.480000e+00	-4.410000e+00	1.754153e+04	1.768087e+04	1.768087e+04
-4.410000e+00	-4.340000e+00	4.386400e+01	4.384102e+01	4.384102e+01
-4.340000e+00	-4.270000e+00	1.051420e+00	1.051420e+00	1.051420e+00
-4.270000e+00	-4.200000e+00	-2.052311e+02	2.052311e+02	2.052311e+02
-4.200000e+00	-4.130000e+00	-1.916969e+03	1.249036e+03	1.249036e+03
-4.130000e+00	-4.060000e+00	-8.736103e+00	3.735423e+01	3.735423e+01
-4.060000e+00	-3.990000e+00	-1.639907e+04	1.845118e+04	1.845118e+04
-3.990000e+00	-3.920000e+00	-4.430973e+04	3.630373e+04	3.630373e+04
-3.920000e+00	-3.850000e+00	-7.215813e+02	5.681556e+03	5.681556e+03
-3.850000e+00	-3.780000e+00	8.403717e+03	7.762788e+03	7.762788e+03
-3.780000e+00	-3.710000e+00	2.529673e+04	1.995502e+04	1.995502e+04
-3.710000e+00	-3.640000e+00	1.570510e+04	1.542832e+04	1.542832e+04
-3.640000e+00	-3.570000e+00	-7.012383e+04	7.271033e+04	7.271033e+04
-3.570000e+00	-3.500000e+00	2.897281e+04	2.270996e+04	2.270996e+04
-3.500000e+00	-3.430000e+00	2.166540e+04	1.826595e+04	1.826595e+04
-3.430000e+00	-3.360000e+00	2.885007e+04	3.428440e+04	3.428440e+04
-3.360000e+00	-3.290000e+00	4.846591e+02	6.371280e+04	6.371280e+04
-3.290000e+00	-3.220000e+00	-6.395394e+04	6.963604e+04	6.963604e+04
-3.220000e+00	-3.150000e+00	7.775050e+04	4.468788e+04	4.468788e+04
-3.150000e+00	-3.080000e+00	9.383029e+04	4.340873e+04	4.340873e+04
-3.080000e+00	-3.010000e+00	-1.559790e+04	7.077674e+04	7.077674e+04
-3.010000e+00	-2.940000e+00	7.190584e+04	1.156052e+05	1.156052e+05
-2.940000e+00	-2.870000e+00	-2.524817e+05	3.144189e+05	3.144189e+05
-2.870000e+00	-2.800000e+00	1.007940e+05	8.488918e+04	8.488918e+04
-2.800000e+00	-2.730000e+00	-1.366844e+05	3.078845e+05	3.078845e+05
-2.730000e+00	-2.660000e+00	3.872050e+05	1.982223e+05	1.982223e+05
-2.660000e+00	-2.590000e+00	3.321177e+04	6.688308e+05	6.688308e+05
-2.590000e+00	-2.520000e+00	4.658676e+05	3.690196e+05	3.690196e+05
-2.520000e+00	-2.450000e+00	-7.658147e+05	7.733827e+05	7.733827e+05
-2.450000e+00	-2.380000e+00	4.758814e+05	4.186500e+05	4.186500e+05
-2.380000e+00	-2.310000e+00	2.494600e+06	4.799124e+05	4.799124e+05
-2.310000e+00	-2.240000e+00	9.461596e+05	9.134742e+05	9.134742e+05
-2.240000e+00	-2.170000e+00	2.158853e+06	6.938158e+05	6.938158e+05
-2.170000e+00	-2.100000e+00	1.952131e+06	1.578339e+06	1.578339e+06
-2.100000e+00	-2.030000e+00	2.184843e+05	2.247731e+06	2.247731e+06
-2.030000e+00	-1.960000e+00	3.093254e+06	1.293990e+06	1.293990e+06
-1.960000e+00	-1.890000e+00	2.261203e+06	1.570188e+06	1.570188e+06
-1.890000e+00	-1.820000e+00	9.670387e+06	3.224120e+06	3.224120e+06
-1.820000e+00	-1.750000e+00	7.584451e+06	1.620018e+06	1.620018e+06
-1.750000e+00	-1.680000e+00	9.787659e+06	2.432827e+06	2.432827e+06
-1.680000e+00	-1.610000e+00	2.375740e+06	5.156771e+06	5.156771e+06
-1.610000e+00	-1.540000e+00	1.770049e+07	3.553145e+06	3.553145e+06
-1.540000e+00	-1.470000e+00	1.726734e+07	3.489689e+06	3.489689e+06
-1.470000e+00	-1.400000e+00	1.958641e+07	8.082342e+06	8.082342e+06
-1.400000e+00	-1.330000e+00	1.680909e+07	4.575237e+06	4.575237e+06
-1.330000e+00	-1.260000e+00	3.071787e+07	6.349808e+06	6.349808e+06
-1.260000e+00	-1.190000e+00	3.033514e+07	5.672724e+06	5.672724e+06
-1.190000e+00	-1.120000e+00	2.864923e+07	5.028898e+06	5.028898e+06
-1.120000e+00	-1.050000e+00	2.606056e+07	5.051902e+06	5.051902e+06
-1.050000e+00	-9.800000e-01	2.814130e+07	4.182911e+06	4.182911e+06
-9.800000e-01	-9.100000e-01	2.217374e+07	5.282930e+06	5.282930e+06
-9.100000e-01	-8.400000e-01	2.621694e+07	1.207397e+07	1.207397e+07
-8.400000e-01	-7.700000e-01	-9.992241e+06	3.012520e+07	3.012520e+07
-7.700000e-01	-7.000000e-01	4.473801e+06	2.421048e+07	2.421048e+07
-7.000000e-01	-6.300000e-01	2.886049e+07	5.100316e+06	5.100316e+06
-6.300000e-01	-5.600000e-01	1.887260e+07	4.644033e+06	4.644033e+06
-5.600000e-01	-4.900000e-01	1.121400e+07	5.122647e+06	5.122647e+06
-4.900000e-01	-4.200000e-01	1.152455e+07	5.057575e+06	5.057575e+06
-4.200000e-01	-3.500000e-01	1.014040e+07	3.847806e+06	3.847806e+06
-3.500000e-01	-2.800000e-01	5.841094e+06	2.226663e+06	2.226663e+06
-2.800000e-01	-2.100000e-01	3.089034e+06	1.581758e+06	1.581758e+06
-2.100000e-01	-1.400000e-01	1.430656e+06	6.580362e+05	6.580362e+05
-1.400000e-01	-7.000000e-02	-7.986176e+04	1.414597e+05	1.414597e+05
-7.000000e-02	0.000000e+00	-4.433017e+03	4.788511e+03	4.788511e+03
# END HISTO1D

