# BEGIN PLOT
LegendOnly=/herwig_np_lo_r8_pt408_s1_1e3.yoda/PAPER_FIN_R8/ch_lin_SD_l10_pT_150_186
DrawOnly=/herwig_np_lo_r8_pt408_s1_1e3.yoda/PAPER_FIN_R8/ch_lin_SD_l10_pT_150_186
Legend=1
LogY=1
# END PLOT

# BEGIN HISTO1D /herwig_np_lo_r8_pt408_s1_1e3.yoda/PAPER_FIN_R8/ch_lin_SD_l10_pT_150_186
LineColor=red
LineStyle=solid
Path=/herwig_np_lo_r8_pt408_s1_1e3.yoda/PAPER_FIN_R8/ch_lin_SD_l10_pT_150_186
Title=herwig_np_lo_r8_pt408_s1_1e3
XLabel=~
YLabel=~
# xlow	 xhigh	 val	 errminus	 errplus
0.000000e+00	1.250000e-02	2.373772e+08	1.541125e+05	1.541125e+05
1.250000e-02	2.250000e-02	2.862860e+08	1.713446e+05	1.713446e+05
2.250000e-02	3.500000e-02	2.153909e+08	1.315864e+05	1.315864e+05
3.500000e-02	5.000000e-02	1.411188e+08	9.753657e+04	9.753657e+04
5.000000e-02	7.000000e-02	9.521275e+07	6.916957e+04	6.916957e+04
7.000000e-02	9.500000e-02	7.150100e+07	5.360045e+04	5.360045e+04
9.500000e-02	1.280000e-01	5.921109e+07	4.249077e+04	4.249077e+04
1.280000e-01	1.700000e-01	5.123398e+07	3.540996e+04	3.540996e+04
1.700000e-01	2.250000e-01	4.102364e+07	3.552515e+04	3.552515e+04
2.250000e-01	2.900000e-01	2.918851e+07	2.136350e+04	2.136350e+04
2.900000e-01	3.650000e-01	1.869268e+07	1.583384e+04	1.583384e+04
3.650000e-01	4.500000e-01	1.028204e+07	1.103628e+04	1.103628e+04
4.500000e-01	1.000000e+00	8.931875e+05	1.277978e+03	1.277978e+03
# END HISTO1D

