num,pt,eta,phi
0,1.28663,-0.457542,1.45668
0,0.451364,-1.56421,0.231915
0,0.613932,-1.33913,0.25435
0,5.81182,-0.448792,0.250574
0,4.82353,-0.925893,0.999651
0,3.96871,-0.461307,0.280537
0,5.90947,-0.847421,0.861006
0,4.18749,-0.903374,0.328891
0,7.56589,-0.67606,0.465194
0,3.12272,-0.941514,0.473918
0,132.299,-0.833607,0.538994
0,101.363,-0.843357,0.536416
