pt, eta, phi
1.5617,2.54453,0.0583043
11.7297,1.21956,5.81934
13.7575,0.917906,0.23841
1.94844,1.10711,0.11066
0.460976,2.07264,0.0790007
0.975425,1.94829,0.0732601
7.83306,1.63933,0.309864
12.5345,1.67171,0.173414
186.6,1.67502,0.227791
24.2519,1.65601,0.232953
