# BEGIN PLOT
LegendOnly=/zj_ps_nlo_mer_mur0.5_muf0.5_R4.yoda/PAPER_FIN_R4/ch_lin_SD_l10_pT_120_150
DrawOnly=/zj_ps_nlo_mer_mur0.5_muf0.5_R4.yoda/PAPER_FIN_R4/ch_lin_SD_l10_pT_120_150
Legend=1
LogY=1
# END PLOT

# BEGIN HISTO1D /zj_ps_nlo_mer_mur0.5_muf0.5_R4.yoda/PAPER_FIN_R4/ch_lin_SD_l10_pT_120_150
LineColor=red
LineStyle=solid
Path=/zj_ps_nlo_mer_mur0.5_muf0.5_R4.yoda/PAPER_FIN_R4/ch_lin_SD_l10_pT_120_150
Title=zj_ps_nlo_mer_mur0.5_muf0.5_R4
XLabel=~
YLabel=~
# xlow	 xhigh	 val	 errminus	 errplus
0.000000e+00	1.250000e-02	4.128726e+10	1.606066e+09	1.606066e+09
1.250000e-02	2.250000e-02	5.862404e+10	2.103793e+09	2.103793e+09
2.250000e-02	3.500000e-02	6.001423e+10	1.217215e+09	1.217215e+09
3.500000e-02	5.000000e-02	5.437566e+10	8.410935e+08	8.410935e+08
5.000000e-02	7.000000e-02	4.155925e+10	9.193798e+08	9.193798e+08
7.000000e-02	9.500000e-02	3.179760e+10	6.593914e+08	6.593914e+08
9.500000e-02	1.280000e-01	2.218375e+10	3.553754e+08	3.553754e+08
1.280000e-01	1.700000e-01	1.608892e+10	2.830590e+08	2.830590e+08
1.700000e-01	2.250000e-01	1.123513e+10	4.561917e+08	4.561917e+08
2.250000e-01	2.900000e-01	7.362914e+09	1.444889e+08	1.444889e+08
2.900000e-01	3.650000e-01	4.556368e+09	1.097543e+08	1.097543e+08
3.650000e-01	4.500000e-01	2.381661e+09	8.565511e+07	8.565511e+07
4.500000e-01	1.000000e+00	2.217524e+08	8.745349e+06	8.745349e+06
# END HISTO1D

