# BEGIN PLOT
LegendOnly=/zj_ps_nlo_mer_mur0.5_muf0.5_R4.yoda/PAPER_FIN_R4/ch_lin_l05_pT_326_408
DrawOnly=/zj_ps_nlo_mer_mur0.5_muf0.5_R4.yoda/PAPER_FIN_R4/ch_lin_l05_pT_326_408
Legend=1
LogY=1
# END PLOT

# BEGIN HISTO1D /zj_ps_nlo_mer_mur0.5_muf0.5_R4.yoda/PAPER_FIN_R4/ch_lin_l05_pT_326_408
LineColor=red
LineStyle=solid
Path=/zj_ps_nlo_mer_mur0.5_muf0.5_R4.yoda/PAPER_FIN_R4/ch_lin_l05_pT_326_408
Title=zj_ps_nlo_mer_mur0.5_muf0.5_R4
XLabel=~
YLabel=~
# xlow	 xhigh	 val	 errminus	 errplus
0.000000e+00	6.000000e-02	2.347855e+08	2.239095e+07	2.239095e+07
6.000000e-02	1.100000e-01	1.341786e+09	4.059940e+07	4.059940e+07
1.100000e-01	1.500000e-01	2.115635e+09	6.262879e+07	6.262879e+07
1.500000e-01	1.900000e-01	1.904715e+09	5.073382e+07	5.073382e+07
1.900000e-01	2.300000e-01	1.515797e+09	4.831109e+07	4.831109e+07
2.300000e-01	2.700000e-01	1.265639e+09	6.316780e+07	6.316780e+07
2.700000e-01	3.100000e-01	9.418103e+08	4.624043e+07	4.624043e+07
3.100000e-01	3.500000e-01	7.816880e+08	2.968874e+07	2.968874e+07
3.500000e-01	3.900000e-01	5.705295e+08	2.883057e+07	2.883057e+07
3.900000e-01	4.400000e-01	3.836444e+08	2.878194e+07	2.878194e+07
4.400000e-01	4.900000e-01	3.241966e+08	2.164225e+07	2.164225e+07
4.900000e-01	5.400000e-01	1.938905e+08	1.403214e+07	1.403214e+07
5.400000e-01	6.000000e-01	1.192243e+08	1.060858e+07	1.060858e+07
6.000000e-01	1.000000e+00	5.545822e+06	1.181097e+06	1.181097e+06
# END HISTO1D

