# BEGIN PLOT
LegendOnly=/zj_ps_nlo_mer_mur0.5_muf0.5_R4.yoda/PAPER_FIN_R4/ch_lin_l10_pT_326_408
DrawOnly=/zj_ps_nlo_mer_mur0.5_muf0.5_R4.yoda/PAPER_FIN_R4/ch_lin_l10_pT_326_408
Legend=1
LogY=1
# END PLOT

# BEGIN HISTO1D /zj_ps_nlo_mer_mur0.5_muf0.5_R4.yoda/PAPER_FIN_R4/ch_lin_l10_pT_326_408
LineColor=red
LineStyle=solid
Path=/zj_ps_nlo_mer_mur0.5_muf0.5_R4.yoda/PAPER_FIN_R4/ch_lin_l10_pT_326_408
Title=zj_ps_nlo_mer_mur0.5_muf0.5_R4
XLabel=~
YLabel=~
# xlow	 xhigh	 val	 errminus	 errplus
0.000000e+00	2.250000e-02	1.426778e+09	7.767363e+07	7.767363e+07
2.250000e-02	4.000000e-02	4.519629e+09	1.328424e+08	1.328424e+08
4.000000e-02	5.750000e-02	4.142626e+09	1.300927e+08	1.300927e+08
5.750000e-02	7.750000e-02	3.194537e+09	8.872836e+07	8.872836e+07
7.750000e-02	1.000000e-01	2.202518e+09	8.002769e+07	8.002769e+07
1.000000e-01	1.250000e-01	1.724235e+09	4.556004e+07	4.556004e+07
1.250000e-01	1.520000e-01	1.379348e+09	8.884401e+07	8.884401e+07
1.520000e-01	1.850000e-01	8.908848e+08	5.368221e+07	5.368221e+07
1.850000e-01	2.200000e-01	7.362689e+08	3.664391e+07	3.664391e+07
2.200000e-01	2.600000e-01	4.937985e+08	2.909642e+07	2.909642e+07
2.600000e-01	3.070000e-01	3.634955e+08	2.675179e+07	2.675179e+07
3.070000e-01	3.620000e-01	2.066560e+08	1.886868e+07	1.886868e+07
3.620000e-01	4.250000e-01	1.829970e+08	1.296994e+07	1.296994e+07
4.250000e-01	4.970000e-01	7.027725e+07	6.328748e+06	6.328748e+06
4.970000e-01	1.000000e+00	4.016002e+06	9.038642e+05	9.038642e+05
# END HISTO1D

