# BEGIN PLOT
LegendOnly=/zj_ps_nlo_mer_mur0.5_muf0.5_R4.yoda/PAPER_FIN_R4/ch_SD_l20_pT_88_120
DrawOnly=/zj_ps_nlo_mer_mur0.5_muf0.5_R4.yoda/PAPER_FIN_R4/ch_SD_l20_pT_88_120
Legend=1
LogY=1
# END PLOT

# BEGIN HISTO1D /zj_ps_nlo_mer_mur0.5_muf0.5_R4.yoda/PAPER_FIN_R4/ch_SD_l20_pT_88_120
LineColor=red
LineStyle=solid
Path=/zj_ps_nlo_mer_mur0.5_muf0.5_R4.yoda/PAPER_FIN_R4/ch_SD_l20_pT_88_120
Title=zj_ps_nlo_mer_mur0.5_muf0.5_R4
XLabel=~
YLabel=~
# xlow	 xhigh	 val	 errminus	 errplus
-7.000000e+00	-6.930000e+00	1.170678e+06	4.871060e+05	4.871060e+05
-6.930000e+00	-6.860000e+00	5.733790e+09	2.193704e+08	2.193704e+08
-6.860000e+00	-6.790000e+00	3.452790e+05	1.095885e+06	1.095885e+06
-6.790000e+00	-6.720000e+00	6.093207e+05	5.601855e+05	5.601855e+05
-6.720000e+00	-6.650000e+00	-2.925803e+05	7.553396e+05	7.553396e+05
-6.650000e+00	-6.580000e+00	-5.083269e+05	1.533623e+06	1.533623e+06
-6.580000e+00	-6.510000e+00	2.466899e+06	1.913401e+06	1.913401e+06
-6.510000e+00	-6.440000e+00	1.165123e+06	8.494328e+05	8.494328e+05
-6.440000e+00	-6.370000e+00	1.085775e+06	9.470387e+05	9.470387e+05
-6.370000e+00	-6.300000e+00	-8.382333e+05	1.440742e+06	1.440742e+06
-6.300000e+00	-6.230000e+00	-1.414672e+06	2.601844e+06	2.601844e+06
-6.230000e+00	-6.160000e+00	5.437227e+05	1.174236e+06	1.174236e+06
-6.160000e+00	-6.090000e+00	-9.951341e+05	4.806974e+06	4.806974e+06
-6.090000e+00	-6.020000e+00	8.258841e+06	1.794647e+06	1.794647e+06
-6.020000e+00	-5.950000e+00	9.518844e+06	2.437078e+06	2.437078e+06
-5.950000e+00	-5.880000e+00	1.607749e+06	1.943679e+06	1.943679e+06
-5.880000e+00	-5.810000e+00	2.946471e+06	2.026047e+06	2.026047e+06
-5.810000e+00	-5.740000e+00	5.088556e+06	6.335601e+06	6.335601e+06
-5.740000e+00	-5.670000e+00	4.175114e+06	2.208012e+06	2.208012e+06
-5.670000e+00	-5.600000e+00	6.490837e+06	3.852365e+06	3.852365e+06
-5.600000e+00	-5.530000e+00	7.274599e+06	2.402895e+06	2.402895e+06
-5.530000e+00	-5.460000e+00	8.970057e+06	4.373751e+06	4.373751e+06
-5.460000e+00	-5.390000e+00	1.579987e+07	3.740355e+06	3.740355e+06
-5.390000e+00	-5.320000e+00	1.047474e+07	5.466398e+06	5.466398e+06
-5.320000e+00	-5.250000e+00	1.211733e+07	5.051545e+06	5.051545e+06
-5.250000e+00	-5.180000e+00	2.229326e+07	6.083477e+06	6.083477e+06
-5.180000e+00	-5.110000e+00	2.300766e+07	7.310529e+06	7.310529e+06
-5.110000e+00	-5.040000e+00	3.241667e+07	6.825690e+06	6.825690e+06
-5.040000e+00	-4.970000e+00	2.967109e+07	7.760099e+06	7.760099e+06
-4.970000e+00	-4.900000e+00	4.668273e+07	1.036275e+07	1.036275e+07
-4.900000e+00	-4.830000e+00	4.742357e+07	7.668731e+06	7.668731e+06
-4.830000e+00	-4.760000e+00	5.714531e+07	1.433198e+07	1.433198e+07
-4.760000e+00	-4.690000e+00	6.114657e+07	9.927343e+06	9.927343e+06
-4.690000e+00	-4.620000e+00	7.218861e+07	9.548268e+06	9.548268e+06
-4.620000e+00	-4.550000e+00	8.993500e+07	1.391263e+07	1.391263e+07
-4.550000e+00	-4.480000e+00	9.395517e+07	1.246941e+07	1.246941e+07
-4.480000e+00	-4.410000e+00	1.268804e+08	1.427260e+07	1.427260e+07
-4.410000e+00	-4.340000e+00	8.886163e+07	7.894651e+07	7.894651e+07
-4.340000e+00	-4.270000e+00	1.172158e+08	3.098662e+07	3.098662e+07
-4.270000e+00	-4.200000e+00	1.614164e+08	2.410646e+07	2.410646e+07
-4.200000e+00	-4.130000e+00	2.443524e+08	2.117486e+07	2.117486e+07
-4.130000e+00	-4.060000e+00	2.759874e+08	3.597031e+07	3.597031e+07
-4.060000e+00	-3.990000e+00	3.278240e+08	3.240027e+07	3.240027e+07
-3.990000e+00	-3.920000e+00	3.311290e+08	8.190573e+07	8.190573e+07
-3.920000e+00	-3.850000e+00	4.716419e+08	4.205000e+07	4.205000e+07
-3.850000e+00	-3.780000e+00	4.250564e+08	1.136115e+08	1.136115e+08
-3.780000e+00	-3.710000e+00	6.732676e+08	4.753046e+07	4.753046e+07
-3.710000e+00	-3.640000e+00	8.848169e+08	6.273340e+07	6.273340e+07
-3.640000e+00	-3.570000e+00	9.502421e+08	6.300892e+07	6.300892e+07
-3.570000e+00	-3.500000e+00	1.016736e+09	6.791341e+07	6.791341e+07
-3.500000e+00	-3.430000e+00	1.084463e+09	1.846649e+08	1.846649e+08
-3.430000e+00	-3.360000e+00	1.406691e+09	9.361068e+07	9.361068e+07
-3.360000e+00	-3.290000e+00	1.590204e+09	9.423582e+07	9.423582e+07
-3.290000e+00	-3.220000e+00	1.928860e+09	7.177139e+07	7.177139e+07
-3.220000e+00	-3.150000e+00	2.043637e+09	1.390584e+08	1.390584e+08
-3.150000e+00	-3.080000e+00	2.473163e+09	1.183779e+08	1.183779e+08
-3.080000e+00	-3.010000e+00	2.965874e+09	1.448636e+08	1.448636e+08
-3.010000e+00	-2.940000e+00	3.217326e+09	1.192377e+08	1.192377e+08
-2.940000e+00	-2.870000e+00	3.371369e+09	2.411990e+08	2.411990e+08
-2.870000e+00	-2.800000e+00	3.398889e+09	2.523265e+08	2.523265e+08
-2.800000e+00	-2.730000e+00	4.203193e+09	1.537385e+08	1.537385e+08
-2.730000e+00	-2.660000e+00	4.935360e+09	2.898693e+08	2.898693e+08
-2.660000e+00	-2.590000e+00	4.877776e+09	1.952009e+08	1.952009e+08
-2.590000e+00	-2.520000e+00	5.435243e+09	1.653377e+08	1.653377e+08
-2.520000e+00	-2.450000e+00	6.206023e+09	1.992093e+08	1.992093e+08
-2.450000e+00	-2.380000e+00	6.009530e+09	1.963249e+08	1.963249e+08
-2.380000e+00	-2.310000e+00	6.335469e+09	1.722084e+08	1.722084e+08
-2.310000e+00	-2.240000e+00	6.718857e+09	1.719268e+08	1.719268e+08
-2.240000e+00	-2.170000e+00	6.413504e+09	2.095572e+08	2.095572e+08
-2.170000e+00	-2.100000e+00	7.027287e+09	1.738015e+08	1.738015e+08
-2.100000e+00	-2.030000e+00	7.433506e+09	3.416850e+08	3.416850e+08
-2.030000e+00	-1.960000e+00	7.475830e+09	3.131271e+08	3.131271e+08
-1.960000e+00	-1.890000e+00	5.010466e+09	1.677698e+09	1.677698e+09
-1.890000e+00	-1.820000e+00	7.444244e+09	3.031428e+08	3.031428e+08
-1.820000e+00	-1.750000e+00	7.572026e+09	2.323310e+08	2.323310e+08
-1.750000e+00	-1.680000e+00	7.322261e+09	2.392694e+08	2.392694e+08
-1.680000e+00	-1.610000e+00	6.703940e+09	2.329664e+08	2.329664e+08
-1.610000e+00	-1.540000e+00	7.300439e+09	2.341950e+08	2.341950e+08
-1.540000e+00	-1.470000e+00	6.918541e+09	1.563413e+08	1.563413e+08
-1.470000e+00	-1.400000e+00	7.492040e+09	8.946703e+08	8.946703e+08
-1.400000e+00	-1.330000e+00	7.190116e+09	5.139755e+08	5.139755e+08
-1.330000e+00	-1.260000e+00	6.233894e+09	1.609506e+08	1.609506e+08
-1.260000e+00	-1.190000e+00	6.893066e+09	1.406454e+08	1.406454e+08
-1.190000e+00	-1.120000e+00	6.908167e+09	1.844804e+08	1.844804e+08
-1.120000e+00	-1.050000e+00	6.791424e+09	2.215443e+08	2.215443e+08
-1.050000e+00	-9.800000e-01	7.262511e+09	2.780561e+08	2.780561e+08
-9.800000e-01	-9.100000e-01	6.694883e+09	2.284166e+08	2.284166e+08
-9.100000e-01	-8.400000e-01	6.302720e+09	1.816677e+08	1.816677e+08
-8.400000e-01	-7.700000e-01	5.865423e+09	1.486437e+08	1.486437e+08
-7.700000e-01	-7.000000e-01	4.355920e+09	1.858444e+08	1.858444e+08
-7.000000e-01	-6.300000e-01	3.249699e+09	1.078608e+08	1.078608e+08
-6.300000e-01	-5.600000e-01	1.802607e+09	1.339182e+08	1.339182e+08
-5.600000e-01	-4.900000e-01	7.167741e+08	5.698965e+07	5.698965e+07
-4.900000e-01	-4.200000e-01	1.936139e+08	1.701386e+07	1.701386e+07
-4.200000e-01	-3.500000e-01	1.221610e+07	8.717065e+06	8.717065e+06
-3.500000e-01	-2.800000e-01	-1.508030e+05	3.241764e+05	3.241764e+05
-2.800000e-01	-2.100000e-01	-1.077427e+04	1.077427e+04	1.077427e+04
-2.100000e-01	-1.400000e-01	0.000000e+00	0.000000e+00	0.000000e+00
-1.400000e-01	-7.000000e-02	0.000000e+00	0.000000e+00	0.000000e+00
-7.000000e-02	0.000000e+00	0.000000e+00	0.000000e+00	0.000000e+00
# END HISTO1D

