# BEGIN PLOT
LegendOnly=/scale_7.yoda/MC_XS/XS
DrawOnly=/scale_7.yoda/MC_XS/XS
Title=Total generated cross section
XMajorTickMarks=20
LogY=0
XLabel=
ShowZero=0
XMinorTickMarks=0
YLabel=$\sigma_\text{total}$ [pb]
Legend=1
# END PLOT

# BEGIN HISTO1D /scale_7.yoda/MC_XS/XS
LineColor=red
LineStyle=solid
Path=/scale_7.yoda/MC_XS/XS
Title=scale_7
XLabel=~
YLabel=~
# xlow	 xhigh	 val	 errminus	 errplus
-5.000000e-01	5.000000e-01	4.534311e+00	7.279958e-03	7.279958e-03
# END HISTO1D

