# BEGIN PLOT
LegendOnly=/zj_ps_nlo_mer_mur1_muf0.5_R4.yoda/PAPER_FIN_R4_CH/lin_l20_pT_408_1500
DrawOnly=/zj_ps_nlo_mer_mur1_muf0.5_R4.yoda/PAPER_FIN_R4_CH/lin_l20_pT_408_1500
Legend=1
LogY=1
# END PLOT

# BEGIN HISTO1D /zj_ps_nlo_mer_mur1_muf0.5_R4.yoda/PAPER_FIN_R4_CH/lin_l20_pT_408_1500
LineColor=red
LineStyle=solid
Path=/zj_ps_nlo_mer_mur1_muf0.5_R4.yoda/PAPER_FIN_R4_CH/lin_l20_pT_408_1500
Title=zj_ps_nlo_mer_mur1_muf0.5_R4
XLabel=~
YLabel=~
# xlow	 xhigh	 val	 errminus	 errplus
0.000000e+00	5.000000e-03	6.896448e+09	1.970950e+08	1.970950e+08
5.000000e-03	1.250000e-02	1.199797e+10	2.468778e+08	2.468778e+08
1.250000e-02	2.250000e-02	6.608651e+09	1.972704e+08	1.972704e+08
2.250000e-02	3.500000e-02	3.747026e+09	2.076070e+08	2.076070e+08
3.500000e-02	5.000000e-02	2.030959e+09	6.464277e+07	6.464277e+07
5.000000e-02	7.000000e-02	1.398309e+09	9.431671e+07	9.431671e+07
7.000000e-02	9.250000e-02	8.738471e+08	4.800187e+07	4.800187e+07
9.250000e-02	1.200000e-01	5.467109e+08	3.067656e+07	3.067656e+07
1.200000e-01	1.520000e-01	3.093336e+08	1.695244e+07	1.695244e+07
1.520000e-01	1.880000e-01	2.171841e+08	1.237405e+07	1.237405e+07
1.880000e-01	2.280000e-01	1.188488e+08	1.662175e+07	1.662175e+07
2.280000e-01	1.000000e+00	4.745952e+06	7.842610e+05	7.842610e+05
# END HISTO1D

