# BEGIN PLOT
LegendOnly=/zj_ps_nlo_mer_mur1_muf0.5_R4.yoda/PAPER_FIN_R4_CH/lin_l10_pT_65_88
DrawOnly=/zj_ps_nlo_mer_mur1_muf0.5_R4.yoda/PAPER_FIN_R4_CH/lin_l10_pT_65_88
Legend=1
LogY=1
# END PLOT

# BEGIN HISTO1D /zj_ps_nlo_mer_mur1_muf0.5_R4.yoda/PAPER_FIN_R4_CH/lin_l10_pT_65_88
LineColor=red
LineStyle=solid
Path=/zj_ps_nlo_mer_mur1_muf0.5_R4.yoda/PAPER_FIN_R4_CH/lin_l10_pT_65_88
Title=zj_ps_nlo_mer_mur1_muf0.5_R4
XLabel=~
YLabel=~
# xlow	 xhigh	 val	 errminus	 errplus
0.000000e+00	2.250000e-02	1.051453e+09	1.496659e+08	1.496659e+08
2.250000e-02	4.000000e-02	8.661977e+09	4.195719e+08	4.195719e+08
4.000000e-02	5.750000e-02	2.240822e+10	9.271171e+08	9.271171e+08
5.750000e-02	7.750000e-02	4.062847e+10	1.279736e+09	1.279736e+09
7.750000e-02	1.000000e-01	5.610413e+10	1.696677e+09	1.696677e+09
1.000000e-01	1.250000e-01	7.305096e+10	5.636552e+09	5.636552e+09
1.250000e-01	1.520000e-01	6.944541e+10	2.680082e+09	2.680082e+09
1.520000e-01	1.850000e-01	5.237973e+10	1.919007e+09	1.919007e+09
1.850000e-01	2.200000e-01	3.917703e+10	1.187938e+09	1.187938e+09
2.200000e-01	2.600000e-01	2.792222e+10	1.019849e+09	1.019849e+09
2.600000e-01	3.070000e-01	1.693215e+10	5.554106e+08	5.554106e+08
3.070000e-01	3.620000e-01	1.096480e+10	5.406126e+08	5.406126e+08
3.620000e-01	4.250000e-01	6.754348e+09	3.030384e+08	3.030384e+08
4.250000e-01	4.970000e-01	2.483811e+09	5.269701e+08	5.269701e+08
4.970000e-01	1.000000e+00	2.615310e+08	2.276218e+07	2.276218e+07
# END HISTO1D

