# BEGIN PLOT
LegendOnly=/zj_ps_nlo_mer_mur1_muf0.5_R4.yoda/PAPER_FIN_R4/lin_SD_l10_pT_254_326
DrawOnly=/zj_ps_nlo_mer_mur1_muf0.5_R4.yoda/PAPER_FIN_R4/lin_SD_l10_pT_254_326
Legend=1
LogY=1
# END PLOT

# BEGIN HISTO1D /zj_ps_nlo_mer_mur1_muf0.5_R4.yoda/PAPER_FIN_R4/lin_SD_l10_pT_254_326
LineColor=red
LineStyle=solid
Path=/zj_ps_nlo_mer_mur1_muf0.5_R4.yoda/PAPER_FIN_R4/lin_SD_l10_pT_254_326
Title=zj_ps_nlo_mer_mur1_muf0.5_R4
XLabel=~
YLabel=~
# xlow	 xhigh	 val	 errminus	 errplus
0.000000e+00	2.000000e-02	1.397102e+10	1.780696e+08	1.780696e+08
2.000000e-02	5.000000e-02	1.069839e+10	1.353140e+08	1.353140e+08
5.000000e-02	9.500000e-02	3.773022e+09	6.175535e+07	6.175535e+07
9.500000e-02	1.470000e-01	2.246035e+09	3.839590e+07	3.839590e+07
1.470000e-01	2.250000e-01	1.450458e+09	4.280798e+07	4.280798e+07
2.250000e-01	3.070000e-01	8.362099e+08	1.991218e+07	1.991218e+07
3.070000e-01	3.880000e-01	4.876638e+08	1.500403e+07	1.500403e+07
3.880000e-01	4.680000e-01	2.522427e+08	1.006457e+07	1.006457e+07
4.680000e-01	1.000000e+00	2.007562e+07	2.567580e+06	2.567580e+06
# END HISTO1D

