# BEGIN PLOT
LegendOnly=/zj_ps_nlo_mer_mur0.5_muf1_R4.yoda/PAPER_FIN_R4_CH/lin_l05_pT_408_1500
DrawOnly=/zj_ps_nlo_mer_mur0.5_muf1_R4.yoda/PAPER_FIN_R4_CH/lin_l05_pT_408_1500
Legend=1
LogY=1
# END PLOT

# BEGIN HISTO1D /zj_ps_nlo_mer_mur0.5_muf1_R4.yoda/PAPER_FIN_R4_CH/lin_l05_pT_408_1500
LineColor=red
LineStyle=solid
Path=/zj_ps_nlo_mer_mur0.5_muf1_R4.yoda/PAPER_FIN_R4_CH/lin_l05_pT_408_1500
Title=zj_ps_nlo_mer_mur0.5_muf1_R4
XLabel=~
YLabel=~
# xlow	 xhigh	 val	 errminus	 errplus
0.000000e+00	6.000000e-02	6.408010e+07	1.205732e+07	1.205732e+07
6.000000e-02	1.100000e-01	9.916896e+08	3.516566e+07	3.516566e+07
1.100000e-01	1.500000e-01	1.947749e+09	7.538538e+07	7.538538e+07
1.500000e-01	1.900000e-01	1.602901e+09	5.631905e+07	5.631905e+07
1.900000e-01	2.300000e-01	1.174767e+09	3.660540e+07	3.660540e+07
2.300000e-01	2.700000e-01	9.321467e+08	5.243852e+07	5.243852e+07
2.700000e-01	3.100000e-01	7.623810e+08	3.979748e+07	3.979748e+07
3.100000e-01	3.500000e-01	6.015675e+08	3.497722e+07	3.497722e+07
3.500000e-01	3.900000e-01	4.121177e+08	3.704386e+07	3.704386e+07
3.900000e-01	4.400000e-01	2.964238e+08	2.256878e+07	2.256878e+07
4.400000e-01	4.900000e-01	1.742525e+08	2.006941e+07	2.006941e+07
4.900000e-01	5.400000e-01	1.079314e+08	1.210686e+07	1.210686e+07
5.400000e-01	6.000000e-01	6.835373e+07	7.668018e+06	7.668018e+06
6.000000e-01	1.000000e+00	5.348622e+06	9.619521e+05	9.619521e+05
# END HISTO1D

