# BEGIN PLOT
LegendOnly=/zj_ps_nlo_mer_mur0.5_muf1_R4.yoda/PAPER_FIN_R4/ch_SD_l05_pT_65_88
DrawOnly=/zj_ps_nlo_mer_mur0.5_muf1_R4.yoda/PAPER_FIN_R4/ch_SD_l05_pT_65_88
Legend=1
LogY=1
# END PLOT

# BEGIN HISTO1D /zj_ps_nlo_mer_mur0.5_muf1_R4.yoda/PAPER_FIN_R4/ch_SD_l05_pT_65_88
LineColor=red
LineStyle=solid
Path=/zj_ps_nlo_mer_mur0.5_muf1_R4.yoda/PAPER_FIN_R4/ch_SD_l05_pT_65_88
Title=zj_ps_nlo_mer_mur0.5_muf1_R4
XLabel=~
YLabel=~
# xlow	 xhigh	 val	 errminus	 errplus
-7.000000e+00	-6.930000e+00	0.000000e+00	0.000000e+00	0.000000e+00
-6.930000e+00	-6.860000e+00	1.047677e+10	2.960538e+08	2.960538e+08
-6.860000e+00	-6.790000e+00	0.000000e+00	0.000000e+00	0.000000e+00
-6.790000e+00	-6.720000e+00	0.000000e+00	0.000000e+00	0.000000e+00
-6.720000e+00	-6.650000e+00	0.000000e+00	0.000000e+00	0.000000e+00
-6.650000e+00	-6.580000e+00	0.000000e+00	0.000000e+00	0.000000e+00
-6.580000e+00	-6.510000e+00	0.000000e+00	0.000000e+00	0.000000e+00
-6.510000e+00	-6.440000e+00	0.000000e+00	0.000000e+00	0.000000e+00
-6.440000e+00	-6.370000e+00	0.000000e+00	0.000000e+00	0.000000e+00
-6.370000e+00	-6.300000e+00	0.000000e+00	0.000000e+00	0.000000e+00
-6.300000e+00	-6.230000e+00	0.000000e+00	0.000000e+00	0.000000e+00
-6.230000e+00	-6.160000e+00	0.000000e+00	0.000000e+00	0.000000e+00
-6.160000e+00	-6.090000e+00	0.000000e+00	0.000000e+00	0.000000e+00
-6.090000e+00	-6.020000e+00	0.000000e+00	0.000000e+00	0.000000e+00
-6.020000e+00	-5.950000e+00	0.000000e+00	0.000000e+00	0.000000e+00
-5.950000e+00	-5.880000e+00	0.000000e+00	0.000000e+00	0.000000e+00
-5.880000e+00	-5.810000e+00	0.000000e+00	0.000000e+00	0.000000e+00
-5.810000e+00	-5.740000e+00	0.000000e+00	0.000000e+00	0.000000e+00
-5.740000e+00	-5.670000e+00	0.000000e+00	0.000000e+00	0.000000e+00
-5.670000e+00	-5.600000e+00	0.000000e+00	0.000000e+00	0.000000e+00
-5.600000e+00	-5.530000e+00	0.000000e+00	0.000000e+00	0.000000e+00
-5.530000e+00	-5.460000e+00	0.000000e+00	0.000000e+00	0.000000e+00
-5.460000e+00	-5.390000e+00	0.000000e+00	0.000000e+00	0.000000e+00
-5.390000e+00	-5.320000e+00	0.000000e+00	0.000000e+00	0.000000e+00
-5.320000e+00	-5.250000e+00	0.000000e+00	0.000000e+00	0.000000e+00
-5.250000e+00	-5.180000e+00	0.000000e+00	0.000000e+00	0.000000e+00
-5.180000e+00	-5.110000e+00	0.000000e+00	0.000000e+00	0.000000e+00
-5.110000e+00	-5.040000e+00	0.000000e+00	0.000000e+00	0.000000e+00
-5.040000e+00	-4.970000e+00	0.000000e+00	0.000000e+00	0.000000e+00
-4.970000e+00	-4.900000e+00	0.000000e+00	0.000000e+00	0.000000e+00
-4.900000e+00	-4.830000e+00	0.000000e+00	0.000000e+00	0.000000e+00
-4.830000e+00	-4.760000e+00	0.000000e+00	0.000000e+00	0.000000e+00
-4.760000e+00	-4.690000e+00	0.000000e+00	0.000000e+00	0.000000e+00
-4.690000e+00	-4.620000e+00	0.000000e+00	0.000000e+00	0.000000e+00
-4.620000e+00	-4.550000e+00	0.000000e+00	0.000000e+00	0.000000e+00
-4.550000e+00	-4.480000e+00	0.000000e+00	0.000000e+00	0.000000e+00
-4.480000e+00	-4.410000e+00	0.000000e+00	0.000000e+00	0.000000e+00
-4.410000e+00	-4.340000e+00	0.000000e+00	0.000000e+00	0.000000e+00
-4.340000e+00	-4.270000e+00	0.000000e+00	0.000000e+00	0.000000e+00
-4.270000e+00	-4.200000e+00	0.000000e+00	0.000000e+00	0.000000e+00
-4.200000e+00	-4.130000e+00	0.000000e+00	0.000000e+00	0.000000e+00
-4.130000e+00	-4.060000e+00	0.000000e+00	0.000000e+00	0.000000e+00
-4.060000e+00	-3.990000e+00	0.000000e+00	0.000000e+00	0.000000e+00
-3.990000e+00	-3.920000e+00	0.000000e+00	0.000000e+00	0.000000e+00
-3.920000e+00	-3.850000e+00	0.000000e+00	0.000000e+00	0.000000e+00
-3.850000e+00	-3.780000e+00	0.000000e+00	0.000000e+00	0.000000e+00
-3.780000e+00	-3.710000e+00	0.000000e+00	0.000000e+00	0.000000e+00
-3.710000e+00	-3.640000e+00	0.000000e+00	0.000000e+00	0.000000e+00
-3.640000e+00	-3.570000e+00	0.000000e+00	0.000000e+00	0.000000e+00
-3.570000e+00	-3.500000e+00	0.000000e+00	0.000000e+00	0.000000e+00
-3.500000e+00	-3.430000e+00	0.000000e+00	0.000000e+00	0.000000e+00
-3.430000e+00	-3.360000e+00	0.000000e+00	0.000000e+00	0.000000e+00
-3.360000e+00	-3.290000e+00	0.000000e+00	0.000000e+00	0.000000e+00
-3.290000e+00	-3.220000e+00	0.000000e+00	0.000000e+00	0.000000e+00
-3.220000e+00	-3.150000e+00	0.000000e+00	0.000000e+00	0.000000e+00
-3.150000e+00	-3.080000e+00	0.000000e+00	0.000000e+00	0.000000e+00
-3.080000e+00	-3.010000e+00	0.000000e+00	0.000000e+00	0.000000e+00
-3.010000e+00	-2.940000e+00	0.000000e+00	0.000000e+00	0.000000e+00
-2.940000e+00	-2.870000e+00	0.000000e+00	0.000000e+00	0.000000e+00
-2.870000e+00	-2.800000e+00	-6.718154e+02	6.718155e+02	6.718155e+02
-2.800000e+00	-2.730000e+00	0.000000e+00	0.000000e+00	0.000000e+00
-2.730000e+00	-2.660000e+00	-5.282869e+04	5.294294e+04	5.294294e+04
-2.660000e+00	-2.590000e+00	1.223074e+01	1.351265e+01	1.351265e+01
-2.590000e+00	-2.520000e+00	1.371361e+05	9.565382e+04	9.565382e+04
-2.520000e+00	-2.450000e+00	2.018469e+04	2.008314e+04	2.008314e+04
-2.450000e+00	-2.380000e+00	-1.660237e+05	3.789562e+05	3.789562e+05
-2.380000e+00	-2.310000e+00	3.550894e+05	3.263030e+05	3.263030e+05
-2.310000e+00	-2.240000e+00	2.105804e+06	1.216250e+06	1.216250e+06
-2.240000e+00	-2.170000e+00	1.399969e+07	6.877900e+06	6.877900e+06
-2.170000e+00	-2.100000e+00	2.126741e+06	2.160787e+06	2.160787e+06
-2.100000e+00	-2.030000e+00	5.899981e+06	5.533250e+06	5.533250e+06
-2.030000e+00	-1.960000e+00	7.360964e+06	8.578064e+06	8.578064e+06
-1.960000e+00	-1.890000e+00	3.100680e+07	6.487040e+06	6.487040e+06
-1.890000e+00	-1.820000e+00	3.505464e+07	1.285804e+07	1.285804e+07
-1.820000e+00	-1.750000e+00	9.717746e+07	1.831497e+07	1.831497e+07
-1.750000e+00	-1.680000e+00	1.475351e+08	3.340184e+07	3.340184e+07
-1.680000e+00	-1.610000e+00	2.601809e+08	3.823855e+07	3.823855e+07
-1.610000e+00	-1.540000e+00	6.791134e+08	5.428101e+07	5.428101e+07
-1.540000e+00	-1.470000e+00	9.330284e+08	6.856013e+07	6.856013e+07
-1.470000e+00	-1.400000e+00	1.659034e+09	1.236160e+08	1.236160e+08
-1.400000e+00	-1.330000e+00	2.026403e+09	1.601586e+08	1.601586e+08
-1.330000e+00	-1.260000e+00	2.866407e+09	1.511270e+08	1.511270e+08
-1.260000e+00	-1.190000e+00	3.906609e+09	2.994995e+08	2.994995e+08
-1.190000e+00	-1.120000e+00	6.449529e+09	2.481871e+08	2.481871e+08
-1.120000e+00	-1.050000e+00	8.372127e+09	2.450071e+08	2.450071e+08
-1.050000e+00	-9.800000e-01	1.192942e+10	2.691332e+08	2.691332e+08
-9.800000e-01	-9.100000e-01	1.512471e+10	3.746430e+08	3.746430e+08
-9.100000e-01	-8.400000e-01	2.094324e+10	3.806132e+08	3.806132e+08
-8.400000e-01	-7.700000e-01	2.609147e+10	6.769192e+08	6.769192e+08
-7.700000e-01	-7.000000e-01	3.344611e+10	5.219236e+08	5.219236e+08
-7.000000e-01	-6.300000e-01	3.861367e+10	8.696242e+08	8.696242e+08
-6.300000e-01	-5.600000e-01	4.431270e+10	8.580624e+08	8.580624e+08
-5.600000e-01	-4.900000e-01	4.475700e+10	7.909943e+08	7.909943e+08
-4.900000e-01	-4.200000e-01	4.142919e+10	6.516268e+08	6.516268e+08
-4.200000e-01	-3.500000e-01	3.530487e+10	5.126749e+08	5.126749e+08
-3.500000e-01	-2.800000e-01	2.485350e+10	3.959878e+08	3.959878e+08
-2.800000e-01	-2.100000e-01	1.316547e+10	3.053010e+08	3.053010e+08
-2.100000e-01	-1.400000e-01	3.571557e+09	1.333674e+08	1.333674e+08
-1.400000e-01	-7.000000e-02	2.208726e+08	2.764397e+07	2.764397e+07
-7.000000e-02	0.000000e+00	-9.060124e+04	2.724685e+05	2.724685e+05
# END HISTO1D

