# BEGIN PLOT
LegendOnly=/zj_ps_nlo_mer_mur0.5_muf1_R4.yoda/PAPER_FIN_R4/lin_SD_l05_pT_254_326
DrawOnly=/zj_ps_nlo_mer_mur0.5_muf1_R4.yoda/PAPER_FIN_R4/lin_SD_l05_pT_254_326
Legend=1
LogY=1
# END PLOT

# BEGIN HISTO1D /zj_ps_nlo_mer_mur0.5_muf1_R4.yoda/PAPER_FIN_R4/lin_SD_l05_pT_254_326
LineColor=red
LineStyle=solid
Path=/zj_ps_nlo_mer_mur0.5_muf1_R4.yoda/PAPER_FIN_R4/lin_SD_l05_pT_254_326
Title=zj_ps_nlo_mer_mur0.5_muf1_R4
XLabel=~
YLabel=~
# xlow	 xhigh	 val	 errminus	 errplus
0.000000e+00	1.000000e-01	2.715776e+09	9.455061e+07	9.455061e+07
1.000000e-01	1.800000e-01	5.127160e+09	1.234354e+08	1.234354e+08
1.800000e-01	2.600000e-01	2.960825e+09	7.413814e+07	7.413814e+07
2.600000e-01	3.400000e-01	2.061452e+09	1.243422e+08	1.243422e+08
3.400000e-01	4.200000e-01	1.253785e+09	5.387079e+07	5.387079e+07
4.200000e-01	5.000000e-01	8.012326e+08	4.685329e+07	4.685329e+07
5.000000e-01	5.700000e-01	4.185507e+08	3.829806e+07	3.829806e+07
5.700000e-01	6.400000e-01	2.063964e+08	1.700626e+07	1.700626e+07
6.400000e-01	1.000000e+00	1.043463e+07	1.438565e+06	1.438565e+06
# END HISTO1D

