# BEGIN PLOT
LegendOnly=/zj_ps_nlo_mer_mur0.5_muf1_R4.yoda/PAPER_FIN_R4/lin_l10_pT_50_65
DrawOnly=/zj_ps_nlo_mer_mur0.5_muf1_R4.yoda/PAPER_FIN_R4/lin_l10_pT_50_65
Legend=1
LogY=1
# END PLOT

# BEGIN HISTO1D /zj_ps_nlo_mer_mur0.5_muf1_R4.yoda/PAPER_FIN_R4/lin_l10_pT_50_65
LineColor=red
LineStyle=solid
Path=/zj_ps_nlo_mer_mur0.5_muf1_R4.yoda/PAPER_FIN_R4/lin_l10_pT_50_65
Title=zj_ps_nlo_mer_mur0.5_muf1_R4
XLabel=~
YLabel=~
# xlow	 xhigh	 val	 errminus	 errplus
0.000000e+00	1.050000e-01	4.676260e+10	5.620152e+08	5.620152e+08
1.050000e-01	1.650000e-01	1.462998e+11	1.492931e+09	1.492931e+09
1.650000e-01	2.300000e-01	1.258547e+11	1.149059e+09	1.149059e+09
2.300000e-01	3.050000e-01	7.074045e+10	9.663483e+08	9.663483e+08
3.050000e-01	3.800000e-01	3.570277e+10	5.332788e+08	5.332788e+08
3.800000e-01	4.600000e-01	1.728802e+10	2.917110e+08	2.917110e+08
4.600000e-01	5.500000e-01	6.780960e+09	3.721650e+08	3.721650e+08
5.500000e-01	1.000000e+00	6.013916e+08	2.982049e+07	2.982049e+07
# END HISTO1D

