# BEGIN PLOT
LegendOnly=/zj_ps_nlo_mer_mur0.5_muf1_R4.yoda/PAPER_FIN_R4/lin_l05_pT_120_150
DrawOnly=/zj_ps_nlo_mer_mur0.5_muf1_R4.yoda/PAPER_FIN_R4/lin_l05_pT_120_150
Legend=1
LogY=1
# END PLOT

# BEGIN HISTO1D /zj_ps_nlo_mer_mur0.5_muf1_R4.yoda/PAPER_FIN_R4/lin_l05_pT_120_150
LineColor=red
LineStyle=solid
Path=/zj_ps_nlo_mer_mur0.5_muf1_R4.yoda/PAPER_FIN_R4/lin_l05_pT_120_150
Title=zj_ps_nlo_mer_mur0.5_muf1_R4
XLabel=~
YLabel=~
# xlow	 xhigh	 val	 errminus	 errplus
0.000000e+00	1.700000e-01	6.385747e+09	1.543981e+08	1.543981e+08
1.700000e-01	2.500000e-01	3.058841e+10	6.675753e+08	6.675753e+08
2.500000e-01	3.200000e-01	2.534407e+10	4.847071e+08	4.847071e+08
3.200000e-01	3.800000e-01	1.649014e+10	3.887601e+08	3.887601e+08
3.800000e-01	4.500000e-01	1.004247e+10	2.280226e+08	2.280226e+08
4.500000e-01	5.200000e-01	5.951734e+09	1.705839e+08	1.705839e+08
5.200000e-01	5.900000e-01	3.314496e+09	1.139753e+08	1.139753e+08
5.900000e-01	1.000000e+00	3.318046e+08	1.485336e+07	1.485336e+07
# END HISTO1D

