# BEGIN PLOT
LegendOnly=/zj_ps_nlo_mer_cent_R8.yoda/PAPER_FIN_R8/XS_CUTS_pT_65_88
DrawOnly=/zj_ps_nlo_mer_cent_R8.yoda/PAPER_FIN_R8/XS_CUTS_pT_65_88
Legend=1
LogY=1
# END PLOT

# BEGIN HISTO1D /zj_ps_nlo_mer_cent_R8.yoda/PAPER_FIN_R8/XS_CUTS_pT_65_88
LineColor=red
LineStyle=solid
Path=/zj_ps_nlo_mer_cent_R8.yoda/PAPER_FIN_R8/XS_CUTS_pT_65_88
Title=zj_ps_nlo_mer_cent_R8
XLabel=~
YLabel=~
# xlow	 xhigh	 val	 errminus	 errplus
-5.000000e-01	5.000000e-01	1.080887e+04	3.433127e+02	3.433127e+02
# END HISTO1D

