# BEGIN PLOT
LegendOnly=/zj_ps_nlo_mer_cent_R8.yoda/PAPER_FIN_R8/ch_l10_pT_408_1500
DrawOnly=/zj_ps_nlo_mer_cent_R8.yoda/PAPER_FIN_R8/ch_l10_pT_408_1500
Legend=1
LogY=1
# END PLOT

# BEGIN HISTO1D /zj_ps_nlo_mer_cent_R8.yoda/PAPER_FIN_R8/ch_l10_pT_408_1500
LineColor=red
LineStyle=solid
Path=/zj_ps_nlo_mer_cent_R8.yoda/PAPER_FIN_R8/ch_l10_pT_408_1500
Title=zj_ps_nlo_mer_cent_R8
XLabel=~
YLabel=~
# xlow	 xhigh	 val	 errminus	 errplus
-7.000000e+00	-6.930000e+00	-1.267087e-03	8.358781e-04	8.358781e-04
-6.930000e+00	-6.860000e+00	3.017521e+09	2.477391e+07	2.477391e+07
-6.860000e+00	-6.790000e+00	-4.778977e-01	2.165804e+00	2.165804e+00
-6.790000e+00	-6.720000e+00	2.262516e-02	2.733775e-02	2.733775e-02
-6.720000e+00	-6.650000e+00	-5.938664e+00	6.357908e+00	6.357908e+00
-6.650000e+00	-6.580000e+00	5.329089e+00	5.327985e+00	5.327985e+00
-6.580000e+00	-6.510000e+00	-7.228823e-01	5.928948e-01	5.928948e-01
-6.510000e+00	-6.440000e+00	4.601589e+00	5.153958e+00	5.153958e+00
-6.440000e+00	-6.370000e+00	1.091790e+02	7.031197e+01	7.031197e+01
-6.370000e+00	-6.300000e+00	-5.168049e+01	5.040764e+01	5.040764e+01
-6.300000e+00	-6.230000e+00	-1.147827e+00	5.316639e-01	5.316639e-01
-6.230000e+00	-6.160000e+00	-4.821221e+00	3.013906e+00	3.013906e+00
-6.160000e+00	-6.090000e+00	-5.426340e+02	5.072091e+02	5.072091e+02
-6.090000e+00	-6.020000e+00	1.289059e-02	7.924689e+00	7.924689e+00
-6.020000e+00	-5.950000e+00	6.190794e+02	4.633093e+02	4.633093e+02
-5.950000e+00	-5.880000e+00	-6.472551e+00	4.326597e+01	4.326597e+01
-5.880000e+00	-5.810000e+00	7.027460e+02	6.551692e+02	6.551692e+02
-5.810000e+00	-5.740000e+00	4.562027e+02	2.610575e+02	2.610575e+02
-5.740000e+00	-5.670000e+00	3.839096e+02	6.390270e+02	6.390270e+02
-5.670000e+00	-5.600000e+00	6.600593e+00	1.590162e+02	1.590162e+02
-5.600000e+00	-5.530000e+00	3.636437e+02	1.752855e+03	1.752855e+03
-5.530000e+00	-5.460000e+00	-2.314793e+03	2.658231e+03	2.658231e+03
-5.460000e+00	-5.390000e+00	2.001996e+03	1.148778e+03	1.148778e+03
-5.390000e+00	-5.320000e+00	4.813249e+03	2.440571e+03	2.440571e+03
-5.320000e+00	-5.250000e+00	8.352494e+03	3.468068e+03	3.468068e+03
-5.250000e+00	-5.180000e+00	1.258485e+03	3.012923e+03	3.012923e+03
-5.180000e+00	-5.110000e+00	6.117390e+03	4.041308e+03	4.041308e+03
-5.110000e+00	-5.040000e+00	9.686893e+03	1.167792e+04	1.167792e+04
-5.040000e+00	-4.970000e+00	4.532653e+04	2.632471e+04	2.632471e+04
-4.970000e+00	-4.900000e+00	3.419611e+04	9.837196e+03	9.837196e+03
-4.900000e+00	-4.830000e+00	3.287363e+04	1.853006e+04	1.853006e+04
-4.830000e+00	-4.760000e+00	5.845951e+04	2.433250e+04	2.433250e+04
-4.760000e+00	-4.690000e+00	8.274373e+04	1.996404e+04	1.996404e+04
-4.690000e+00	-4.620000e+00	1.667950e+05	6.200923e+04	6.200923e+04
-4.620000e+00	-4.550000e+00	1.370377e+05	2.761660e+04	2.761660e+04
-4.550000e+00	-4.480000e+00	1.401981e+05	4.233892e+04	4.233892e+04
-4.480000e+00	-4.410000e+00	2.346361e+05	4.454384e+04	4.454384e+04
-4.410000e+00	-4.340000e+00	2.605477e+05	5.328493e+04	5.328493e+04
-4.340000e+00	-4.270000e+00	3.196254e+05	5.144458e+04	5.144458e+04
-4.270000e+00	-4.200000e+00	4.053217e+05	7.119083e+04	7.119083e+04
-4.200000e+00	-4.130000e+00	3.448067e+05	1.072244e+05	1.072244e+05
-4.130000e+00	-4.060000e+00	5.026233e+05	6.887799e+04	6.887799e+04
-4.060000e+00	-3.990000e+00	5.356776e+05	7.151582e+04	7.151582e+04
-3.990000e+00	-3.920000e+00	8.519204e+05	1.012995e+05	1.012995e+05
-3.920000e+00	-3.850000e+00	1.044078e+06	1.830702e+05	1.830702e+05
-3.850000e+00	-3.780000e+00	1.195725e+06	1.103089e+05	1.103089e+05
-3.780000e+00	-3.710000e+00	1.925034e+06	1.886237e+05	1.886237e+05
-3.710000e+00	-3.640000e+00	1.764297e+06	2.040387e+05	2.040387e+05
-3.640000e+00	-3.570000e+00	2.352146e+06	3.004341e+05	3.004341e+05
-3.570000e+00	-3.500000e+00	2.594251e+06	2.092855e+05	2.092855e+05
-3.500000e+00	-3.430000e+00	3.518710e+06	2.778260e+05	2.778260e+05
-3.430000e+00	-3.360000e+00	5.701469e+06	1.044809e+06	1.044809e+06
-3.360000e+00	-3.290000e+00	5.020827e+06	2.893129e+05	2.893129e+05
-3.290000e+00	-3.220000e+00	5.276313e+06	3.485102e+05	3.485102e+05
-3.220000e+00	-3.150000e+00	6.618467e+06	8.602122e+05	8.602122e+05
-3.150000e+00	-3.080000e+00	8.683359e+06	4.435520e+05	4.435520e+05
-3.080000e+00	-3.010000e+00	1.060690e+07	4.921529e+05	4.921529e+05
-3.010000e+00	-2.940000e+00	1.363829e+07	7.203316e+05	7.203316e+05
-2.940000e+00	-2.870000e+00	1.437726e+07	5.102674e+05	5.102674e+05
-2.870000e+00	-2.800000e+00	1.692837e+07	6.393961e+05	6.393961e+05
-2.800000e+00	-2.730000e+00	1.993726e+07	1.177933e+06	1.177933e+06
-2.730000e+00	-2.660000e+00	2.395299e+07	6.650555e+05	6.650555e+05
-2.660000e+00	-2.590000e+00	2.838763e+07	1.127854e+06	1.127854e+06
-2.590000e+00	-2.520000e+00	3.136343e+07	1.442377e+06	1.442377e+06
-2.520000e+00	-2.450000e+00	4.284933e+07	1.122087e+06	1.122087e+06
-2.450000e+00	-2.380000e+00	5.584699e+07	3.259863e+06	3.259863e+06
-2.380000e+00	-2.310000e+00	6.288663e+07	1.009965e+06	1.009965e+06
-2.310000e+00	-2.240000e+00	7.207746e+07	1.903343e+06	1.903343e+06
-2.240000e+00	-2.170000e+00	8.435329e+07	2.826688e+06	2.826688e+06
-2.170000e+00	-2.100000e+00	1.006813e+08	1.974484e+06	1.974484e+06
-2.100000e+00	-2.030000e+00	1.051813e+08	3.409734e+06	3.409734e+06
-2.030000e+00	-1.960000e+00	1.184843e+08	1.931454e+06	1.931454e+06
-1.960000e+00	-1.890000e+00	1.259625e+08	1.785926e+06	1.785926e+06
-1.890000e+00	-1.820000e+00	1.387666e+08	1.982864e+06	1.982864e+06
-1.820000e+00	-1.750000e+00	1.456953e+08	2.694004e+06	2.694004e+06
-1.750000e+00	-1.680000e+00	1.538226e+08	4.605285e+06	4.605285e+06
-1.680000e+00	-1.610000e+00	1.558373e+08	2.165984e+06	2.165984e+06
-1.610000e+00	-1.540000e+00	1.641084e+08	2.254259e+06	2.254259e+06
-1.540000e+00	-1.470000e+00	1.647591e+08	2.603281e+06	2.603281e+06
-1.470000e+00	-1.400000e+00	1.732387e+08	3.471158e+06	3.471158e+06
-1.400000e+00	-1.330000e+00	1.687961e+08	3.001804e+06	3.001804e+06
-1.330000e+00	-1.260000e+00	1.717114e+08	2.492722e+06	2.492722e+06
-1.260000e+00	-1.190000e+00	1.609653e+08	9.879708e+06	9.879708e+06
-1.190000e+00	-1.120000e+00	1.753957e+08	2.917628e+06	2.917628e+06
-1.120000e+00	-1.050000e+00	1.710953e+08	2.712711e+06	2.712711e+06
-1.050000e+00	-9.800000e-01	1.656206e+08	2.836750e+06	2.836750e+06
-9.800000e-01	-9.100000e-01	1.852387e+08	1.643552e+07	1.643552e+07
-9.100000e-01	-8.400000e-01	1.620836e+08	3.284828e+06	3.284828e+06
-8.400000e-01	-7.700000e-01	1.499814e+08	3.386603e+06	3.386603e+06
-7.700000e-01	-7.000000e-01	1.456023e+08	2.049957e+06	2.049957e+06
-7.000000e-01	-6.300000e-01	1.294927e+08	2.960881e+06	2.960881e+06
-6.300000e-01	-5.600000e-01	1.143701e+08	1.970800e+06	1.970800e+06
-5.600000e-01	-4.900000e-01	9.752757e+07	1.657954e+06	1.657954e+06
-4.900000e-01	-4.200000e-01	7.525956e+07	1.422183e+06	1.422183e+06
-4.200000e-01	-3.500000e-01	4.537061e+07	1.181471e+06	1.181471e+06
-3.500000e-01	-2.800000e-01	1.701821e+07	5.319132e+05	5.319132e+05
-2.800000e-01	-2.100000e-01	3.591890e+06	2.110144e+05	2.110144e+05
-2.100000e-01	-1.400000e-01	4.141731e+05	6.823547e+04	6.823547e+04
-1.400000e-01	-7.000000e-02	5.142706e+03	4.864784e+03	4.864784e+03
-7.000000e-02	0.000000e+00	0.000000e+00	0.000000e+00	0.000000e+00
# END HISTO1D

