# BEGIN PLOT
LegendOnly=/zj_ps_nlo_mer_cent_R8.yoda/PAPER_FIN_R8/l20_pT_50_65
DrawOnly=/zj_ps_nlo_mer_cent_R8.yoda/PAPER_FIN_R8/l20_pT_50_65
Legend=1
LogY=1
# END PLOT

# BEGIN HISTO1D /zj_ps_nlo_mer_cent_R8.yoda/PAPER_FIN_R8/l20_pT_50_65
LineColor=red
LineStyle=solid
Path=/zj_ps_nlo_mer_cent_R8.yoda/PAPER_FIN_R8/l20_pT_50_65
Title=zj_ps_nlo_mer_cent_R8
XLabel=~
YLabel=~
# xlow	 xhigh	 val	 errminus	 errplus
-7.000000e+00	-6.930000e+00	0.000000e+00	0.000000e+00	0.000000e+00
-6.930000e+00	-6.860000e+00	1.381413e+04	9.989963e+03	9.989963e+03
-6.860000e+00	-6.790000e+00	0.000000e+00	0.000000e+00	0.000000e+00
-6.790000e+00	-6.720000e+00	0.000000e+00	0.000000e+00	0.000000e+00
-6.720000e+00	-6.650000e+00	0.000000e+00	0.000000e+00	0.000000e+00
-6.650000e+00	-6.580000e+00	0.000000e+00	0.000000e+00	0.000000e+00
-6.580000e+00	-6.510000e+00	0.000000e+00	0.000000e+00	0.000000e+00
-6.510000e+00	-6.440000e+00	0.000000e+00	0.000000e+00	0.000000e+00
-6.440000e+00	-6.370000e+00	0.000000e+00	0.000000e+00	0.000000e+00
-6.370000e+00	-6.300000e+00	0.000000e+00	0.000000e+00	0.000000e+00
-6.300000e+00	-6.230000e+00	0.000000e+00	0.000000e+00	0.000000e+00
-6.230000e+00	-6.160000e+00	0.000000e+00	0.000000e+00	0.000000e+00
-6.160000e+00	-6.090000e+00	0.000000e+00	0.000000e+00	0.000000e+00
-6.090000e+00	-6.020000e+00	0.000000e+00	0.000000e+00	0.000000e+00
-6.020000e+00	-5.950000e+00	0.000000e+00	0.000000e+00	0.000000e+00
-5.950000e+00	-5.880000e+00	0.000000e+00	0.000000e+00	0.000000e+00
-5.880000e+00	-5.810000e+00	0.000000e+00	0.000000e+00	0.000000e+00
-5.810000e+00	-5.740000e+00	0.000000e+00	0.000000e+00	0.000000e+00
-5.740000e+00	-5.670000e+00	0.000000e+00	0.000000e+00	0.000000e+00
-5.670000e+00	-5.600000e+00	0.000000e+00	0.000000e+00	0.000000e+00
-5.600000e+00	-5.530000e+00	0.000000e+00	0.000000e+00	0.000000e+00
-5.530000e+00	-5.460000e+00	0.000000e+00	0.000000e+00	0.000000e+00
-5.460000e+00	-5.390000e+00	0.000000e+00	0.000000e+00	0.000000e+00
-5.390000e+00	-5.320000e+00	-2.608651e-02	2.608651e-02	2.608651e-02
-5.320000e+00	-5.250000e+00	0.000000e+00	0.000000e+00	0.000000e+00
-5.250000e+00	-5.180000e+00	-1.697216e-02	1.648821e-02	1.648821e-02
-5.180000e+00	-5.110000e+00	-3.931986e-04	8.358115e-04	8.358115e-04
-5.110000e+00	-5.040000e+00	-8.816521e-03	8.816521e-03	8.816521e-03
-5.040000e+00	-4.970000e+00	-2.166066e+00	2.215297e+00	2.215297e+00
-4.970000e+00	-4.900000e+00	-5.289839e+00	5.289838e+00	5.289838e+00
-4.900000e+00	-4.830000e+00	3.553519e-01	3.552842e-01	3.552842e-01
-4.830000e+00	-4.760000e+00	2.931474e-01	2.377832e-01	2.377832e-01
-4.760000e+00	-4.690000e+00	-9.845739e-02	7.603422e-02	7.603422e-02
-4.690000e+00	-4.620000e+00	-2.118623e-02	1.596247e-02	1.596247e-02
-4.620000e+00	-4.550000e+00	7.290889e-01	8.049000e-01	8.049000e-01
-4.550000e+00	-4.480000e+00	-1.418631e-02	1.378470e-02	1.378470e-02
-4.480000e+00	-4.410000e+00	-1.850106e-01	1.576913e-01	1.576913e-01
-4.410000e+00	-4.340000e+00	-1.453469e+00	1.427272e+00	1.427272e+00
-4.340000e+00	-4.270000e+00	4.010304e-02	9.467934e-02	9.467934e-02
-4.270000e+00	-4.200000e+00	5.107690e-01	5.809431e-01	5.809431e-01
-4.200000e+00	-4.130000e+00	-1.249402e-01	1.126966e-01	1.126966e-01
-4.130000e+00	-4.060000e+00	3.159483e-02	3.111699e-02	3.111699e-02
-4.060000e+00	-3.990000e+00	-3.897143e-02	3.897142e-02	3.897142e-02
-3.990000e+00	-3.920000e+00	5.368904e+00	5.366483e+00	5.366483e+00
-3.920000e+00	-3.850000e+00	-4.430011e-02	3.499628e-02	3.499628e-02
-3.850000e+00	-3.780000e+00	-1.980577e-01	1.439032e-01	1.439032e-01
-3.780000e+00	-3.710000e+00	-9.117244e-01	6.795426e-01	6.795426e-01
-3.710000e+00	-3.640000e+00	-1.231082e+00	1.140200e+00	1.140200e+00
-3.640000e+00	-3.570000e+00	-1.909344e+00	1.411142e+00	1.411142e+00
-3.570000e+00	-3.500000e+00	-1.771377e+00	1.193594e+00	1.193594e+00
-3.500000e+00	-3.430000e+00	-2.704190e+00	1.706834e+00	1.706834e+00
-3.430000e+00	-3.360000e+00	-6.301109e-01	1.052821e+00	1.052821e+00
-3.360000e+00	-3.290000e+00	1.602619e+00	2.885326e+00	2.885326e+00
-3.290000e+00	-3.220000e+00	-3.304800e+00	4.600446e+00	4.600446e+00
-3.220000e+00	-3.150000e+00	-4.030863e+01	2.221847e+01	2.221847e+01
-3.150000e+00	-3.080000e+00	-3.126927e+01	3.160857e+01	3.160857e+01
-3.080000e+00	-3.010000e+00	-3.891410e+01	2.648648e+01	2.648648e+01
-3.010000e+00	-2.940000e+00	-2.141426e+01	1.121208e+01	1.121208e+01
-2.940000e+00	-2.870000e+00	-8.817779e+01	7.567028e+01	7.567028e+01
-2.870000e+00	-2.800000e+00	-3.403207e+02	2.151207e+02	2.151207e+02
-2.800000e+00	-2.730000e+00	-8.602597e+02	7.965930e+02	7.965930e+02
-2.730000e+00	-2.660000e+00	-9.411054e+01	5.910491e+01	5.910491e+01
-2.660000e+00	-2.590000e+00	1.339408e+02	2.732989e+02	2.732989e+02
-2.590000e+00	-2.520000e+00	-2.124691e+02	9.039013e+01	9.039013e+01
-2.520000e+00	-2.450000e+00	1.208313e+01	1.041127e+02	1.041127e+02
-2.450000e+00	-2.380000e+00	-6.033593e+02	5.267517e+02	5.267517e+02
-2.380000e+00	-2.310000e+00	-8.259639e+01	3.812149e+01	3.812149e+01
-2.310000e+00	-2.240000e+00	-1.763376e+02	5.182337e+01	5.182337e+01
-2.240000e+00	-2.170000e+00	-8.980566e+01	6.052994e+01	6.052994e+01
-2.170000e+00	-2.100000e+00	-3.533360e+02	1.736769e+02	1.736769e+02
-2.100000e+00	-2.030000e+00	-2.725269e+02	7.478816e+01	7.478816e+01
-2.030000e+00	-1.960000e+00	-3.934947e+02	1.042723e+02	1.042723e+02
-1.960000e+00	-1.890000e+00	1.537704e+04	1.564659e+04	1.564659e+04
-1.890000e+00	-1.820000e+00	-4.212339e+02	2.910794e+02	2.910794e+02
-1.820000e+00	-1.750000e+00	5.345397e+03	6.707932e+03	6.707932e+03
-1.750000e+00	-1.680000e+00	1.491260e+02	1.360228e+03	1.360228e+03
-1.680000e+00	-1.610000e+00	-8.722799e+03	7.838035e+03	7.838035e+03
-1.610000e+00	-1.540000e+00	-1.260791e+03	2.922389e+02	2.922389e+02
-1.540000e+00	-1.470000e+00	-9.354329e+02	3.956117e+02	3.956117e+02
-1.470000e+00	-1.400000e+00	-1.108439e+03	2.145588e+02	2.145588e+02
-1.400000e+00	-1.330000e+00	-2.973347e+03	7.718006e+02	7.718006e+02
-1.330000e+00	-1.260000e+00	2.058131e+03	4.348188e+03	4.348188e+03
-1.260000e+00	-1.190000e+00	9.889416e+03	8.476482e+03	8.476482e+03
-1.190000e+00	-1.120000e+00	-9.215650e+03	4.935680e+03	4.935680e+03
-1.120000e+00	-1.050000e+00	2.052180e+02	2.673446e+03	2.673446e+03
-1.050000e+00	-9.800000e-01	2.053493e+05	2.091782e+05	2.091782e+05
-9.800000e-01	-9.100000e-01	-1.415866e+03	1.190909e+03	1.190909e+03
-9.100000e-01	-8.400000e-01	-1.272789e+03	1.603896e+03	1.603896e+03
-8.400000e-01	-7.700000e-01	5.121584e+03	7.027864e+03	7.027864e+03
-7.700000e-01	-7.000000e-01	-1.396805e+03	6.018592e+02	6.018592e+02
-7.000000e-01	-6.300000e-01	5.895224e+03	6.700186e+03	6.700186e+03
-6.300000e-01	-5.600000e-01	-5.342067e+02	3.685696e+02	3.685696e+02
-5.600000e-01	-4.900000e-01	-6.375716e+01	1.259205e+02	1.259205e+02
-4.900000e-01	-4.200000e-01	-7.298627e+01	8.779917e+01	8.779917e+01
-4.200000e-01	-3.500000e-01	3.900234e+01	3.817913e+01	3.817913e+01
-3.500000e-01	-2.800000e-01	0.000000e+00	0.000000e+00	0.000000e+00
-2.800000e-01	-2.100000e-01	0.000000e+00	0.000000e+00	0.000000e+00
-2.100000e-01	-1.400000e-01	0.000000e+00	0.000000e+00	0.000000e+00
-1.400000e-01	-7.000000e-02	0.000000e+00	0.000000e+00	0.000000e+00
-7.000000e-02	0.000000e+00	0.000000e+00	0.000000e+00	0.000000e+00
# END HISTO1D

