# BEGIN PLOT
LegendOnly=/zj_ps_nlo_mer_cent_R8.yoda/PAPER_FIN_R8/SD_l20_pT_150_186
DrawOnly=/zj_ps_nlo_mer_cent_R8.yoda/PAPER_FIN_R8/SD_l20_pT_150_186
Legend=1
LogY=1
# END PLOT

# BEGIN HISTO1D /zj_ps_nlo_mer_cent_R8.yoda/PAPER_FIN_R8/SD_l20_pT_150_186
LineColor=red
LineStyle=solid
Path=/zj_ps_nlo_mer_cent_R8.yoda/PAPER_FIN_R8/SD_l20_pT_150_186
Title=zj_ps_nlo_mer_cent_R8
XLabel=~
YLabel=~
# xlow	 xhigh	 val	 errminus	 errplus
-7.000000e+00	-6.930000e+00	3.408051e+03	2.755405e+03	2.755405e+03
-6.930000e+00	-6.860000e+00	2.516934e+08	1.509882e+08	1.509882e+08
-6.860000e+00	-6.790000e+00	2.851489e+03	3.292730e+03	3.292730e+03
-6.790000e+00	-6.720000e+00	1.360112e+03	1.066813e+03	1.066813e+03
-6.720000e+00	-6.650000e+00	-5.319091e+01	1.940851e+02	1.940851e+02
-6.650000e+00	-6.580000e+00	-3.049000e+03	2.676361e+03	2.676361e+03
-6.580000e+00	-6.510000e+00	1.068297e+04	7.497503e+03	7.497503e+03
-6.510000e+00	-6.440000e+00	-2.242951e+04	1.614841e+04	1.614841e+04
-6.440000e+00	-6.370000e+00	1.792623e+04	1.745057e+04	1.745057e+04
-6.370000e+00	-6.300000e+00	2.829086e+03	1.973546e+03	1.973546e+03
-6.300000e+00	-6.230000e+00	3.433196e+04	1.969703e+04	1.969703e+04
-6.230000e+00	-6.160000e+00	-9.345124e+03	8.289294e+03	8.289294e+03
-6.160000e+00	-6.090000e+00	1.640033e+04	3.602613e+04	3.602613e+04
-6.090000e+00	-6.020000e+00	1.835550e+04	1.504375e+04	1.504375e+04
-6.020000e+00	-5.950000e+00	-3.822969e+04	2.168904e+04	2.168904e+04
-5.950000e+00	-5.880000e+00	2.326474e+04	2.110065e+04	2.110065e+04
-5.880000e+00	-5.810000e+00	1.243029e+04	5.340374e+04	5.340374e+04
-5.810000e+00	-5.740000e+00	2.242007e+04	3.439098e+04	3.439098e+04
-5.740000e+00	-5.670000e+00	1.513523e+04	9.377792e+03	9.377792e+03
-5.670000e+00	-5.600000e+00	2.449934e+04	2.072330e+04	2.072330e+04
-5.600000e+00	-5.530000e+00	3.413966e+04	2.302262e+04	2.302262e+04
-5.530000e+00	-5.460000e+00	-2.782294e+02	3.476715e+04	3.476715e+04
-5.460000e+00	-5.390000e+00	-9.039284e+03	5.652417e+04	5.652417e+04
-5.390000e+00	-5.320000e+00	1.024972e+04	3.760776e+04	3.760776e+04
-5.320000e+00	-5.250000e+00	-7.823729e+03	4.231510e+04	4.231510e+04
-5.250000e+00	-5.180000e+00	-2.236033e+03	9.331893e+04	9.331893e+04
-5.180000e+00	-5.110000e+00	6.969343e+04	5.988034e+04	5.988034e+04
-5.110000e+00	-5.040000e+00	1.778230e+05	1.266464e+05	1.266464e+05
-5.040000e+00	-4.970000e+00	6.353180e+04	6.322380e+04	6.322380e+04
-4.970000e+00	-4.900000e+00	1.471699e+05	9.608136e+04	9.608136e+04
-4.900000e+00	-4.830000e+00	2.799361e+05	9.493734e+04	9.493734e+04
-4.830000e+00	-4.760000e+00	4.605403e+04	1.074101e+05	1.074101e+05
-4.760000e+00	-4.690000e+00	1.997756e+05	1.291290e+05	1.291290e+05
-4.690000e+00	-4.620000e+00	4.516796e+05	1.984996e+05	1.984996e+05
-4.620000e+00	-4.550000e+00	3.202620e+05	1.080643e+05	1.080643e+05
-4.550000e+00	-4.480000e+00	3.186547e+05	1.612787e+05	1.612787e+05
-4.480000e+00	-4.410000e+00	2.164691e+05	2.764617e+05	2.764617e+05
-4.410000e+00	-4.340000e+00	6.153901e+05	1.925208e+05	1.925208e+05
-4.340000e+00	-4.270000e+00	1.151210e+06	2.670164e+05	2.670164e+05
-4.270000e+00	-4.200000e+00	6.278087e+05	3.351805e+05	3.351805e+05
-4.200000e+00	-4.130000e+00	9.012890e+05	4.965228e+05	4.965228e+05
-4.130000e+00	-4.060000e+00	1.672236e+06	8.588438e+05	8.588438e+05
-4.060000e+00	-3.990000e+00	3.208024e+06	8.539206e+05	8.539206e+05
-3.990000e+00	-3.920000e+00	4.412600e+06	2.735754e+06	2.735754e+06
-3.920000e+00	-3.850000e+00	6.409833e+06	1.362307e+06	1.362307e+06
-3.850000e+00	-3.780000e+00	6.527234e+06	1.713714e+06	1.713714e+06
-3.780000e+00	-3.710000e+00	1.009735e+07	1.331683e+06	1.331683e+06
-3.710000e+00	-3.640000e+00	9.100877e+06	1.579781e+06	1.579781e+06
-3.640000e+00	-3.570000e+00	1.253702e+07	1.531796e+06	1.531796e+06
-3.570000e+00	-3.500000e+00	1.692456e+07	2.208123e+06	2.208123e+06
-3.500000e+00	-3.430000e+00	1.382126e+07	3.151976e+06	3.151976e+06
-3.430000e+00	-3.360000e+00	2.148304e+07	1.719748e+06	1.719748e+06
-3.360000e+00	-3.290000e+00	3.440851e+07	1.205705e+07	1.205705e+07
-3.290000e+00	-3.220000e+00	2.969729e+07	3.407591e+06	3.407591e+06
-3.220000e+00	-3.150000e+00	2.484927e+07	2.593868e+06	2.593868e+06
-3.150000e+00	-3.080000e+00	2.613974e+07	2.432520e+06	2.432520e+06
-3.080000e+00	-3.010000e+00	2.696861e+07	3.851753e+06	3.851753e+06
-3.010000e+00	-2.940000e+00	2.383649e+07	4.135202e+06	4.135202e+06
-2.940000e+00	-2.870000e+00	2.859584e+07	3.033253e+06	3.033253e+06
-2.870000e+00	-2.800000e+00	3.287934e+07	2.948851e+06	2.948851e+06
-2.800000e+00	-2.730000e+00	3.587713e+07	3.211839e+06	3.211839e+06
-2.730000e+00	-2.660000e+00	3.624640e+07	3.726290e+06	3.726290e+06
-2.660000e+00	-2.590000e+00	3.758126e+07	4.006102e+06	4.006102e+06
-2.590000e+00	-2.520000e+00	2.915463e+07	4.417720e+06	4.417720e+06
-2.520000e+00	-2.450000e+00	4.847383e+07	4.483989e+06	4.483989e+06
-2.450000e+00	-2.380000e+00	3.540441e+07	3.314771e+06	3.314771e+06
-2.380000e+00	-2.310000e+00	3.330030e+07	4.593505e+06	4.593505e+06
-2.310000e+00	-2.240000e+00	4.381656e+07	1.021240e+07	1.021240e+07
-2.240000e+00	-2.170000e+00	3.646946e+07	4.055086e+06	4.055086e+06
-2.170000e+00	-2.100000e+00	3.697551e+07	3.680150e+06	3.680150e+06
-2.100000e+00	-2.030000e+00	3.294334e+07	4.433710e+06	4.433710e+06
-2.030000e+00	-1.960000e+00	4.914860e+07	5.919287e+06	5.919287e+06
-1.960000e+00	-1.890000e+00	4.376113e+07	2.381458e+06	2.381458e+06
-1.890000e+00	-1.820000e+00	4.126579e+07	2.607470e+06	2.607470e+06
-1.820000e+00	-1.750000e+00	4.070173e+07	3.693220e+06	3.693220e+06
-1.750000e+00	-1.680000e+00	4.462326e+07	2.628737e+06	2.628737e+06
-1.680000e+00	-1.610000e+00	4.515323e+07	4.207907e+06	4.207907e+06
-1.610000e+00	-1.540000e+00	4.069046e+07	4.216210e+06	4.216210e+06
-1.540000e+00	-1.470000e+00	4.205996e+07	4.788044e+06	4.788044e+06
-1.470000e+00	-1.400000e+00	4.548973e+07	5.163502e+06	5.163502e+06
-1.400000e+00	-1.330000e+00	5.745280e+07	4.158151e+06	4.158151e+06
-1.330000e+00	-1.260000e+00	5.676603e+07	3.402100e+06	3.402100e+06
-1.260000e+00	-1.190000e+00	6.320500e+07	7.546184e+06	7.546184e+06
-1.190000e+00	-1.120000e+00	7.268390e+07	5.641477e+06	5.641477e+06
-1.120000e+00	-1.050000e+00	8.984689e+07	6.115184e+06	6.115184e+06
-1.050000e+00	-9.800000e-01	7.998303e+07	4.398081e+06	4.398081e+06
-9.800000e-01	-9.100000e-01	7.186284e+07	1.092873e+07	1.092873e+07
-9.100000e-01	-8.400000e-01	7.885593e+07	6.602742e+06	6.602742e+06
-8.400000e-01	-7.700000e-01	7.246716e+07	5.886359e+06	5.886359e+06
-7.700000e-01	-7.000000e-01	6.436649e+07	4.504406e+06	4.504406e+06
-7.000000e-01	-6.300000e-01	5.888771e+07	1.243471e+07	1.243471e+07
-6.300000e-01	-5.600000e-01	2.973769e+07	2.793261e+06	2.793261e+06
-5.600000e-01	-4.900000e-01	1.589344e+06	7.278051e+06	7.278051e+06
-4.900000e-01	-4.200000e-01	1.856161e+06	4.663311e+05	4.663311e+05
-4.200000e-01	-3.500000e-01	-5.195641e+04	2.353036e+05	2.353036e+05
-3.500000e-01	-2.800000e-01	-4.509567e+03	2.990551e+03	2.990551e+03
-2.800000e-01	-2.100000e-01	-1.171414e+00	1.171414e+00	1.171414e+00
-2.100000e-01	-1.400000e-01	0.000000e+00	0.000000e+00	0.000000e+00
-1.400000e-01	-7.000000e-02	0.000000e+00	0.000000e+00	0.000000e+00
-7.000000e-02	0.000000e+00	0.000000e+00	0.000000e+00	0.000000e+00
# END HISTO1D

