# BEGIN PLOT
LegendOnly=/zj_ps_nlo_mer_cent_R8.yoda/PAPER_FIN_R8/lin_SD_l10_pT_326_408
DrawOnly=/zj_ps_nlo_mer_cent_R8.yoda/PAPER_FIN_R8/lin_SD_l10_pT_326_408
Legend=1
LogY=1
# END PLOT

# BEGIN HISTO1D /zj_ps_nlo_mer_cent_R8.yoda/PAPER_FIN_R8/lin_SD_l10_pT_326_408
LineColor=red
LineStyle=solid
Path=/zj_ps_nlo_mer_cent_R8.yoda/PAPER_FIN_R8/lin_SD_l10_pT_326_408
Title=zj_ps_nlo_mer_cent_R8
XLabel=~
YLabel=~
# xlow	 xhigh	 val	 errminus	 errplus
0.000000e+00	2.000000e-02	1.529364e+10	7.020705e+07	7.020705e+07
2.000000e-02	5.000000e-02	3.461447e+09	3.813829e+07	3.813829e+07
5.000000e-02	9.500000e-02	1.854371e+09	1.560821e+07	1.560821e+07
9.500000e-02	1.470000e-01	1.314475e+09	1.434273e+07	1.434273e+07
1.470000e-01	2.250000e-01	8.955309e+08	7.855776e+06	7.855776e+06
2.250000e-01	3.070000e-01	5.288506e+08	5.735703e+06	5.735703e+06
3.070000e-01	3.880000e-01	2.875206e+08	9.727465e+06	9.727465e+06
3.880000e-01	4.680000e-01	1.496931e+08	2.243867e+06	2.243867e+06
4.680000e-01	1.000000e+00	1.062997e+07	2.297152e+05	2.297152e+05
# END HISTO1D

