# BEGIN PLOT
LegendOnly=/zj_ps_nlo_mer_mur1_muf1_R8.yoda/PAPER_FIN_R8/ch_l05_pT_120_150
DrawOnly=/zj_ps_nlo_mer_mur1_muf1_R8.yoda/PAPER_FIN_R8/ch_l05_pT_120_150
Legend=1
LogY=1
# END PLOT

# BEGIN HISTO1D /zj_ps_nlo_mer_mur1_muf1_R8.yoda/PAPER_FIN_R8/ch_l05_pT_120_150
LineColor=red
LineStyle=solid
Path=/zj_ps_nlo_mer_mur1_muf1_R8.yoda/PAPER_FIN_R8/ch_l05_pT_120_150
Title=zj_ps_nlo_mer_mur1_muf1_R8
XLabel=~
YLabel=~
# xlow	 xhigh	 val	 errminus	 errplus
-7.000000e+00	-6.930000e+00	0.000000e+00	0.000000e+00	0.000000e+00
-6.930000e+00	-6.860000e+00	2.114093e+07	3.653802e+06	3.653802e+06
-6.860000e+00	-6.790000e+00	0.000000e+00	0.000000e+00	0.000000e+00
-6.790000e+00	-6.720000e+00	0.000000e+00	0.000000e+00	0.000000e+00
-6.720000e+00	-6.650000e+00	0.000000e+00	0.000000e+00	0.000000e+00
-6.650000e+00	-6.580000e+00	0.000000e+00	0.000000e+00	0.000000e+00
-6.580000e+00	-6.510000e+00	0.000000e+00	0.000000e+00	0.000000e+00
-6.510000e+00	-6.440000e+00	0.000000e+00	0.000000e+00	0.000000e+00
-6.440000e+00	-6.370000e+00	0.000000e+00	0.000000e+00	0.000000e+00
-6.370000e+00	-6.300000e+00	0.000000e+00	0.000000e+00	0.000000e+00
-6.300000e+00	-6.230000e+00	0.000000e+00	0.000000e+00	0.000000e+00
-6.230000e+00	-6.160000e+00	0.000000e+00	0.000000e+00	0.000000e+00
-6.160000e+00	-6.090000e+00	0.000000e+00	0.000000e+00	0.000000e+00
-6.090000e+00	-6.020000e+00	0.000000e+00	0.000000e+00	0.000000e+00
-6.020000e+00	-5.950000e+00	0.000000e+00	0.000000e+00	0.000000e+00
-5.950000e+00	-5.880000e+00	0.000000e+00	0.000000e+00	0.000000e+00
-5.880000e+00	-5.810000e+00	0.000000e+00	0.000000e+00	0.000000e+00
-5.810000e+00	-5.740000e+00	0.000000e+00	0.000000e+00	0.000000e+00
-5.740000e+00	-5.670000e+00	0.000000e+00	0.000000e+00	0.000000e+00
-5.670000e+00	-5.600000e+00	0.000000e+00	0.000000e+00	0.000000e+00
-5.600000e+00	-5.530000e+00	0.000000e+00	0.000000e+00	0.000000e+00
-5.530000e+00	-5.460000e+00	0.000000e+00	0.000000e+00	0.000000e+00
-5.460000e+00	-5.390000e+00	0.000000e+00	0.000000e+00	0.000000e+00
-5.390000e+00	-5.320000e+00	0.000000e+00	0.000000e+00	0.000000e+00
-5.320000e+00	-5.250000e+00	0.000000e+00	0.000000e+00	0.000000e+00
-5.250000e+00	-5.180000e+00	0.000000e+00	0.000000e+00	0.000000e+00
-5.180000e+00	-5.110000e+00	0.000000e+00	0.000000e+00	0.000000e+00
-5.110000e+00	-5.040000e+00	0.000000e+00	0.000000e+00	0.000000e+00
-5.040000e+00	-4.970000e+00	0.000000e+00	0.000000e+00	0.000000e+00
-4.970000e+00	-4.900000e+00	4.529969e+02	4.529968e+02	4.529968e+02
-4.900000e+00	-4.830000e+00	0.000000e+00	0.000000e+00	0.000000e+00
-4.830000e+00	-4.760000e+00	0.000000e+00	0.000000e+00	0.000000e+00
-4.760000e+00	-4.690000e+00	0.000000e+00	0.000000e+00	0.000000e+00
-4.690000e+00	-4.620000e+00	0.000000e+00	0.000000e+00	0.000000e+00
-4.620000e+00	-4.550000e+00	0.000000e+00	0.000000e+00	0.000000e+00
-4.550000e+00	-4.480000e+00	0.000000e+00	0.000000e+00	0.000000e+00
-4.480000e+00	-4.410000e+00	0.000000e+00	0.000000e+00	0.000000e+00
-4.410000e+00	-4.340000e+00	0.000000e+00	0.000000e+00	0.000000e+00
-4.340000e+00	-4.270000e+00	0.000000e+00	0.000000e+00	0.000000e+00
-4.270000e+00	-4.200000e+00	0.000000e+00	0.000000e+00	0.000000e+00
-4.200000e+00	-4.130000e+00	0.000000e+00	0.000000e+00	0.000000e+00
-4.130000e+00	-4.060000e+00	0.000000e+00	0.000000e+00	0.000000e+00
-4.060000e+00	-3.990000e+00	-2.832121e-01	2.832121e-01	2.832121e-01
-3.990000e+00	-3.920000e+00	-3.110450e+02	7.713451e+02	7.713451e+02
-3.920000e+00	-3.850000e+00	0.000000e+00	0.000000e+00	0.000000e+00
-3.850000e+00	-3.780000e+00	4.427984e+02	4.609774e+02	4.609774e+02
-3.780000e+00	-3.710000e+00	9.736083e+03	1.024786e+04	1.024786e+04
-3.710000e+00	-3.640000e+00	-2.870417e+02	2.991727e+02	2.991727e+02
-3.640000e+00	-3.570000e+00	2.182741e+01	2.561082e+01	2.561082e+01
-3.570000e+00	-3.500000e+00	6.651414e+02	6.541612e+02	6.541612e+02
-3.500000e+00	-3.430000e+00	1.617946e+04	1.969610e+04	1.969610e+04
-3.430000e+00	-3.360000e+00	-3.836066e+03	3.765034e+03	3.765034e+03
-3.360000e+00	-3.290000e+00	5.054377e+03	2.896388e+04	2.896388e+04
-3.290000e+00	-3.220000e+00	1.020836e+05	1.070478e+05	1.070478e+05
-3.220000e+00	-3.150000e+00	-3.587824e+04	3.753372e+04	3.753372e+04
-3.150000e+00	-3.080000e+00	1.490530e+05	1.605151e+05	1.605151e+05
-3.080000e+00	-3.010000e+00	-4.632999e+04	6.880033e+04	6.880033e+04
-3.010000e+00	-2.940000e+00	4.853874e+05	3.243493e+05	3.243493e+05
-2.940000e+00	-2.870000e+00	2.064793e+05	9.539132e+04	9.539132e+04
-2.870000e+00	-2.800000e+00	-8.650609e+04	1.018818e+05	1.018818e+05
-2.800000e+00	-2.730000e+00	2.097631e+05	7.275203e+04	7.275203e+04
-2.730000e+00	-2.660000e+00	8.549697e+05	3.697021e+05	3.697021e+05
-2.660000e+00	-2.590000e+00	1.921069e+04	7.693786e+05	7.693786e+05
-2.590000e+00	-2.520000e+00	1.098914e+06	3.943687e+05	3.943687e+05
-2.520000e+00	-2.450000e+00	1.417126e+06	5.650144e+05	5.650144e+05
-2.450000e+00	-2.380000e+00	1.279862e+06	4.988546e+05	4.988546e+05
-2.380000e+00	-2.310000e+00	2.784879e+06	6.941046e+05	6.941046e+05
-2.310000e+00	-2.240000e+00	1.442934e+06	8.763071e+05	8.763071e+05
-2.240000e+00	-2.170000e+00	1.761121e+06	8.760870e+05	8.760870e+05
-2.170000e+00	-2.100000e+00	9.727380e+05	1.213986e+06	1.213986e+06
-2.100000e+00	-2.030000e+00	3.815906e+06	1.042542e+06	1.042542e+06
-2.030000e+00	-1.960000e+00	3.281607e+06	1.446517e+06	1.446517e+06
-1.960000e+00	-1.890000e+00	7.469830e+06	1.396952e+06	1.396952e+06
-1.890000e+00	-1.820000e+00	1.300984e+07	1.848722e+06	1.848722e+06
-1.820000e+00	-1.750000e+00	1.366823e+07	4.692826e+06	4.692826e+06
-1.750000e+00	-1.680000e+00	2.332826e+07	3.154709e+06	3.154709e+06
-1.680000e+00	-1.610000e+00	2.936374e+07	5.261219e+06	5.261219e+06
-1.610000e+00	-1.540000e+00	5.490480e+07	4.601113e+06	4.601113e+06
-1.540000e+00	-1.470000e+00	7.636083e+07	5.520043e+06	5.520043e+06
-1.470000e+00	-1.400000e+00	1.106094e+08	9.782580e+06	9.782580e+06
-1.400000e+00	-1.330000e+00	2.114086e+08	9.309404e+06	9.309404e+06
-1.330000e+00	-1.260000e+00	3.424293e+08	1.363367e+07	1.363367e+07
-1.260000e+00	-1.190000e+00	5.694036e+08	2.318627e+07	2.318627e+07
-1.190000e+00	-1.120000e+00	1.039828e+09	2.877257e+07	2.877257e+07
-1.120000e+00	-1.050000e+00	1.830580e+09	4.732458e+07	4.732458e+07
-1.050000e+00	-9.800000e-01	3.237591e+09	8.336616e+07	8.336616e+07
-9.800000e-01	-9.100000e-01	5.044633e+09	1.247102e+08	1.247102e+08
-9.100000e-01	-8.400000e-01	7.707340e+09	1.087648e+08	1.087648e+08
-8.400000e-01	-7.700000e-01	1.109413e+10	8.563339e+07	8.563339e+07
-7.700000e-01	-7.000000e-01	1.365800e+10	1.168543e+08	1.168543e+08
-7.000000e-01	-6.300000e-01	1.504090e+10	1.155341e+08	1.155341e+08
-6.300000e-01	-5.600000e-01	1.522006e+10	1.299678e+08	1.299678e+08
-5.600000e-01	-4.900000e-01	1.454171e+10	1.671535e+08	1.671535e+08
-4.900000e-01	-4.200000e-01	1.288473e+10	9.484477e+07	9.484477e+07
-4.200000e-01	-3.500000e-01	1.057660e+10	9.725629e+07	9.725629e+07
-3.500000e-01	-2.800000e-01	7.733596e+09	6.801671e+07	6.801671e+07
-2.800000e-01	-2.100000e-01	3.992440e+09	7.207955e+07	7.207955e+07
-2.100000e-01	-1.400000e-01	1.059162e+09	3.502278e+07	3.502278e+07
-1.400000e-01	-7.000000e-02	5.065541e+07	4.116545e+06	4.116545e+06
-7.000000e-02	0.000000e+00	1.967820e+05	1.277305e+05	1.277305e+05
# END HISTO1D

