# BEGIN PLOT
LegendOnly=/zj_ps_nlo_mer_mur1_muf1_R8.yoda/PAPER_FIN_R8/lin_l10_pT_408_1500
DrawOnly=/zj_ps_nlo_mer_mur1_muf1_R8.yoda/PAPER_FIN_R8/lin_l10_pT_408_1500
Legend=1
LogY=1
# END PLOT

# BEGIN HISTO1D /zj_ps_nlo_mer_mur1_muf1_R8.yoda/PAPER_FIN_R8/lin_l10_pT_408_1500
LineColor=red
LineStyle=solid
Path=/zj_ps_nlo_mer_mur1_muf1_R8.yoda/PAPER_FIN_R8/lin_l10_pT_408_1500
Title=zj_ps_nlo_mer_mur1_muf1_R8
XLabel=~
YLabel=~
# xlow	 xhigh	 val	 errminus	 errplus
0.000000e+00	1.050000e-01	2.802373e+09	2.730447e+07	2.730447e+07
1.050000e-01	1.650000e-01	1.148944e+09	2.003548e+07	2.003548e+07
1.650000e-01	2.300000e-01	6.115903e+08	2.189180e+07	2.189180e+07
2.300000e-01	3.050000e-01	4.006131e+08	1.118199e+07	1.118199e+07
3.050000e-01	3.800000e-01	1.995544e+08	5.559886e+06	5.559886e+06
3.800000e-01	4.600000e-01	1.131630e+08	4.342148e+06	4.342148e+06
4.600000e-01	5.500000e-01	4.066476e+07	3.425052e+06	3.425052e+06
5.500000e-01	1.000000e+00	1.704751e+06	1.514056e+05	1.514056e+05
# END HISTO1D

