# BEGIN PLOT
LegendOnly=/zj_ps_nlo_mer_mur2_muf2_R8.yoda/PAPER_FIN_R8_CH/XS_CUTS_pT_120_150
DrawOnly=/zj_ps_nlo_mer_mur2_muf2_R8.yoda/PAPER_FIN_R8_CH/XS_CUTS_pT_120_150
Legend=1
LogY=1
# END PLOT

# BEGIN HISTO1D /zj_ps_nlo_mer_mur2_muf2_R8.yoda/PAPER_FIN_R8_CH/XS_CUTS_pT_120_150
LineColor=red
LineStyle=solid
Path=/zj_ps_nlo_mer_mur2_muf2_R8.yoda/PAPER_FIN_R8_CH/XS_CUTS_pT_120_150
Title=zj_ps_nlo_mer_mur2_muf2_R8
XLabel=~
YLabel=~
# xlow	 xhigh	 val	 errminus	 errplus
-5.000000e-01	5.000000e-01	3.005509e+03	9.581327e+01	9.581327e+01
# END HISTO1D

