# BEGIN PLOT
LegendOnly=/zj_ps_nlo_mer_mur2_muf2_R8.yoda/MC_XS/pmXS
DrawOnly=/zj_ps_nlo_mer_mur2_muf2_R8.yoda/MC_XS/pmXS
Title=Fraction of positive and negative weighted events
XMajorTickMarks=20
LogY=0
XLabel=$\text{sgn}(w)$
ShowZero=0
XMax=1
YLabel=$\text{d}\sigma/\text{d sgn}(w)$ [pb]
XMin=-1
XMinorTickMarks=0
Legend=1
# END PLOT

# BEGIN HISTO1D /zj_ps_nlo_mer_mur2_muf2_R8.yoda/MC_XS/pmXS
LineColor=red
LineStyle=solid
Path=/zj_ps_nlo_mer_mur2_muf2_R8.yoda/MC_XS/pmXS
ScaledBy=3.08513847793687456e-10
Title=zj_ps_nlo_mer_mur2_muf2_R8
XLabel=~
YLabel=~
# xlow	 xhigh	 val	 errminus	 errplus
-1.000000e+00	0.000000e+00	2.408598e+00	4.941253e-03	4.941253e-03
0.000000e+00	1.000000e+00	7.600855e+00	3.871045e-03	3.871045e-03
# END HISTO1D

