# BEGIN PLOT
LegendOnly=/zj_ps_nlo_mer_mur2_muf2_R8.yoda/PAPER_FIN_R8_CH/lin_l20_pT_88_120
DrawOnly=/zj_ps_nlo_mer_mur2_muf2_R8.yoda/PAPER_FIN_R8_CH/lin_l20_pT_88_120
Legend=1
LogY=1
# END PLOT

# BEGIN HISTO1D /zj_ps_nlo_mer_mur2_muf2_R8.yoda/PAPER_FIN_R8_CH/lin_l20_pT_88_120
LineColor=red
LineStyle=solid
Path=/zj_ps_nlo_mer_mur2_muf2_R8.yoda/PAPER_FIN_R8_CH/lin_l20_pT_88_120
Title=zj_ps_nlo_mer_mur2_muf2_R8
XLabel=~
YLabel=~
# xlow	 xhigh	 val	 errminus	 errplus
0.000000e+00	5.000000e-03	1.828572e+08	1.546370e+07	1.546370e+07
5.000000e-03	1.250000e-02	1.058126e+08	2.236840e+07	2.236840e+07
1.250000e-02	2.250000e-02	1.642498e+07	9.168877e+07	9.168877e+07
2.250000e-02	3.500000e-02	7.706090e+07	1.665863e+07	1.665863e+07
3.500000e-02	5.000000e-02	5.962413e+07	7.849331e+06	7.849331e+06
5.000000e-02	7.000000e-02	3.946836e+07	4.590302e+06	4.590302e+06
7.000000e-02	9.250000e-02	3.245426e+07	3.941969e+06	3.941969e+06
9.250000e-02	1.200000e-01	1.619784e+07	2.739576e+06	2.739576e+06
1.200000e-01	1.520000e-01	1.433255e+07	2.381238e+06	2.381238e+06
1.520000e-01	1.880000e-01	6.815225e+06	1.783000e+06	1.783000e+06
1.880000e-01	2.280000e-01	3.812535e+06	8.918860e+05	8.918860e+05
2.280000e-01	1.000000e+00	2.224155e+05	4.301447e+04	4.301447e+04
# END HISTO1D

