# BEGIN PLOT
LegendOnly=/zj_ps_nlo_mer_mur2_muf2_R8.yoda/PAPER_FIN_R8/lin_SD_l05_pT_50_65
DrawOnly=/zj_ps_nlo_mer_mur2_muf2_R8.yoda/PAPER_FIN_R8/lin_SD_l05_pT_50_65
Legend=1
LogY=1
# END PLOT

# BEGIN HISTO1D /zj_ps_nlo_mer_mur2_muf2_R8.yoda/PAPER_FIN_R8/lin_SD_l05_pT_50_65
LineColor=red
LineStyle=solid
Path=/zj_ps_nlo_mer_mur2_muf2_R8.yoda/PAPER_FIN_R8/lin_SD_l05_pT_50_65
Title=zj_ps_nlo_mer_mur2_muf2_R8
XLabel=~
YLabel=~
# xlow	 xhigh	 val	 errminus	 errplus
0.000000e+00	1.000000e-01	9.411237e+03	1.055574e+04	1.055574e+04
1.000000e-01	1.800000e-01	1.191230e+05	1.102778e+05	1.102778e+05
1.800000e-01	2.600000e-01	-6.649977e+03	3.612273e+03	3.612273e+03
2.600000e-01	3.400000e-01	-4.478655e+03	1.629491e+03	1.629491e+03
3.400000e-01	4.200000e-01	1.593513e+03	4.252238e+03	4.252238e+03
4.200000e-01	5.000000e-01	6.728591e+03	6.753442e+03	6.753442e+03
5.000000e-01	5.700000e-01	-5.609600e+02	3.407157e+02	3.407157e+02
5.700000e-01	6.400000e-01	-7.935240e+01	4.730252e+01	4.730252e+01
6.400000e-01	1.000000e+00	-2.010340e+01	1.188176e+01	1.188176e+01
# END HISTO1D

