# BEGIN PLOT
LegendOnly=/merge.yoda/PAPER_FIN_R4/ch_l05_pT_120_150
DrawOnly=/merge.yoda/PAPER_FIN_R4/ch_l05_pT_120_150
Legend=1
LogY=1
# END PLOT

# BEGIN HISTO1D /merge.yoda/PAPER_FIN_R4/ch_l05_pT_120_150
LineColor=red
LineStyle=solid
Path=/merge.yoda/PAPER_FIN_R4/ch_l05_pT_120_150
Title=merge
XLabel=~
YLabel=~
# xlow	 xhigh	 val	 errminus	 errplus
-7.000000e+00	-6.930000e+00	0.000000e+00	0.000000e+00	0.000000e+00
-6.930000e+00	-6.860000e+00	2.550857e+06	6.036623e+03	6.036623e+03
-6.860000e+00	-6.790000e+00	0.000000e+00	0.000000e+00	0.000000e+00
-6.790000e+00	-6.720000e+00	0.000000e+00	0.000000e+00	0.000000e+00
-6.720000e+00	-6.650000e+00	0.000000e+00	0.000000e+00	0.000000e+00
-6.650000e+00	-6.580000e+00	0.000000e+00	0.000000e+00	0.000000e+00
-6.580000e+00	-6.510000e+00	0.000000e+00	0.000000e+00	0.000000e+00
-6.510000e+00	-6.440000e+00	0.000000e+00	0.000000e+00	0.000000e+00
-6.440000e+00	-6.370000e+00	0.000000e+00	0.000000e+00	0.000000e+00
-6.370000e+00	-6.300000e+00	0.000000e+00	0.000000e+00	0.000000e+00
-6.300000e+00	-6.230000e+00	0.000000e+00	0.000000e+00	0.000000e+00
-6.230000e+00	-6.160000e+00	0.000000e+00	0.000000e+00	0.000000e+00
-6.160000e+00	-6.090000e+00	0.000000e+00	0.000000e+00	0.000000e+00
-6.090000e+00	-6.020000e+00	0.000000e+00	0.000000e+00	0.000000e+00
-6.020000e+00	-5.950000e+00	0.000000e+00	0.000000e+00	0.000000e+00
-5.950000e+00	-5.880000e+00	0.000000e+00	0.000000e+00	0.000000e+00
-5.880000e+00	-5.810000e+00	0.000000e+00	0.000000e+00	0.000000e+00
-5.810000e+00	-5.740000e+00	0.000000e+00	0.000000e+00	0.000000e+00
-5.740000e+00	-5.670000e+00	0.000000e+00	0.000000e+00	0.000000e+00
-5.670000e+00	-5.600000e+00	0.000000e+00	0.000000e+00	0.000000e+00
-5.600000e+00	-5.530000e+00	0.000000e+00	0.000000e+00	0.000000e+00
-5.530000e+00	-5.460000e+00	0.000000e+00	0.000000e+00	0.000000e+00
-5.460000e+00	-5.390000e+00	0.000000e+00	0.000000e+00	0.000000e+00
-5.390000e+00	-5.320000e+00	0.000000e+00	0.000000e+00	0.000000e+00
-5.320000e+00	-5.250000e+00	0.000000e+00	0.000000e+00	0.000000e+00
-5.250000e+00	-5.180000e+00	0.000000e+00	0.000000e+00	0.000000e+00
-5.180000e+00	-5.110000e+00	0.000000e+00	0.000000e+00	0.000000e+00
-5.110000e+00	-5.040000e+00	0.000000e+00	0.000000e+00	0.000000e+00
-5.040000e+00	-4.970000e+00	0.000000e+00	0.000000e+00	0.000000e+00
-4.970000e+00	-4.900000e+00	0.000000e+00	0.000000e+00	0.000000e+00
-4.900000e+00	-4.830000e+00	0.000000e+00	0.000000e+00	0.000000e+00
-4.830000e+00	-4.760000e+00	0.000000e+00	0.000000e+00	0.000000e+00
-4.760000e+00	-4.690000e+00	0.000000e+00	0.000000e+00	0.000000e+00
-4.690000e+00	-4.620000e+00	0.000000e+00	0.000000e+00	0.000000e+00
-4.620000e+00	-4.550000e+00	0.000000e+00	0.000000e+00	0.000000e+00
-4.550000e+00	-4.480000e+00	0.000000e+00	0.000000e+00	0.000000e+00
-4.480000e+00	-4.410000e+00	0.000000e+00	0.000000e+00	0.000000e+00
-4.410000e+00	-4.340000e+00	0.000000e+00	0.000000e+00	0.000000e+00
-4.340000e+00	-4.270000e+00	0.000000e+00	0.000000e+00	0.000000e+00
-4.270000e+00	-4.200000e+00	1.428571e+01	1.428571e+01	1.428571e+01
-4.200000e+00	-4.130000e+00	0.000000e+00	0.000000e+00	0.000000e+00
-4.130000e+00	-4.060000e+00	0.000000e+00	0.000000e+00	0.000000e+00
-4.060000e+00	-3.990000e+00	0.000000e+00	0.000000e+00	0.000000e+00
-3.990000e+00	-3.920000e+00	0.000000e+00	0.000000e+00	0.000000e+00
-3.920000e+00	-3.850000e+00	0.000000e+00	0.000000e+00	0.000000e+00
-3.850000e+00	-3.780000e+00	2.857143e+01	2.020305e+01	2.020305e+01
-3.780000e+00	-3.710000e+00	1.428571e+01	1.428571e+01	1.428571e+01
-3.710000e+00	-3.640000e+00	1.428571e+01	1.428571e+01	1.428571e+01
-3.640000e+00	-3.570000e+00	2.857143e+01	2.020305e+01	2.020305e+01
-3.570000e+00	-3.500000e+00	2.857143e+01	2.020305e+01	2.020305e+01
-3.500000e+00	-3.430000e+00	4.285714e+01	2.474358e+01	2.474358e+01
-3.430000e+00	-3.360000e+00	4.285714e+01	2.474358e+01	2.474358e+01
-3.360000e+00	-3.290000e+00	8.571429e+01	3.499271e+01	3.499271e+01
-3.290000e+00	-3.220000e+00	1.142857e+02	4.040610e+01	4.040610e+01
-3.220000e+00	-3.150000e+00	1.285714e+02	4.285714e+01	4.285714e+01
-3.150000e+00	-3.080000e+00	2.285714e+02	5.714286e+01	5.714286e+01
-3.080000e+00	-3.010000e+00	2.285714e+02	5.714286e+01	5.714286e+01
-3.010000e+00	-2.940000e+00	3.285714e+02	6.851188e+01	6.851188e+01
-2.940000e+00	-2.870000e+00	4.142857e+02	7.693093e+01	7.693093e+01
-2.870000e+00	-2.800000e+00	6.857143e+02	9.897433e+01	9.897433e+01
-2.800000e+00	-2.730000e+00	9.000000e+02	1.133893e+02	1.133893e+02
-2.730000e+00	-2.660000e+00	1.014286e+03	1.203736e+02	1.203736e+02
-2.660000e+00	-2.590000e+00	1.528571e+03	1.477726e+02	1.477726e+02
-2.590000e+00	-2.520000e+00	1.800000e+03	1.603567e+02	1.603567e+02
-2.520000e+00	-2.450000e+00	2.528571e+03	1.900591e+02	1.900591e+02
-2.450000e+00	-2.380000e+00	3.028571e+03	2.080031e+02	2.080031e+02
-2.380000e+00	-2.310000e+00	3.757143e+03	2.316754e+02	2.316754e+02
-2.310000e+00	-2.240000e+00	4.057143e+03	2.407471e+02	2.407471e+02
-2.240000e+00	-2.170000e+00	5.100000e+03	2.699206e+02	2.699206e+02
-2.170000e+00	-2.100000e+00	6.557143e+03	3.060612e+02	3.060612e+02
-2.100000e+00	-2.030000e+00	8.200000e+03	3.422614e+02	3.422614e+02
-2.030000e+00	-1.960000e+00	8.785714e+03	3.542742e+02	3.542742e+02
-1.960000e+00	-1.890000e+00	1.062857e+04	3.896623e+02	3.896623e+02
-1.890000e+00	-1.820000e+00	1.314286e+04	4.333072e+02	4.333072e+02
-1.820000e+00	-1.750000e+00	1.571429e+04	4.738035e+02	4.738035e+02
-1.750000e+00	-1.680000e+00	1.954286e+04	5.283783e+02	5.283783e+02
-1.680000e+00	-1.610000e+00	2.420000e+04	5.879747e+02	5.879747e+02
-1.610000e+00	-1.540000e+00	2.962857e+04	6.505884e+02	6.505884e+02
-1.540000e+00	-1.470000e+00	3.645714e+04	7.216761e+02	7.216761e+02
-1.470000e+00	-1.400000e+00	4.641429e+04	8.142857e+02	8.142857e+02
-1.400000e+00	-1.330000e+00	5.832857e+04	9.128337e+02	9.128337e+02
-1.330000e+00	-1.260000e+00	7.320000e+04	1.022602e+03	1.022602e+03
-1.260000e+00	-1.190000e+00	9.270000e+04	1.150776e+03	1.150776e+03
-1.190000e+00	-1.120000e+00	1.157714e+05	1.286032e+03	1.286032e+03
-1.120000e+00	-1.050000e+00	1.445429e+05	1.436975e+03	1.436975e+03
-1.050000e+00	-9.800000e-01	1.781857e+05	1.595466e+03	1.595466e+03
-9.800000e-01	-9.100000e-01	2.090429e+05	1.728099e+03	1.728099e+03
-9.100000e-01	-8.400000e-01	2.366143e+05	1.838533e+03	1.838533e+03
-8.400000e-01	-7.700000e-01	2.646857e+05	1.944537e+03	1.944537e+03
-7.700000e-01	-7.000000e-01	2.727143e+05	1.973808e+03	1.973808e+03
-7.000000e-01	-6.300000e-01	2.759286e+05	1.985406e+03	1.985406e+03
-6.300000e-01	-5.600000e-01	2.657286e+05	1.948364e+03	1.948364e+03
-5.600000e-01	-4.900000e-01	2.388857e+05	1.847337e+03	1.847337e+03
-4.900000e-01	-4.200000e-01	1.968000e+05	1.676732e+03	1.676732e+03
-4.200000e-01	-3.500000e-01	1.359429e+05	1.393571e+03	1.393571e+03
-3.500000e-01	-2.800000e-01	6.188571e+04	9.402562e+02	9.402562e+02
-2.800000e-01	-2.100000e-01	1.814286e+04	5.091008e+02	5.091008e+02
-2.100000e-01	-1.400000e-01	1.828571e+03	1.616244e+02	1.616244e+02
-1.400000e-01	-7.000000e-02	2.857143e+01	2.020305e+01	2.020305e+01
-7.000000e-02	0.000000e+00	0.000000e+00	0.000000e+00	0.000000e+00
# END HISTO1D

