# BEGIN PLOT
LegendOnly=/merge.yoda/PAPER_FIN_R4/ch_l10_pT_65_88
DrawOnly=/merge.yoda/PAPER_FIN_R4/ch_l10_pT_65_88
Legend=1
LogY=1
# END PLOT

# BEGIN HISTO1D /merge.yoda/PAPER_FIN_R4/ch_l10_pT_65_88
LineColor=red
LineStyle=solid
Path=/merge.yoda/PAPER_FIN_R4/ch_l10_pT_65_88
Title=merge
XLabel=~
YLabel=~
# xlow	 xhigh	 val	 errminus	 errplus
-7.000000e+00	-6.930000e+00	0.000000e+00	0.000000e+00	0.000000e+00
-6.930000e+00	-6.860000e+00	3.812857e+04	7.380338e+02	7.380338e+02
-6.860000e+00	-6.790000e+00	0.000000e+00	0.000000e+00	0.000000e+00
-6.790000e+00	-6.720000e+00	0.000000e+00	0.000000e+00	0.000000e+00
-6.720000e+00	-6.650000e+00	0.000000e+00	0.000000e+00	0.000000e+00
-6.650000e+00	-6.580000e+00	0.000000e+00	0.000000e+00	0.000000e+00
-6.580000e+00	-6.510000e+00	0.000000e+00	0.000000e+00	0.000000e+00
-6.510000e+00	-6.440000e+00	0.000000e+00	0.000000e+00	0.000000e+00
-6.440000e+00	-6.370000e+00	0.000000e+00	0.000000e+00	0.000000e+00
-6.370000e+00	-6.300000e+00	0.000000e+00	0.000000e+00	0.000000e+00
-6.300000e+00	-6.230000e+00	0.000000e+00	0.000000e+00	0.000000e+00
-6.230000e+00	-6.160000e+00	0.000000e+00	0.000000e+00	0.000000e+00
-6.160000e+00	-6.090000e+00	0.000000e+00	0.000000e+00	0.000000e+00
-6.090000e+00	-6.020000e+00	0.000000e+00	0.000000e+00	0.000000e+00
-6.020000e+00	-5.950000e+00	0.000000e+00	0.000000e+00	0.000000e+00
-5.950000e+00	-5.880000e+00	0.000000e+00	0.000000e+00	0.000000e+00
-5.880000e+00	-5.810000e+00	0.000000e+00	0.000000e+00	0.000000e+00
-5.810000e+00	-5.740000e+00	0.000000e+00	0.000000e+00	0.000000e+00
-5.740000e+00	-5.670000e+00	0.000000e+00	0.000000e+00	0.000000e+00
-5.670000e+00	-5.600000e+00	0.000000e+00	0.000000e+00	0.000000e+00
-5.600000e+00	-5.530000e+00	0.000000e+00	0.000000e+00	0.000000e+00
-5.530000e+00	-5.460000e+00	0.000000e+00	0.000000e+00	0.000000e+00
-5.460000e+00	-5.390000e+00	0.000000e+00	0.000000e+00	0.000000e+00
-5.390000e+00	-5.320000e+00	0.000000e+00	0.000000e+00	0.000000e+00
-5.320000e+00	-5.250000e+00	0.000000e+00	0.000000e+00	0.000000e+00
-5.250000e+00	-5.180000e+00	0.000000e+00	0.000000e+00	0.000000e+00
-5.180000e+00	-5.110000e+00	0.000000e+00	0.000000e+00	0.000000e+00
-5.110000e+00	-5.040000e+00	0.000000e+00	0.000000e+00	0.000000e+00
-5.040000e+00	-4.970000e+00	0.000000e+00	0.000000e+00	0.000000e+00
-4.970000e+00	-4.900000e+00	0.000000e+00	0.000000e+00	0.000000e+00
-4.900000e+00	-4.830000e+00	0.000000e+00	0.000000e+00	0.000000e+00
-4.830000e+00	-4.760000e+00	0.000000e+00	0.000000e+00	0.000000e+00
-4.760000e+00	-4.690000e+00	0.000000e+00	0.000000e+00	0.000000e+00
-4.690000e+00	-4.620000e+00	0.000000e+00	0.000000e+00	0.000000e+00
-4.620000e+00	-4.550000e+00	0.000000e+00	0.000000e+00	0.000000e+00
-4.550000e+00	-4.480000e+00	0.000000e+00	0.000000e+00	0.000000e+00
-4.480000e+00	-4.410000e+00	0.000000e+00	0.000000e+00	0.000000e+00
-4.410000e+00	-4.340000e+00	0.000000e+00	0.000000e+00	0.000000e+00
-4.340000e+00	-4.270000e+00	0.000000e+00	0.000000e+00	0.000000e+00
-4.270000e+00	-4.200000e+00	0.000000e+00	0.000000e+00	0.000000e+00
-4.200000e+00	-4.130000e+00	0.000000e+00	0.000000e+00	0.000000e+00
-4.130000e+00	-4.060000e+00	0.000000e+00	0.000000e+00	0.000000e+00
-4.060000e+00	-3.990000e+00	0.000000e+00	0.000000e+00	0.000000e+00
-3.990000e+00	-3.920000e+00	0.000000e+00	0.000000e+00	0.000000e+00
-3.920000e+00	-3.850000e+00	0.000000e+00	0.000000e+00	0.000000e+00
-3.850000e+00	-3.780000e+00	0.000000e+00	0.000000e+00	0.000000e+00
-3.780000e+00	-3.710000e+00	0.000000e+00	0.000000e+00	0.000000e+00
-3.710000e+00	-3.640000e+00	0.000000e+00	0.000000e+00	0.000000e+00
-3.640000e+00	-3.570000e+00	0.000000e+00	0.000000e+00	0.000000e+00
-3.570000e+00	-3.500000e+00	1.428571e+01	1.428571e+01	1.428571e+01
-3.500000e+00	-3.430000e+00	0.000000e+00	0.000000e+00	0.000000e+00
-3.430000e+00	-3.360000e+00	0.000000e+00	0.000000e+00	0.000000e+00
-3.360000e+00	-3.290000e+00	0.000000e+00	0.000000e+00	0.000000e+00
-3.290000e+00	-3.220000e+00	0.000000e+00	0.000000e+00	0.000000e+00
-3.220000e+00	-3.150000e+00	1.428571e+01	1.428571e+01	1.428571e+01
-3.150000e+00	-3.080000e+00	0.000000e+00	0.000000e+00	0.000000e+00
-3.080000e+00	-3.010000e+00	0.000000e+00	0.000000e+00	0.000000e+00
-3.010000e+00	-2.940000e+00	0.000000e+00	0.000000e+00	0.000000e+00
-2.940000e+00	-2.870000e+00	1.428571e+01	1.428571e+01	1.428571e+01
-2.870000e+00	-2.800000e+00	0.000000e+00	0.000000e+00	0.000000e+00
-2.800000e+00	-2.730000e+00	0.000000e+00	0.000000e+00	0.000000e+00
-2.730000e+00	-2.660000e+00	0.000000e+00	0.000000e+00	0.000000e+00
-2.660000e+00	-2.590000e+00	1.428571e+01	1.428571e+01	1.428571e+01
-2.590000e+00	-2.520000e+00	0.000000e+00	0.000000e+00	0.000000e+00
-2.520000e+00	-2.450000e+00	1.428571e+01	1.428571e+01	1.428571e+01
-2.450000e+00	-2.380000e+00	0.000000e+00	0.000000e+00	0.000000e+00
-2.380000e+00	-2.310000e+00	7.142857e+01	3.194383e+01	3.194383e+01
-2.310000e+00	-2.240000e+00	1.142857e+02	4.040610e+01	4.040610e+01
-2.240000e+00	-2.170000e+00	1.142857e+02	4.040610e+01	4.040610e+01
-2.170000e+00	-2.100000e+00	1.714286e+02	4.948717e+01	4.948717e+01
-2.100000e+00	-2.030000e+00	2.285714e+02	5.714286e+01	5.714286e+01
-2.030000e+00	-1.960000e+00	1.571429e+02	4.738035e+01	4.738035e+01
-1.960000e+00	-1.890000e+00	1.857143e+02	5.150788e+01	5.150788e+01
-1.890000e+00	-1.820000e+00	2.714286e+02	6.226998e+01	6.226998e+01
-1.820000e+00	-1.750000e+00	4.000000e+02	7.559289e+01	7.559289e+01
-1.750000e+00	-1.680000e+00	5.428571e+02	8.806306e+01	8.806306e+01
-1.680000e+00	-1.610000e+00	7.000000e+02	1.000000e+02	1.000000e+02
-1.610000e+00	-1.540000e+00	6.428571e+02	9.583148e+01	9.583148e+01
-1.540000e+00	-1.470000e+00	8.428571e+02	1.097307e+02	1.097307e+02
-1.470000e+00	-1.400000e+00	1.342857e+03	1.385051e+02	1.385051e+02
-1.400000e+00	-1.330000e+00	1.514286e+03	1.470804e+02	1.470804e+02
-1.330000e+00	-1.260000e+00	1.885714e+03	1.641304e+02	1.641304e+02
-1.260000e+00	-1.190000e+00	2.142857e+03	1.749636e+02	1.749636e+02
-1.190000e+00	-1.120000e+00	2.028571e+03	1.702339e+02	1.702339e+02
-1.120000e+00	-1.050000e+00	1.900000e+03	1.647509e+02	1.647509e+02
-1.050000e+00	-9.800000e-01	2.428571e+03	1.862629e+02	1.862629e+02
-9.800000e-01	-9.100000e-01	2.885714e+03	2.030381e+02	2.030381e+02
-9.100000e-01	-8.400000e-01	2.600000e+03	1.927248e+02	1.927248e+02
-8.400000e-01	-7.700000e-01	2.285714e+03	1.807016e+02	1.807016e+02
-7.700000e-01	-7.000000e-01	2.171429e+03	1.761261e+02	1.761261e+02
-7.000000e-01	-6.300000e-01	2.471429e+03	1.878992e+02	1.878992e+02
-6.300000e-01	-5.600000e-01	1.828571e+03	1.616244e+02	1.616244e+02
-5.600000e-01	-4.900000e-01	1.514286e+03	1.470804e+02	1.470804e+02
-4.900000e-01	-4.200000e-01	1.157143e+03	1.285714e+02	1.285714e+02
-4.200000e-01	-3.500000e-01	8.714286e+02	1.115750e+02	1.115750e+02
-3.500000e-01	-2.800000e-01	2.000000e+02	5.345225e+01	5.345225e+01
-2.800000e-01	-2.100000e-01	5.714286e+01	2.857143e+01	2.857143e+01
-2.100000e-01	-1.400000e-01	1.428571e+01	1.428571e+01	1.428571e+01
-1.400000e-01	-7.000000e-02	0.000000e+00	0.000000e+00	0.000000e+00
-7.000000e-02	0.000000e+00	0.000000e+00	0.000000e+00	0.000000e+00
# END HISTO1D

