# BEGIN PLOT
LegendOnly=/merge.yoda/PAPER_FIN_R4/l20_pT_186_254
DrawOnly=/merge.yoda/PAPER_FIN_R4/l20_pT_186_254
Legend=1
LogY=1
# END PLOT

# BEGIN HISTO1D /merge.yoda/PAPER_FIN_R4/l20_pT_186_254
LineColor=red
LineStyle=solid
Path=/merge.yoda/PAPER_FIN_R4/l20_pT_186_254
Title=merge
XLabel=~
YLabel=~
# xlow	 xhigh	 val	 errminus	 errplus
-7.000000e+00	-6.930000e+00	1.428571e+01	1.428571e+01	1.428571e+01
-6.930000e+00	-6.860000e+00	2.492629e+06	5.967326e+03	5.967326e+03
-6.860000e+00	-6.790000e+00	1.000000e+02	3.779645e+01	3.779645e+01
-6.790000e+00	-6.720000e+00	2.857143e+01	2.020305e+01	2.020305e+01
-6.720000e+00	-6.650000e+00	2.857143e+01	2.020305e+01	2.020305e+01
-6.650000e+00	-6.580000e+00	4.285714e+01	2.474358e+01	2.474358e+01
-6.580000e+00	-6.510000e+00	2.857143e+01	2.020305e+01	2.020305e+01
-6.510000e+00	-6.440000e+00	7.142857e+01	3.194383e+01	3.194383e+01
-6.440000e+00	-6.370000e+00	4.285714e+01	2.474358e+01	2.474358e+01
-6.370000e+00	-6.300000e+00	5.714286e+01	2.857143e+01	2.857143e+01
-6.300000e+00	-6.230000e+00	1.714286e+02	4.948717e+01	4.948717e+01
-6.230000e+00	-6.160000e+00	4.285714e+01	2.474358e+01	2.474358e+01
-6.160000e+00	-6.090000e+00	1.285714e+02	4.285714e+01	4.285714e+01
-6.090000e+00	-6.020000e+00	1.714286e+02	4.948717e+01	4.948717e+01
-6.020000e+00	-5.950000e+00	2.571429e+02	6.060915e+01	6.060915e+01
-5.950000e+00	-5.880000e+00	2.142857e+02	5.532833e+01	5.532833e+01
-5.880000e+00	-5.810000e+00	3.857143e+02	7.423075e+01	7.423075e+01
-5.810000e+00	-5.740000e+00	2.714286e+02	6.226998e+01	6.226998e+01
-5.740000e+00	-5.670000e+00	4.571429e+02	8.081220e+01	8.081220e+01
-5.670000e+00	-5.600000e+00	4.142857e+02	7.693093e+01	7.693093e+01
-5.600000e+00	-5.530000e+00	5.285714e+02	8.689661e+01	8.689661e+01
-5.530000e+00	-5.460000e+00	8.428571e+02	1.097307e+02	1.097307e+02
-5.460000e+00	-5.390000e+00	8.000000e+02	1.069045e+02	1.069045e+02
-5.390000e+00	-5.320000e+00	8.857143e+02	1.124858e+02	1.124858e+02
-5.320000e+00	-5.250000e+00	1.157143e+03	1.285714e+02	1.285714e+02
-5.250000e+00	-5.180000e+00	1.242857e+03	1.332483e+02	1.332483e+02
-5.180000e+00	-5.110000e+00	2.000000e+03	1.690309e+02	1.690309e+02
-5.110000e+00	-5.040000e+00	2.000000e+03	1.690309e+02	1.690309e+02
-5.040000e+00	-4.970000e+00	2.328571e+03	1.823878e+02	1.823878e+02
-4.970000e+00	-4.900000e+00	3.085714e+03	2.099563e+02	2.099563e+02
-4.900000e+00	-4.830000e+00	3.300000e+03	2.171241e+02	2.171241e+02
-4.830000e+00	-4.760000e+00	4.257143e+03	2.466097e+02	2.466097e+02
-4.760000e+00	-4.690000e+00	4.485714e+03	2.531435e+02	2.531435e+02
-4.690000e+00	-4.620000e+00	5.128571e+03	2.706756e+02	2.706756e+02
-4.620000e+00	-4.550000e+00	6.100000e+03	2.951997e+02	2.951997e+02
-4.550000e+00	-4.480000e+00	8.371429e+03	3.458205e+02	3.458205e+02
-4.480000e+00	-4.410000e+00	8.257143e+03	3.434519e+02	3.434519e+02
-4.410000e+00	-4.340000e+00	1.098571e+04	3.961550e+02	3.961550e+02
-4.340000e+00	-4.270000e+00	1.325714e+04	4.351870e+02	4.351870e+02
-4.270000e+00	-4.200000e+00	1.580000e+04	4.750940e+02	4.750940e+02
-4.200000e+00	-4.130000e+00	1.847143e+04	5.136901e+02	5.136901e+02
-4.130000e+00	-4.060000e+00	2.280000e+04	5.707138e+02	5.707138e+02
-4.060000e+00	-3.990000e+00	2.654286e+04	6.157789e+02	6.157789e+02
-3.990000e+00	-3.920000e+00	3.441429e+04	7.011652e+02	7.011652e+02
-3.920000e+00	-3.850000e+00	5.014286e+04	8.463608e+02	8.463608e+02
-3.850000e+00	-3.780000e+00	7.888571e+04	1.061574e+03	1.061574e+03
-3.780000e+00	-3.710000e+00	1.131571e+05	1.271429e+03	1.271429e+03
-3.710000e+00	-3.640000e+00	1.475000e+05	1.451600e+03	1.451600e+03
-3.640000e+00	-3.570000e+00	1.822714e+05	1.613653e+03	1.613653e+03
-3.570000e+00	-3.500000e+00	2.212000e+05	1.777639e+03	1.777639e+03
-3.500000e+00	-3.430000e+00	2.642857e+05	1.943067e+03	1.943067e+03
-3.430000e+00	-3.360000e+00	3.177714e+05	2.130632e+03	2.130632e+03
-3.360000e+00	-3.290000e+00	3.771000e+05	2.321022e+03	2.321022e+03
-3.290000e+00	-3.220000e+00	4.466857e+05	2.526109e+03	2.526109e+03
-3.220000e+00	-3.150000e+00	5.312429e+05	2.754847e+03	2.754847e+03
-3.150000e+00	-3.080000e+00	6.294143e+05	2.998605e+03	2.998605e+03
-3.080000e+00	-3.010000e+00	7.444857e+05	3.261213e+03	3.261213e+03
-3.010000e+00	-2.940000e+00	8.806143e+05	3.546858e+03	3.546858e+03
-2.940000e+00	-2.870000e+00	1.044914e+06	3.863592e+03	3.863592e+03
-2.870000e+00	-2.800000e+00	1.231286e+06	4.194019e+03	4.194019e+03
-2.800000e+00	-2.730000e+00	1.473057e+06	4.587338e+03	4.587338e+03
-2.730000e+00	-2.660000e+00	1.746957e+06	4.995651e+03	4.995651e+03
-2.660000e+00	-2.590000e+00	2.073886e+06	5.443063e+03	5.443063e+03
-2.590000e+00	-2.520000e+00	2.479557e+06	5.951659e+03	5.951659e+03
-2.520000e+00	-2.450000e+00	2.941814e+06	6.482740e+03	6.482740e+03
-2.450000e+00	-2.380000e+00	3.509914e+06	7.081076e+03	7.081076e+03
-2.380000e+00	-2.310000e+00	4.182457e+06	7.729773e+03	7.729773e+03
-2.310000e+00	-2.240000e+00	4.943929e+06	8.404020e+03	8.404020e+03
-2.240000e+00	-2.170000e+00	5.818429e+06	9.117039e+03	9.117039e+03
-2.170000e+00	-2.100000e+00	6.835329e+06	9.881678e+03	9.881678e+03
-2.100000e+00	-2.030000e+00	7.910814e+06	1.063069e+04	1.063069e+04
-2.030000e+00	-1.960000e+00	9.158186e+06	1.143815e+04	1.143815e+04
-1.960000e+00	-1.890000e+00	1.042551e+07	1.220393e+04	1.220393e+04
-1.890000e+00	-1.820000e+00	1.183111e+07	1.300061e+04	1.300061e+04
-1.820000e+00	-1.750000e+00	1.323910e+07	1.375245e+04	1.375245e+04
-1.750000e+00	-1.680000e+00	1.460437e+07	1.444416e+04	1.444416e+04
-1.680000e+00	-1.610000e+00	1.589007e+07	1.506655e+04	1.506655e+04
-1.610000e+00	-1.540000e+00	1.698581e+07	1.557737e+04	1.557737e+04
-1.540000e+00	-1.470000e+00	1.790603e+07	1.599376e+04	1.599376e+04
-1.470000e+00	-1.400000e+00	1.851854e+07	1.626501e+04	1.626501e+04
-1.400000e+00	-1.330000e+00	1.875057e+07	1.636659e+04	1.636659e+04
-1.330000e+00	-1.260000e+00	1.867354e+07	1.633294e+04	1.633294e+04
-1.260000e+00	-1.190000e+00	1.822224e+07	1.613437e+04	1.613437e+04
-1.190000e+00	-1.120000e+00	1.740493e+07	1.576838e+04	1.576838e+04
-1.120000e+00	-1.050000e+00	1.630333e+07	1.526122e+04	1.526122e+04
-1.050000e+00	-9.800000e-01	1.493419e+07	1.460635e+04	1.460635e+04
-9.800000e-01	-9.100000e-01	1.338033e+07	1.382561e+04	1.382561e+04
-9.100000e-01	-8.400000e-01	1.164540e+07	1.289817e+04	1.289817e+04
-8.400000e-01	-7.700000e-01	9.827700e+06	1.184887e+04	1.184887e+04
-7.700000e-01	-7.000000e-01	7.890157e+06	1.061680e+04	1.061680e+04
-7.000000e-01	-6.300000e-01	5.872643e+06	9.159416e+03	9.159416e+03
-6.300000e-01	-5.600000e-01	3.711729e+06	7.281806e+03	7.281806e+03
-5.600000e-01	-4.900000e-01	1.516500e+06	4.654491e+03	4.654491e+03
-4.900000e-01	-4.200000e-01	3.673143e+05	2.290709e+03	2.290709e+03
-4.200000e-01	-3.500000e-01	4.537143e+04	8.050859e+02	8.050859e+02
-3.500000e-01	-2.800000e-01	1.571429e+03	1.498298e+02	1.498298e+02
-2.800000e-01	-2.100000e-01	0.000000e+00	0.000000e+00	0.000000e+00
-2.100000e-01	-1.400000e-01	0.000000e+00	0.000000e+00	0.000000e+00
-1.400000e-01	-7.000000e-02	0.000000e+00	0.000000e+00	0.000000e+00
-7.000000e-02	0.000000e+00	0.000000e+00	0.000000e+00	0.000000e+00
# END HISTO1D

