# BEGIN PLOT
LegendOnly=/zj_ps_nlo_mer_mur2_muf1_R4.yoda/PAPER_FIN_R4_CH/lin_l10_pT_254_326
DrawOnly=/zj_ps_nlo_mer_mur2_muf1_R4.yoda/PAPER_FIN_R4_CH/lin_l10_pT_254_326
Legend=1
LogY=1
# END PLOT

# BEGIN HISTO1D /zj_ps_nlo_mer_mur2_muf1_R4.yoda/PAPER_FIN_R4_CH/lin_l10_pT_254_326
LineColor=red
LineStyle=solid
Path=/zj_ps_nlo_mer_mur2_muf1_R4.yoda/PAPER_FIN_R4_CH/lin_l10_pT_254_326
Title=zj_ps_nlo_mer_mur2_muf1_R4
XLabel=~
YLabel=~
# xlow	 xhigh	 val	 errminus	 errplus
0.000000e+00	2.250000e-02	1.154517e+10	2.434505e+08	2.434505e+08
2.250000e-02	4.000000e-02	8.717189e+09	2.496610e+08	2.496610e+08
4.000000e-02	5.750000e-02	7.373537e+09	1.691432e+08	1.691432e+08
5.750000e-02	7.750000e-02	5.552790e+09	1.284424e+08	1.284424e+08
7.750000e-02	1.000000e-01	4.201728e+09	1.207862e+08	1.207862e+08
1.000000e-01	1.250000e-01	3.241427e+09	1.301012e+08	1.301012e+08
1.250000e-01	1.520000e-01	2.492371e+09	7.738639e+07	7.738639e+07
1.520000e-01	1.850000e-01	1.821298e+09	5.434335e+07	5.434335e+07
1.850000e-01	2.200000e-01	1.384680e+09	9.308692e+07	9.308692e+07
2.200000e-01	2.600000e-01	9.686122e+08	4.656652e+07	4.656652e+07
2.600000e-01	3.070000e-01	6.640649e+08	2.647484e+07	2.647484e+07
3.070000e-01	3.620000e-01	4.477982e+08	3.362953e+07	3.362953e+07
3.620000e-01	4.250000e-01	2.637090e+08	2.160467e+07	2.160467e+07
4.250000e-01	4.970000e-01	1.381510e+08	7.803655e+06	7.803655e+06
4.970000e-01	1.000000e+00	9.432555e+06	8.240517e+05	8.240517e+05
# END HISTO1D

