# BEGIN PLOT
LegendOnly=/zj_ps_nlo_mer_mur2_muf1_R4.yoda/PAPER_FIN_R4/ch_l05_pT_186_254
DrawOnly=/zj_ps_nlo_mer_mur2_muf1_R4.yoda/PAPER_FIN_R4/ch_l05_pT_186_254
Legend=1
LogY=1
# END PLOT

# BEGIN HISTO1D /zj_ps_nlo_mer_mur2_muf1_R4.yoda/PAPER_FIN_R4/ch_l05_pT_186_254
LineColor=red
LineStyle=solid
Path=/zj_ps_nlo_mer_mur2_muf1_R4.yoda/PAPER_FIN_R4/ch_l05_pT_186_254
Title=zj_ps_nlo_mer_mur2_muf1_R4
XLabel=~
YLabel=~
# xlow	 xhigh	 val	 errminus	 errplus
-7.000000e+00	-6.930000e+00	-1.289757e+01	1.289757e+01	1.289757e+01
-6.930000e+00	-6.860000e+00	2.895964e+10	7.491712e+08	7.491712e+08
-6.860000e+00	-6.790000e+00	0.000000e+00	0.000000e+00	0.000000e+00
-6.790000e+00	-6.720000e+00	-8.033314e-04	3.094700e-03	3.094700e-03
-6.720000e+00	-6.650000e+00	0.000000e+00	0.000000e+00	0.000000e+00
-6.650000e+00	-6.580000e+00	-2.235527e+00	2.236089e+00	2.236089e+00
-6.580000e+00	-6.510000e+00	-6.115717e-02	5.461003e-02	5.461003e-02
-6.510000e+00	-6.440000e+00	-3.758770e-03	3.095952e-03	3.095952e-03
-6.440000e+00	-6.370000e+00	0.000000e+00	0.000000e+00	0.000000e+00
-6.370000e+00	-6.300000e+00	-7.560474e+01	7.560747e+01	7.560747e+01
-6.300000e+00	-6.230000e+00	-3.025114e-04	4.392368e-04	4.392368e-04
-6.230000e+00	-6.160000e+00	0.000000e+00	0.000000e+00	0.000000e+00
-6.160000e+00	-6.090000e+00	-4.956124e+00	3.711395e+00	3.711395e+00
-6.090000e+00	-6.020000e+00	-2.810464e-02	2.810464e-02	2.810464e-02
-6.020000e+00	-5.950000e+00	-2.774339e-01	2.872586e-01	2.872586e-01
-5.950000e+00	-5.880000e+00	-1.906649e+01	1.903752e+01	1.903752e+01
-5.880000e+00	-5.810000e+00	-4.055376e+00	3.670934e+00	3.670934e+00
-5.810000e+00	-5.740000e+00	-4.295157e+00	3.876849e+00	3.876849e+00
-5.740000e+00	-5.670000e+00	3.592113e+00	3.837104e+00	3.837104e+00
-5.670000e+00	-5.600000e+00	-9.065487e+00	9.064737e+00	9.064737e+00
-5.600000e+00	-5.530000e+00	5.029153e-01	3.922940e-01	3.922940e-01
-5.530000e+00	-5.460000e+00	-1.271283e+00	1.138020e+00	1.138020e+00
-5.460000e+00	-5.390000e+00	-5.618127e-01	5.891743e-01	5.891743e-01
-5.390000e+00	-5.320000e+00	-2.865590e+01	2.092719e+01	2.092719e+01
-5.320000e+00	-5.250000e+00	6.874766e+00	9.249365e+00	9.249365e+00
-5.250000e+00	-5.180000e+00	-1.379490e+01	1.427093e+01	1.427093e+01
-5.180000e+00	-5.110000e+00	-6.477386e+01	4.654440e+01	4.654440e+01
-5.110000e+00	-5.040000e+00	-1.674856e+01	1.610248e+01	1.610248e+01
-5.040000e+00	-4.970000e+00	-3.944836e+01	4.632045e+01	4.632045e+01
-4.970000e+00	-4.900000e+00	-2.976043e+01	2.255083e+01	2.255083e+01
-4.900000e+00	-4.830000e+00	-2.501969e+02	1.468854e+02	1.468854e+02
-4.830000e+00	-4.760000e+00	-6.181533e+01	1.026256e+02	1.026256e+02
-4.760000e+00	-4.690000e+00	5.077677e+02	6.387529e+02	6.387529e+02
-4.690000e+00	-4.620000e+00	1.102996e+03	8.675798e+02	8.675798e+02
-4.620000e+00	-4.550000e+00	1.020915e+04	1.007947e+04	1.007947e+04
-4.550000e+00	-4.480000e+00	-1.470153e+03	3.647379e+03	3.647379e+03
-4.480000e+00	-4.410000e+00	4.924149e+04	3.350078e+04	3.350078e+04
-4.410000e+00	-4.340000e+00	-4.664817e+04	8.358239e+04	8.358239e+04
-4.340000e+00	-4.270000e+00	9.388344e+04	5.765007e+04	5.765007e+04
-4.270000e+00	-4.200000e+00	1.744840e+05	1.183663e+05	1.183663e+05
-4.200000e+00	-4.130000e+00	2.234434e+05	3.929231e+05	3.929231e+05
-4.130000e+00	-4.060000e+00	3.877746e+05	1.736236e+05	1.736236e+05
-4.060000e+00	-3.990000e+00	1.443006e+06	4.326079e+05	4.326079e+05
-3.990000e+00	-3.920000e+00	1.773299e+06	1.136869e+06	1.136869e+06
-3.920000e+00	-3.850000e+00	3.114429e+06	1.034966e+06	1.034966e+06
-3.850000e+00	-3.780000e+00	1.195724e+06	7.597847e+05	7.597847e+05
-3.780000e+00	-3.710000e+00	2.163546e+06	6.659647e+05	6.659647e+05
-3.710000e+00	-3.640000e+00	2.295106e+06	6.081622e+05	6.081622e+05
-3.640000e+00	-3.570000e+00	1.096673e+06	4.240035e+05	4.240035e+05
-3.570000e+00	-3.500000e+00	1.284095e+06	5.441442e+05	5.441442e+05
-3.500000e+00	-3.430000e+00	9.717739e+05	8.163520e+05	8.163520e+05
-3.430000e+00	-3.360000e+00	-5.776307e+05	1.887765e+06	1.887765e+06
-3.360000e+00	-3.290000e+00	2.113263e+06	2.748546e+06	2.748546e+06
-3.290000e+00	-3.220000e+00	3.471646e+06	9.422483e+05	9.422483e+05
-3.220000e+00	-3.150000e+00	5.770119e+06	2.057564e+06	2.057564e+06
-3.150000e+00	-3.080000e+00	-3.207170e+06	8.495335e+06	8.495335e+06
-3.080000e+00	-3.010000e+00	1.965950e+06	1.762732e+06	1.762732e+06
-3.010000e+00	-2.940000e+00	1.036235e+07	1.699449e+06	1.699449e+06
-2.940000e+00	-2.870000e+00	1.218467e+07	3.348499e+06	3.348499e+06
-2.870000e+00	-2.800000e+00	8.824633e+06	4.730246e+06	4.730246e+06
-2.800000e+00	-2.730000e+00	1.483867e+07	3.626753e+06	3.626753e+06
-2.730000e+00	-2.660000e+00	2.532599e+07	4.483138e+06	4.483138e+06
-2.660000e+00	-2.590000e+00	1.832601e+07	1.156173e+07	1.156173e+07
-2.590000e+00	-2.520000e+00	8.374993e+06	7.321620e+06	7.321620e+06
-2.520000e+00	-2.450000e+00	3.439933e+07	5.632183e+06	5.632183e+06
-2.450000e+00	-2.380000e+00	4.981296e+07	8.829238e+06	8.829238e+06
-2.380000e+00	-2.310000e+00	5.800749e+07	8.747715e+06	8.747715e+06
-2.310000e+00	-2.240000e+00	6.608034e+07	7.117432e+06	7.117432e+06
-2.240000e+00	-2.170000e+00	5.926769e+07	7.336608e+06	7.336608e+06
-2.170000e+00	-2.100000e+00	9.098744e+07	1.117649e+07	1.117649e+07
-2.100000e+00	-2.030000e+00	9.628454e+07	1.173751e+07	1.173751e+07
-2.030000e+00	-1.960000e+00	1.029350e+08	1.300023e+07	1.300023e+07
-1.960000e+00	-1.890000e+00	9.567774e+07	1.045601e+07	1.045601e+07
-1.890000e+00	-1.820000e+00	1.346451e+08	1.363043e+07	1.363043e+07
-1.820000e+00	-1.750000e+00	1.409720e+08	1.679529e+07	1.679529e+07
-1.750000e+00	-1.680000e+00	1.573033e+08	1.391302e+07	1.391302e+07
-1.680000e+00	-1.610000e+00	1.903357e+08	1.387413e+07	1.387413e+07
-1.610000e+00	-1.540000e+00	2.592601e+08	1.405328e+07	1.405328e+07
-1.540000e+00	-1.470000e+00	2.681874e+08	2.699425e+07	2.699425e+07
-1.470000e+00	-1.400000e+00	3.370779e+08	1.935599e+07	1.935599e+07
-1.400000e+00	-1.330000e+00	3.904896e+08	2.562142e+07	2.562142e+07
-1.330000e+00	-1.260000e+00	4.567713e+08	2.001227e+07	2.001227e+07
-1.260000e+00	-1.190000e+00	5.461583e+08	2.507609e+07	2.507609e+07
-1.190000e+00	-1.120000e+00	6.805731e+08	2.750646e+07	2.750646e+07
-1.120000e+00	-1.050000e+00	7.057891e+08	2.853923e+07	2.853923e+07
-1.050000e+00	-9.800000e-01	7.798446e+08	3.488602e+07	3.488602e+07
-9.800000e-01	-9.100000e-01	7.930034e+08	4.374634e+07	4.374634e+07
-9.100000e-01	-8.400000e-01	8.751029e+08	3.082230e+07	3.082230e+07
-8.400000e-01	-7.700000e-01	8.605069e+08	3.804131e+07	3.804131e+07
-7.700000e-01	-7.000000e-01	7.070661e+08	9.643674e+07	9.643674e+07
-7.000000e-01	-6.300000e-01	8.631066e+08	3.479390e+07	3.479390e+07
-6.300000e-01	-5.600000e-01	7.234413e+08	3.956671e+07	3.956671e+07
-5.600000e-01	-4.900000e-01	6.521389e+08	2.964129e+07	2.964129e+07
-4.900000e-01	-4.200000e-01	5.047966e+08	2.055043e+07	2.055043e+07
-4.200000e-01	-3.500000e-01	3.096669e+08	3.031217e+07	3.031217e+07
-3.500000e-01	-2.800000e-01	1.528890e+08	1.353383e+07	1.353383e+07
-2.800000e-01	-2.100000e-01	3.908444e+07	6.280353e+06	6.280353e+06
-2.100000e-01	-1.400000e-01	4.510631e+06	1.186957e+06	1.186957e+06
-1.400000e-01	-7.000000e-02	1.132776e+05	1.787507e+05	1.787507e+05
-7.000000e-02	0.000000e+00	0.000000e+00	0.000000e+00	0.000000e+00
# END HISTO1D

