# BEGIN PLOT
LegendOnly=/zj_ps_nlo_mer_mur2_muf1_R4.yoda/PAPER_FIN_R4/SD_l10_pT_186_254
DrawOnly=/zj_ps_nlo_mer_mur2_muf1_R4.yoda/PAPER_FIN_R4/SD_l10_pT_186_254
Legend=1
LogY=1
# END PLOT

# BEGIN HISTO1D /zj_ps_nlo_mer_mur2_muf1_R4.yoda/PAPER_FIN_R4/SD_l10_pT_186_254
LineColor=red
LineStyle=solid
Path=/zj_ps_nlo_mer_mur2_muf1_R4.yoda/PAPER_FIN_R4/SD_l10_pT_186_254
Title=zj_ps_nlo_mer_mur2_muf1_R4
XLabel=~
YLabel=~
# xlow	 xhigh	 val	 errminus	 errplus
-7.000000e+00	-6.930000e+00	0.000000e+00	0.000000e+00	0.000000e+00
-6.930000e+00	-6.860000e+00	1.293693e+10	1.565128e+08	1.565128e+08
-6.860000e+00	-6.790000e+00	0.000000e+00	0.000000e+00	0.000000e+00
-6.790000e+00	-6.720000e+00	0.000000e+00	0.000000e+00	0.000000e+00
-6.720000e+00	-6.650000e+00	0.000000e+00	0.000000e+00	0.000000e+00
-6.650000e+00	-6.580000e+00	0.000000e+00	0.000000e+00	0.000000e+00
-6.580000e+00	-6.510000e+00	0.000000e+00	0.000000e+00	0.000000e+00
-6.510000e+00	-6.440000e+00	0.000000e+00	0.000000e+00	0.000000e+00
-6.440000e+00	-6.370000e+00	0.000000e+00	0.000000e+00	0.000000e+00
-6.370000e+00	-6.300000e+00	0.000000e+00	0.000000e+00	0.000000e+00
-6.300000e+00	-6.230000e+00	0.000000e+00	0.000000e+00	0.000000e+00
-6.230000e+00	-6.160000e+00	0.000000e+00	0.000000e+00	0.000000e+00
-6.160000e+00	-6.090000e+00	0.000000e+00	0.000000e+00	0.000000e+00
-6.090000e+00	-6.020000e+00	0.000000e+00	0.000000e+00	0.000000e+00
-6.020000e+00	-5.950000e+00	0.000000e+00	0.000000e+00	0.000000e+00
-5.950000e+00	-5.880000e+00	0.000000e+00	0.000000e+00	0.000000e+00
-5.880000e+00	-5.810000e+00	0.000000e+00	0.000000e+00	0.000000e+00
-5.810000e+00	-5.740000e+00	0.000000e+00	0.000000e+00	0.000000e+00
-5.740000e+00	-5.670000e+00	0.000000e+00	0.000000e+00	0.000000e+00
-5.670000e+00	-5.600000e+00	0.000000e+00	0.000000e+00	0.000000e+00
-5.600000e+00	-5.530000e+00	0.000000e+00	0.000000e+00	0.000000e+00
-5.530000e+00	-5.460000e+00	0.000000e+00	0.000000e+00	0.000000e+00
-5.460000e+00	-5.390000e+00	0.000000e+00	0.000000e+00	0.000000e+00
-5.390000e+00	-5.320000e+00	0.000000e+00	0.000000e+00	0.000000e+00
-5.320000e+00	-5.250000e+00	0.000000e+00	0.000000e+00	0.000000e+00
-5.250000e+00	-5.180000e+00	0.000000e+00	0.000000e+00	0.000000e+00
-5.180000e+00	-5.110000e+00	0.000000e+00	0.000000e+00	0.000000e+00
-5.110000e+00	-5.040000e+00	0.000000e+00	0.000000e+00	0.000000e+00
-5.040000e+00	-4.970000e+00	0.000000e+00	0.000000e+00	0.000000e+00
-4.970000e+00	-4.900000e+00	-3.535813e-01	3.535812e-01	3.535812e-01
-4.900000e+00	-4.830000e+00	0.000000e+00	0.000000e+00	0.000000e+00
-4.830000e+00	-4.760000e+00	0.000000e+00	0.000000e+00	0.000000e+00
-4.760000e+00	-4.690000e+00	1.845433e-02	1.845432e-02	1.845432e-02
-4.690000e+00	-4.620000e+00	3.858921e+02	3.858987e+02	3.858987e+02
-4.620000e+00	-4.550000e+00	3.950410e+03	3.860827e+03	3.860827e+03
-4.550000e+00	-4.480000e+00	0.000000e+00	0.000000e+00	0.000000e+00
-4.480000e+00	-4.410000e+00	-5.684733e+01	5.245474e+01	5.245474e+01
-4.410000e+00	-4.340000e+00	1.275138e+03	1.062848e+03	1.062848e+03
-4.340000e+00	-4.270000e+00	-1.437933e-02	1.437932e-02	1.437932e-02
-4.270000e+00	-4.200000e+00	-1.337523e+02	1.337715e+02	1.337715e+02
-4.200000e+00	-4.130000e+00	-5.747697e+02	5.746429e+02	5.746429e+02
-4.130000e+00	-4.060000e+00	3.846350e+05	3.846540e+05	3.846540e+05
-4.060000e+00	-3.990000e+00	-5.353587e+05	5.948332e+05	5.948332e+05
-3.990000e+00	-3.920000e+00	-6.190721e+03	7.490085e+03	7.490085e+03
-3.920000e+00	-3.850000e+00	1.324621e+03	8.406490e+03	8.406490e+03
-3.850000e+00	-3.780000e+00	3.720543e+05	3.536875e+05	3.536875e+05
-3.780000e+00	-3.710000e+00	3.100924e+04	2.370484e+04	2.370484e+04
-3.710000e+00	-3.640000e+00	1.507611e+03	4.506675e+03	4.506675e+03
-3.640000e+00	-3.570000e+00	-8.745104e+05	7.274855e+05	7.274855e+05
-3.570000e+00	-3.500000e+00	1.335296e+06	8.289663e+05	8.289663e+05
-3.500000e+00	-3.430000e+00	-2.225433e+04	2.181271e+04	2.181271e+04
-3.430000e+00	-3.360000e+00	2.439189e+06	2.088099e+06	2.088099e+06
-3.360000e+00	-3.290000e+00	8.012539e+05	6.033534e+05	6.033534e+05
-3.290000e+00	-3.220000e+00	1.207947e+06	5.472859e+05	5.472859e+05
-3.220000e+00	-3.150000e+00	-3.734800e+05	3.828795e+05	3.828795e+05
-3.150000e+00	-3.080000e+00	2.224199e+05	1.811079e+06	1.811079e+06
-3.080000e+00	-3.010000e+00	7.309314e+05	1.149220e+06	1.149220e+06
-3.010000e+00	-2.940000e+00	1.033697e+06	9.838322e+05	9.838322e+05
-2.940000e+00	-2.870000e+00	5.033923e+06	2.294514e+06	2.294514e+06
-2.870000e+00	-2.800000e+00	2.804496e+05	1.928581e+06	1.928581e+06
-2.800000e+00	-2.730000e+00	1.581971e+06	1.206390e+06	1.206390e+06
-2.730000e+00	-2.660000e+00	2.986529e+06	1.192220e+06	1.192220e+06
-2.660000e+00	-2.590000e+00	3.626570e+06	4.258767e+06	4.258767e+06
-2.590000e+00	-2.520000e+00	1.449217e+07	3.142859e+06	3.142859e+06
-2.520000e+00	-2.450000e+00	9.652817e+06	2.332356e+06	2.332356e+06
-2.450000e+00	-2.380000e+00	1.787273e+07	4.297334e+06	4.297334e+06
-2.380000e+00	-2.310000e+00	6.633186e+07	4.265112e+07	4.265112e+07
-2.310000e+00	-2.240000e+00	5.159594e+07	9.275755e+06	9.275755e+06
-2.240000e+00	-2.170000e+00	5.902397e+07	9.286670e+06	9.286670e+06
-2.170000e+00	-2.100000e+00	1.138167e+08	1.003437e+07	1.003437e+07
-2.100000e+00	-2.030000e+00	1.284850e+08	2.240223e+07	2.240223e+07
-2.030000e+00	-1.960000e+00	1.914571e+08	1.755729e+07	1.755729e+07
-1.960000e+00	-1.890000e+00	3.718527e+08	2.441250e+07	2.441250e+07
-1.890000e+00	-1.820000e+00	7.366566e+08	3.379463e+07	3.379463e+07
-1.820000e+00	-1.750000e+00	1.203950e+09	5.094521e+07	5.094521e+07
-1.750000e+00	-1.680000e+00	1.513680e+09	6.781054e+07	6.781054e+07
-1.680000e+00	-1.610000e+00	2.153234e+09	7.074627e+08	7.074627e+08
-1.610000e+00	-1.540000e+00	1.471539e+09	4.809985e+07	4.809985e+07
-1.540000e+00	-1.470000e+00	1.419358e+09	4.552073e+07	4.552073e+07
-1.470000e+00	-1.400000e+00	1.424619e+09	5.495091e+07	5.495091e+07
-1.400000e+00	-1.330000e+00	1.612074e+09	5.564873e+07	5.564873e+07
-1.330000e+00	-1.260000e+00	1.554253e+09	4.706110e+07	4.706110e+07
-1.260000e+00	-1.190000e+00	1.649081e+09	6.150278e+07	6.150278e+07
-1.190000e+00	-1.120000e+00	1.537371e+09	5.321711e+07	5.321711e+07
-1.120000e+00	-1.050000e+00	1.577713e+09	8.253284e+07	8.253284e+07
-1.050000e+00	-9.800000e-01	1.761930e+09	4.788952e+07	4.788952e+07
-9.800000e-01	-9.100000e-01	1.760716e+09	7.239268e+07	7.239268e+07
-9.100000e-01	-8.400000e-01	1.754336e+09	5.342783e+07	5.342783e+07
-8.400000e-01	-7.700000e-01	1.645211e+09	6.838034e+07	6.838034e+07
-7.700000e-01	-7.000000e-01	1.553650e+09	6.637048e+07	6.637048e+07
-7.000000e-01	-6.300000e-01	1.409104e+09	6.084978e+07	6.084978e+07
-6.300000e-01	-5.600000e-01	1.261617e+09	3.928601e+07	3.928601e+07
-5.600000e-01	-4.900000e-01	1.099642e+09	3.191028e+07	3.191028e+07
-4.900000e-01	-4.200000e-01	8.292309e+08	4.646528e+07	4.646528e+07
-4.200000e-01	-3.500000e-01	5.635786e+08	2.986778e+07	2.986778e+07
-3.500000e-01	-2.800000e-01	3.231631e+08	2.480997e+07	2.480997e+07
-2.800000e-01	-2.100000e-01	1.241262e+08	2.310570e+07	2.310570e+07
-2.100000e-01	-1.400000e-01	2.066549e+07	3.648578e+06	3.648578e+06
-1.400000e-01	-7.000000e-02	3.502320e+05	4.468928e+05	4.468928e+05
-7.000000e-02	0.000000e+00	1.632887e+04	1.733434e+04	1.733434e+04
# END HISTO1D

