# BEGIN PLOT
LegendOnly=/zj_ps_nlo_mer_mur2_muf1_R4.yoda/PAPER_FIN_R4/l20_pT_186_254
DrawOnly=/zj_ps_nlo_mer_mur2_muf1_R4.yoda/PAPER_FIN_R4/l20_pT_186_254
Legend=1
LogY=1
# END PLOT

# BEGIN HISTO1D /zj_ps_nlo_mer_mur2_muf1_R4.yoda/PAPER_FIN_R4/l20_pT_186_254
LineColor=red
LineStyle=solid
Path=/zj_ps_nlo_mer_mur2_muf1_R4.yoda/PAPER_FIN_R4/l20_pT_186_254
Title=zj_ps_nlo_mer_mur2_muf1_R4
XLabel=~
YLabel=~
# xlow	 xhigh	 val	 errminus	 errplus
-7.000000e+00	-6.930000e+00	4.031959e+04	4.033965e+04	4.033965e+04
-6.930000e+00	-6.860000e+00	4.644754e+09	1.034268e+08	1.034268e+08
-6.860000e+00	-6.790000e+00	-2.584353e+03	2.402838e+03	2.402838e+03
-6.790000e+00	-6.720000e+00	9.057864e+02	7.014782e+02	7.014782e+02
-6.720000e+00	-6.650000e+00	-7.109089e+05	7.016390e+05	7.016390e+05
-6.650000e+00	-6.580000e+00	-2.967103e+03	7.626376e+03	7.626376e+03
-6.580000e+00	-6.510000e+00	-9.155874e+03	3.056287e+04	3.056287e+04
-6.510000e+00	-6.440000e+00	1.411007e+06	1.162938e+06	1.162938e+06
-6.440000e+00	-6.370000e+00	-7.931541e+04	2.214717e+05	2.214717e+05
-6.370000e+00	-6.300000e+00	8.453537e+05	1.146076e+06	1.146076e+06
-6.300000e+00	-6.230000e+00	-9.385939e+05	1.086755e+06	1.086755e+06
-6.230000e+00	-6.160000e+00	7.010974e+05	6.938766e+05	6.938766e+05
-6.160000e+00	-6.090000e+00	1.089197e+06	7.303362e+05	7.303362e+05
-6.090000e+00	-6.020000e+00	2.149074e+06	1.780414e+06	1.780414e+06
-6.020000e+00	-5.950000e+00	-1.875227e+05	1.355669e+05	1.355669e+05
-5.950000e+00	-5.880000e+00	5.843600e+05	6.296014e+05	6.296014e+05
-5.880000e+00	-5.810000e+00	9.766817e+04	6.467989e+04	6.467989e+04
-5.810000e+00	-5.740000e+00	3.524796e+04	2.512674e+05	2.512674e+05
-5.740000e+00	-5.670000e+00	6.010209e+05	4.334055e+05	4.334055e+05
-5.670000e+00	-5.600000e+00	-5.833674e+05	5.784180e+05	5.784180e+05
-5.600000e+00	-5.530000e+00	4.483907e+04	2.015602e+05	2.015602e+05
-5.530000e+00	-5.460000e+00	-1.360030e+05	3.201412e+05	3.201412e+05
-5.460000e+00	-5.390000e+00	1.992509e+05	2.263771e+06	2.263771e+06
-5.390000e+00	-5.320000e+00	3.788396e+05	2.205246e+05	2.205246e+05
-5.320000e+00	-5.250000e+00	-2.971864e+05	6.523851e+05	6.523851e+05
-5.250000e+00	-5.180000e+00	1.299220e+05	2.016443e+05	2.016443e+05
-5.180000e+00	-5.110000e+00	3.662640e+05	1.251405e+06	1.251405e+06
-5.110000e+00	-5.040000e+00	9.317450e+05	4.356931e+05	4.356931e+05
-5.040000e+00	-4.970000e+00	1.464863e+06	9.908700e+05	9.908700e+05
-4.970000e+00	-4.900000e+00	2.022850e+05	4.635154e+05	4.635154e+05
-4.900000e+00	-4.830000e+00	4.146227e+05	2.691775e+05	2.691775e+05
-4.830000e+00	-4.760000e+00	-8.899490e+05	8.435331e+05	8.435331e+05
-4.760000e+00	-4.690000e+00	-2.625701e+05	5.831965e+05	5.831965e+05
-4.690000e+00	-4.620000e+00	-9.621246e+05	1.658774e+06	1.658774e+06
-4.620000e+00	-4.550000e+00	-5.492941e+05	9.273734e+05	9.273734e+05
-4.550000e+00	-4.480000e+00	2.184811e+06	1.106738e+06	1.106738e+06
-4.480000e+00	-4.410000e+00	1.600116e+06	8.388792e+05	8.388792e+05
-4.410000e+00	-4.340000e+00	-5.972001e+06	8.317838e+06	8.317838e+06
-4.340000e+00	-4.270000e+00	-3.381454e+05	2.899162e+06	2.899162e+06
-4.270000e+00	-4.200000e+00	4.828550e+06	2.979934e+06	2.979934e+06
-4.200000e+00	-4.130000e+00	2.845503e+06	1.523545e+06	1.523545e+06
-4.130000e+00	-4.060000e+00	5.449910e+06	1.903695e+06	1.903695e+06
-4.060000e+00	-3.990000e+00	5.251964e+06	1.462487e+06	1.462487e+06
-3.990000e+00	-3.920000e+00	1.071103e+06	3.543718e+06	3.543718e+06
-3.920000e+00	-3.850000e+00	7.077156e+06	2.852519e+06	2.852519e+06
-3.850000e+00	-3.780000e+00	2.273683e+07	3.972726e+06	3.972726e+06
-3.780000e+00	-3.710000e+00	2.924151e+07	5.252807e+06	5.252807e+06
-3.710000e+00	-3.640000e+00	3.674704e+07	5.900953e+06	5.900953e+06
-3.640000e+00	-3.570000e+00	6.515494e+07	7.491644e+06	7.491644e+06
-3.570000e+00	-3.500000e+00	5.539447e+07	1.440648e+07	1.440648e+07
-3.500000e+00	-3.430000e+00	8.607083e+07	1.098269e+07	1.098269e+07
-3.430000e+00	-3.360000e+00	1.134565e+08	1.152593e+07	1.152593e+07
-3.360000e+00	-3.290000e+00	1.017165e+08	1.598784e+07	1.598784e+07
-3.290000e+00	-3.220000e+00	1.633037e+08	1.148967e+07	1.148967e+07
-3.220000e+00	-3.150000e+00	1.746581e+08	1.430833e+07	1.430833e+07
-3.150000e+00	-3.080000e+00	2.112137e+08	1.859411e+07	1.859411e+07
-3.080000e+00	-3.010000e+00	2.364514e+08	1.824457e+07	1.824457e+07
-3.010000e+00	-2.940000e+00	2.197890e+08	3.338569e+07	3.338569e+07
-2.940000e+00	-2.870000e+00	2.815767e+08	2.874400e+07	2.874400e+07
-2.870000e+00	-2.800000e+00	3.346016e+08	2.276445e+07	2.276445e+07
-2.800000e+00	-2.730000e+00	3.685027e+08	2.471671e+07	2.471671e+07
-2.730000e+00	-2.660000e+00	4.421171e+08	2.425001e+07	2.425001e+07
-2.660000e+00	-2.590000e+00	5.951954e+08	5.673245e+07	5.673245e+07
-2.590000e+00	-2.520000e+00	5.184721e+08	2.543676e+07	2.543676e+07
-2.520000e+00	-2.450000e+00	5.781994e+08	3.249114e+07	3.249114e+07
-2.450000e+00	-2.380000e+00	7.528113e+08	3.373564e+07	3.373564e+07
-2.380000e+00	-2.310000e+00	8.161096e+08	3.478289e+07	3.478289e+07
-2.310000e+00	-2.240000e+00	8.862246e+08	4.268022e+07	4.268022e+07
-2.240000e+00	-2.170000e+00	9.980571e+08	6.015753e+07	6.015753e+07
-2.170000e+00	-2.100000e+00	1.106816e+09	4.980415e+07	4.980415e+07
-2.100000e+00	-2.030000e+00	1.132142e+09	4.701248e+07	4.701248e+07
-2.030000e+00	-1.960000e+00	1.371508e+09	4.245577e+07	4.245577e+07
-1.960000e+00	-1.890000e+00	2.089120e+09	7.077714e+08	7.077714e+08
-1.890000e+00	-1.820000e+00	1.595279e+09	8.464482e+07	8.464482e+07
-1.820000e+00	-1.750000e+00	1.722559e+09	4.669847e+07	4.669847e+07
-1.750000e+00	-1.680000e+00	1.787339e+09	5.433481e+07	5.433481e+07
-1.680000e+00	-1.610000e+00	1.850697e+09	6.719818e+07	6.719818e+07
-1.610000e+00	-1.540000e+00	1.944887e+09	7.790455e+07	7.790455e+07
-1.540000e+00	-1.470000e+00	2.014233e+09	4.797274e+07	4.797274e+07
-1.470000e+00	-1.400000e+00	1.894461e+09	5.924799e+07	5.924799e+07
-1.400000e+00	-1.330000e+00	1.906471e+09	7.015433e+07	7.015433e+07
-1.330000e+00	-1.260000e+00	1.800031e+09	7.208146e+07	7.208146e+07
-1.260000e+00	-1.190000e+00	1.736093e+09	5.704662e+07	5.704662e+07
-1.190000e+00	-1.120000e+00	1.621643e+09	4.485830e+07	4.485830e+07
-1.120000e+00	-1.050000e+00	1.528551e+09	4.183103e+07	4.183103e+07
-1.050000e+00	-9.800000e-01	1.387385e+09	3.781219e+07	3.781219e+07
-9.800000e-01	-9.100000e-01	1.143329e+09	5.230335e+07	5.230335e+07
-9.100000e-01	-8.400000e-01	1.013811e+09	4.367953e+07	4.367953e+07
-8.400000e-01	-7.700000e-01	8.597451e+08	4.636719e+07	4.636719e+07
-7.700000e-01	-7.000000e-01	6.904053e+08	2.364920e+07	2.364920e+07
-7.000000e-01	-6.300000e-01	5.220167e+08	2.367871e+07	2.367871e+07
-6.300000e-01	-5.600000e-01	3.114654e+08	2.740557e+07	2.740557e+07
-5.600000e-01	-4.900000e-01	1.213688e+08	2.354281e+07	2.354281e+07
-4.900000e-01	-4.200000e-01	2.745257e+07	4.265313e+06	4.265313e+06
-4.200000e-01	-3.500000e-01	1.949436e+06	7.022571e+05	7.022571e+05
-3.500000e-01	-2.800000e-01	5.496600e+04	6.110683e+04	6.110683e+04
-2.800000e-01	-2.100000e-01	0.000000e+00	0.000000e+00	0.000000e+00
-2.100000e-01	-1.400000e-01	0.000000e+00	0.000000e+00	0.000000e+00
-1.400000e-01	-7.000000e-02	0.000000e+00	0.000000e+00	0.000000e+00
-7.000000e-02	0.000000e+00	0.000000e+00	0.000000e+00	0.000000e+00
# END HISTO1D

