# BEGIN PLOT
LegendOnly=/zj_ps_nlo_mer_mur2_muf1_R4.yoda/PAPER_FIN_R4/ch_lin_l20_pT_88_120
DrawOnly=/zj_ps_nlo_mer_mur2_muf1_R4.yoda/PAPER_FIN_R4/ch_lin_l20_pT_88_120
Legend=1
LogY=1
# END PLOT

# BEGIN HISTO1D /zj_ps_nlo_mer_mur2_muf1_R4.yoda/PAPER_FIN_R4/ch_lin_l20_pT_88_120
LineColor=red
LineStyle=solid
Path=/zj_ps_nlo_mer_mur2_muf1_R4.yoda/PAPER_FIN_R4/ch_lin_l20_pT_88_120
Title=zj_ps_nlo_mer_mur2_muf1_R4
XLabel=~
YLabel=~
# xlow	 xhigh	 val	 errminus	 errplus
0.000000e+00	5.000000e-03	2.199064e+12	1.301545e+10	1.301545e+10
5.000000e-03	1.250000e-02	5.948237e+10	1.138197e+09	1.138197e+09
1.250000e-02	2.250000e-02	4.067815e+10	1.048608e+09	1.048608e+09
2.250000e-02	3.500000e-02	2.828320e+10	6.349879e+08	6.349879e+08
3.500000e-02	5.000000e-02	1.973838e+10	4.712120e+08	4.712120e+08
5.000000e-02	7.000000e-02	1.340983e+10	3.808727e+08	3.808727e+08
7.000000e-02	9.250000e-02	9.069062e+09	3.248160e+08	3.248160e+08
9.250000e-02	1.200000e-01	5.759051e+09	2.585284e+08	2.585284e+08
1.200000e-01	1.520000e-01	4.155869e+09	1.209839e+08	1.209839e+08
1.520000e-01	1.880000e-01	2.590118e+09	1.054935e+08	1.054935e+08
1.880000e-01	2.280000e-01	1.337411e+09	5.929555e+07	5.929555e+07
2.280000e-01	1.000000e+00	2.474639e+07	1.983431e+06	1.983431e+06
# END HISTO1D

