# BEGIN PLOT
LegendOnly=/zj_ps_nlo_mer_mur2_muf1_R4.yoda/PAPER_FIN_R4/ch_SD_l10_pT_88_120
DrawOnly=/zj_ps_nlo_mer_mur2_muf1_R4.yoda/PAPER_FIN_R4/ch_SD_l10_pT_88_120
Legend=1
LogY=1
# END PLOT

# BEGIN HISTO1D /zj_ps_nlo_mer_mur2_muf1_R4.yoda/PAPER_FIN_R4/ch_SD_l10_pT_88_120
LineColor=red
LineStyle=solid
Path=/zj_ps_nlo_mer_mur2_muf1_R4.yoda/PAPER_FIN_R4/ch_SD_l10_pT_88_120
Title=zj_ps_nlo_mer_mur2_muf1_R4
XLabel=~
YLabel=~
# xlow	 xhigh	 val	 errminus	 errplus
-7.000000e+00	-6.930000e+00	0.000000e+00	0.000000e+00	0.000000e+00
-6.930000e+00	-6.860000e+00	1.616801e+11	9.400838e+08	9.400838e+08
-6.860000e+00	-6.790000e+00	0.000000e+00	0.000000e+00	0.000000e+00
-6.790000e+00	-6.720000e+00	0.000000e+00	0.000000e+00	0.000000e+00
-6.720000e+00	-6.650000e+00	0.000000e+00	0.000000e+00	0.000000e+00
-6.650000e+00	-6.580000e+00	0.000000e+00	0.000000e+00	0.000000e+00
-6.580000e+00	-6.510000e+00	0.000000e+00	0.000000e+00	0.000000e+00
-6.510000e+00	-6.440000e+00	0.000000e+00	0.000000e+00	0.000000e+00
-6.440000e+00	-6.370000e+00	0.000000e+00	0.000000e+00	0.000000e+00
-6.370000e+00	-6.300000e+00	0.000000e+00	0.000000e+00	0.000000e+00
-6.300000e+00	-6.230000e+00	0.000000e+00	0.000000e+00	0.000000e+00
-6.230000e+00	-6.160000e+00	0.000000e+00	0.000000e+00	0.000000e+00
-6.160000e+00	-6.090000e+00	0.000000e+00	0.000000e+00	0.000000e+00
-6.090000e+00	-6.020000e+00	0.000000e+00	0.000000e+00	0.000000e+00
-6.020000e+00	-5.950000e+00	0.000000e+00	0.000000e+00	0.000000e+00
-5.950000e+00	-5.880000e+00	0.000000e+00	0.000000e+00	0.000000e+00
-5.880000e+00	-5.810000e+00	0.000000e+00	0.000000e+00	0.000000e+00
-5.810000e+00	-5.740000e+00	0.000000e+00	0.000000e+00	0.000000e+00
-5.740000e+00	-5.670000e+00	0.000000e+00	0.000000e+00	0.000000e+00
-5.670000e+00	-5.600000e+00	0.000000e+00	0.000000e+00	0.000000e+00
-5.600000e+00	-5.530000e+00	0.000000e+00	0.000000e+00	0.000000e+00
-5.530000e+00	-5.460000e+00	0.000000e+00	0.000000e+00	0.000000e+00
-5.460000e+00	-5.390000e+00	0.000000e+00	0.000000e+00	0.000000e+00
-5.390000e+00	-5.320000e+00	0.000000e+00	0.000000e+00	0.000000e+00
-5.320000e+00	-5.250000e+00	0.000000e+00	0.000000e+00	0.000000e+00
-5.250000e+00	-5.180000e+00	0.000000e+00	0.000000e+00	0.000000e+00
-5.180000e+00	-5.110000e+00	0.000000e+00	0.000000e+00	0.000000e+00
-5.110000e+00	-5.040000e+00	0.000000e+00	0.000000e+00	0.000000e+00
-5.040000e+00	-4.970000e+00	0.000000e+00	0.000000e+00	0.000000e+00
-4.970000e+00	-4.900000e+00	0.000000e+00	0.000000e+00	0.000000e+00
-4.900000e+00	-4.830000e+00	0.000000e+00	0.000000e+00	0.000000e+00
-4.830000e+00	-4.760000e+00	0.000000e+00	0.000000e+00	0.000000e+00
-4.760000e+00	-4.690000e+00	0.000000e+00	0.000000e+00	0.000000e+00
-4.690000e+00	-4.620000e+00	0.000000e+00	0.000000e+00	0.000000e+00
-4.620000e+00	-4.550000e+00	0.000000e+00	0.000000e+00	0.000000e+00
-4.550000e+00	-4.480000e+00	0.000000e+00	0.000000e+00	0.000000e+00
-4.480000e+00	-4.410000e+00	0.000000e+00	0.000000e+00	0.000000e+00
-4.410000e+00	-4.340000e+00	0.000000e+00	0.000000e+00	0.000000e+00
-4.340000e+00	-4.270000e+00	0.000000e+00	0.000000e+00	0.000000e+00
-4.270000e+00	-4.200000e+00	0.000000e+00	0.000000e+00	0.000000e+00
-4.200000e+00	-4.130000e+00	5.445480e-04	5.445481e-04	5.445481e-04
-4.130000e+00	-4.060000e+00	2.477513e-01	2.521703e-01	2.521703e-01
-4.060000e+00	-3.990000e+00	4.901120e-03	4.901120e-03	4.901120e-03
-3.990000e+00	-3.920000e+00	-1.083668e+01	1.219591e+01	1.219591e+01
-3.920000e+00	-3.850000e+00	-1.317327e+02	1.498189e+02	1.498189e+02
-3.850000e+00	-3.780000e+00	6.173060e+02	6.159222e+02	6.159222e+02
-3.780000e+00	-3.710000e+00	2.134087e+06	2.146172e+06	2.146172e+06
-3.710000e+00	-3.640000e+00	-1.911389e+05	1.669795e+05	1.669795e+05
-3.640000e+00	-3.570000e+00	-4.901266e+04	4.608765e+04	4.608765e+04
-3.570000e+00	-3.500000e+00	-2.488506e+06	2.430053e+06	2.430053e+06
-3.500000e+00	-3.430000e+00	3.414721e+04	2.588772e+05	2.588772e+05
-3.430000e+00	-3.360000e+00	5.112149e+05	8.925962e+05	8.925962e+05
-3.360000e+00	-3.290000e+00	-2.786907e+06	3.279742e+06	3.279742e+06
-3.290000e+00	-3.220000e+00	9.885960e+05	1.075861e+06	1.075861e+06
-3.220000e+00	-3.150000e+00	-1.559594e+06	1.290708e+06	1.290708e+06
-3.150000e+00	-3.080000e+00	5.548729e+06	5.114489e+06	5.114489e+06
-3.080000e+00	-3.010000e+00	-2.954871e+06	3.241138e+06	3.241138e+06
-3.010000e+00	-2.940000e+00	5.528343e+06	8.406489e+06	8.406489e+06
-2.940000e+00	-2.870000e+00	2.666063e+06	2.896955e+06	2.896955e+06
-2.870000e+00	-2.800000e+00	-3.832216e+06	2.088900e+06	2.088900e+06
-2.800000e+00	-2.730000e+00	-1.178017e+06	2.516043e+06	2.516043e+06
-2.730000e+00	-2.660000e+00	4.528927e+06	5.995621e+06	5.995621e+06
-2.660000e+00	-2.590000e+00	-3.987277e+05	4.585895e+06	4.585895e+06
-2.590000e+00	-2.520000e+00	-1.204640e+07	1.239211e+07	1.239211e+07
-2.520000e+00	-2.450000e+00	8.240470e+06	6.746552e+06	6.746552e+06
-2.450000e+00	-2.380000e+00	1.853204e+06	3.684043e+06	3.684043e+06
-2.380000e+00	-2.310000e+00	4.841673e+06	7.506244e+06	7.506244e+06
-2.310000e+00	-2.240000e+00	3.910026e+06	5.906285e+06	5.906285e+06
-2.240000e+00	-2.170000e+00	1.103450e+07	1.796641e+07	1.796641e+07
-2.170000e+00	-2.100000e+00	1.982764e+07	1.227621e+07	1.227621e+07
-2.100000e+00	-2.030000e+00	1.571356e+07	7.763524e+06	7.763524e+06
-2.030000e+00	-1.960000e+00	4.626961e+07	1.041072e+07	1.041072e+07
-1.960000e+00	-1.890000e+00	1.069856e+08	1.270273e+07	1.270273e+07
-1.890000e+00	-1.820000e+00	1.754373e+08	2.018587e+07	2.018587e+07
-1.820000e+00	-1.750000e+00	2.913911e+08	1.975571e+07	1.975571e+07
-1.750000e+00	-1.680000e+00	3.998004e+08	2.938135e+07	2.938135e+07
-1.680000e+00	-1.610000e+00	5.020569e+08	3.235030e+07	3.235030e+07
-1.610000e+00	-1.540000e+00	6.977779e+08	3.237097e+07	3.237097e+07
-1.540000e+00	-1.470000e+00	8.864473e+08	3.611594e+07	3.611594e+07
-1.470000e+00	-1.400000e+00	1.015860e+09	4.649341e+07	4.649341e+07
-1.400000e+00	-1.330000e+00	1.279004e+09	4.763342e+07	4.763342e+07
-1.330000e+00	-1.260000e+00	1.435796e+09	7.452070e+07	7.452070e+07
-1.260000e+00	-1.190000e+00	1.579733e+09	5.367443e+07	5.367443e+07
-1.190000e+00	-1.120000e+00	1.820690e+09	7.422518e+07	7.422518e+07
-1.120000e+00	-1.050000e+00	2.018747e+09	7.330459e+07	7.330459e+07
-1.050000e+00	-9.800000e-01	2.304089e+09	7.859394e+07	7.859394e+07
-9.800000e-01	-9.100000e-01	2.421453e+09	7.144821e+07	7.144821e+07
-9.100000e-01	-8.400000e-01	2.243584e+09	6.801943e+07	6.801943e+07
-8.400000e-01	-7.700000e-01	2.228114e+09	7.079838e+07	7.079838e+07
-7.700000e-01	-7.000000e-01	2.134130e+09	8.005623e+07	8.005623e+07
-7.000000e-01	-6.300000e-01	1.899407e+09	9.944482e+07	9.944482e+07
-6.300000e-01	-5.600000e-01	1.532840e+09	7.940346e+07	7.940346e+07
-5.600000e-01	-4.900000e-01	1.268628e+09	7.016121e+07	7.016121e+07
-4.900000e-01	-4.200000e-01	9.568444e+08	4.226018e+07	4.226018e+07
-4.200000e-01	-3.500000e-01	5.626669e+08	2.963246e+07	2.963246e+07
-3.500000e-01	-2.800000e-01	2.273804e+08	1.788694e+07	1.788694e+07
-2.800000e-01	-2.100000e-01	3.829114e+07	5.528439e+06	5.528439e+06
-2.100000e-01	-1.400000e-01	4.932361e+06	2.257876e+06	2.257876e+06
-1.400000e-01	-7.000000e-02	1.502761e+05	9.145639e+04	9.145639e+04
-7.000000e-02	0.000000e+00	0.000000e+00	0.000000e+00	0.000000e+00
# END HISTO1D

