# BEGIN PLOT
LegendOnly=/zj_ps_nlo_mer_mur0.5_muf0.5_R4.yoda/PAPER_FIN_R4/ch_SD_l05_pT_88_120
DrawOnly=/zj_ps_nlo_mer_mur0.5_muf0.5_R4.yoda/PAPER_FIN_R4/ch_SD_l05_pT_88_120
Legend=1
LogY=1
# END PLOT

# BEGIN HISTO1D /zj_ps_nlo_mer_mur0.5_muf0.5_R4.yoda/PAPER_FIN_R4/ch_SD_l05_pT_88_120
LineColor=red
LineStyle=solid
Path=/zj_ps_nlo_mer_mur0.5_muf0.5_R4.yoda/PAPER_FIN_R4/ch_SD_l05_pT_88_120
Title=zj_ps_nlo_mer_mur0.5_muf0.5_R4
XLabel=~
YLabel=~
# xlow	 xhigh	 val	 errminus	 errplus
-7.000000e+00	-6.930000e+00	0.000000e+00	0.000000e+00	0.000000e+00
-6.930000e+00	-6.860000e+00	1.906639e+11	8.474532e+09	8.474532e+09
-6.860000e+00	-6.790000e+00	0.000000e+00	0.000000e+00	0.000000e+00
-6.790000e+00	-6.720000e+00	0.000000e+00	0.000000e+00	0.000000e+00
-6.720000e+00	-6.650000e+00	0.000000e+00	0.000000e+00	0.000000e+00
-6.650000e+00	-6.580000e+00	0.000000e+00	0.000000e+00	0.000000e+00
-6.580000e+00	-6.510000e+00	0.000000e+00	0.000000e+00	0.000000e+00
-6.510000e+00	-6.440000e+00	0.000000e+00	0.000000e+00	0.000000e+00
-6.440000e+00	-6.370000e+00	0.000000e+00	0.000000e+00	0.000000e+00
-6.370000e+00	-6.300000e+00	0.000000e+00	0.000000e+00	0.000000e+00
-6.300000e+00	-6.230000e+00	0.000000e+00	0.000000e+00	0.000000e+00
-6.230000e+00	-6.160000e+00	0.000000e+00	0.000000e+00	0.000000e+00
-6.160000e+00	-6.090000e+00	0.000000e+00	0.000000e+00	0.000000e+00
-6.090000e+00	-6.020000e+00	0.000000e+00	0.000000e+00	0.000000e+00
-6.020000e+00	-5.950000e+00	0.000000e+00	0.000000e+00	0.000000e+00
-5.950000e+00	-5.880000e+00	0.000000e+00	0.000000e+00	0.000000e+00
-5.880000e+00	-5.810000e+00	0.000000e+00	0.000000e+00	0.000000e+00
-5.810000e+00	-5.740000e+00	0.000000e+00	0.000000e+00	0.000000e+00
-5.740000e+00	-5.670000e+00	0.000000e+00	0.000000e+00	0.000000e+00
-5.670000e+00	-5.600000e+00	0.000000e+00	0.000000e+00	0.000000e+00
-5.600000e+00	-5.530000e+00	0.000000e+00	0.000000e+00	0.000000e+00
-5.530000e+00	-5.460000e+00	0.000000e+00	0.000000e+00	0.000000e+00
-5.460000e+00	-5.390000e+00	0.000000e+00	0.000000e+00	0.000000e+00
-5.390000e+00	-5.320000e+00	0.000000e+00	0.000000e+00	0.000000e+00
-5.320000e+00	-5.250000e+00	0.000000e+00	0.000000e+00	0.000000e+00
-5.250000e+00	-5.180000e+00	0.000000e+00	0.000000e+00	0.000000e+00
-5.180000e+00	-5.110000e+00	0.000000e+00	0.000000e+00	0.000000e+00
-5.110000e+00	-5.040000e+00	0.000000e+00	0.000000e+00	0.000000e+00
-5.040000e+00	-4.970000e+00	0.000000e+00	0.000000e+00	0.000000e+00
-4.970000e+00	-4.900000e+00	0.000000e+00	0.000000e+00	0.000000e+00
-4.900000e+00	-4.830000e+00	0.000000e+00	0.000000e+00	0.000000e+00
-4.830000e+00	-4.760000e+00	0.000000e+00	0.000000e+00	0.000000e+00
-4.760000e+00	-4.690000e+00	0.000000e+00	0.000000e+00	0.000000e+00
-4.690000e+00	-4.620000e+00	0.000000e+00	0.000000e+00	0.000000e+00
-4.620000e+00	-4.550000e+00	0.000000e+00	0.000000e+00	0.000000e+00
-4.550000e+00	-4.480000e+00	0.000000e+00	0.000000e+00	0.000000e+00
-4.480000e+00	-4.410000e+00	0.000000e+00	0.000000e+00	0.000000e+00
-4.410000e+00	-4.340000e+00	0.000000e+00	0.000000e+00	0.000000e+00
-4.340000e+00	-4.270000e+00	0.000000e+00	0.000000e+00	0.000000e+00
-4.270000e+00	-4.200000e+00	0.000000e+00	0.000000e+00	0.000000e+00
-4.200000e+00	-4.130000e+00	0.000000e+00	0.000000e+00	0.000000e+00
-4.130000e+00	-4.060000e+00	0.000000e+00	0.000000e+00	0.000000e+00
-4.060000e+00	-3.990000e+00	0.000000e+00	0.000000e+00	0.000000e+00
-3.990000e+00	-3.920000e+00	0.000000e+00	0.000000e+00	0.000000e+00
-3.920000e+00	-3.850000e+00	0.000000e+00	0.000000e+00	0.000000e+00
-3.850000e+00	-3.780000e+00	0.000000e+00	0.000000e+00	0.000000e+00
-3.780000e+00	-3.710000e+00	0.000000e+00	0.000000e+00	0.000000e+00
-3.710000e+00	-3.640000e+00	0.000000e+00	0.000000e+00	0.000000e+00
-3.640000e+00	-3.570000e+00	0.000000e+00	0.000000e+00	0.000000e+00
-3.570000e+00	-3.500000e+00	0.000000e+00	0.000000e+00	0.000000e+00
-3.500000e+00	-3.430000e+00	0.000000e+00	0.000000e+00	0.000000e+00
-3.430000e+00	-3.360000e+00	0.000000e+00	0.000000e+00	0.000000e+00
-3.360000e+00	-3.290000e+00	0.000000e+00	0.000000e+00	0.000000e+00
-3.290000e+00	-3.220000e+00	0.000000e+00	0.000000e+00	0.000000e+00
-3.220000e+00	-3.150000e+00	0.000000e+00	0.000000e+00	0.000000e+00
-3.150000e+00	-3.080000e+00	0.000000e+00	0.000000e+00	0.000000e+00
-3.080000e+00	-3.010000e+00	0.000000e+00	0.000000e+00	0.000000e+00
-3.010000e+00	-2.940000e+00	0.000000e+00	0.000000e+00	0.000000e+00
-2.940000e+00	-2.870000e+00	0.000000e+00	0.000000e+00	0.000000e+00
-2.870000e+00	-2.800000e+00	0.000000e+00	0.000000e+00	0.000000e+00
-2.800000e+00	-2.730000e+00	0.000000e+00	0.000000e+00	0.000000e+00
-2.730000e+00	-2.660000e+00	0.000000e+00	0.000000e+00	0.000000e+00
-2.660000e+00	-2.590000e+00	0.000000e+00	0.000000e+00	0.000000e+00
-2.590000e+00	-2.520000e+00	0.000000e+00	0.000000e+00	0.000000e+00
-2.520000e+00	-2.450000e+00	3.674091e-01	3.780017e-01	3.780017e-01
-2.450000e+00	-2.380000e+00	2.896210e+01	2.894192e+01	2.894192e+01
-2.380000e+00	-2.310000e+00	-5.317189e+04	5.318299e+04	5.318299e+04
-2.310000e+00	-2.240000e+00	7.634974e+06	1.144496e+07	1.144496e+07
-2.240000e+00	-2.170000e+00	3.435509e+05	2.164355e+05	2.164355e+05
-2.170000e+00	-2.100000e+00	1.571210e+06	1.402960e+06	1.402960e+06
-2.100000e+00	-2.030000e+00	1.534110e+07	8.710323e+06	8.710323e+06
-2.030000e+00	-1.960000e+00	3.346154e+06	5.845611e+06	5.845611e+06
-1.960000e+00	-1.890000e+00	3.441873e+07	2.396919e+07	2.396919e+07
-1.890000e+00	-1.820000e+00	1.694857e+07	1.068040e+07	1.068040e+07
-1.820000e+00	-1.750000e+00	1.663520e+07	7.823746e+06	7.823746e+06
-1.750000e+00	-1.680000e+00	3.420627e+07	1.081865e+07	1.081865e+07
-1.680000e+00	-1.610000e+00	3.912806e+07	2.834433e+07	2.834433e+07
-1.610000e+00	-1.540000e+00	3.991237e+07	1.695769e+07	1.695769e+07
-1.540000e+00	-1.470000e+00	1.261848e+08	2.525980e+07	2.525980e+07
-1.470000e+00	-1.400000e+00	1.325272e+08	4.648840e+07	4.648840e+07
-1.400000e+00	-1.330000e+00	3.846481e+08	4.934303e+07	4.934303e+07
-1.330000e+00	-1.260000e+00	6.087660e+08	4.518513e+07	4.518513e+07
-1.260000e+00	-1.190000e+00	8.905920e+08	8.660201e+07	8.660201e+07
-1.190000e+00	-1.120000e+00	1.635514e+09	2.972653e+08	2.972653e+08
-1.120000e+00	-1.050000e+00	1.675740e+09	1.023327e+08	1.023327e+08
-1.050000e+00	-9.800000e-01	2.296573e+09	1.526587e+08	1.526587e+08
-9.800000e-01	-9.100000e-01	3.187907e+09	1.296712e+08	1.296712e+08
-9.100000e-01	-8.400000e-01	2.666063e+09	5.810213e+08	5.810213e+08
-8.400000e-01	-7.700000e-01	3.735294e+09	2.199856e+08	2.199856e+08
-7.700000e-01	-7.000000e-01	3.754330e+09	1.380392e+08	1.380392e+08
-7.000000e-01	-6.300000e-01	3.921616e+09	2.087487e+08	2.087487e+08
-6.300000e-01	-5.600000e-01	3.401346e+09	1.678449e+08	1.678449e+08
-5.600000e-01	-4.900000e-01	2.854710e+09	1.776987e+08	1.776987e+08
-4.900000e-01	-4.200000e-01	2.346379e+09	1.719556e+08	1.719556e+08
-4.200000e-01	-3.500000e-01	1.716984e+09	9.308805e+07	9.308805e+07
-3.500000e-01	-2.800000e-01	6.994437e+08	5.999548e+07	5.999548e+07
-2.800000e-01	-2.100000e-01	1.847370e+08	1.967508e+07	1.967508e+07
-2.100000e-01	-1.400000e-01	1.096884e+07	4.985858e+06	4.985858e+06
-1.400000e-01	-7.000000e-02	6.052343e+04	8.655181e+04	8.655181e+04
-7.000000e-02	0.000000e+00	0.000000e+00	0.000000e+00	0.000000e+00
# END HISTO1D

