# BEGIN PLOT
LegendOnly=/merge.yoda/CMS_2018_PAS_SMP_18_QGX_DIJET/d22-x10-y05
DrawOnly=/merge.yoda/CMS_2018_PAS_SMP_18_QGX_DIJET/d22-x10-y05
Legend=1
LogY=1
# END PLOT

# BEGIN HISTO1D /merge.yoda/CMS_2018_PAS_SMP_18_QGX_DIJET/d22-x10-y05
LineColor=red
LineStyle=solid
Path=/merge.yoda/CMS_2018_PAS_SMP_18_QGX_DIJET/d22-x10-y05
Title=merge
XLabel=~
YLabel=~
# xlow	 xhigh	 val	 errminus	 errplus
0.000000e+00	2.500000e-03	3.510792e+08	3.747422e+05	3.747422e+05
2.500000e-03	5.000000e-03	1.243344e+08	2.230107e+05	2.230107e+05
5.000000e-03	7.500000e-03	7.246440e+07	1.702520e+05	1.702520e+05
7.500000e-03	1.250000e-02	4.587600e+07	9.578726e+04	9.578726e+04
1.250000e-02	2.000000e-02	2.907973e+07	6.226795e+04	6.226795e+04
2.000000e-02	3.250000e-02	1.928800e+07	3.928155e+04	3.928155e+04
3.250000e-02	5.000000e-02	1.361149e+07	2.788905e+04	2.788905e+04
5.000000e-02	7.750000e-02	1.068073e+07	1.970761e+04	1.970761e+04
7.750000e-02	1.150000e-01	8.865947e+06	1.537613e+04	1.537613e+04
1.150000e-01	1.600000e-01	6.682867e+06	1.218639e+04	1.218639e+04
1.600000e-01	2.100000e-01	4.259100e+06	9.229410e+03	9.229410e+03
2.100000e-01	1.000000e+00	2.176316e+05	5.248648e+02	5.248648e+02
# END HISTO1D

