# BEGIN PLOT
LegendOnly=/merge.yoda/CMS_2018_PAS_SMP_18_QGX_DIJET/d24-x04-y06
DrawOnly=/merge.yoda/CMS_2018_PAS_SMP_18_QGX_DIJET/d24-x04-y06
Legend=1
LogY=1
# END PLOT

# BEGIN HISTO1D /merge.yoda/CMS_2018_PAS_SMP_18_QGX_DIJET/d24-x04-y06
LineColor=red
LineStyle=solid
Path=/merge.yoda/CMS_2018_PAS_SMP_18_QGX_DIJET/d24-x04-y06
Title=merge
XLabel=~
YLabel=~
# xlow	 xhigh	 val	 errminus	 errplus
0.000000e+00	2.000000e-02	2.400539e+08	1.095568e+05	1.095568e+05
2.000000e-02	5.000000e-02	1.889165e+08	7.935500e+04	7.935500e+04
5.000000e-02	9.500000e-02	8.646184e+07	4.383348e+04	4.383348e+04
9.500000e-02	1.470000e-01	5.944033e+07	3.380951e+04	3.380951e+04
1.470000e-01	2.250000e-01	4.280622e+07	2.342643e+04	2.342643e+04
2.250000e-01	3.070000e-01	2.563846e+07	1.768231e+04	1.768231e+04
3.070000e-01	3.880000e-01	1.434904e+07	1.330972e+04	1.330972e+04
3.880000e-01	4.680000e-01	7.443550e+06	9.645951e+03	9.645951e+03
4.680000e-01	1.000000e+00	6.513853e+05	1.106530e+03	1.106530e+03
# END HISTO1D

