# BEGIN PLOT
LegendOnly=/merge.yoda/CMS_2018_PAS_SMP_18_QGX_DIJET/d14-x07-y07
DrawOnly=/merge.yoda/CMS_2018_PAS_SMP_18_QGX_DIJET/d14-x07-y07
Legend=1
LogY=1
# END PLOT

# BEGIN HISTO1D /merge.yoda/CMS_2018_PAS_SMP_18_QGX_DIJET/d14-x07-y07
LineColor=red
LineStyle=solid
Path=/merge.yoda/CMS_2018_PAS_SMP_18_QGX_DIJET/d14-x07-y07
Title=merge
XLabel=~
YLabel=~
# xlow	 xhigh	 val	 errminus	 errplus
0.000000e+00	7.000000e-02	5.356457e+06	8.747618e+03	8.747618e+03
7.000000e-02	9.000000e-02	3.614100e+07	4.250941e+04	4.250941e+04
9.000000e-02	1.200000e-01	4.506053e+07	3.875587e+04	3.875587e+04
1.200000e-01	1.600000e-01	4.270215e+07	3.267344e+04	3.267344e+04
1.600000e-01	2.100000e-01	3.373248e+07	2.597402e+04	2.597402e+04
2.100000e-01	2.700000e-01	2.380503e+07	1.991860e+04	1.991860e+04
2.700000e-01	3.500000e-01	1.495865e+07	1.367418e+04	1.367418e+04
3.500000e-01	4.400000e-01	8.716656e+06	9.841328e+03	9.841328e+03
4.400000e-01	5.400000e-01	4.701840e+06	6.856996e+03	6.856996e+03
5.400000e-01	6.600000e-01	2.381758e+06	4.455108e+03	4.455108e+03
6.600000e-01	1.000000e+00	5.288176e+05	1.247135e+03	1.247135e+03
# END HISTO1D

