# BEGIN PLOT
LegendOnly=/merge.yoda/CMS_2018_PAS_SMP_18_QGX_DIJET_PL/d24-x04-y06
DrawOnly=/merge.yoda/CMS_2018_PAS_SMP_18_QGX_DIJET_PL/d24-x04-y06
Legend=1
LogY=1
# END PLOT

# BEGIN HISTO1D /merge.yoda/CMS_2018_PAS_SMP_18_QGX_DIJET_PL/d24-x04-y06
LineColor=red
LineStyle=solid
Path=/merge.yoda/CMS_2018_PAS_SMP_18_QGX_DIJET_PL/d24-x04-y06
Title=merge
XLabel=~
YLabel=~
yodamerge_scale=1.00000000e+00
# xlow	 xhigh	 val	 errminus	 errplus
0.000000e+00	2.000000e-02	0.000000e+00	0.000000e+00	0.000000e+00
2.000000e-02	5.000000e-02	0.000000e+00	0.000000e+00	0.000000e+00
5.000000e-02	9.500000e-02	0.000000e+00	0.000000e+00	0.000000e+00
9.500000e-02	1.470000e-01	0.000000e+00	0.000000e+00	0.000000e+00
1.470000e-01	2.250000e-01	0.000000e+00	0.000000e+00	0.000000e+00
2.250000e-01	3.070000e-01	0.000000e+00	0.000000e+00	0.000000e+00
3.070000e-01	3.880000e-01	0.000000e+00	0.000000e+00	0.000000e+00
3.880000e-01	4.680000e-01	0.000000e+00	0.000000e+00	0.000000e+00
4.680000e-01	1.000000e+00	0.000000e+00	0.000000e+00	0.000000e+00
# END HISTO1D

