# BEGIN PLOT
LegendOnly=/merge.yoda/CMS_2018_PAS_SMP_18_QGX_DIJET/d21-x06-y09
DrawOnly=/merge.yoda/CMS_2018_PAS_SMP_18_QGX_DIJET/d21-x06-y09
Legend=1
LogY=1
# END PLOT

# BEGIN HISTO1D /merge.yoda/CMS_2018_PAS_SMP_18_QGX_DIJET/d21-x06-y09
LineColor=red
LineStyle=solid
Path=/merge.yoda/CMS_2018_PAS_SMP_18_QGX_DIJET/d21-x06-y09
Title=merge
XLabel=~
YLabel=~
# xlow	 xhigh	 val	 errminus	 errplus
-5.000000e-01	3.500000e+00	4.422500e+02	1.051487e+01	1.051487e+01
3.500000e+00	5.500000e+00	4.844500e+03	4.921636e+01	4.921636e+01
5.500000e+00	7.500000e+00	1.461000e+04	8.546929e+01	8.546929e+01
7.500000e+00	9.500000e+00	2.791050e+04	1.181323e+02	1.181323e+02
9.500000e+00	1.150000e+01	4.002150e+04	1.414594e+02	1.414594e+02
1.150000e+01	1.350000e+01	4.832550e+04	1.554437e+02	1.554437e+02
1.350000e+01	1.750000e+01	5.809075e+04	1.205101e+02	1.205101e+02
1.750000e+01	2.150000e+01	6.576975e+04	1.282281e+02	1.282281e+02
2.150000e+01	2.550000e+01	6.369325e+04	1.261876e+02	1.261876e+02
2.550000e+01	2.950000e+01	5.342525e+04	1.155695e+02	1.155695e+02
2.950000e+01	3.550000e+01	3.596200e+04	7.741877e+01	7.741877e+01
3.550000e+01	4.150000e+01	1.766367e+04	5.425813e+01	5.425813e+01
4.150000e+01	5.950000e+01	3.134000e+03	1.319512e+01	1.319512e+01
5.950000e+01	9.950000e+01	1.742500e+01	6.600189e-01	6.600189e-01
# END HISTO1D

