# BEGIN PLOT
LegendOnly=/merge.yoda/CMS_2018_PAS_SMP_18_QGX_DIJET/d11-x07-y08
DrawOnly=/merge.yoda/CMS_2018_PAS_SMP_18_QGX_DIJET/d11-x07-y08
Legend=1
LogY=1
# END PLOT

# BEGIN HISTO1D /merge.yoda/CMS_2018_PAS_SMP_18_QGX_DIJET/d11-x07-y08
LineColor=red
LineStyle=solid
Path=/merge.yoda/CMS_2018_PAS_SMP_18_QGX_DIJET/d11-x07-y08
Title=merge
XLabel=~
YLabel=~
# xlow	 xhigh	 val	 errminus	 errplus
0.000000e+00	7.000000e-02	3.764443e+06	7.333332e+03	7.333332e+03
7.000000e-02	9.000000e-02	2.067945e+07	3.215544e+04	3.215544e+04
9.000000e-02	1.200000e-01	2.232877e+07	2.728172e+04	2.728172e+04
1.200000e-01	1.500000e-01	1.827870e+07	2.468380e+04	2.468380e+04
1.500000e-01	1.900000e-01	1.301330e+07	1.803698e+04	1.803698e+04
1.900000e-01	2.400000e-01	8.353740e+06	1.292574e+04	1.292574e+04
2.400000e-01	3.100000e-01	4.775343e+06	8.259491e+03	8.259491e+03
3.100000e-01	4.000000e-01	2.359933e+06	5.120692e+03	5.120692e+03
4.000000e-01	5.200000e-01	1.022733e+06	2.919380e+03	2.919380e+03
5.200000e-01	6.900000e-01	3.595529e+05	1.454310e+03	1.454310e+03
6.900000e-01	1.000000e+00	8.251935e+04	5.159375e+02	5.159375e+02
# END HISTO1D

