# BEGIN PLOT
LegendOnly=/merge.yoda/CMS_2018_PAS_SMP_18_QGX_DIJET_PL/d11-x06-y10
DrawOnly=/merge.yoda/CMS_2018_PAS_SMP_18_QGX_DIJET_PL/d11-x06-y10
Legend=1
LogY=1
# END PLOT

# BEGIN HISTO1D /merge.yoda/CMS_2018_PAS_SMP_18_QGX_DIJET_PL/d11-x06-y10
LineColor=red
LineStyle=solid
Path=/merge.yoda/CMS_2018_PAS_SMP_18_QGX_DIJET_PL/d11-x06-y10
Title=merge
XLabel=~
YLabel=~
yodamerge_scale=1.00000000e+00
# xlow	 xhigh	 val	 errminus	 errplus
-5.000000e-01	3.500000e+00	0.000000e+00	0.000000e+00	0.000000e+00
3.500000e+00	5.500000e+00	0.000000e+00	0.000000e+00	0.000000e+00
5.500000e+00	7.500000e+00	0.000000e+00	0.000000e+00	0.000000e+00
7.500000e+00	9.500000e+00	0.000000e+00	0.000000e+00	0.000000e+00
9.500000e+00	1.150000e+01	0.000000e+00	0.000000e+00	0.000000e+00
1.150000e+01	1.350000e+01	0.000000e+00	0.000000e+00	0.000000e+00
1.350000e+01	1.750000e+01	0.000000e+00	0.000000e+00	0.000000e+00
1.750000e+01	2.150000e+01	0.000000e+00	0.000000e+00	0.000000e+00
2.150000e+01	2.550000e+01	0.000000e+00	0.000000e+00	0.000000e+00
2.550000e+01	2.950000e+01	0.000000e+00	0.000000e+00	0.000000e+00
2.950000e+01	3.550000e+01	0.000000e+00	0.000000e+00	0.000000e+00
3.550000e+01	4.150000e+01	0.000000e+00	0.000000e+00	0.000000e+00
4.150000e+01	5.950000e+01	0.000000e+00	0.000000e+00	0.000000e+00
5.950000e+01	9.950000e+01	0.000000e+00	0.000000e+00	0.000000e+00
# END HISTO1D

