# BEGIN PLOT
LegendOnly=/merge.yoda/CMS_2018_PAS_SMP_18_QGX_DIJET/d23-x05-y06
DrawOnly=/merge.yoda/CMS_2018_PAS_SMP_18_QGX_DIJET/d23-x05-y06
Legend=1
LogY=1
# END PLOT

# BEGIN HISTO1D /merge.yoda/CMS_2018_PAS_SMP_18_QGX_DIJET/d23-x05-y06
LineColor=red
LineStyle=solid
Path=/merge.yoda/CMS_2018_PAS_SMP_18_QGX_DIJET/d23-x05-y06
Title=merge
XLabel=~
YLabel=~
# xlow	 xhigh	 val	 errminus	 errplus
0.000000e+00	5.000000e-02	2.595134e+08	7.204351e+04	7.204351e+04
5.000000e-02	9.000000e-02	1.542363e+08	6.209594e+04	6.209594e+04
9.000000e-02	1.500000e-01	6.012308e+07	3.165520e+04	3.165520e+04
1.500000e-01	2.050000e-01	2.477378e+07	2.122339e+04	2.122339e+04
2.050000e-01	1.000000e+00	1.107821e+06	1.180460e+03	1.180460e+03
# END HISTO1D

