# BEGIN PLOT
LegendOnly=/merge.yoda/CMS_2018_PAS_SMP_18_QGX_DIJET/d24-x02-y01
DrawOnly=/merge.yoda/CMS_2018_PAS_SMP_18_QGX_DIJET/d24-x02-y01
Legend=1
LogY=1
# END PLOT

# BEGIN HISTO1D /merge.yoda/CMS_2018_PAS_SMP_18_QGX_DIJET/d24-x02-y01
LineColor=red
LineStyle=solid
Path=/merge.yoda/CMS_2018_PAS_SMP_18_QGX_DIJET/d24-x02-y01
Title=merge
XLabel=~
YLabel=~
# xlow	 xhigh	 val	 errminus	 errplus
0.000000e+00	6.000000e-02	1.800000e+03	1.732051e+02	1.732051e+02
6.000000e-02	9.000000e-02	4.900000e+03	4.041452e+02	4.041452e+02
9.000000e-02	1.400000e-01	3.200000e+03	2.529822e+02	2.529822e+02
1.400000e-01	2.200000e-01	1.062500e+03	1.152443e+02	1.152443e+02
2.200000e-01	1.000000e+00	9.102564e+01	1.080276e+01	1.080276e+01
# END HISTO1D

