# BEGIN PLOT
LegendOnly=/merge.yoda/CMS_2018_PAS_SMP_18_QGX_DIJET_PL/d12-x07-y13
DrawOnly=/merge.yoda/CMS_2018_PAS_SMP_18_QGX_DIJET_PL/d12-x07-y13
Legend=1
LogY=1
# END PLOT

# BEGIN HISTO1D /merge.yoda/CMS_2018_PAS_SMP_18_QGX_DIJET_PL/d12-x07-y13
LineColor=red
LineStyle=solid
Path=/merge.yoda/CMS_2018_PAS_SMP_18_QGX_DIJET_PL/d12-x07-y13
Title=merge
XLabel=~
YLabel=~
yodamerge_scale=1.00000000e+00
# xlow	 xhigh	 val	 errminus	 errplus
0.000000e+00	7.000000e-02	0.000000e+00	0.000000e+00	0.000000e+00
7.000000e-02	9.000000e-02	0.000000e+00	0.000000e+00	0.000000e+00
9.000000e-02	1.200000e-01	0.000000e+00	0.000000e+00	0.000000e+00
1.200000e-01	1.600000e-01	0.000000e+00	0.000000e+00	0.000000e+00
1.600000e-01	2.100000e-01	0.000000e+00	0.000000e+00	0.000000e+00
2.100000e-01	2.700000e-01	0.000000e+00	0.000000e+00	0.000000e+00
2.700000e-01	3.500000e-01	0.000000e+00	0.000000e+00	0.000000e+00
3.500000e-01	4.400000e-01	0.000000e+00	0.000000e+00	0.000000e+00
4.400000e-01	5.400000e-01	0.000000e+00	0.000000e+00	0.000000e+00
5.400000e-01	6.600000e-01	0.000000e+00	0.000000e+00	0.000000e+00
6.600000e-01	1.000000e+00	0.000000e+00	0.000000e+00	0.000000e+00
# END HISTO1D

