# BEGIN PLOT
LegendOnly=/merge.yoda/CMS_2018_PAS_SMP_18_QGX_DIJET/d14-x04-y02
DrawOnly=/merge.yoda/CMS_2018_PAS_SMP_18_QGX_DIJET/d14-x04-y02
Legend=1
LogY=1
# END PLOT

# BEGIN HISTO1D /merge.yoda/CMS_2018_PAS_SMP_18_QGX_DIJET/d14-x04-y02
LineColor=red
LineStyle=solid
Path=/merge.yoda/CMS_2018_PAS_SMP_18_QGX_DIJET/d14-x04-y02
Title=merge
XLabel=~
YLabel=~
# xlow	 xhigh	 val	 errminus	 errplus
0.000000e+00	2.000000e-02	2.235000e+04	1.057119e+03	1.057119e+03
2.000000e-02	5.000000e-02	6.283333e+04	1.447220e+03	1.447220e+03
5.000000e-02	9.500000e-02	1.110444e+05	1.570877e+03	1.570877e+03
9.500000e-02	1.470000e-01	1.308269e+05	1.586160e+03	1.586160e+03
1.470000e-01	2.250000e-01	1.198590e+05	1.239618e+03	1.239618e+03
2.250000e-01	3.070000e-01	9.264634e+04	1.062936e+03	1.062936e+03
3.070000e-01	3.880000e-01	6.362963e+04	8.863131e+02	8.863131e+02
3.880000e-01	4.680000e-01	3.916250e+04	6.996651e+02	6.996651e+02
4.680000e-01	1.000000e+00	4.889098e+03	9.586466e+01	9.586466e+01
# END HISTO1D

