# BEGIN PLOT
LegendOnly=/merge.yoda/CMS_2018_PAS_SMP_18_QGX_DIJET_PL/d12-x10-y04
DrawOnly=/merge.yoda/CMS_2018_PAS_SMP_18_QGX_DIJET_PL/d12-x10-y04
Legend=1
LogY=1
# END PLOT

# BEGIN HISTO1D /merge.yoda/CMS_2018_PAS_SMP_18_QGX_DIJET_PL/d12-x10-y04
LineColor=red
LineStyle=solid
Path=/merge.yoda/CMS_2018_PAS_SMP_18_QGX_DIJET_PL/d12-x10-y04
Title=merge
XLabel=~
YLabel=~
yodamerge_scale=1.00000000e+00
# xlow	 xhigh	 val	 errminus	 errplus
0.000000e+00	2.500000e-03	0.000000e+00	0.000000e+00	0.000000e+00
2.500000e-03	5.000000e-03	0.000000e+00	0.000000e+00	0.000000e+00
5.000000e-03	7.500000e-03	0.000000e+00	0.000000e+00	0.000000e+00
7.500000e-03	1.250000e-02	0.000000e+00	0.000000e+00	0.000000e+00
1.250000e-02	2.000000e-02	0.000000e+00	0.000000e+00	0.000000e+00
2.000000e-02	3.250000e-02	0.000000e+00	0.000000e+00	0.000000e+00
3.250000e-02	5.000000e-02	0.000000e+00	0.000000e+00	0.000000e+00
5.000000e-02	7.750000e-02	0.000000e+00	0.000000e+00	0.000000e+00
7.750000e-02	1.150000e-01	0.000000e+00	0.000000e+00	0.000000e+00
1.150000e-01	1.600000e-01	0.000000e+00	0.000000e+00	0.000000e+00
1.600000e-01	2.100000e-01	0.000000e+00	0.000000e+00	0.000000e+00
2.100000e-01	1.000000e+00	0.000000e+00	0.000000e+00	0.000000e+00
# END HISTO1D

