# BEGIN PLOT
LegendOnly=/merge.yoda/CMS_2018_PAS_SMP_18_QGX_DIJET/d12-x06-y01
DrawOnly=/merge.yoda/CMS_2018_PAS_SMP_18_QGX_DIJET/d12-x06-y01
Legend=1
LogY=1
# END PLOT

# BEGIN HISTO1D /merge.yoda/CMS_2018_PAS_SMP_18_QGX_DIJET/d12-x06-y01
LineColor=red
LineStyle=solid
Path=/merge.yoda/CMS_2018_PAS_SMP_18_QGX_DIJET/d12-x06-y01
Title=merge
XLabel=~
YLabel=~
# xlow	 xhigh	 val	 errminus	 errplus
-5.000000e-01	3.500000e+00	8.175000e+01	4.520785e+00	4.520785e+00
3.500000e+00	5.500000e+00	3.140000e+02	1.252996e+01	1.252996e+01
5.500000e+00	9.500000e+00	3.492500e+02	9.344116e+00	9.344116e+00
9.500000e+00	1.350000e+01	1.280000e+02	5.656854e+00	5.656854e+00
1.350000e+01	1.750000e+01	1.175000e+01	1.713914e+00	1.713914e+00
1.750000e+01	2.150000e+01	2.500000e-01	2.500000e-01	2.500000e-01
2.150000e+01	2.750000e+01	0.000000e+00	0.000000e+00	0.000000e+00
2.750000e+01	3.550000e+01	0.000000e+00	0.000000e+00	0.000000e+00
3.550000e+01	4.950000e+01	0.000000e+00	0.000000e+00	0.000000e+00
4.950000e+01	9.950000e+01	0.000000e+00	0.000000e+00	0.000000e+00
# END HISTO1D

