# BEGIN PLOT
LegendOnly=/merge.yoda/CMS_2018_PAS_SMP_18_QGX_DIJET/d14-x02-y08
DrawOnly=/merge.yoda/CMS_2018_PAS_SMP_18_QGX_DIJET/d14-x02-y08
Legend=1
LogY=1
# END PLOT

# BEGIN HISTO1D /merge.yoda/CMS_2018_PAS_SMP_18_QGX_DIJET/d14-x02-y08
LineColor=red
LineStyle=solid
Path=/merge.yoda/CMS_2018_PAS_SMP_18_QGX_DIJET/d14-x02-y08
Title=merge
XLabel=~
YLabel=~
# xlow	 xhigh	 val	 errminus	 errplus
0.000000e+00	6.000000e-02	9.611933e+06	1.265697e+04	1.265697e+04
6.000000e-02	9.000000e-02	2.361943e+07	2.805912e+04	2.805912e+04
9.000000e-02	1.400000e-01	1.687672e+07	1.837211e+04	1.837211e+04
1.400000e-01	2.200000e-01	9.073263e+06	1.064968e+04	1.064968e+04
2.200000e-01	1.000000e+00	8.709526e+05	1.056696e+03	1.056696e+03
# END HISTO1D

