# BEGIN PLOT
LegendOnly=/merge.yoda/CMS_2018_PAS_SMP_18_QGX_DIJET/d13-x08-y03
DrawOnly=/merge.yoda/CMS_2018_PAS_SMP_18_QGX_DIJET/d13-x08-y03
Legend=1
LogY=1
# END PLOT

# BEGIN HISTO1D /merge.yoda/CMS_2018_PAS_SMP_18_QGX_DIJET/d13-x08-y03
LineColor=red
LineStyle=solid
Path=/merge.yoda/CMS_2018_PAS_SMP_18_QGX_DIJET/d13-x08-y03
Title=merge
XLabel=~
YLabel=~
# xlow	 xhigh	 val	 errminus	 errplus
0.000000e+00	6.000000e-02	3.886667e+04	8.048464e+02	8.048464e+02
6.000000e-02	1.100000e-01	1.560400e+05	1.766579e+03	1.766579e+03
1.100000e-01	1.500000e-01	3.827000e+05	3.093138e+03	3.093138e+03
1.500000e-01	1.900000e-01	7.010000e+05	4.186287e+03	4.186287e+03
1.900000e-01	2.300000e-01	1.061300e+06	5.150971e+03	5.150971e+03
2.300000e-01	2.700000e-01	1.424375e+06	5.967359e+03	5.967359e+03
2.700000e-01	3.100000e-01	1.764325e+06	6.641395e+03	6.641395e+03
3.100000e-01	3.500000e-01	1.960350e+06	7.000625e+03	7.000625e+03
3.500000e-01	3.900000e-01	1.937875e+06	6.960379e+03	6.960379e+03
3.900000e-01	4.400000e-01	1.701660e+06	5.833798e+03	5.833798e+03
4.400000e-01	4.900000e-01	1.352840e+06	5.201615e+03	5.201615e+03
4.900000e-01	5.400000e-01	9.775400e+05	4.421629e+03	4.421629e+03
5.400000e-01	6.000000e-01	6.010833e+05	3.165131e+03	3.165131e+03
6.000000e-01	1.000000e+00	6.160250e+04	3.924363e+02	3.924363e+02
# END HISTO1D

