# BEGIN PLOT
LegendOnly=/zj_ps_nlo_mer_mur2_muf1_R8.yoda/PAPER_FIN_R4/l05_pT_65_88
DrawOnly=/zj_ps_nlo_mer_mur2_muf1_R8.yoda/PAPER_FIN_R4/l05_pT_65_88
Legend=1
LogY=1
# END PLOT

# BEGIN HISTO1D /zj_ps_nlo_mer_mur2_muf1_R8.yoda/PAPER_FIN_R4/l05_pT_65_88
LineColor=red
LineStyle=solid
Path=/zj_ps_nlo_mer_mur2_muf1_R8.yoda/PAPER_FIN_R4/l05_pT_65_88
Title=zj_ps_nlo_mer_mur2_muf1_R8
XLabel=~
YLabel=~
# xlow	 xhigh	 val	 errminus	 errplus
-7.000000e+00	-6.930000e+00	0.000000e+00	0.000000e+00	0.000000e+00
-6.930000e+00	-6.860000e+00	2.601969e+03	2.601968e+03	2.601968e+03
-6.860000e+00	-6.790000e+00	0.000000e+00	0.000000e+00	0.000000e+00
-6.790000e+00	-6.720000e+00	0.000000e+00	0.000000e+00	0.000000e+00
-6.720000e+00	-6.650000e+00	0.000000e+00	0.000000e+00	0.000000e+00
-6.650000e+00	-6.580000e+00	0.000000e+00	0.000000e+00	0.000000e+00
-6.580000e+00	-6.510000e+00	0.000000e+00	0.000000e+00	0.000000e+00
-6.510000e+00	-6.440000e+00	0.000000e+00	0.000000e+00	0.000000e+00
-6.440000e+00	-6.370000e+00	0.000000e+00	0.000000e+00	0.000000e+00
-6.370000e+00	-6.300000e+00	0.000000e+00	0.000000e+00	0.000000e+00
-6.300000e+00	-6.230000e+00	0.000000e+00	0.000000e+00	0.000000e+00
-6.230000e+00	-6.160000e+00	0.000000e+00	0.000000e+00	0.000000e+00
-6.160000e+00	-6.090000e+00	0.000000e+00	0.000000e+00	0.000000e+00
-6.090000e+00	-6.020000e+00	0.000000e+00	0.000000e+00	0.000000e+00
-6.020000e+00	-5.950000e+00	0.000000e+00	0.000000e+00	0.000000e+00
-5.950000e+00	-5.880000e+00	0.000000e+00	0.000000e+00	0.000000e+00
-5.880000e+00	-5.810000e+00	0.000000e+00	0.000000e+00	0.000000e+00
-5.810000e+00	-5.740000e+00	0.000000e+00	0.000000e+00	0.000000e+00
-5.740000e+00	-5.670000e+00	0.000000e+00	0.000000e+00	0.000000e+00
-5.670000e+00	-5.600000e+00	0.000000e+00	0.000000e+00	0.000000e+00
-5.600000e+00	-5.530000e+00	0.000000e+00	0.000000e+00	0.000000e+00
-5.530000e+00	-5.460000e+00	0.000000e+00	0.000000e+00	0.000000e+00
-5.460000e+00	-5.390000e+00	0.000000e+00	0.000000e+00	0.000000e+00
-5.390000e+00	-5.320000e+00	0.000000e+00	0.000000e+00	0.000000e+00
-5.320000e+00	-5.250000e+00	0.000000e+00	0.000000e+00	0.000000e+00
-5.250000e+00	-5.180000e+00	0.000000e+00	0.000000e+00	0.000000e+00
-5.180000e+00	-5.110000e+00	0.000000e+00	0.000000e+00	0.000000e+00
-5.110000e+00	-5.040000e+00	0.000000e+00	0.000000e+00	0.000000e+00
-5.040000e+00	-4.970000e+00	0.000000e+00	0.000000e+00	0.000000e+00
-4.970000e+00	-4.900000e+00	0.000000e+00	0.000000e+00	0.000000e+00
-4.900000e+00	-4.830000e+00	0.000000e+00	0.000000e+00	0.000000e+00
-4.830000e+00	-4.760000e+00	0.000000e+00	0.000000e+00	0.000000e+00
-4.760000e+00	-4.690000e+00	0.000000e+00	0.000000e+00	0.000000e+00
-4.690000e+00	-4.620000e+00	0.000000e+00	0.000000e+00	0.000000e+00
-4.620000e+00	-4.550000e+00	0.000000e+00	0.000000e+00	0.000000e+00
-4.550000e+00	-4.480000e+00	0.000000e+00	0.000000e+00	0.000000e+00
-4.480000e+00	-4.410000e+00	0.000000e+00	0.000000e+00	0.000000e+00
-4.410000e+00	-4.340000e+00	0.000000e+00	0.000000e+00	0.000000e+00
-4.340000e+00	-4.270000e+00	0.000000e+00	0.000000e+00	0.000000e+00
-4.270000e+00	-4.200000e+00	0.000000e+00	0.000000e+00	0.000000e+00
-4.200000e+00	-4.130000e+00	0.000000e+00	0.000000e+00	0.000000e+00
-4.130000e+00	-4.060000e+00	0.000000e+00	0.000000e+00	0.000000e+00
-4.060000e+00	-3.990000e+00	0.000000e+00	0.000000e+00	0.000000e+00
-3.990000e+00	-3.920000e+00	0.000000e+00	0.000000e+00	0.000000e+00
-3.920000e+00	-3.850000e+00	0.000000e+00	0.000000e+00	0.000000e+00
-3.850000e+00	-3.780000e+00	0.000000e+00	0.000000e+00	0.000000e+00
-3.780000e+00	-3.710000e+00	0.000000e+00	0.000000e+00	0.000000e+00
-3.710000e+00	-3.640000e+00	0.000000e+00	0.000000e+00	0.000000e+00
-3.640000e+00	-3.570000e+00	0.000000e+00	0.000000e+00	0.000000e+00
-3.570000e+00	-3.500000e+00	0.000000e+00	0.000000e+00	0.000000e+00
-3.500000e+00	-3.430000e+00	0.000000e+00	0.000000e+00	0.000000e+00
-3.430000e+00	-3.360000e+00	2.436691e+02	2.436692e+02	2.436692e+02
-3.360000e+00	-3.290000e+00	0.000000e+00	0.000000e+00	0.000000e+00
-3.290000e+00	-3.220000e+00	0.000000e+00	0.000000e+00	0.000000e+00
-3.220000e+00	-3.150000e+00	0.000000e+00	0.000000e+00	0.000000e+00
-3.150000e+00	-3.080000e+00	0.000000e+00	0.000000e+00	0.000000e+00
-3.080000e+00	-3.010000e+00	0.000000e+00	0.000000e+00	0.000000e+00
-3.010000e+00	-2.940000e+00	0.000000e+00	0.000000e+00	0.000000e+00
-2.940000e+00	-2.870000e+00	0.000000e+00	0.000000e+00	0.000000e+00
-2.870000e+00	-2.800000e+00	0.000000e+00	0.000000e+00	0.000000e+00
-2.800000e+00	-2.730000e+00	0.000000e+00	0.000000e+00	0.000000e+00
-2.730000e+00	-2.660000e+00	0.000000e+00	0.000000e+00	0.000000e+00
-2.660000e+00	-2.590000e+00	2.089690e+04	1.674713e+04	1.674713e+04
-2.590000e+00	-2.520000e+00	0.000000e+00	0.000000e+00	0.000000e+00
-2.520000e+00	-2.450000e+00	8.193203e+03	8.158838e+03	8.158838e+03
-2.450000e+00	-2.380000e+00	2.220857e+03	2.220857e+03	2.220857e+03
-2.380000e+00	-2.310000e+00	2.314043e+04	1.298492e+04	1.298492e+04
-2.310000e+00	-2.240000e+00	2.102454e+05	1.291436e+05	1.291436e+05
-2.240000e+00	-2.170000e+00	1.010226e+05	5.598214e+04	5.598214e+04
-2.170000e+00	-2.100000e+00	4.308889e+05	1.666976e+05	1.666976e+05
-2.100000e+00	-2.030000e+00	3.012953e+05	1.034089e+05	1.034089e+05
-2.030000e+00	-1.960000e+00	5.422931e+05	1.325611e+05	1.325611e+05
-1.960000e+00	-1.890000e+00	1.185798e+06	2.429696e+05	2.429696e+05
-1.890000e+00	-1.820000e+00	1.287570e+06	2.062444e+05	2.062444e+05
-1.820000e+00	-1.750000e+00	2.557476e+06	2.883273e+05	2.883273e+05
-1.750000e+00	-1.680000e+00	4.406954e+06	4.469677e+05	4.469677e+05
-1.680000e+00	-1.610000e+00	7.313633e+06	5.755218e+05	5.755218e+05
-1.610000e+00	-1.540000e+00	1.322267e+07	8.427758e+05	8.427758e+05
-1.540000e+00	-1.470000e+00	1.999233e+07	8.874921e+05	8.874921e+05
-1.470000e+00	-1.400000e+00	3.488523e+07	1.205761e+06	1.205761e+06
-1.400000e+00	-1.330000e+00	5.889170e+07	1.660103e+06	1.660103e+06
-1.330000e+00	-1.260000e+00	1.000554e+08	2.062546e+06	2.062546e+06
-1.260000e+00	-1.190000e+00	1.896544e+08	3.080674e+06	3.080674e+06
-1.190000e+00	-1.120000e+00	3.393124e+08	3.908548e+06	3.908548e+06
-1.120000e+00	-1.050000e+00	6.566059e+08	5.498224e+06	5.498224e+06
-1.050000e+00	-9.800000e-01	1.264252e+09	7.538425e+06	7.538425e+06
-9.800000e-01	-9.100000e-01	2.489587e+09	1.077340e+07	1.077340e+07
-9.100000e-01	-8.400000e-01	4.724593e+09	1.475252e+07	1.475252e+07
-8.400000e-01	-7.700000e-01	8.939546e+09	2.034442e+07	2.034442e+07
-7.700000e-01	-7.000000e-01	1.641916e+10	2.764437e+07	2.764437e+07
-7.000000e-01	-6.300000e-01	2.764973e+10	3.546265e+07	3.546265e+07
-6.300000e-01	-5.600000e-01	4.050003e+10	4.269379e+07	4.269379e+07
-5.600000e-01	-4.900000e-01	4.869460e+10	4.607749e+07	4.607749e+07
-4.900000e-01	-4.200000e-01	4.711770e+10	4.449930e+07	4.449930e+07
-4.200000e-01	-3.500000e-01	3.629340e+10	3.798415e+07	3.798415e+07
-3.500000e-01	-2.800000e-01	2.330907e+10	2.971832e+07	2.971832e+07
-2.800000e-01	-2.100000e-01	1.249024e+10	2.163903e+07	2.163903e+07
-2.100000e-01	-1.400000e-01	3.996123e+09	1.203958e+07	1.203958e+07
-1.400000e-01	-7.000000e-02	3.394483e+08	3.468407e+06	3.468407e+06
-7.000000e-02	0.000000e+00	3.064963e+06	4.426378e+05	4.426378e+05
# END HISTO1D

