# BEGIN PLOT
LegendOnly=/pythia_np_pt150_s1_1e3.yoda/PAPER_FIN_R4_CH/XS_CUTS_pT_all
DrawOnly=/pythia_np_pt150_s1_1e3.yoda/PAPER_FIN_R4_CH/XS_CUTS_pT_all
Legend=1
LogY=1
# END PLOT

# BEGIN HISTO1D /pythia_np_pt150_s1_1e3.yoda/PAPER_FIN_R4_CH/XS_CUTS_pT_all
LineColor=red
LineStyle=solid
Path=/pythia_np_pt150_s1_1e3.yoda/PAPER_FIN_R4_CH/XS_CUTS_pT_all
Title=pythia_np_pt150_s1_1e3
XLabel=~
YLabel=~
# xlow	 xhigh	 val	 errminus	 errplus
-5.000000e-01	5.000000e-01	1.109263e+04	3.507804e+02	3.507804e+02
# END HISTO1D

