# BEGIN PLOT
LegendOnly=/pythia_np_pt150_s1_1e3.yoda/PAPER_FIN_R8/XS_CUTS_pT_326_408
DrawOnly=/pythia_np_pt150_s1_1e3.yoda/PAPER_FIN_R8/XS_CUTS_pT_326_408
Legend=1
LogY=1
# END PLOT

# BEGIN HISTO1D /pythia_np_pt150_s1_1e3.yoda/PAPER_FIN_R8/XS_CUTS_pT_326_408
LineColor=red
LineStyle=solid
Path=/pythia_np_pt150_s1_1e3.yoda/PAPER_FIN_R8/XS_CUTS_pT_326_408
Title=pythia_np_pt150_s1_1e3
XLabel=~
YLabel=~
# xlow	 xhigh	 val	 errminus	 errplus
-5.000000e-01	5.000000e-01	1.118189e+02	3.536785e+00	3.536785e+00
# END HISTO1D

