# BEGIN PLOT
LegendOnly=/pythia_np_pt150_s1_1e3.yoda/PAPER_FIN_R8/l10_pT_326_408
DrawOnly=/pythia_np_pt150_s1_1e3.yoda/PAPER_FIN_R8/l10_pT_326_408
Legend=1
LogY=1
# END PLOT

# BEGIN HISTO1D /pythia_np_pt150_s1_1e3.yoda/PAPER_FIN_R8/l10_pT_326_408
LineColor=red
LineStyle=solid
Path=/pythia_np_pt150_s1_1e3.yoda/PAPER_FIN_R8/l10_pT_326_408
Title=pythia_np_pt150_s1_1e3
XLabel=~
YLabel=~
# xlow	 xhigh	 val	 errminus	 errplus
-7.000000e+00	-6.930000e+00	0.000000e+00	0.000000e+00	0.000000e+00
-6.930000e+00	-6.860000e+00	1.000000e+02	3.779645e+01	3.779645e+01
-6.860000e+00	-6.790000e+00	0.000000e+00	0.000000e+00	0.000000e+00
-6.790000e+00	-6.720000e+00	0.000000e+00	0.000000e+00	0.000000e+00
-6.720000e+00	-6.650000e+00	0.000000e+00	0.000000e+00	0.000000e+00
-6.650000e+00	-6.580000e+00	0.000000e+00	0.000000e+00	0.000000e+00
-6.580000e+00	-6.510000e+00	0.000000e+00	0.000000e+00	0.000000e+00
-6.510000e+00	-6.440000e+00	0.000000e+00	0.000000e+00	0.000000e+00
-6.440000e+00	-6.370000e+00	0.000000e+00	0.000000e+00	0.000000e+00
-6.370000e+00	-6.300000e+00	0.000000e+00	0.000000e+00	0.000000e+00
-6.300000e+00	-6.230000e+00	0.000000e+00	0.000000e+00	0.000000e+00
-6.230000e+00	-6.160000e+00	0.000000e+00	0.000000e+00	0.000000e+00
-6.160000e+00	-6.090000e+00	0.000000e+00	0.000000e+00	0.000000e+00
-6.090000e+00	-6.020000e+00	0.000000e+00	0.000000e+00	0.000000e+00
-6.020000e+00	-5.950000e+00	0.000000e+00	0.000000e+00	0.000000e+00
-5.950000e+00	-5.880000e+00	0.000000e+00	0.000000e+00	0.000000e+00
-5.880000e+00	-5.810000e+00	0.000000e+00	0.000000e+00	0.000000e+00
-5.810000e+00	-5.740000e+00	0.000000e+00	0.000000e+00	0.000000e+00
-5.740000e+00	-5.670000e+00	0.000000e+00	0.000000e+00	0.000000e+00
-5.670000e+00	-5.600000e+00	0.000000e+00	0.000000e+00	0.000000e+00
-5.600000e+00	-5.530000e+00	0.000000e+00	0.000000e+00	0.000000e+00
-5.530000e+00	-5.460000e+00	0.000000e+00	0.000000e+00	0.000000e+00
-5.460000e+00	-5.390000e+00	0.000000e+00	0.000000e+00	0.000000e+00
-5.390000e+00	-5.320000e+00	0.000000e+00	0.000000e+00	0.000000e+00
-5.320000e+00	-5.250000e+00	0.000000e+00	0.000000e+00	0.000000e+00
-5.250000e+00	-5.180000e+00	0.000000e+00	0.000000e+00	0.000000e+00
-5.180000e+00	-5.110000e+00	0.000000e+00	0.000000e+00	0.000000e+00
-5.110000e+00	-5.040000e+00	0.000000e+00	0.000000e+00	0.000000e+00
-5.040000e+00	-4.970000e+00	0.000000e+00	0.000000e+00	0.000000e+00
-4.970000e+00	-4.900000e+00	0.000000e+00	0.000000e+00	0.000000e+00
-4.900000e+00	-4.830000e+00	0.000000e+00	0.000000e+00	0.000000e+00
-4.830000e+00	-4.760000e+00	0.000000e+00	0.000000e+00	0.000000e+00
-4.760000e+00	-4.690000e+00	0.000000e+00	0.000000e+00	0.000000e+00
-4.690000e+00	-4.620000e+00	0.000000e+00	0.000000e+00	0.000000e+00
-4.620000e+00	-4.550000e+00	0.000000e+00	0.000000e+00	0.000000e+00
-4.550000e+00	-4.480000e+00	0.000000e+00	0.000000e+00	0.000000e+00
-4.480000e+00	-4.410000e+00	0.000000e+00	0.000000e+00	0.000000e+00
-4.410000e+00	-4.340000e+00	0.000000e+00	0.000000e+00	0.000000e+00
-4.340000e+00	-4.270000e+00	0.000000e+00	0.000000e+00	0.000000e+00
-4.270000e+00	-4.200000e+00	0.000000e+00	0.000000e+00	0.000000e+00
-4.200000e+00	-4.130000e+00	0.000000e+00	0.000000e+00	0.000000e+00
-4.130000e+00	-4.060000e+00	0.000000e+00	0.000000e+00	0.000000e+00
-4.060000e+00	-3.990000e+00	1.428571e+01	1.428571e+01	1.428571e+01
-3.990000e+00	-3.920000e+00	1.428571e+01	1.428571e+01	1.428571e+01
-3.920000e+00	-3.850000e+00	1.428571e+01	1.428571e+01	1.428571e+01
-3.850000e+00	-3.780000e+00	0.000000e+00	0.000000e+00	0.000000e+00
-3.780000e+00	-3.710000e+00	0.000000e+00	0.000000e+00	0.000000e+00
-3.710000e+00	-3.640000e+00	2.857143e+01	2.020305e+01	2.020305e+01
-3.640000e+00	-3.570000e+00	0.000000e+00	0.000000e+00	0.000000e+00
-3.570000e+00	-3.500000e+00	0.000000e+00	0.000000e+00	0.000000e+00
-3.500000e+00	-3.430000e+00	2.857143e+01	2.020305e+01	2.020305e+01
-3.430000e+00	-3.360000e+00	1.428571e+01	1.428571e+01	1.428571e+01
-3.360000e+00	-3.290000e+00	1.428571e+01	1.428571e+01	1.428571e+01
-3.290000e+00	-3.220000e+00	1.428571e+01	1.428571e+01	1.428571e+01
-3.220000e+00	-3.150000e+00	2.857143e+01	2.020305e+01	2.020305e+01
-3.150000e+00	-3.080000e+00	7.142857e+01	3.194383e+01	3.194383e+01
-3.080000e+00	-3.010000e+00	1.428571e+01	1.428571e+01	1.428571e+01
-3.010000e+00	-2.940000e+00	2.857143e+01	2.020305e+01	2.020305e+01
-2.940000e+00	-2.870000e+00	7.142857e+01	3.194383e+01	3.194383e+01
-2.870000e+00	-2.800000e+00	8.571429e+01	3.499271e+01	3.499271e+01
-2.800000e+00	-2.730000e+00	8.571429e+01	3.499271e+01	3.499271e+01
-2.730000e+00	-2.660000e+00	8.571429e+01	3.499271e+01	3.499271e+01
-2.660000e+00	-2.590000e+00	1.571429e+02	4.738035e+01	4.738035e+01
-2.590000e+00	-2.520000e+00	2.000000e+02	5.345225e+01	5.345225e+01
-2.520000e+00	-2.450000e+00	1.142857e+02	4.040610e+01	4.040610e+01
-2.450000e+00	-2.380000e+00	3.714286e+02	7.284314e+01	7.284314e+01
-2.380000e+00	-2.310000e+00	3.714286e+02	7.284314e+01	7.284314e+01
-2.310000e+00	-2.240000e+00	6.142857e+02	9.367769e+01	9.367769e+01
-2.240000e+00	-2.170000e+00	1.442857e+03	1.435697e+02	1.435697e+02
-2.170000e+00	-2.100000e+00	2.271429e+03	1.801360e+02	1.801360e+02
-2.100000e+00	-2.030000e+00	6.257143e+03	2.989779e+02	2.989779e+02
-2.030000e+00	-1.960000e+00	1.588571e+04	4.763809e+02	4.763809e+02
-1.960000e+00	-1.890000e+00	4.090000e+04	7.643858e+02	7.643858e+02
-1.890000e+00	-1.820000e+00	1.049857e+05	1.224662e+03	1.224662e+03
-1.820000e+00	-1.750000e+00	2.431000e+05	1.863560e+03	1.863560e+03
-1.750000e+00	-1.680000e+00	5.039286e+05	2.683091e+03	2.683091e+03
-1.680000e+00	-1.610000e+00	9.004857e+05	3.586653e+03	3.586653e+03
-1.610000e+00	-1.540000e+00	1.370100e+06	4.424122e+03	4.424122e+03
-1.540000e+00	-1.470000e+00	1.831814e+06	5.115543e+03	5.115543e+03
-1.470000e+00	-1.400000e+00	2.190586e+06	5.594111e+03	5.594111e+03
-1.400000e+00	-1.330000e+00	2.418714e+06	5.878185e+03	5.878185e+03
-1.330000e+00	-1.260000e+00	2.515471e+06	5.994606e+03	5.994606e+03
-1.260000e+00	-1.190000e+00	2.503557e+06	5.980393e+03	5.980393e+03
-1.190000e+00	-1.120000e+00	2.410371e+06	5.868039e+03	5.868039e+03
-1.120000e+00	-1.050000e+00	2.286171e+06	5.714857e+03	5.714857e+03
-1.050000e+00	-9.800000e-01	2.131329e+06	5.517930e+03	5.517930e+03
-9.800000e-01	-9.100000e-01	1.960400e+06	5.292043e+03	5.292043e+03
-9.100000e-01	-8.400000e-01	1.760871e+06	5.015507e+03	5.015507e+03
-8.400000e-01	-7.700000e-01	1.580557e+06	4.751777e+03	4.751777e+03
-7.700000e-01	-7.000000e-01	1.389086e+06	4.454670e+03	4.454670e+03
-7.000000e-01	-6.300000e-01	1.206486e+06	4.151567e+03	4.151567e+03
-6.300000e-01	-5.600000e-01	1.024871e+06	3.826359e+03	3.826359e+03
-5.600000e-01	-4.900000e-01	8.336429e+05	3.450969e+03	3.450969e+03
-4.900000e-01	-4.200000e-01	6.417143e+05	3.027763e+03	3.027763e+03
-4.200000e-01	-3.500000e-01	4.452286e+05	2.521985e+03	2.521985e+03
-3.500000e-01	-2.800000e-01	2.442143e+05	1.867826e+03	1.867826e+03
-2.800000e-01	-2.100000e-01	7.494286e+04	1.034704e+03	1.034704e+03
-2.100000e-01	-1.400000e-01	1.178571e+04	4.103259e+02	4.103259e+02
-1.400000e-01	-7.000000e-02	5.714286e+02	9.035079e+01	9.035079e+01
-7.000000e-02	0.000000e+00	0.000000e+00	0.000000e+00	0.000000e+00
# END HISTO1D

