# BEGIN PLOT
LegendOnly=/zj_ps_nlo_mer_cent_R8.yoda/PAPER_FIN_R8/ch_SD_l10_pT_186_254
DrawOnly=/zj_ps_nlo_mer_cent_R8.yoda/PAPER_FIN_R8/ch_SD_l10_pT_186_254
Legend=1
LogY=1
# END PLOT

# BEGIN HISTO1D /zj_ps_nlo_mer_cent_R8.yoda/PAPER_FIN_R8/ch_SD_l10_pT_186_254
LineColor=red
LineStyle=solid
Path=/zj_ps_nlo_mer_cent_R8.yoda/PAPER_FIN_R8/ch_SD_l10_pT_186_254
Title=zj_ps_nlo_mer_cent_R8
XLabel=~
YLabel=~
# xlow	 xhigh	 val	 errminus	 errplus
-7.000000e+00	-6.930000e+00	0.000000e+00	0.000000e+00	0.000000e+00
-6.930000e+00	-6.860000e+00	5.098753e+08	3.069146e+07	3.069146e+07
-6.860000e+00	-6.790000e+00	0.000000e+00	0.000000e+00	0.000000e+00
-6.790000e+00	-6.720000e+00	0.000000e+00	0.000000e+00	0.000000e+00
-6.720000e+00	-6.650000e+00	0.000000e+00	0.000000e+00	0.000000e+00
-6.650000e+00	-6.580000e+00	0.000000e+00	0.000000e+00	0.000000e+00
-6.580000e+00	-6.510000e+00	0.000000e+00	0.000000e+00	0.000000e+00
-6.510000e+00	-6.440000e+00	0.000000e+00	0.000000e+00	0.000000e+00
-6.440000e+00	-6.370000e+00	-1.589901e+02	1.589901e+02	1.589901e+02
-6.370000e+00	-6.300000e+00	0.000000e+00	0.000000e+00	0.000000e+00
-6.300000e+00	-6.230000e+00	0.000000e+00	0.000000e+00	0.000000e+00
-6.230000e+00	-6.160000e+00	0.000000e+00	0.000000e+00	0.000000e+00
-6.160000e+00	-6.090000e+00	0.000000e+00	0.000000e+00	0.000000e+00
-6.090000e+00	-6.020000e+00	0.000000e+00	0.000000e+00	0.000000e+00
-6.020000e+00	-5.950000e+00	0.000000e+00	0.000000e+00	0.000000e+00
-5.950000e+00	-5.880000e+00	0.000000e+00	0.000000e+00	0.000000e+00
-5.880000e+00	-5.810000e+00	0.000000e+00	0.000000e+00	0.000000e+00
-5.810000e+00	-5.740000e+00	8.888727e+02	8.888728e+02	8.888728e+02
-5.740000e+00	-5.670000e+00	0.000000e+00	0.000000e+00	0.000000e+00
-5.670000e+00	-5.600000e+00	7.537616e+01	7.535272e+01	7.535272e+01
-5.600000e+00	-5.530000e+00	-6.316159e+02	6.316158e+02	6.316158e+02
-5.530000e+00	-5.460000e+00	-5.795609e-01	5.154845e-01	5.154845e-01
-5.460000e+00	-5.390000e+00	4.069529e+03	4.049894e+03	4.049894e+03
-5.390000e+00	-5.320000e+00	1.867254e+01	1.867254e+01	1.867254e+01
-5.320000e+00	-5.250000e+00	2.721310e+03	2.830353e+03	2.830353e+03
-5.250000e+00	-5.180000e+00	8.317021e+03	8.414372e+03	8.414372e+03
-5.180000e+00	-5.110000e+00	1.746624e+01	4.623088e+01	4.623088e+01
-5.110000e+00	-5.040000e+00	-2.760443e+02	1.782751e+03	1.782751e+03
-5.040000e+00	-4.970000e+00	3.918497e+03	2.884492e+03	2.884492e+03
-4.970000e+00	-4.900000e+00	1.353644e+04	7.254325e+03	7.254325e+03
-4.900000e+00	-4.830000e+00	2.539551e+03	2.777383e+03	2.777383e+03
-4.830000e+00	-4.760000e+00	1.481353e+03	2.010608e+03	2.010608e+03
-4.760000e+00	-4.690000e+00	2.980646e+03	1.545272e+04	1.545272e+04
-4.690000e+00	-4.620000e+00	1.780343e+04	9.688248e+03	9.688248e+03
-4.620000e+00	-4.550000e+00	3.726149e+04	2.287432e+04	2.287432e+04
-4.550000e+00	-4.480000e+00	1.820876e+04	1.074170e+04	1.074170e+04
-4.480000e+00	-4.410000e+00	3.719160e+04	2.091060e+04	2.091060e+04
-4.410000e+00	-4.340000e+00	8.313821e+04	3.704294e+04	3.704294e+04
-4.340000e+00	-4.270000e+00	1.775947e+05	6.079947e+04	6.079947e+04
-4.270000e+00	-4.200000e+00	1.366259e+05	4.228477e+04	4.228477e+04
-4.200000e+00	-4.130000e+00	3.357840e+05	1.247122e+05	1.247122e+05
-4.130000e+00	-4.060000e+00	3.385421e+05	8.492712e+04	8.492712e+04
-4.060000e+00	-3.990000e+00	6.272573e+05	1.401676e+05	1.401676e+05
-3.990000e+00	-3.920000e+00	4.750199e+05	1.468325e+05	1.468325e+05
-3.920000e+00	-3.850000e+00	4.739080e+05	2.750974e+05	2.750974e+05
-3.850000e+00	-3.780000e+00	8.050011e+05	2.153873e+05	2.153873e+05
-3.780000e+00	-3.710000e+00	1.133794e+06	2.815168e+05	2.815168e+05
-3.710000e+00	-3.640000e+00	2.245954e+06	3.585615e+05	3.585615e+05
-3.640000e+00	-3.570000e+00	2.368773e+06	3.633038e+05	3.633038e+05
-3.570000e+00	-3.500000e+00	2.686427e+06	6.485260e+05	6.485260e+05
-3.500000e+00	-3.430000e+00	5.067573e+06	6.684373e+05	6.684373e+05
-3.430000e+00	-3.360000e+00	5.911490e+06	1.179460e+06	1.179460e+06
-3.360000e+00	-3.290000e+00	8.622393e+06	1.042913e+06	1.042913e+06
-3.290000e+00	-3.220000e+00	1.079871e+07	9.868043e+05	9.868043e+05
-3.220000e+00	-3.150000e+00	1.646149e+07	8.635057e+05	8.635057e+05
-3.150000e+00	-3.080000e+00	2.283507e+07	9.775416e+05	9.775416e+05
-3.080000e+00	-3.010000e+00	3.160171e+07	2.576155e+06	2.576155e+06
-3.010000e+00	-2.940000e+00	4.868136e+07	4.042769e+06	4.042769e+06
-2.940000e+00	-2.870000e+00	5.913764e+07	2.371950e+06	2.371950e+06
-2.870000e+00	-2.800000e+00	7.466483e+07	3.440970e+06	3.440970e+06
-2.800000e+00	-2.730000e+00	1.026183e+08	4.971909e+06	4.971909e+06
-2.730000e+00	-2.660000e+00	1.416106e+08	5.903200e+06	5.903200e+06
-2.660000e+00	-2.590000e+00	1.918879e+08	4.942985e+06	4.942985e+06
-2.590000e+00	-2.520000e+00	2.454290e+08	6.104858e+06	6.104858e+06
-2.520000e+00	-2.450000e+00	3.071683e+08	7.151112e+06	7.151112e+06
-2.450000e+00	-2.380000e+00	3.654504e+08	2.120424e+07	2.120424e+07
-2.380000e+00	-2.310000e+00	5.305176e+08	1.487697e+07	1.487697e+07
-2.310000e+00	-2.240000e+00	5.827416e+08	1.401041e+07	1.401041e+07
-2.240000e+00	-2.170000e+00	7.282906e+08	1.601990e+07	1.601990e+07
-2.170000e+00	-2.100000e+00	8.521856e+08	1.657143e+07	1.657143e+07
-2.100000e+00	-2.030000e+00	1.050985e+09	1.178475e+07	1.178475e+07
-2.030000e+00	-1.960000e+00	1.193219e+09	1.480122e+07	1.480122e+07
-1.960000e+00	-1.890000e+00	1.342823e+09	2.220183e+07	2.220183e+07
-1.890000e+00	-1.820000e+00	1.445976e+09	1.718330e+07	1.718330e+07
-1.820000e+00	-1.750000e+00	1.492219e+09	1.918794e+07	1.918794e+07
-1.750000e+00	-1.680000e+00	1.534791e+09	1.983298e+07	1.983298e+07
-1.680000e+00	-1.610000e+00	1.575457e+09	1.290108e+08	1.290108e+08
-1.610000e+00	-1.540000e+00	1.490904e+09	2.992183e+07	2.992183e+07
-1.540000e+00	-1.470000e+00	1.334869e+09	1.020989e+08	1.020989e+08
-1.470000e+00	-1.400000e+00	1.389919e+09	1.736384e+07	1.736384e+07
-1.400000e+00	-1.330000e+00	1.321723e+09	2.085770e+07	2.085770e+07
-1.330000e+00	-1.260000e+00	1.271383e+09	1.403865e+07	1.403865e+07
-1.260000e+00	-1.190000e+00	1.286564e+09	2.892019e+07	2.892019e+07
-1.190000e+00	-1.120000e+00	1.279646e+09	1.484934e+07	1.484934e+07
-1.120000e+00	-1.050000e+00	1.311169e+09	1.766810e+07	1.766810e+07
-1.050000e+00	-9.800000e-01	1.379306e+09	1.532488e+07	1.532488e+07
-9.800000e-01	-9.100000e-01	1.451584e+09	1.769227e+07	1.769227e+07
-9.100000e-01	-8.400000e-01	1.511011e+09	1.929964e+07	1.929964e+07
-8.400000e-01	-7.700000e-01	1.606399e+09	3.945112e+07	3.945112e+07
-7.700000e-01	-7.000000e-01	1.540490e+09	1.811348e+07	1.811348e+07
-7.000000e-01	-6.300000e-01	1.504197e+09	1.760438e+07	1.760438e+07
-6.300000e-01	-5.600000e-01	1.363488e+09	1.872824e+07	1.872824e+07
-5.600000e-01	-4.900000e-01	-3.686614e+08	1.567247e+09	1.567247e+09
-4.900000e-01	-4.200000e-01	9.563870e+08	2.031742e+07	2.031742e+07
-4.200000e-01	-3.500000e-01	6.847059e+08	1.334392e+07	1.334392e+07
-3.500000e-01	-2.800000e-01	3.511104e+08	1.197907e+07	1.197907e+07
-2.800000e-01	-2.100000e-01	1.054694e+08	4.282125e+06	4.282125e+06
-2.100000e-01	-1.400000e-01	1.446621e+07	1.309802e+06	1.309802e+06
-1.400000e-01	-7.000000e-02	3.186106e+05	3.226725e+05	3.226725e+05
-7.000000e-02	0.000000e+00	2.872996e+04	2.200887e+04	2.200887e+04
# END HISTO1D

