# BEGIN PLOT
LegendOnly=/zj_ps_nlo_mer_cent_R8.yoda/PAPER_FIN_R8_CH/lin_SD_l10_pT_186_254
DrawOnly=/zj_ps_nlo_mer_cent_R8.yoda/PAPER_FIN_R8_CH/lin_SD_l10_pT_186_254
Legend=1
LogY=1
# END PLOT

# BEGIN HISTO1D /zj_ps_nlo_mer_cent_R8.yoda/PAPER_FIN_R8_CH/lin_SD_l10_pT_186_254
LineColor=red
LineStyle=solid
Path=/zj_ps_nlo_mer_cent_R8.yoda/PAPER_FIN_R8_CH/lin_SD_l10_pT_186_254
Title=zj_ps_nlo_mer_cent_R8
XLabel=~
YLabel=~
# xlow	 xhigh	 val	 errminus	 errplus
0.000000e+00	1.250000e-02	4.413754e+10	2.823428e+08	2.823428e+08
1.250000e-02	2.250000e-02	4.381073e+10	7.557893e+08	7.557893e+08
2.250000e-02	3.500000e-02	2.392216e+10	7.689247e+08	7.689247e+08
3.500000e-02	5.000000e-02	1.305344e+10	1.088691e+08	1.088691e+08
5.000000e-02	7.000000e-02	8.957935e+09	8.634883e+07	8.634883e+07
7.000000e-02	9.500000e-02	6.568228e+09	7.287009e+07	7.287009e+07
9.500000e-02	1.280000e-01	5.466933e+09	4.838207e+07	4.838207e+07
1.280000e-01	1.700000e-01	4.442469e+09	6.906355e+07	6.906355e+07
1.700000e-01	2.250000e-01	3.273684e+09	3.078990e+07	3.078990e+07
2.250000e-01	2.900000e-01	5.644132e+08	1.687831e+09	1.687831e+09
2.900000e-01	3.650000e-01	1.389845e+09	2.358465e+07	2.358465e+07
3.650000e-01	4.500000e-01	7.319959e+08	1.569286e+07	1.569286e+07
4.500000e-01	1.000000e+00	5.669218e+07	1.657285e+06	1.657285e+06
# END HISTO1D

