# BEGIN PLOT
LegendOnly=/zj_ps_nlo_mer_mur1_muf2_R8.yoda/PAPER_FIN_R4/XS_CUTS_pT_254_326
DrawOnly=/zj_ps_nlo_mer_mur1_muf2_R8.yoda/PAPER_FIN_R4/XS_CUTS_pT_254_326
Legend=1
LogY=1
# END PLOT

# BEGIN HISTO1D /zj_ps_nlo_mer_mur1_muf2_R8.yoda/PAPER_FIN_R4/XS_CUTS_pT_254_326
LineColor=red
LineStyle=solid
Path=/zj_ps_nlo_mer_mur1_muf2_R8.yoda/PAPER_FIN_R4/XS_CUTS_pT_254_326
Title=zj_ps_nlo_mer_mur1_muf2_R8
XLabel=~
YLabel=~
# xlow	 xhigh	 val	 errminus	 errplus
-5.000000e-01	5.000000e-01	2.996294e+02	9.497369e+00	9.497369e+00
# END HISTO1D

