# BEGIN PLOT
LegendOnly=/zj_ps_nlo_mer_mur0.5_muf0.5_R8.yoda/PAPER_FIN_R8/l05_pT_65_88
DrawOnly=/zj_ps_nlo_mer_mur0.5_muf0.5_R8.yoda/PAPER_FIN_R8/l05_pT_65_88
Legend=1
LogY=1
# END PLOT

# BEGIN HISTO1D /zj_ps_nlo_mer_mur0.5_muf0.5_R8.yoda/PAPER_FIN_R8/l05_pT_65_88
LineColor=red
LineStyle=solid
Path=/zj_ps_nlo_mer_mur0.5_muf0.5_R8.yoda/PAPER_FIN_R8/l05_pT_65_88
Title=zj_ps_nlo_mer_mur0.5_muf0.5_R8
XLabel=~
YLabel=~
# xlow	 xhigh	 val	 errminus	 errplus
-7.000000e+00	-6.930000e+00	0.000000e+00	0.000000e+00	0.000000e+00
-6.930000e+00	-6.860000e+00	-1.837604e+05	1.837605e+05	1.837605e+05
-6.860000e+00	-6.790000e+00	0.000000e+00	0.000000e+00	0.000000e+00
-6.790000e+00	-6.720000e+00	0.000000e+00	0.000000e+00	0.000000e+00
-6.720000e+00	-6.650000e+00	0.000000e+00	0.000000e+00	0.000000e+00
-6.650000e+00	-6.580000e+00	0.000000e+00	0.000000e+00	0.000000e+00
-6.580000e+00	-6.510000e+00	0.000000e+00	0.000000e+00	0.000000e+00
-6.510000e+00	-6.440000e+00	0.000000e+00	0.000000e+00	0.000000e+00
-6.440000e+00	-6.370000e+00	0.000000e+00	0.000000e+00	0.000000e+00
-6.370000e+00	-6.300000e+00	0.000000e+00	0.000000e+00	0.000000e+00
-6.300000e+00	-6.230000e+00	0.000000e+00	0.000000e+00	0.000000e+00
-6.230000e+00	-6.160000e+00	0.000000e+00	0.000000e+00	0.000000e+00
-6.160000e+00	-6.090000e+00	0.000000e+00	0.000000e+00	0.000000e+00
-6.090000e+00	-6.020000e+00	0.000000e+00	0.000000e+00	0.000000e+00
-6.020000e+00	-5.950000e+00	0.000000e+00	0.000000e+00	0.000000e+00
-5.950000e+00	-5.880000e+00	0.000000e+00	0.000000e+00	0.000000e+00
-5.880000e+00	-5.810000e+00	0.000000e+00	0.000000e+00	0.000000e+00
-5.810000e+00	-5.740000e+00	0.000000e+00	0.000000e+00	0.000000e+00
-5.740000e+00	-5.670000e+00	0.000000e+00	0.000000e+00	0.000000e+00
-5.670000e+00	-5.600000e+00	0.000000e+00	0.000000e+00	0.000000e+00
-5.600000e+00	-5.530000e+00	0.000000e+00	0.000000e+00	0.000000e+00
-5.530000e+00	-5.460000e+00	0.000000e+00	0.000000e+00	0.000000e+00
-5.460000e+00	-5.390000e+00	0.000000e+00	0.000000e+00	0.000000e+00
-5.390000e+00	-5.320000e+00	0.000000e+00	0.000000e+00	0.000000e+00
-5.320000e+00	-5.250000e+00	0.000000e+00	0.000000e+00	0.000000e+00
-5.250000e+00	-5.180000e+00	0.000000e+00	0.000000e+00	0.000000e+00
-5.180000e+00	-5.110000e+00	0.000000e+00	0.000000e+00	0.000000e+00
-5.110000e+00	-5.040000e+00	0.000000e+00	0.000000e+00	0.000000e+00
-5.040000e+00	-4.970000e+00	0.000000e+00	0.000000e+00	0.000000e+00
-4.970000e+00	-4.900000e+00	0.000000e+00	0.000000e+00	0.000000e+00
-4.900000e+00	-4.830000e+00	0.000000e+00	0.000000e+00	0.000000e+00
-4.830000e+00	-4.760000e+00	0.000000e+00	0.000000e+00	0.000000e+00
-4.760000e+00	-4.690000e+00	0.000000e+00	0.000000e+00	0.000000e+00
-4.690000e+00	-4.620000e+00	0.000000e+00	0.000000e+00	0.000000e+00
-4.620000e+00	-4.550000e+00	0.000000e+00	0.000000e+00	0.000000e+00
-4.550000e+00	-4.480000e+00	0.000000e+00	0.000000e+00	0.000000e+00
-4.480000e+00	-4.410000e+00	0.000000e+00	0.000000e+00	0.000000e+00
-4.410000e+00	-4.340000e+00	0.000000e+00	0.000000e+00	0.000000e+00
-4.340000e+00	-4.270000e+00	0.000000e+00	0.000000e+00	0.000000e+00
-4.270000e+00	-4.200000e+00	0.000000e+00	0.000000e+00	0.000000e+00
-4.200000e+00	-4.130000e+00	0.000000e+00	0.000000e+00	0.000000e+00
-4.130000e+00	-4.060000e+00	0.000000e+00	0.000000e+00	0.000000e+00
-4.060000e+00	-3.990000e+00	0.000000e+00	0.000000e+00	0.000000e+00
-3.990000e+00	-3.920000e+00	0.000000e+00	0.000000e+00	0.000000e+00
-3.920000e+00	-3.850000e+00	0.000000e+00	0.000000e+00	0.000000e+00
-3.850000e+00	-3.780000e+00	0.000000e+00	0.000000e+00	0.000000e+00
-3.780000e+00	-3.710000e+00	0.000000e+00	0.000000e+00	0.000000e+00
-3.710000e+00	-3.640000e+00	0.000000e+00	0.000000e+00	0.000000e+00
-3.640000e+00	-3.570000e+00	0.000000e+00	0.000000e+00	0.000000e+00
-3.570000e+00	-3.500000e+00	0.000000e+00	0.000000e+00	0.000000e+00
-3.500000e+00	-3.430000e+00	0.000000e+00	0.000000e+00	0.000000e+00
-3.430000e+00	-3.360000e+00	0.000000e+00	0.000000e+00	0.000000e+00
-3.360000e+00	-3.290000e+00	0.000000e+00	0.000000e+00	0.000000e+00
-3.290000e+00	-3.220000e+00	0.000000e+00	0.000000e+00	0.000000e+00
-3.220000e+00	-3.150000e+00	0.000000e+00	0.000000e+00	0.000000e+00
-3.150000e+00	-3.080000e+00	0.000000e+00	0.000000e+00	0.000000e+00
-3.080000e+00	-3.010000e+00	0.000000e+00	0.000000e+00	0.000000e+00
-3.010000e+00	-2.940000e+00	0.000000e+00	0.000000e+00	0.000000e+00
-2.940000e+00	-2.870000e+00	0.000000e+00	0.000000e+00	0.000000e+00
-2.870000e+00	-2.800000e+00	0.000000e+00	0.000000e+00	0.000000e+00
-2.800000e+00	-2.730000e+00	0.000000e+00	0.000000e+00	0.000000e+00
-2.730000e+00	-2.660000e+00	0.000000e+00	0.000000e+00	0.000000e+00
-2.660000e+00	-2.590000e+00	0.000000e+00	0.000000e+00	0.000000e+00
-2.590000e+00	-2.520000e+00	0.000000e+00	0.000000e+00	0.000000e+00
-2.520000e+00	-2.450000e+00	-4.275274e+02	4.275275e+02	4.275275e+02
-2.450000e+00	-2.380000e+00	0.000000e+00	0.000000e+00	0.000000e+00
-2.380000e+00	-2.310000e+00	0.000000e+00	0.000000e+00	0.000000e+00
-2.310000e+00	-2.240000e+00	-7.397853e+03	8.329300e+03	8.329300e+03
-2.240000e+00	-2.170000e+00	2.701524e+04	2.700363e+04	2.700363e+04
-2.170000e+00	-2.100000e+00	1.520787e+06	1.521698e+06	1.521698e+06
-2.100000e+00	-2.030000e+00	4.397791e+05	4.226699e+05	4.226699e+05
-2.030000e+00	-1.960000e+00	8.298889e+05	6.858204e+05	6.858204e+05
-1.960000e+00	-1.890000e+00	1.276112e+06	1.188739e+06	1.188739e+06
-1.890000e+00	-1.820000e+00	2.171090e+05	4.477553e+05	4.477553e+05
-1.820000e+00	-1.750000e+00	-6.255027e+05	7.068109e+05	7.068109e+05
-1.750000e+00	-1.680000e+00	-2.703517e+06	4.746143e+06	4.746143e+06
-1.680000e+00	-1.610000e+00	8.950063e+06	7.300291e+06	7.300291e+06
-1.610000e+00	-1.540000e+00	2.197711e+07	1.045793e+07	1.045793e+07
-1.540000e+00	-1.470000e+00	4.130414e+07	1.174411e+07	1.174411e+07
-1.470000e+00	-1.400000e+00	1.072342e+08	3.887118e+07	3.887118e+07
-1.400000e+00	-1.330000e+00	1.304061e+08	4.232305e+07	4.232305e+07
-1.330000e+00	-1.260000e+00	1.283517e+08	6.302465e+07	6.302465e+07
-1.260000e+00	-1.190000e+00	2.554557e+08	3.819637e+07	3.819637e+07
-1.190000e+00	-1.120000e+00	5.555261e+08	6.413380e+07	6.413380e+07
-1.120000e+00	-1.050000e+00	1.081624e+09	1.084798e+08	1.084798e+08
-1.050000e+00	-9.800000e-01	2.463301e+09	1.564530e+08	1.564530e+08
-9.800000e-01	-9.100000e-01	4.743633e+09	2.515017e+08	2.515017e+08
-9.100000e-01	-8.400000e-01	9.693351e+09	4.561212e+08	4.561212e+08
-8.400000e-01	-7.700000e-01	2.065489e+10	5.402350e+08	5.402350e+08
-7.700000e-01	-7.000000e-01	4.013900e+10	2.564146e+09	2.564146e+09
-7.000000e-01	-6.300000e-01	5.909031e+10	3.235067e+09	3.235067e+09
-6.300000e-01	-5.600000e-01	7.564386e+10	1.750433e+09	1.750433e+09
-5.600000e-01	-4.900000e-01	8.146691e+10	1.940338e+09	1.940338e+09
-4.900000e-01	-4.200000e-01	7.958203e+10	2.628968e+09	2.628968e+09
-4.200000e-01	-3.500000e-01	6.705194e+10	2.012252e+09	2.012252e+09
-3.500000e-01	-2.800000e-01	4.778460e+10	8.462257e+08	8.462257e+08
-2.800000e-01	-2.100000e-01	2.854811e+10	5.796463e+08	5.796463e+08
-2.100000e-01	-1.400000e-01	8.944850e+09	4.277375e+08	4.277375e+08
-1.400000e-01	-7.000000e-02	7.075873e+08	7.301642e+07	7.301642e+07
-7.000000e-02	0.000000e+00	1.361373e+07	3.978454e+06	3.978454e+06
# END HISTO1D

