# BEGIN PLOT
LegendOnly=/zj_ps_nlo_mer_mur0.5_muf0.5_R8.yoda/PAPER_FIN_R8/lin_SD_l05_pT_65_88
DrawOnly=/zj_ps_nlo_mer_mur0.5_muf0.5_R8.yoda/PAPER_FIN_R8/lin_SD_l05_pT_65_88
Legend=1
LogY=1
# END PLOT

# BEGIN HISTO1D /zj_ps_nlo_mer_mur0.5_muf0.5_R8.yoda/PAPER_FIN_R8/lin_SD_l05_pT_65_88
LineColor=red
LineStyle=solid
Path=/zj_ps_nlo_mer_mur0.5_muf0.5_R8.yoda/PAPER_FIN_R8/lin_SD_l05_pT_65_88
Title=zj_ps_nlo_mer_mur0.5_muf0.5_R8
XLabel=~
YLabel=~
# xlow	 xhigh	 val	 errminus	 errplus
0.000000e+00	1.000000e-01	3.310925e+10	1.463456e+09	1.463456e+09
1.000000e-01	1.800000e-01	1.062178e+11	2.673021e+09	2.673021e+09
1.800000e-01	2.600000e-01	1.008667e+11	2.758581e+09	2.758581e+09
2.600000e-01	3.400000e-01	7.618441e+10	2.277318e+09	2.277318e+09
3.400000e-01	4.200000e-01	5.928658e+10	1.974893e+09	1.974893e+09
4.200000e-01	5.000000e-01	3.990315e+10	6.760255e+08	6.760255e+08
5.000000e-01	5.700000e-01	2.495710e+10	5.502931e+08	5.502931e+08
5.700000e-01	6.400000e-01	1.337460e+10	4.810995e+08	4.810995e+08
6.400000e-01	1.000000e+00	1.192606e+09	3.961507e+07	3.961507e+07
# END HISTO1D

