# BEGIN PLOT
LegendOnly=/zj_ps_nlo_mer_mur0.5_muf0.5_R8.yoda/PAPER_FIN_R8/SD_l05_pT_254_326
DrawOnly=/zj_ps_nlo_mer_mur0.5_muf0.5_R8.yoda/PAPER_FIN_R8/SD_l05_pT_254_326
Legend=1
LogY=1
# END PLOT

# BEGIN HISTO1D /zj_ps_nlo_mer_mur0.5_muf0.5_R8.yoda/PAPER_FIN_R8/SD_l05_pT_254_326
LineColor=red
LineStyle=solid
Path=/zj_ps_nlo_mer_mur0.5_muf0.5_R8.yoda/PAPER_FIN_R8/SD_l05_pT_254_326
Title=zj_ps_nlo_mer_mur0.5_muf0.5_R8
XLabel=~
YLabel=~
# xlow	 xhigh	 val	 errminus	 errplus
-7.000000e+00	-6.930000e+00	0.000000e+00	0.000000e+00	0.000000e+00
-6.930000e+00	-6.860000e+00	5.180289e+07	9.954647e+06	9.954647e+06
-6.860000e+00	-6.790000e+00	0.000000e+00	0.000000e+00	0.000000e+00
-6.790000e+00	-6.720000e+00	0.000000e+00	0.000000e+00	0.000000e+00
-6.720000e+00	-6.650000e+00	0.000000e+00	0.000000e+00	0.000000e+00
-6.650000e+00	-6.580000e+00	0.000000e+00	0.000000e+00	0.000000e+00
-6.580000e+00	-6.510000e+00	0.000000e+00	0.000000e+00	0.000000e+00
-6.510000e+00	-6.440000e+00	0.000000e+00	0.000000e+00	0.000000e+00
-6.440000e+00	-6.370000e+00	0.000000e+00	0.000000e+00	0.000000e+00
-6.370000e+00	-6.300000e+00	0.000000e+00	0.000000e+00	0.000000e+00
-6.300000e+00	-6.230000e+00	0.000000e+00	0.000000e+00	0.000000e+00
-6.230000e+00	-6.160000e+00	0.000000e+00	0.000000e+00	0.000000e+00
-6.160000e+00	-6.090000e+00	0.000000e+00	0.000000e+00	0.000000e+00
-6.090000e+00	-6.020000e+00	0.000000e+00	0.000000e+00	0.000000e+00
-6.020000e+00	-5.950000e+00	0.000000e+00	0.000000e+00	0.000000e+00
-5.950000e+00	-5.880000e+00	0.000000e+00	0.000000e+00	0.000000e+00
-5.880000e+00	-5.810000e+00	0.000000e+00	0.000000e+00	0.000000e+00
-5.810000e+00	-5.740000e+00	0.000000e+00	0.000000e+00	0.000000e+00
-5.740000e+00	-5.670000e+00	0.000000e+00	0.000000e+00	0.000000e+00
-5.670000e+00	-5.600000e+00	0.000000e+00	0.000000e+00	0.000000e+00
-5.600000e+00	-5.530000e+00	0.000000e+00	0.000000e+00	0.000000e+00
-5.530000e+00	-5.460000e+00	0.000000e+00	0.000000e+00	0.000000e+00
-5.460000e+00	-5.390000e+00	0.000000e+00	0.000000e+00	0.000000e+00
-5.390000e+00	-5.320000e+00	0.000000e+00	0.000000e+00	0.000000e+00
-5.320000e+00	-5.250000e+00	0.000000e+00	0.000000e+00	0.000000e+00
-5.250000e+00	-5.180000e+00	0.000000e+00	0.000000e+00	0.000000e+00
-5.180000e+00	-5.110000e+00	0.000000e+00	0.000000e+00	0.000000e+00
-5.110000e+00	-5.040000e+00	0.000000e+00	0.000000e+00	0.000000e+00
-5.040000e+00	-4.970000e+00	0.000000e+00	0.000000e+00	0.000000e+00
-4.970000e+00	-4.900000e+00	0.000000e+00	0.000000e+00	0.000000e+00
-4.900000e+00	-4.830000e+00	0.000000e+00	0.000000e+00	0.000000e+00
-4.830000e+00	-4.760000e+00	0.000000e+00	0.000000e+00	0.000000e+00
-4.760000e+00	-4.690000e+00	0.000000e+00	0.000000e+00	0.000000e+00
-4.690000e+00	-4.620000e+00	0.000000e+00	0.000000e+00	0.000000e+00
-4.620000e+00	-4.550000e+00	0.000000e+00	0.000000e+00	0.000000e+00
-4.550000e+00	-4.480000e+00	0.000000e+00	0.000000e+00	0.000000e+00
-4.480000e+00	-4.410000e+00	0.000000e+00	0.000000e+00	0.000000e+00
-4.410000e+00	-4.340000e+00	0.000000e+00	0.000000e+00	0.000000e+00
-4.340000e+00	-4.270000e+00	0.000000e+00	0.000000e+00	0.000000e+00
-4.270000e+00	-4.200000e+00	0.000000e+00	0.000000e+00	0.000000e+00
-4.200000e+00	-4.130000e+00	0.000000e+00	0.000000e+00	0.000000e+00
-4.130000e+00	-4.060000e+00	0.000000e+00	0.000000e+00	0.000000e+00
-4.060000e+00	-3.990000e+00	0.000000e+00	0.000000e+00	0.000000e+00
-3.990000e+00	-3.920000e+00	0.000000e+00	0.000000e+00	0.000000e+00
-3.920000e+00	-3.850000e+00	0.000000e+00	0.000000e+00	0.000000e+00
-3.850000e+00	-3.780000e+00	0.000000e+00	0.000000e+00	0.000000e+00
-3.780000e+00	-3.710000e+00	0.000000e+00	0.000000e+00	0.000000e+00
-3.710000e+00	-3.640000e+00	0.000000e+00	0.000000e+00	0.000000e+00
-3.640000e+00	-3.570000e+00	0.000000e+00	0.000000e+00	0.000000e+00
-3.570000e+00	-3.500000e+00	0.000000e+00	0.000000e+00	0.000000e+00
-3.500000e+00	-3.430000e+00	0.000000e+00	0.000000e+00	0.000000e+00
-3.430000e+00	-3.360000e+00	0.000000e+00	0.000000e+00	0.000000e+00
-3.360000e+00	-3.290000e+00	0.000000e+00	0.000000e+00	0.000000e+00
-3.290000e+00	-3.220000e+00	0.000000e+00	0.000000e+00	0.000000e+00
-3.220000e+00	-3.150000e+00	0.000000e+00	0.000000e+00	0.000000e+00
-3.150000e+00	-3.080000e+00	0.000000e+00	0.000000e+00	0.000000e+00
-3.080000e+00	-3.010000e+00	1.252781e-01	1.252781e-01	1.252781e-01
-3.010000e+00	-2.940000e+00	0.000000e+00	0.000000e+00	0.000000e+00
-2.940000e+00	-2.870000e+00	8.449976e+04	8.031784e+04	8.031784e+04
-2.870000e+00	-2.800000e+00	1.602197e+03	1.539021e+03	1.539021e+03
-2.800000e+00	-2.730000e+00	-7.440099e+03	7.263996e+03	7.263996e+03
-2.730000e+00	-2.660000e+00	1.090292e+04	7.854761e+03	7.854761e+03
-2.660000e+00	-2.590000e+00	6.651057e+04	7.011364e+04	7.011364e+04
-2.590000e+00	-2.520000e+00	-6.779666e+03	3.445870e+04	3.445870e+04
-2.520000e+00	-2.450000e+00	5.758243e+04	1.142957e+05	1.142957e+05
-2.450000e+00	-2.380000e+00	4.007191e+04	1.006333e+05	1.006333e+05
-2.380000e+00	-2.310000e+00	1.812223e+05	2.259141e+05	2.259141e+05
-2.310000e+00	-2.240000e+00	-4.034706e+05	1.470285e+06	1.470285e+06
-2.240000e+00	-2.170000e+00	1.314393e+06	1.026371e+06	1.026371e+06
-2.170000e+00	-2.100000e+00	1.874126e+06	9.592231e+05	9.592231e+05
-2.100000e+00	-2.030000e+00	1.384212e+07	3.863654e+06	3.863654e+06
-2.030000e+00	-1.960000e+00	1.528176e+07	3.219396e+06	3.219396e+06
-1.960000e+00	-1.890000e+00	2.600271e+07	6.505690e+06	6.505690e+06
-1.890000e+00	-1.820000e+00	-1.345045e+07	4.362147e+07	4.362147e+07
-1.820000e+00	-1.750000e+00	5.021257e+07	1.108885e+07	1.108885e+07
-1.750000e+00	-1.680000e+00	7.559480e+07	1.470635e+07	1.470635e+07
-1.680000e+00	-1.610000e+00	9.435329e+07	1.527993e+07	1.527993e+07
-1.610000e+00	-1.540000e+00	1.501517e+08	1.533877e+07	1.533877e+07
-1.540000e+00	-1.470000e+00	1.861216e+08	2.977216e+07	2.977216e+07
-1.470000e+00	-1.400000e+00	3.648823e+08	2.276483e+07	2.276483e+07
-1.400000e+00	-1.330000e+00	4.684834e+08	4.251521e+07	4.251521e+07
-1.330000e+00	-1.260000e+00	7.742777e+08	4.505135e+07	4.505135e+07
-1.260000e+00	-1.190000e+00	1.083976e+09	6.661887e+07	6.661887e+07
-1.190000e+00	-1.120000e+00	1.485656e+09	6.701448e+07	6.701448e+07
-1.120000e+00	-1.050000e+00	1.747289e+09	7.370465e+07	7.370465e+07
-1.050000e+00	-9.800000e-01	1.932247e+09	7.943063e+07	7.943063e+07
-9.800000e-01	-9.100000e-01	1.668657e+09	8.560337e+07	8.560337e+07
-9.100000e-01	-8.400000e-01	1.693027e+09	7.011533e+07	7.011533e+07
-8.400000e-01	-7.700000e-01	1.498299e+09	6.816337e+07	6.816337e+07
-7.700000e-01	-7.000000e-01	1.763456e+09	9.945721e+07	9.945721e+07
-7.000000e-01	-6.300000e-01	1.816613e+09	5.088857e+07	5.088857e+07
-6.300000e-01	-5.600000e-01	1.860549e+09	7.394161e+07	7.394161e+07
-5.600000e-01	-4.900000e-01	1.994934e+09	5.836759e+07	5.836759e+07
-4.900000e-01	-4.200000e-01	1.812081e+09	1.099156e+08	1.099156e+08
-4.200000e-01	-3.500000e-01	1.361697e+09	1.007161e+08	1.007161e+08
-3.500000e-01	-2.800000e-01	1.153957e+09	4.063048e+07	4.063048e+07
-2.800000e-01	-2.100000e-01	6.144211e+08	2.468229e+07	2.468229e+07
-2.100000e-01	-1.400000e-01	1.518453e+08	1.030289e+07	1.030289e+07
-1.400000e-01	-7.000000e-02	6.668706e+06	1.727285e+06	1.727285e+06
-7.000000e-02	0.000000e+00	6.290001e+02	8.372663e+02	8.372663e+02
# END HISTO1D

