# BEGIN PLOT
LegendOnly=/Resum_mult_NLO.yoda/CMS_2018_PAS_SMP_18_QGX_ZPJ/d12-x04-y07
DrawOnly=/Resum_mult_NLO.yoda/CMS_2018_PAS_SMP_18_QGX_ZPJ/d12-x04-y07
Legend=1
LogY=1
# END PLOT

# BEGIN HISTO1D /Resum_mult_NLO.yoda/CMS_2018_PAS_SMP_18_QGX_ZPJ/d12-x04-y07
LineColor=red
LineStyle=solid
Path=/Resum_mult_NLO.yoda/CMS_2018_PAS_SMP_18_QGX_ZPJ/d12-x04-y07
Title=Resum_mult_NLO
# xlow	 xhigh	 val	 errminus	 errplus
0.000000e+00	2.000000e-02	7.664259e+00	1.581115e+00	1.517574e+00
2.000000e-02	5.000000e-02	2.577515e+00	2.745003e-01	3.141311e-01
5.000000e-02	9.500000e-02	1.399713e+00	1.555675e-01	1.758160e-01
9.500000e-02	1.470000e-01	1.021107e+00	1.506821e-01	1.763523e-01
1.470000e-01	2.250000e-01	5.292413e-01	8.076024e-02	9.697139e-02
2.250000e-01	3.070000e-01	2.549494e-01	4.620348e-02	6.349261e-02
3.070000e-01	3.880000e-01	1.339312e-01	2.626982e-02	4.075307e-02
3.880000e-01	4.680000e-01	6.004104e-02	1.471762e-02	2.560855e-02
4.680000e-01	1.000000e+00	4.487874e-03	1.773684e-03	3.470896e-03
# END HISTO1D

