num,pt,eta,phi
0,199.666,-0.615684,2.34788
1,25.1548,2.84283,4.08815
2,4.04668,-3.99833,2.02866
3,0.418855,-4.16708,4.843
4,1.05722,3.19395,0.945961
5,0.652699,0.607507,5.47076
6,1.20589,0.600334,2.41384
7,1.30005,-4.19208,3.455
8,0.445016,-3.48078,3.44296
9,3.02712,-2.12025,3.56477
10,5.60325,3.37713,4.60358
11,0.123514,-2.33697,1.87423
12,1.48861,2.13316,3.45162
13,0.910358,-0.162244,2.04039
14,3.23265,-4.29576,2.14544
15,0.679967,1.01199,3.47619
16,1.71682,-2.88668,3.51609
17,5.33341,2.83295,3.9228
18,36.6047,-0.631149,2.35489
19,51.9714,-0.60186,2.3404
20,0.196434,2.00873,3.20482
21,0.70609,1.1554,2.72038
22,0.0873371,-0.318896,1.88782
23,0.37607,3.35136,3.95093
24,0.212058,-2.4958,2.11669
25,0.914799,-3.19435,2.96714
26,0.841997,0.139784,1.76265
27,0.490564,1.62197,4.33802
28,0.454576,0.250515,4.5586
29,0.824378,-3.025,4.45569
30,1.27154,1.63127,5.80482
31,6.85875,-2.33724,5.7098
32,199.666,-0.615684,2.34788
33,25.1548,2.84283,4.08815
34,4.04668,-3.99833,2.02866
35,0.418855,-4.16708,4.843
36,1.05722,3.19395,0.945961
37,0.652699,0.607507,5.47076
38,1.20589,0.600334,2.41384
39,1.30005,-4.19208,3.455
40,0.445016,-3.48078,3.44296
41,3.02712,-2.12025,3.56477
42,5.60325,3.37713,4.60358
43,0.123514,-2.33697,1.87423
44,1.48861,2.13316,3.45162
45,0.910358,-0.162244,2.04039
46,3.23265,-4.29576,2.14544
47,0.679967,1.01199,3.47619
48,1.71682,-2.88668,3.51609
49,5.33341,2.83295,3.9228
50,36.6047,-0.631149,2.35489
51,51.9714,-0.60186,2.3404
52,0.196434,2.00873,3.20482
53,0.70609,1.1554,2.72038
54,0.0873371,-0.318896,1.88782
55,0.37607,3.35136,3.95093
56,0.212058,-2.4958,2.11669
57,0.914799,-3.19435,2.96714
58,0.841997,0.139784,1.76265
59,0.490564,1.62197,4.33802
60,0.454576,0.250515,4.5586
61,0.824378,-3.025,4.45569
62,1.27154,1.63127,5.80482
63,6.85875,-2.33724,5.7098
