# BEGIN PLOT
LegendOnly=/zj_ps_nlo_mer_mur0.5_muf0.5_R8.yoda/PAPER_FIN_R8/ch_SD_l10_pT_186_254
DrawOnly=/zj_ps_nlo_mer_mur0.5_muf0.5_R8.yoda/PAPER_FIN_R8/ch_SD_l10_pT_186_254
Legend=1
LogY=1
# END PLOT

# BEGIN HISTO1D /zj_ps_nlo_mer_mur0.5_muf0.5_R8.yoda/PAPER_FIN_R8/ch_SD_l10_pT_186_254
LineColor=red
LineStyle=solid
Path=/zj_ps_nlo_mer_mur0.5_muf0.5_R8.yoda/PAPER_FIN_R8/ch_SD_l10_pT_186_254
Title=zj_ps_nlo_mer_mur0.5_muf0.5_R8
XLabel=~
YLabel=~
# xlow	 xhigh	 val	 errminus	 errplus
-7.000000e+00	-6.930000e+00	0.000000e+00	0.000000e+00	0.000000e+00
-6.930000e+00	-6.860000e+00	8.390949e+08	1.040821e+07	1.040821e+07
-6.860000e+00	-6.790000e+00	0.000000e+00	0.000000e+00	0.000000e+00
-6.790000e+00	-6.720000e+00	0.000000e+00	0.000000e+00	0.000000e+00
-6.720000e+00	-6.650000e+00	0.000000e+00	0.000000e+00	0.000000e+00
-6.650000e+00	-6.580000e+00	0.000000e+00	0.000000e+00	0.000000e+00
-6.580000e+00	-6.510000e+00	0.000000e+00	0.000000e+00	0.000000e+00
-6.510000e+00	-6.440000e+00	0.000000e+00	0.000000e+00	0.000000e+00
-6.440000e+00	-6.370000e+00	0.000000e+00	0.000000e+00	0.000000e+00
-6.370000e+00	-6.300000e+00	0.000000e+00	0.000000e+00	0.000000e+00
-6.300000e+00	-6.230000e+00	0.000000e+00	0.000000e+00	0.000000e+00
-6.230000e+00	-6.160000e+00	0.000000e+00	0.000000e+00	0.000000e+00
-6.160000e+00	-6.090000e+00	0.000000e+00	0.000000e+00	0.000000e+00
-6.090000e+00	-6.020000e+00	0.000000e+00	0.000000e+00	0.000000e+00
-6.020000e+00	-5.950000e+00	0.000000e+00	0.000000e+00	0.000000e+00
-5.950000e+00	-5.880000e+00	0.000000e+00	0.000000e+00	0.000000e+00
-5.880000e+00	-5.810000e+00	0.000000e+00	0.000000e+00	0.000000e+00
-5.810000e+00	-5.740000e+00	0.000000e+00	0.000000e+00	0.000000e+00
-5.740000e+00	-5.670000e+00	0.000000e+00	0.000000e+00	0.000000e+00
-5.670000e+00	-5.600000e+00	0.000000e+00	0.000000e+00	0.000000e+00
-5.600000e+00	-5.530000e+00	0.000000e+00	0.000000e+00	0.000000e+00
-5.530000e+00	-5.460000e+00	0.000000e+00	0.000000e+00	0.000000e+00
-5.460000e+00	-5.390000e+00	0.000000e+00	0.000000e+00	0.000000e+00
-5.390000e+00	-5.320000e+00	0.000000e+00	0.000000e+00	0.000000e+00
-5.320000e+00	-5.250000e+00	0.000000e+00	0.000000e+00	0.000000e+00
-5.250000e+00	-5.180000e+00	0.000000e+00	0.000000e+00	0.000000e+00
-5.180000e+00	-5.110000e+00	3.462266e+04	3.462265e+04	3.462265e+04
-5.110000e+00	-5.040000e+00	2.558877e+02	2.558878e+02	2.558878e+02
-5.040000e+00	-4.970000e+00	0.000000e+00	0.000000e+00	0.000000e+00
-4.970000e+00	-4.900000e+00	4.763060e+04	4.763062e+04	4.763062e+04
-4.900000e+00	-4.830000e+00	3.270174e+03	2.794519e+03	2.794519e+03
-4.830000e+00	-4.760000e+00	0.000000e+00	0.000000e+00	0.000000e+00
-4.760000e+00	-4.690000e+00	0.000000e+00	0.000000e+00	0.000000e+00
-4.690000e+00	-4.620000e+00	1.699269e+04	1.005711e+04	1.005711e+04
-4.620000e+00	-4.550000e+00	4.940353e+04	3.449736e+04	3.449736e+04
-4.550000e+00	-4.480000e+00	1.140854e+05	7.549311e+04	7.549311e+04
-4.480000e+00	-4.410000e+00	3.539223e+04	2.067112e+04	2.067112e+04
-4.410000e+00	-4.340000e+00	5.684391e+04	1.999108e+04	1.999108e+04
-4.340000e+00	-4.270000e+00	1.773654e+05	5.910677e+04	5.910677e+04
-4.270000e+00	-4.200000e+00	1.239818e+05	5.657949e+04	5.657949e+04
-4.200000e+00	-4.130000e+00	4.960579e+05	1.998194e+05	1.998194e+05
-4.130000e+00	-4.060000e+00	3.113464e+05	1.273536e+05	1.273536e+05
-4.060000e+00	-3.990000e+00	5.585909e+05	1.394474e+05	1.394474e+05
-3.990000e+00	-3.920000e+00	1.150621e+06	3.218040e+05	3.218040e+05
-3.920000e+00	-3.850000e+00	7.480289e+05	1.729952e+05	1.729952e+05
-3.850000e+00	-3.780000e+00	1.305151e+06	2.725950e+05	2.725950e+05
-3.780000e+00	-3.710000e+00	1.794529e+06	3.051937e+05	3.051937e+05
-3.710000e+00	-3.640000e+00	3.711039e+06	7.366323e+05	7.366323e+05
-3.640000e+00	-3.570000e+00	3.966279e+06	4.824923e+05	4.824923e+05
-3.570000e+00	-3.500000e+00	3.901100e+06	5.341767e+05	5.341767e+05
-3.500000e+00	-3.430000e+00	5.373001e+06	7.169144e+05	7.169144e+05
-3.430000e+00	-3.360000e+00	7.916673e+06	7.310186e+05	7.310186e+05
-3.360000e+00	-3.290000e+00	1.119033e+07	8.391967e+05	8.391967e+05
-3.290000e+00	-3.220000e+00	1.635926e+07	1.304514e+06	1.304514e+06
-3.220000e+00	-3.150000e+00	2.180341e+07	1.266717e+06	1.266717e+06
-3.150000e+00	-3.080000e+00	2.916159e+07	1.209936e+06	1.209936e+06
-3.080000e+00	-3.010000e+00	4.314840e+07	1.844197e+06	1.844197e+06
-3.010000e+00	-2.940000e+00	6.121657e+07	2.151718e+06	2.151718e+06
-2.940000e+00	-2.870000e+00	7.584443e+07	2.239137e+06	2.239137e+06
-2.870000e+00	-2.800000e+00	1.060850e+08	3.105029e+06	3.105029e+06
-2.800000e+00	-2.730000e+00	1.398483e+08	3.184969e+06	3.184969e+06
-2.730000e+00	-2.660000e+00	1.926881e+08	3.986210e+06	3.986210e+06
-2.660000e+00	-2.590000e+00	2.586427e+08	4.469788e+06	4.469788e+06
-2.590000e+00	-2.520000e+00	3.358481e+08	5.417903e+06	5.417903e+06
-2.520000e+00	-2.450000e+00	4.335843e+08	5.892394e+06	5.892394e+06
-2.450000e+00	-2.380000e+00	5.334727e+08	6.332685e+06	6.332685e+06
-2.380000e+00	-2.310000e+00	6.818496e+08	7.160701e+06	7.160701e+06
-2.310000e+00	-2.240000e+00	8.377930e+08	8.054622e+06	8.054622e+06
-2.240000e+00	-2.170000e+00	1.025815e+09	9.091909e+06	9.091909e+06
-2.170000e+00	-2.100000e+00	1.242748e+09	1.001098e+07	1.001098e+07
-2.100000e+00	-2.030000e+00	1.451199e+09	1.063832e+07	1.063832e+07
-2.030000e+00	-1.960000e+00	1.674460e+09	1.269605e+07	1.269605e+07
-1.960000e+00	-1.890000e+00	1.903006e+09	1.275607e+07	1.275607e+07
-1.890000e+00	-1.820000e+00	2.083289e+09	1.365300e+07	1.365300e+07
-1.820000e+00	-1.750000e+00	2.191111e+09	1.298956e+07	1.298956e+07
-1.750000e+00	-1.680000e+00	2.279043e+09	1.364319e+07	1.364319e+07
-1.680000e+00	-1.610000e+00	2.278044e+09	1.336004e+07	1.336004e+07
-1.610000e+00	-1.540000e+00	2.214823e+09	1.293175e+07	1.293175e+07
-1.540000e+00	-1.470000e+00	2.140449e+09	1.278670e+07	1.278670e+07
-1.470000e+00	-1.400000e+00	2.020786e+09	1.171876e+07	1.171876e+07
-1.400000e+00	-1.330000e+00	1.906019e+09	1.166976e+07	1.166976e+07
-1.330000e+00	-1.260000e+00	1.856114e+09	1.169440e+07	1.169440e+07
-1.260000e+00	-1.190000e+00	1.849760e+09	1.189844e+07	1.189844e+07
-1.190000e+00	-1.120000e+00	1.863906e+09	1.184016e+07	1.184016e+07
-1.120000e+00	-1.050000e+00	1.924681e+09	1.161407e+07	1.161407e+07
-1.050000e+00	-9.800000e-01	2.031676e+09	1.191291e+07	1.191291e+07
-9.800000e-01	-9.100000e-01	2.143593e+09	1.221223e+07	1.221223e+07
-9.100000e-01	-8.400000e-01	2.313267e+09	1.262965e+07	1.262965e+07
-8.400000e-01	-7.700000e-01	2.383256e+09	1.320227e+07	1.320227e+07
-7.700000e-01	-7.000000e-01	2.380664e+09	1.272504e+07	1.272504e+07
-7.000000e-01	-6.300000e-01	2.302566e+09	1.301686e+07	1.301686e+07
-6.300000e-01	-5.600000e-01	2.105514e+09	1.195940e+07	1.195940e+07
-5.600000e-01	-4.900000e-01	1.839783e+09	1.090970e+07	1.090970e+07
-4.900000e-01	-4.200000e-01	1.546749e+09	1.037255e+07	1.037255e+07
-4.200000e-01	-3.500000e-01	1.129903e+09	8.814450e+06	8.814450e+06
-3.500000e-01	-2.800000e-01	6.546224e+08	6.552954e+06	6.552954e+06
-2.800000e-01	-2.100000e-01	2.092337e+08	3.820458e+06	3.820458e+06
-2.100000e-01	-1.400000e-01	3.163740e+07	1.378468e+06	1.378468e+06
-1.400000e-01	-7.000000e-02	1.959224e+06	2.945291e+05	2.945291e+05
-7.000000e-02	0.000000e+00	9.854866e+04	8.841280e+04	8.841280e+04
# END HISTO1D

