# BEGIN PLOT
LegendOnly=/zj_ps_nlo_mer_mur0.5_muf0.5_R8.yoda/PAPER_FIN_R8/ch_l20_pT_254_326
DrawOnly=/zj_ps_nlo_mer_mur0.5_muf0.5_R8.yoda/PAPER_FIN_R8/ch_l20_pT_254_326
Legend=1
LogY=1
# END PLOT

# BEGIN HISTO1D /zj_ps_nlo_mer_mur0.5_muf0.5_R8.yoda/PAPER_FIN_R8/ch_l20_pT_254_326
LineColor=red
LineStyle=solid
Path=/zj_ps_nlo_mer_mur0.5_muf0.5_R8.yoda/PAPER_FIN_R8/ch_l20_pT_254_326
Title=zj_ps_nlo_mer_mur0.5_muf0.5_R8
XLabel=~
YLabel=~
# xlow	 xhigh	 val	 errminus	 errplus
-7.000000e+00	-6.930000e+00	0.000000e+00	0.000000e+00	0.000000e+00
-6.930000e+00	-6.860000e+00	9.424399e+05	1.958362e+05	1.958362e+05
-6.860000e+00	-6.790000e+00	0.000000e+00	0.000000e+00	0.000000e+00
-6.790000e+00	-6.720000e+00	0.000000e+00	0.000000e+00	0.000000e+00
-6.720000e+00	-6.650000e+00	0.000000e+00	0.000000e+00	0.000000e+00
-6.650000e+00	-6.580000e+00	1.337175e+03	1.337175e+03	1.337175e+03
-6.580000e+00	-6.510000e+00	0.000000e+00	0.000000e+00	0.000000e+00
-6.510000e+00	-6.440000e+00	0.000000e+00	0.000000e+00	0.000000e+00
-6.440000e+00	-6.370000e+00	1.732040e-01	1.732040e-01	1.732040e-01
-6.370000e+00	-6.300000e+00	0.000000e+00	0.000000e+00	0.000000e+00
-6.300000e+00	-6.230000e+00	0.000000e+00	0.000000e+00	0.000000e+00
-6.230000e+00	-6.160000e+00	0.000000e+00	0.000000e+00	0.000000e+00
-6.160000e+00	-6.090000e+00	1.278912e+02	1.278912e+02	1.278912e+02
-6.090000e+00	-6.020000e+00	0.000000e+00	0.000000e+00	0.000000e+00
-6.020000e+00	-5.950000e+00	1.948916e+04	1.948916e+04	1.948916e+04
-5.950000e+00	-5.880000e+00	0.000000e+00	0.000000e+00	0.000000e+00
-5.880000e+00	-5.810000e+00	3.872654e+00	3.872654e+00	3.872654e+00
-5.810000e+00	-5.740000e+00	0.000000e+00	0.000000e+00	0.000000e+00
-5.740000e+00	-5.670000e+00	6.769659e+02	6.687317e+02	6.687317e+02
-5.670000e+00	-5.600000e+00	6.080826e+03	5.006215e+03	5.006215e+03
-5.600000e+00	-5.530000e+00	0.000000e+00	0.000000e+00	0.000000e+00
-5.530000e+00	-5.460000e+00	2.835223e+04	2.715241e+04	2.715241e+04
-5.460000e+00	-5.390000e+00	1.383692e+04	1.031910e+04	1.031910e+04
-5.390000e+00	-5.320000e+00	2.179724e+04	1.934600e+04	1.934600e+04
-5.320000e+00	-5.250000e+00	3.505450e+04	2.435492e+04	2.435492e+04
-5.250000e+00	-5.180000e+00	4.942769e+04	3.180504e+04	3.180504e+04
-5.180000e+00	-5.110000e+00	1.291346e+04	9.599571e+03	9.599571e+03
-5.110000e+00	-5.040000e+00	2.885053e+04	2.558018e+04	2.558018e+04
-5.040000e+00	-4.970000e+00	1.019773e+04	5.188484e+03	5.188484e+03
-4.970000e+00	-4.900000e+00	1.202682e+04	8.923925e+03	8.923925e+03
-4.900000e+00	-4.830000e+00	6.307889e+04	4.110831e+04	4.110831e+04
-4.830000e+00	-4.760000e+00	3.782874e+04	2.077184e+04	2.077184e+04
-4.760000e+00	-4.690000e+00	1.005507e+05	5.742973e+04	5.742973e+04
-4.690000e+00	-4.620000e+00	9.837819e+04	6.511865e+04	6.511865e+04
-4.620000e+00	-4.550000e+00	5.034493e+05	4.612054e+05	4.612054e+05
-4.550000e+00	-4.480000e+00	8.065637e+04	3.572359e+04	3.572359e+04
-4.480000e+00	-4.410000e+00	1.023839e+05	5.252659e+04	5.252659e+04
-4.410000e+00	-4.340000e+00	1.030346e+05	4.432805e+04	4.432805e+04
-4.340000e+00	-4.270000e+00	2.216374e+05	7.981484e+04	7.981484e+04
-4.270000e+00	-4.200000e+00	1.974063e+05	5.485130e+04	5.485130e+04
-4.200000e+00	-4.130000e+00	3.558869e+05	1.182124e+05	1.182124e+05
-4.130000e+00	-4.060000e+00	4.224469e+05	1.134020e+05	1.134020e+05
-4.060000e+00	-3.990000e+00	3.977364e+05	9.740719e+04	9.740719e+04
-3.990000e+00	-3.920000e+00	6.092980e+05	1.746168e+05	1.746168e+05
-3.920000e+00	-3.850000e+00	9.152439e+05	1.883189e+05	1.883189e+05
-3.850000e+00	-3.780000e+00	8.854004e+05	1.660114e+05	1.660114e+05
-3.780000e+00	-3.710000e+00	1.733503e+06	3.319261e+05	3.319261e+05
-3.710000e+00	-3.640000e+00	1.918391e+06	3.976518e+05	3.976518e+05
-3.640000e+00	-3.570000e+00	1.925009e+06	2.516424e+05	2.516424e+05
-3.570000e+00	-3.500000e+00	2.199926e+06	2.378924e+05	2.378924e+05
-3.500000e+00	-3.430000e+00	3.399803e+06	3.922131e+05	3.922131e+05
-3.430000e+00	-3.360000e+00	4.638200e+06	5.331826e+05	5.331826e+05
-3.360000e+00	-3.290000e+00	4.700194e+06	4.164860e+05	4.164860e+05
-3.290000e+00	-3.220000e+00	7.574600e+06	6.316992e+05	6.316992e+05
-3.220000e+00	-3.150000e+00	8.850461e+06	1.023653e+06	1.023653e+06
-3.150000e+00	-3.080000e+00	1.340495e+07	8.171902e+05	8.171902e+05
-3.080000e+00	-3.010000e+00	1.677069e+07	1.095615e+06	1.095615e+06
-3.010000e+00	-2.940000e+00	2.105246e+07	1.061043e+06	1.061043e+06
-2.940000e+00	-2.870000e+00	2.882691e+07	1.297974e+06	1.297974e+06
-2.870000e+00	-2.800000e+00	3.741371e+07	1.520979e+06	1.520979e+06
-2.800000e+00	-2.730000e+00	4.870894e+07	2.043891e+06	2.043891e+06
-2.730000e+00	-2.660000e+00	6.258373e+07	1.930338e+06	1.930338e+06
-2.660000e+00	-2.590000e+00	8.495099e+07	2.762030e+06	2.762030e+06
-2.590000e+00	-2.520000e+00	1.202046e+08	2.921429e+06	2.921429e+06
-2.520000e+00	-2.450000e+00	1.588991e+08	3.517331e+06	3.517331e+06
-2.450000e+00	-2.380000e+00	2.045777e+08	3.864089e+06	3.864089e+06
-2.380000e+00	-2.310000e+00	2.527106e+08	4.047780e+06	4.047780e+06
-2.310000e+00	-2.240000e+00	3.222947e+08	4.634960e+06	4.634960e+06
-2.240000e+00	-2.170000e+00	3.968079e+08	5.242127e+06	5.242127e+06
-2.170000e+00	-2.100000e+00	5.008547e+08	5.942941e+06	5.942941e+06
-2.100000e+00	-2.030000e+00	5.868883e+08	6.895420e+06	6.895420e+06
-2.030000e+00	-1.960000e+00	6.931064e+08	6.794351e+06	6.794351e+06
-1.960000e+00	-1.890000e+00	7.955114e+08	7.771904e+06	7.771904e+06
-1.890000e+00	-1.820000e+00	8.915587e+08	7.817696e+06	7.817696e+06
-1.820000e+00	-1.750000e+00	9.920947e+08	8.689184e+06	8.689184e+06
-1.750000e+00	-1.680000e+00	1.082631e+09	9.088303e+06	9.088303e+06
-1.680000e+00	-1.610000e+00	1.113920e+09	8.962831e+06	8.962831e+06
-1.610000e+00	-1.540000e+00	1.145126e+09	8.530255e+06	8.530255e+06
-1.540000e+00	-1.470000e+00	1.167005e+09	8.694825e+06	8.694825e+06
-1.470000e+00	-1.400000e+00	1.155140e+09	8.613179e+06	8.613179e+06
-1.400000e+00	-1.330000e+00	1.099934e+09	8.014492e+06	8.014492e+06
-1.330000e+00	-1.260000e+00	1.055251e+09	8.303899e+06	8.303899e+06
-1.260000e+00	-1.190000e+00	9.907656e+08	8.057214e+06	8.057214e+06
-1.190000e+00	-1.120000e+00	9.013326e+08	7.012643e+06	7.012643e+06
-1.120000e+00	-1.050000e+00	8.457900e+08	7.128206e+06	7.128206e+06
-1.050000e+00	-9.800000e-01	7.679390e+08	7.340838e+06	7.340838e+06
-9.800000e-01	-9.100000e-01	6.818043e+08	6.585310e+06	6.585310e+06
-9.100000e-01	-8.400000e-01	6.086686e+08	6.037608e+06	6.037608e+06
-8.400000e-01	-7.700000e-01	5.211163e+08	5.491435e+06	5.491435e+06
-7.700000e-01	-7.000000e-01	4.326743e+08	5.061532e+06	5.061532e+06
-7.000000e-01	-6.300000e-01	3.235887e+08	3.914350e+06	3.914350e+06
-6.300000e-01	-5.600000e-01	1.828431e+08	3.065291e+06	3.065291e+06
-5.600000e-01	-4.900000e-01	5.777684e+07	1.760794e+06	1.760794e+06
-4.900000e-01	-4.200000e-01	9.149250e+06	5.737988e+05	5.737988e+05
-4.200000e-01	-3.500000e-01	8.744237e+05	2.527579e+05	2.527579e+05
-3.500000e-01	-2.800000e-01	7.705736e+00	7.705736e+00	7.705736e+00
-2.800000e-01	-2.100000e-01	0.000000e+00	0.000000e+00	0.000000e+00
-2.100000e-01	-1.400000e-01	0.000000e+00	0.000000e+00	0.000000e+00
-1.400000e-01	-7.000000e-02	0.000000e+00	0.000000e+00	0.000000e+00
-7.000000e-02	0.000000e+00	0.000000e+00	0.000000e+00	0.000000e+00
# END HISTO1D

