# BEGIN PLOT
LegendOnly=/zj_ps_nlo_mer_mur1_muf0.5_R8.yoda/PAPER_FIN_R4/SD_l10_pT_88_120
DrawOnly=/zj_ps_nlo_mer_mur1_muf0.5_R8.yoda/PAPER_FIN_R4/SD_l10_pT_88_120
Legend=1
LogY=1
# END PLOT

# BEGIN HISTO1D /zj_ps_nlo_mer_mur1_muf0.5_R8.yoda/PAPER_FIN_R4/SD_l10_pT_88_120
LineColor=red
LineStyle=solid
Path=/zj_ps_nlo_mer_mur1_muf0.5_R8.yoda/PAPER_FIN_R4/SD_l10_pT_88_120
Title=zj_ps_nlo_mer_mur1_muf0.5_R8
XLabel=~
YLabel=~
# xlow	 xhigh	 val	 errminus	 errplus
-7.000000e+00	-6.930000e+00	0.000000e+00	0.000000e+00	0.000000e+00
-6.930000e+00	-6.860000e+00	4.556171e+08	8.864789e+06	8.864789e+06
-6.860000e+00	-6.790000e+00	0.000000e+00	0.000000e+00	0.000000e+00
-6.790000e+00	-6.720000e+00	0.000000e+00	0.000000e+00	0.000000e+00
-6.720000e+00	-6.650000e+00	0.000000e+00	0.000000e+00	0.000000e+00
-6.650000e+00	-6.580000e+00	0.000000e+00	0.000000e+00	0.000000e+00
-6.580000e+00	-6.510000e+00	0.000000e+00	0.000000e+00	0.000000e+00
-6.510000e+00	-6.440000e+00	0.000000e+00	0.000000e+00	0.000000e+00
-6.440000e+00	-6.370000e+00	0.000000e+00	0.000000e+00	0.000000e+00
-6.370000e+00	-6.300000e+00	0.000000e+00	0.000000e+00	0.000000e+00
-6.300000e+00	-6.230000e+00	0.000000e+00	0.000000e+00	0.000000e+00
-6.230000e+00	-6.160000e+00	0.000000e+00	0.000000e+00	0.000000e+00
-6.160000e+00	-6.090000e+00	0.000000e+00	0.000000e+00	0.000000e+00
-6.090000e+00	-6.020000e+00	0.000000e+00	0.000000e+00	0.000000e+00
-6.020000e+00	-5.950000e+00	0.000000e+00	0.000000e+00	0.000000e+00
-5.950000e+00	-5.880000e+00	0.000000e+00	0.000000e+00	0.000000e+00
-5.880000e+00	-5.810000e+00	0.000000e+00	0.000000e+00	0.000000e+00
-5.810000e+00	-5.740000e+00	0.000000e+00	0.000000e+00	0.000000e+00
-5.740000e+00	-5.670000e+00	0.000000e+00	0.000000e+00	0.000000e+00
-5.670000e+00	-5.600000e+00	0.000000e+00	0.000000e+00	0.000000e+00
-5.600000e+00	-5.530000e+00	0.000000e+00	0.000000e+00	0.000000e+00
-5.530000e+00	-5.460000e+00	0.000000e+00	0.000000e+00	0.000000e+00
-5.460000e+00	-5.390000e+00	0.000000e+00	0.000000e+00	0.000000e+00
-5.390000e+00	-5.320000e+00	0.000000e+00	0.000000e+00	0.000000e+00
-5.320000e+00	-5.250000e+00	0.000000e+00	0.000000e+00	0.000000e+00
-5.250000e+00	-5.180000e+00	0.000000e+00	0.000000e+00	0.000000e+00
-5.180000e+00	-5.110000e+00	0.000000e+00	0.000000e+00	0.000000e+00
-5.110000e+00	-5.040000e+00	0.000000e+00	0.000000e+00	0.000000e+00
-5.040000e+00	-4.970000e+00	0.000000e+00	0.000000e+00	0.000000e+00
-4.970000e+00	-4.900000e+00	0.000000e+00	0.000000e+00	0.000000e+00
-4.900000e+00	-4.830000e+00	0.000000e+00	0.000000e+00	0.000000e+00
-4.830000e+00	-4.760000e+00	2.693246e+04	2.568543e+04	2.568543e+04
-4.760000e+00	-4.690000e+00	0.000000e+00	0.000000e+00	0.000000e+00
-4.690000e+00	-4.620000e+00	0.000000e+00	0.000000e+00	0.000000e+00
-4.620000e+00	-4.550000e+00	5.352566e+04	5.352566e+04	5.352566e+04
-4.550000e+00	-4.480000e+00	0.000000e+00	0.000000e+00	0.000000e+00
-4.480000e+00	-4.410000e+00	0.000000e+00	0.000000e+00	0.000000e+00
-4.410000e+00	-4.340000e+00	1.423971e+04	1.423971e+04	1.423971e+04
-4.340000e+00	-4.270000e+00	2.332926e+04	1.609900e+04	1.609900e+04
-4.270000e+00	-4.200000e+00	1.365450e+04	8.671036e+03	8.671036e+03
-4.200000e+00	-4.130000e+00	1.078725e+05	6.177874e+04	6.177874e+04
-4.130000e+00	-4.060000e+00	3.758729e+04	1.832396e+04	1.832396e+04
-4.060000e+00	-3.990000e+00	1.058723e+04	5.026055e+03	5.026055e+03
-3.990000e+00	-3.920000e+00	8.299214e+04	4.429237e+04	4.429237e+04
-3.920000e+00	-3.850000e+00	2.478841e+05	9.403424e+04	9.403424e+04
-3.850000e+00	-3.780000e+00	2.533724e+05	8.488078e+04	8.488078e+04
-3.780000e+00	-3.710000e+00	5.484936e+05	1.862067e+05	1.862067e+05
-3.710000e+00	-3.640000e+00	4.852027e+05	1.597634e+05	1.597634e+05
-3.640000e+00	-3.570000e+00	7.876741e+05	1.850631e+05	1.850631e+05
-3.570000e+00	-3.500000e+00	8.352831e+05	2.021985e+05	2.021985e+05
-3.500000e+00	-3.430000e+00	1.664277e+06	2.555499e+05	2.555499e+05
-3.430000e+00	-3.360000e+00	1.640939e+06	2.471630e+05	2.471630e+05
-3.360000e+00	-3.290000e+00	2.481153e+06	3.645850e+05	3.645850e+05
-3.290000e+00	-3.220000e+00	3.827067e+06	4.636440e+05	4.636440e+05
-3.220000e+00	-3.150000e+00	4.559400e+06	4.847684e+05	4.847684e+05
-3.150000e+00	-3.080000e+00	5.842421e+06	5.682948e+05	5.682948e+05
-3.080000e+00	-3.010000e+00	7.301857e+06	6.114758e+05	6.114758e+05
-3.010000e+00	-2.940000e+00	9.938109e+06	6.889697e+05	6.889697e+05
-2.940000e+00	-2.870000e+00	1.415391e+07	7.706382e+05	7.706382e+05
-2.870000e+00	-2.800000e+00	2.283301e+07	1.092620e+06	1.092620e+06
-2.800000e+00	-2.730000e+00	3.089699e+07	1.292518e+06	1.292518e+06
-2.730000e+00	-2.660000e+00	4.072877e+07	1.432911e+06	1.432911e+06
-2.660000e+00	-2.590000e+00	5.576753e+07	1.732404e+06	1.732404e+06
-2.590000e+00	-2.520000e+00	7.451369e+07	2.125665e+06	2.125665e+06
-2.520000e+00	-2.450000e+00	1.005709e+08	2.492192e+06	2.492192e+06
-2.450000e+00	-2.380000e+00	1.328029e+08	2.826945e+06	2.826945e+06
-2.380000e+00	-2.310000e+00	1.773720e+08	3.384789e+06	3.384789e+06
-2.310000e+00	-2.240000e+00	2.389339e+08	3.782569e+06	3.782569e+06
-2.240000e+00	-2.170000e+00	3.310320e+08	4.379891e+06	4.379891e+06
-2.170000e+00	-2.100000e+00	4.688883e+08	5.486562e+06	5.486562e+06
-2.100000e+00	-2.030000e+00	6.565626e+08	6.346432e+06	6.346432e+06
-2.030000e+00	-1.960000e+00	9.351543e+08	8.564604e+06	8.564604e+06
-1.960000e+00	-1.890000e+00	1.296460e+09	8.915498e+06	8.915498e+06
-1.890000e+00	-1.820000e+00	1.774714e+09	1.361045e+07	1.361045e+07
-1.820000e+00	-1.750000e+00	2.331340e+09	1.315711e+07	1.315711e+07
-1.750000e+00	-1.680000e+00	3.056791e+09	1.709335e+07	1.709335e+07
-1.680000e+00	-1.610000e+00	3.981346e+09	1.909625e+07	1.909625e+07
-1.610000e+00	-1.540000e+00	5.122039e+09	1.879909e+07	1.879909e+07
-1.540000e+00	-1.470000e+00	6.484274e+09	2.166605e+07	2.166605e+07
-1.470000e+00	-1.400000e+00	7.978759e+09	2.729207e+07	2.729207e+07
-1.400000e+00	-1.330000e+00	9.492553e+09	3.213663e+07	3.213663e+07
-1.330000e+00	-1.260000e+00	1.084432e+10	3.690739e+07	3.690739e+07
-1.260000e+00	-1.190000e+00	1.210255e+10	1.398980e+08	1.398980e+08
-1.190000e+00	-1.120000e+00	1.246514e+10	4.025078e+07	4.025078e+07
-1.120000e+00	-1.050000e+00	1.258204e+10	3.407361e+07	3.407361e+07
-1.050000e+00	-9.800000e-01	1.245262e+10	3.118950e+07	3.118950e+07
-9.800000e-01	-9.100000e-01	1.195677e+10	3.580203e+07	3.580203e+07
-9.100000e-01	-8.400000e-01	1.123402e+10	4.306028e+07	4.306028e+07
-8.400000e-01	-7.700000e-01	1.044263e+10	2.865669e+07	2.865669e+07
-7.700000e-01	-7.000000e-01	9.850420e+09	2.592519e+07	2.592519e+07
-7.000000e-01	-6.300000e-01	9.168374e+09	2.790532e+07	2.790532e+07
-6.300000e-01	-5.600000e-01	8.136234e+09	4.002916e+07	4.002916e+07
-5.600000e-01	-4.900000e-01	7.042414e+09	2.128446e+07	2.128446e+07
-4.900000e-01	-4.200000e-01	5.707971e+09	2.326454e+07	2.326454e+07
-4.200000e-01	-3.500000e-01	4.310291e+09	1.622470e+07	1.622470e+07
-3.500000e-01	-2.800000e-01	2.747443e+09	1.270703e+07	1.270703e+07
-2.800000e-01	-2.100000e-01	1.248912e+09	1.142988e+07	1.142988e+07
-2.100000e-01	-1.400000e-01	3.080934e+08	4.154107e+06	4.154107e+06
-1.400000e-01	-7.000000e-02	3.765223e+07	1.519537e+06	1.519537e+06
-7.000000e-02	0.000000e+00	2.075779e+06	2.758341e+05	2.758341e+05
# END HISTO1D

