# BEGIN PLOT
LegendOnly=/zj_ps_nlo_mer_mur1_muf0.5_R8.yoda/PAPER_FIN_R4/lin_l20_pT_88_120
DrawOnly=/zj_ps_nlo_mer_mur1_muf0.5_R8.yoda/PAPER_FIN_R4/lin_l20_pT_88_120
Legend=1
LogY=1
# END PLOT

# BEGIN HISTO1D /zj_ps_nlo_mer_mur1_muf0.5_R8.yoda/PAPER_FIN_R4/lin_l20_pT_88_120
LineColor=red
LineStyle=solid
Path=/zj_ps_nlo_mer_mur1_muf0.5_R8.yoda/PAPER_FIN_R4/lin_l20_pT_88_120
Title=zj_ps_nlo_mer_mur1_muf0.5_R8
XLabel=~
YLabel=~
# xlow	 xhigh	 val	 errminus	 errplus
0.000000e+00	5.000000e-02	1.377155e+11	2.308253e+08	2.308253e+08
5.000000e-02	9.000000e-02	8.260758e+10	1.238213e+08	1.238213e+08
9.000000e-02	1.500000e-01	3.036912e+10	7.138927e+07	7.138927e+07
1.500000e-01	2.050000e-01	1.205813e+10	3.752703e+07	3.752703e+07
2.050000e-01	1.000000e+00	6.037989e+08	1.878089e+06	1.878089e+06
# END HISTO1D

