# BEGIN PLOT
LegendOnly=/zj_ps_nlo_mer_mur1_muf2_R8.yoda/PAPER_FIN_R8/ch_SD_l05_pT_326_408
DrawOnly=/zj_ps_nlo_mer_mur1_muf2_R8.yoda/PAPER_FIN_R8/ch_SD_l05_pT_326_408
Legend=1
LogY=1
# END PLOT

# BEGIN HISTO1D /zj_ps_nlo_mer_mur1_muf2_R8.yoda/PAPER_FIN_R8/ch_SD_l05_pT_326_408
LineColor=red
LineStyle=solid
Path=/zj_ps_nlo_mer_mur1_muf2_R8.yoda/PAPER_FIN_R8/ch_SD_l05_pT_326_408
Title=zj_ps_nlo_mer_mur1_muf2_R8
XLabel=~
YLabel=~
# xlow	 xhigh	 val	 errminus	 errplus
-7.000000e+00	-6.930000e+00	0.000000e+00	0.000000e+00	0.000000e+00
-6.930000e+00	-6.860000e+00	6.216041e+09	2.644418e+07	2.644418e+07
-6.860000e+00	-6.790000e+00	0.000000e+00	0.000000e+00	0.000000e+00
-6.790000e+00	-6.720000e+00	0.000000e+00	0.000000e+00	0.000000e+00
-6.720000e+00	-6.650000e+00	0.000000e+00	0.000000e+00	0.000000e+00
-6.650000e+00	-6.580000e+00	0.000000e+00	0.000000e+00	0.000000e+00
-6.580000e+00	-6.510000e+00	0.000000e+00	0.000000e+00	0.000000e+00
-6.510000e+00	-6.440000e+00	0.000000e+00	0.000000e+00	0.000000e+00
-6.440000e+00	-6.370000e+00	0.000000e+00	0.000000e+00	0.000000e+00
-6.370000e+00	-6.300000e+00	0.000000e+00	0.000000e+00	0.000000e+00
-6.300000e+00	-6.230000e+00	0.000000e+00	0.000000e+00	0.000000e+00
-6.230000e+00	-6.160000e+00	0.000000e+00	0.000000e+00	0.000000e+00
-6.160000e+00	-6.090000e+00	0.000000e+00	0.000000e+00	0.000000e+00
-6.090000e+00	-6.020000e+00	0.000000e+00	0.000000e+00	0.000000e+00
-6.020000e+00	-5.950000e+00	0.000000e+00	0.000000e+00	0.000000e+00
-5.950000e+00	-5.880000e+00	0.000000e+00	0.000000e+00	0.000000e+00
-5.880000e+00	-5.810000e+00	0.000000e+00	0.000000e+00	0.000000e+00
-5.810000e+00	-5.740000e+00	0.000000e+00	0.000000e+00	0.000000e+00
-5.740000e+00	-5.670000e+00	0.000000e+00	0.000000e+00	0.000000e+00
-5.670000e+00	-5.600000e+00	0.000000e+00	0.000000e+00	0.000000e+00
-5.600000e+00	-5.530000e+00	0.000000e+00	0.000000e+00	0.000000e+00
-5.530000e+00	-5.460000e+00	0.000000e+00	0.000000e+00	0.000000e+00
-5.460000e+00	-5.390000e+00	0.000000e+00	0.000000e+00	0.000000e+00
-5.390000e+00	-5.320000e+00	0.000000e+00	0.000000e+00	0.000000e+00
-5.320000e+00	-5.250000e+00	0.000000e+00	0.000000e+00	0.000000e+00
-5.250000e+00	-5.180000e+00	0.000000e+00	0.000000e+00	0.000000e+00
-5.180000e+00	-5.110000e+00	0.000000e+00	0.000000e+00	0.000000e+00
-5.110000e+00	-5.040000e+00	0.000000e+00	0.000000e+00	0.000000e+00
-5.040000e+00	-4.970000e+00	0.000000e+00	0.000000e+00	0.000000e+00
-4.970000e+00	-4.900000e+00	0.000000e+00	0.000000e+00	0.000000e+00
-4.900000e+00	-4.830000e+00	0.000000e+00	0.000000e+00	0.000000e+00
-4.830000e+00	-4.760000e+00	0.000000e+00	0.000000e+00	0.000000e+00
-4.760000e+00	-4.690000e+00	0.000000e+00	0.000000e+00	0.000000e+00
-4.690000e+00	-4.620000e+00	0.000000e+00	0.000000e+00	0.000000e+00
-4.620000e+00	-4.550000e+00	0.000000e+00	0.000000e+00	0.000000e+00
-4.550000e+00	-4.480000e+00	0.000000e+00	0.000000e+00	0.000000e+00
-4.480000e+00	-4.410000e+00	0.000000e+00	0.000000e+00	0.000000e+00
-4.410000e+00	-4.340000e+00	0.000000e+00	0.000000e+00	0.000000e+00
-4.340000e+00	-4.270000e+00	0.000000e+00	0.000000e+00	0.000000e+00
-4.270000e+00	-4.200000e+00	0.000000e+00	0.000000e+00	0.000000e+00
-4.200000e+00	-4.130000e+00	0.000000e+00	0.000000e+00	0.000000e+00
-4.130000e+00	-4.060000e+00	0.000000e+00	0.000000e+00	0.000000e+00
-4.060000e+00	-3.990000e+00	0.000000e+00	0.000000e+00	0.000000e+00
-3.990000e+00	-3.920000e+00	0.000000e+00	0.000000e+00	0.000000e+00
-3.920000e+00	-3.850000e+00	0.000000e+00	0.000000e+00	0.000000e+00
-3.850000e+00	-3.780000e+00	0.000000e+00	0.000000e+00	0.000000e+00
-3.780000e+00	-3.710000e+00	0.000000e+00	0.000000e+00	0.000000e+00
-3.710000e+00	-3.640000e+00	0.000000e+00	0.000000e+00	0.000000e+00
-3.640000e+00	-3.570000e+00	0.000000e+00	0.000000e+00	0.000000e+00
-3.570000e+00	-3.500000e+00	0.000000e+00	0.000000e+00	0.000000e+00
-3.500000e+00	-3.430000e+00	0.000000e+00	0.000000e+00	0.000000e+00
-3.430000e+00	-3.360000e+00	0.000000e+00	0.000000e+00	0.000000e+00
-3.360000e+00	-3.290000e+00	0.000000e+00	0.000000e+00	0.000000e+00
-3.290000e+00	-3.220000e+00	0.000000e+00	0.000000e+00	0.000000e+00
-3.220000e+00	-3.150000e+00	0.000000e+00	0.000000e+00	0.000000e+00
-3.150000e+00	-3.080000e+00	0.000000e+00	0.000000e+00	0.000000e+00
-3.080000e+00	-3.010000e+00	0.000000e+00	0.000000e+00	0.000000e+00
-3.010000e+00	-2.940000e+00	0.000000e+00	0.000000e+00	0.000000e+00
-2.940000e+00	-2.870000e+00	1.034057e+02	1.034061e+02	1.034061e+02
-2.870000e+00	-2.800000e+00	-4.982299e+00	4.991049e+00	4.991049e+00
-2.800000e+00	-2.730000e+00	8.573371e-01	8.444902e-01	8.444902e-01
-2.730000e+00	-2.660000e+00	-3.046683e-01	3.160015e-01	3.160015e-01
-2.660000e+00	-2.590000e+00	-4.112051e+02	4.076717e+02	4.076717e+02
-2.590000e+00	-2.520000e+00	5.762677e+02	5.226067e+02	5.226067e+02
-2.520000e+00	-2.450000e+00	7.482354e+03	3.871428e+03	3.871428e+03
-2.450000e+00	-2.380000e+00	2.478954e+04	2.075496e+04	2.075496e+04
-2.380000e+00	-2.310000e+00	4.396827e+05	3.367665e+05	3.367665e+05
-2.310000e+00	-2.240000e+00	-8.187154e+04	7.265133e+04	7.265133e+04
-2.240000e+00	-2.170000e+00	1.909253e+05	1.042320e+05	1.042320e+05
-2.170000e+00	-2.100000e+00	4.573864e+04	3.205670e+04	3.205670e+04
-2.100000e+00	-2.030000e+00	-4.285016e+04	2.395783e+05	2.395783e+05
-2.030000e+00	-1.960000e+00	1.064879e+06	5.768702e+05	5.768702e+05
-1.960000e+00	-1.890000e+00	1.266391e+06	3.983095e+05	3.983095e+05
-1.890000e+00	-1.820000e+00	3.128597e+06	2.469150e+05	2.469150e+05
-1.820000e+00	-1.750000e+00	6.462550e+06	5.005566e+05	5.005566e+05
-1.750000e+00	-1.680000e+00	1.246293e+07	8.536761e+05	8.536761e+05
-1.680000e+00	-1.610000e+00	2.005859e+07	1.336564e+06	1.336564e+06
-1.610000e+00	-1.540000e+00	3.209807e+07	1.660704e+06	1.660704e+06
-1.540000e+00	-1.470000e+00	4.788387e+07	1.389065e+06	1.389065e+06
-1.470000e+00	-1.400000e+00	6.902956e+07	1.668392e+06	1.668392e+06
-1.400000e+00	-1.330000e+00	9.268984e+07	1.955819e+06	1.955819e+06
-1.330000e+00	-1.260000e+00	1.209387e+08	2.233913e+06	2.233913e+06
-1.260000e+00	-1.190000e+00	1.533967e+08	3.579925e+06	3.579925e+06
-1.190000e+00	-1.120000e+00	1.843841e+08	3.707430e+06	3.707430e+06
-1.120000e+00	-1.050000e+00	2.136679e+08	2.766606e+06	2.766606e+06
-1.050000e+00	-9.800000e-01	2.462614e+08	4.242193e+06	4.242193e+06
-9.800000e-01	-9.100000e-01	2.636644e+08	3.140651e+06	3.140651e+06
-9.100000e-01	-8.400000e-01	2.713697e+08	4.719821e+06	4.719821e+06
-8.400000e-01	-7.700000e-01	2.633099e+08	5.129037e+06	5.129037e+06
-7.700000e-01	-7.000000e-01	2.631720e+08	4.532565e+06	4.532565e+06
-7.000000e-01	-6.300000e-01	2.582083e+08	4.601688e+06	4.601688e+06
-6.300000e-01	-5.600000e-01	2.466783e+08	5.364467e+06	5.364467e+06
-5.600000e-01	-4.900000e-01	2.165407e+08	4.734506e+06	4.734506e+06
-4.900000e-01	-4.200000e-01	1.832506e+08	3.910401e+06	3.910401e+06
-4.200000e-01	-3.500000e-01	1.358375e+08	2.230315e+06	2.230315e+06
-3.500000e-01	-2.800000e-01	6.824419e+07	1.463269e+06	1.463269e+06
-2.800000e-01	-2.100000e-01	1.902646e+07	8.289610e+05	8.289610e+05
-2.100000e-01	-1.400000e-01	2.339067e+06	1.963318e+05	1.963318e+05
-1.400000e-01	-7.000000e-02	5.494674e+03	1.101333e+04	1.101333e+04
-7.000000e-02	0.000000e+00	0.000000e+00	0.000000e+00	0.000000e+00
# END HISTO1D

