# BEGIN PLOT
LegendOnly=/zj_ps_nlo_mer_mur1_muf2_R8.yoda/PAPER_FIN_R8_CH/lin_l20_pT_88_120
DrawOnly=/zj_ps_nlo_mer_mur1_muf2_R8.yoda/PAPER_FIN_R8_CH/lin_l20_pT_88_120
Legend=1
LogY=1
# END PLOT

# BEGIN HISTO1D /zj_ps_nlo_mer_mur1_muf2_R8.yoda/PAPER_FIN_R8_CH/lin_l20_pT_88_120
LineColor=red
LineStyle=solid
Path=/zj_ps_nlo_mer_mur1_muf2_R8.yoda/PAPER_FIN_R8_CH/lin_l20_pT_88_120
Title=zj_ps_nlo_mer_mur1_muf2_R8
XLabel=~
YLabel=~
# xlow	 xhigh	 val	 errminus	 errplus
0.000000e+00	5.000000e-03	1.698882e+08	1.658688e+07	1.658688e+07
5.000000e-03	1.250000e-02	9.427171e+07	2.853379e+07	2.853379e+07
1.250000e-02	2.250000e-02	-3.555742e+07	1.437437e+08	1.437437e+08
2.250000e-02	3.500000e-02	6.787662e+07	1.852342e+07	1.852342e+07
3.500000e-02	5.000000e-02	5.340385e+07	1.006317e+07	1.006317e+07
5.000000e-02	7.000000e-02	3.552141e+07	5.856537e+06	5.856537e+06
7.000000e-02	9.250000e-02	3.145352e+07	5.666980e+06	5.666980e+06
9.250000e-02	1.200000e-01	1.154992e+07	4.278534e+06	4.278534e+06
1.200000e-01	1.520000e-01	1.177815e+07	2.698677e+06	2.698677e+06
1.520000e-01	1.880000e-01	5.740883e+06	2.244425e+06	2.244425e+06
1.880000e-01	2.280000e-01	3.753312e+06	1.165122e+06	1.165122e+06
2.280000e-01	1.000000e+00	2.129702e+05	5.606283e+04	5.606283e+04
# END HISTO1D

