num,pt,eta,phi
0,1.66825,0.492755,4.98791
0,0.206805,-0.662511,4.2933
0,1.05109,-0.187361,4.12859
0,4.73104,-0.203239,4.75362
0,5.85772,-0.397768,4.52965
0,1.92257,0.0826103,4.55228
0,7.03623,-0.154781,4.51058
0,0.726423,-0.143918,4.38358
0,5.62261,-0.177437,4.43284
0,152.349,-0.12614,4.44308
0,43.195,-0.0890945,4.45471
