# BEGIN PLOT
LegendOnly=/scale_2.yoda/PAPER_FIN_R8/XS_CUTS_pT_50_65
DrawOnly=/scale_2.yoda/PAPER_FIN_R8/XS_CUTS_pT_50_65
Legend=1
LogY=1
# END PLOT

# BEGIN HISTO1D /scale_2.yoda/PAPER_FIN_R8/XS_CUTS_pT_50_65
LineColor=red
LineStyle=solid
Path=/scale_2.yoda/PAPER_FIN_R8/XS_CUTS_pT_50_65
Title=scale_2
XLabel=~
YLabel=~
# xlow	 xhigh	 val	 errminus	 errplus
-5.000000e-01	5.000000e-01	-3.785340e-05	2.184435e-03	2.184435e-03
# END HISTO1D

