# BEGIN PLOT
LegendOnly=/zj_ps_nlo_mer_cent_R8.yoda/PAPER_FIN_R8_CH/lin_SD_l05_pT_88_120
DrawOnly=/zj_ps_nlo_mer_cent_R8.yoda/PAPER_FIN_R8_CH/lin_SD_l05_pT_88_120
Legend=1
LogY=1
# END PLOT

# BEGIN HISTO1D /zj_ps_nlo_mer_cent_R8.yoda/PAPER_FIN_R8_CH/lin_SD_l05_pT_88_120
LineColor=red
LineStyle=solid
Path=/zj_ps_nlo_mer_cent_R8.yoda/PAPER_FIN_R8_CH/lin_SD_l05_pT_88_120
Title=zj_ps_nlo_mer_cent_R8
XLabel=~
YLabel=~
# xlow	 xhigh	 val	 errminus	 errplus
0.000000e+00	6.000000e-02	1.129516e+11	7.883296e+08	7.883296e+08
6.000000e-02	9.000000e-02	6.669547e+10	7.429299e+08	7.429299e+08
9.000000e-02	1.200000e-01	6.033277e+10	6.775425e+08	6.775425e+08
1.200000e-01	1.500000e-01	5.134037e+10	6.006794e+08	6.006794e+08
1.500000e-01	1.900000e-01	4.623170e+10	4.941828e+08	4.941828e+08
1.900000e-01	2.300000e-01	3.897252e+10	6.029189e+08	6.029189e+08
2.300000e-01	2.700000e-01	3.179395e+10	4.277890e+08	4.277890e+08
2.700000e-01	3.200000e-01	2.686894e+10	2.829478e+08	2.829478e+08
3.200000e-01	3.700000e-01	2.089710e+10	2.305155e+08	2.305155e+08
3.700000e-01	4.200000e-01	1.564800e+10	2.961359e+08	2.961359e+08
4.200000e-01	4.800000e-01	1.149038e+10	1.393513e+08	1.393513e+08
4.800000e-01	5.400000e-01	6.806247e+09	1.249251e+08	1.249251e+08
5.400000e-01	6.000000e-01	3.265797e+09	7.468560e+07	7.468560e+07
6.000000e-01	1.000000e+00	2.348682e+08	8.874377e+06	8.874377e+06
# END HISTO1D

