# BEGIN PLOT
LegendOnly=/zj_ps_nlo_mer_cent_R8.yoda/PAPER_FIN_R8_CH/lin_SD_l10_pT_65_88
DrawOnly=/zj_ps_nlo_mer_cent_R8.yoda/PAPER_FIN_R8_CH/lin_SD_l10_pT_65_88
Legend=1
LogY=1
# END PLOT

# BEGIN HISTO1D /zj_ps_nlo_mer_cent_R8.yoda/PAPER_FIN_R8_CH/lin_SD_l10_pT_65_88
LineColor=red
LineStyle=solid
Path=/zj_ps_nlo_mer_cent_R8.yoda/PAPER_FIN_R8_CH/lin_SD_l10_pT_65_88
Title=zj_ps_nlo_mer_cent_R8
XLabel=~
YLabel=~
# xlow	 xhigh	 val	 errminus	 errplus
0.000000e+00	1.250000e-02	7.172590e+11	4.437046e+09	4.437046e+09
1.250000e-02	2.250000e-02	1.149442e+11	1.517705e+09	1.517705e+09
2.250000e-02	3.500000e-02	2.095582e+11	1.931678e+09	1.931678e+09
3.500000e-02	5.000000e-02	1.522229e+11	1.643274e+09	1.643274e+09
5.000000e-02	7.000000e-02	1.207898e+11	1.051954e+09	1.051954e+09
7.000000e-02	9.500000e-02	9.739548e+10	1.031612e+09	1.031612e+09
9.500000e-02	1.280000e-01	7.880730e+10	7.877637e+08	7.877637e+08
1.280000e-01	1.700000e-01	6.108638e+10	5.666928e+08	5.666928e+08
1.700000e-01	2.250000e-01	4.498245e+10	4.453985e+08	4.453985e+08
2.250000e-01	2.900000e-01	3.044863e+10	3.257340e+08	3.257340e+08
2.900000e-01	3.650000e-01	1.912352e+10	2.299326e+08	2.299326e+08
3.650000e-01	4.500000e-01	1.062542e+10	1.932838e+08	1.932838e+08
4.500000e-01	1.000000e+00	9.281425e+08	1.838214e+07	1.838214e+07
# END HISTO1D

