# BEGIN PLOT
LegendOnly=/herwig_np_lo_r8_pt50_s1_1e3.yoda/PAPER_FIN_R8/lin_l10_pT_88_120
DrawOnly=/herwig_np_lo_r8_pt50_s1_1e3.yoda/PAPER_FIN_R8/lin_l10_pT_88_120
Legend=1
LogY=1
# END PLOT

# BEGIN HISTO1D /herwig_np_lo_r8_pt50_s1_1e3.yoda/PAPER_FIN_R8/lin_l10_pT_88_120
LineColor=red
LineStyle=solid
Path=/herwig_np_lo_r8_pt50_s1_1e3.yoda/PAPER_FIN_R8/lin_l10_pT_88_120
Title=herwig_np_lo_r8_pt50_s1_1e3
XLabel=~
YLabel=~
# xlow	 xhigh	 val	 errminus	 errplus
0.000000e+00	1.050000e-01	4.304707e+07	2.024944e+04	2.024944e+04
1.050000e-01	1.650000e-01	6.947328e+07	3.403121e+04	3.403121e+04
1.650000e-01	2.300000e-01	4.234963e+07	2.552597e+04	2.552597e+04
2.300000e-01	3.050000e-01	2.359567e+07	1.773900e+04	1.773900e+04
3.050000e-01	3.800000e-01	1.306427e+07	1.320086e+04	1.320086e+04
3.800000e-01	4.600000e-01	6.955280e+06	9.324886e+03	9.324886e+03
4.600000e-01	5.500000e-01	3.037854e+06	5.810541e+03	5.810541e+03
5.500000e-01	1.000000e+00	2.205844e+05	7.001735e+02	7.001735e+02
# END HISTO1D

