# BEGIN PLOT
LegendOnly=/herwig_np_lo_r8_pt50_s1_1e3.yoda/PAPER_FIN_R8/XS_CUTS_pT_326_408
DrawOnly=/herwig_np_lo_r8_pt50_s1_1e3.yoda/PAPER_FIN_R8/XS_CUTS_pT_326_408
Legend=1
LogY=1
# END PLOT

# BEGIN HISTO1D /herwig_np_lo_r8_pt50_s1_1e3.yoda/PAPER_FIN_R8/XS_CUTS_pT_326_408
LineColor=red
LineStyle=solid
Path=/herwig_np_lo_r8_pt50_s1_1e3.yoda/PAPER_FIN_R8/XS_CUTS_pT_326_408
Title=herwig_np_lo_r8_pt50_s1_1e3
XLabel=~
YLabel=~
# xlow	 xhigh	 val	 errminus	 errplus
-5.000000e-01	5.000000e-01	1.068117e+02	3.382744e+00	3.382744e+00
# END HISTO1D

