# BEGIN PLOT
LegendOnly=/zj_ps_nlo_mer_mur1_muf2_R4.yoda/PAPER_FIN_R4_CH/lin_SD_l10_pT_88_120
DrawOnly=/zj_ps_nlo_mer_mur1_muf2_R4.yoda/PAPER_FIN_R4_CH/lin_SD_l10_pT_88_120
Legend=1
LogY=1
# END PLOT

# BEGIN HISTO1D /zj_ps_nlo_mer_mur1_muf2_R4.yoda/PAPER_FIN_R4_CH/lin_SD_l10_pT_88_120
LineColor=red
LineStyle=solid
Path=/zj_ps_nlo_mer_mur1_muf2_R4.yoda/PAPER_FIN_R4_CH/lin_SD_l10_pT_88_120
Title=zj_ps_nlo_mer_mur1_muf2_R4
XLabel=~
YLabel=~
# xlow	 xhigh	 val	 errminus	 errplus
0.000000e+00	1.250000e-02	4.457234e+11	6.839156e+09	6.839156e+09
1.250000e-02	2.250000e-02	2.074043e+10	1.006253e+09	1.006253e+09
2.250000e-02	3.500000e-02	6.668407e+10	1.671663e+09	1.671663e+09
3.500000e-02	5.000000e-02	8.834793e+10	2.659612e+09	2.659612e+09
5.000000e-02	7.000000e-02	6.690065e+10	1.161684e+09	1.161684e+09
7.000000e-02	9.500000e-02	5.471164e+10	1.395579e+09	1.395579e+09
9.500000e-02	1.280000e-01	4.225318e+10	6.685506e+08	6.685506e+08
1.280000e-01	1.700000e-01	3.137848e+10	5.583296e+08	5.583296e+08
1.700000e-01	2.250000e-01	2.112947e+10	4.505239e+08	4.505239e+08
2.250000e-01	2.900000e-01	1.326698e+10	3.664438e+08	3.664438e+08
2.900000e-01	3.650000e-01	7.910088e+09	2.034687e+08	2.034687e+08
3.650000e-01	4.500000e-01	3.966953e+09	2.417882e+08	2.417882e+08
4.500000e-01	1.000000e+00	3.452929e+08	1.115035e+07	1.115035e+07
# END HISTO1D

