# BEGIN PLOT
LegendOnly=/zj_ps_nlo_mer_mur1_muf2_R4.yoda/PAPER_FIN_R4/SD_l20_pT_120_150
DrawOnly=/zj_ps_nlo_mer_mur1_muf2_R4.yoda/PAPER_FIN_R4/SD_l20_pT_120_150
Legend=1
LogY=1
# END PLOT

# BEGIN HISTO1D /zj_ps_nlo_mer_mur1_muf2_R4.yoda/PAPER_FIN_R4/SD_l20_pT_120_150
LineColor=red
LineStyle=solid
Path=/zj_ps_nlo_mer_mur1_muf2_R4.yoda/PAPER_FIN_R4/SD_l20_pT_120_150
Title=zj_ps_nlo_mer_mur1_muf2_R4
XLabel=~
YLabel=~
# xlow	 xhigh	 val	 errminus	 errplus
-7.000000e+00	-6.930000e+00	1.916106e+02	1.470406e+02	1.470406e+02
-6.930000e+00	-6.860000e+00	3.220067e+10	5.187863e+08	5.187863e+08
-6.860000e+00	-6.790000e+00	5.732537e+03	9.454355e+03	9.454355e+03
-6.790000e+00	-6.720000e+00	3.316413e+05	3.316131e+05	3.316131e+05
-6.720000e+00	-6.650000e+00	1.883914e+06	1.881916e+06	1.881916e+06
-6.650000e+00	-6.580000e+00	-1.528631e+04	7.500739e+04	7.500739e+04
-6.580000e+00	-6.510000e+00	-3.698391e+04	1.086806e+06	1.086806e+06
-6.510000e+00	-6.440000e+00	-1.586510e+03	4.897359e+03	4.897359e+03
-6.440000e+00	-6.370000e+00	1.185809e+07	1.173834e+07	1.173834e+07
-6.370000e+00	-6.300000e+00	7.781634e+04	5.970689e+04	5.970689e+04
-6.300000e+00	-6.230000e+00	6.118437e+05	3.941846e+05	3.941846e+05
-6.230000e+00	-6.160000e+00	2.480963e+06	1.814576e+06	1.814576e+06
-6.160000e+00	-6.090000e+00	2.895761e+05	2.120879e+05	2.120879e+05
-6.090000e+00	-6.020000e+00	1.938224e+05	1.544918e+05	1.544918e+05
-6.020000e+00	-5.950000e+00	9.714960e+05	5.837308e+05	5.837308e+05
-5.950000e+00	-5.880000e+00	3.882733e+05	4.740524e+05	4.740524e+05
-5.880000e+00	-5.810000e+00	-1.670289e+06	2.585620e+06	2.585620e+06
-5.810000e+00	-5.740000e+00	-9.841807e+04	7.076583e+05	7.076583e+05
-5.740000e+00	-5.670000e+00	8.245601e+06	6.247873e+06	6.247873e+06
-5.670000e+00	-5.600000e+00	-7.561886e+05	1.296513e+06	1.296513e+06
-5.600000e+00	-5.530000e+00	1.657896e+06	1.321016e+06	1.321016e+06
-5.530000e+00	-5.460000e+00	-5.855651e+05	1.036505e+06	1.036505e+06
-5.460000e+00	-5.390000e+00	-3.274540e+06	2.745496e+06	2.745496e+06
-5.390000e+00	-5.320000e+00	1.795177e+06	1.377970e+06	1.377970e+06
-5.320000e+00	-5.250000e+00	5.628113e+05	7.003158e+05	7.003158e+05
-5.250000e+00	-5.180000e+00	5.974794e+04	5.858630e+05	5.858630e+05
-5.180000e+00	-5.110000e+00	3.949119e+04	1.768757e+06	1.768757e+06
-5.110000e+00	-5.040000e+00	1.989254e+06	1.088854e+06	1.088854e+06
-5.040000e+00	-4.970000e+00	6.716049e+06	5.313126e+06	5.313126e+06
-4.970000e+00	-4.900000e+00	3.416073e+06	1.763529e+06	1.763529e+06
-4.900000e+00	-4.830000e+00	9.059723e+06	7.318192e+06	7.318192e+06
-4.830000e+00	-4.760000e+00	3.583271e+06	1.666839e+06	1.666839e+06
-4.760000e+00	-4.690000e+00	5.525211e+06	2.583371e+06	2.583371e+06
-4.690000e+00	-4.620000e+00	3.691740e+06	1.939171e+06	1.939171e+06
-4.620000e+00	-4.550000e+00	1.230244e+07	7.248017e+06	7.248017e+06
-4.550000e+00	-4.480000e+00	7.057994e+06	2.202109e+06	2.202109e+06
-4.480000e+00	-4.410000e+00	-1.535561e+06	4.365845e+06	4.365845e+06
-4.410000e+00	-4.340000e+00	-1.399418e+06	1.045442e+07	1.045442e+07
-4.340000e+00	-4.270000e+00	1.772594e+07	8.317660e+06	8.317660e+06
-4.270000e+00	-4.200000e+00	4.595799e+06	5.730155e+06	5.730155e+06
-4.200000e+00	-4.130000e+00	-4.779731e+06	1.021454e+07	1.021454e+07
-4.130000e+00	-4.060000e+00	7.320126e+06	5.330687e+06	5.330687e+06
-4.060000e+00	-3.990000e+00	8.739316e+06	4.102393e+06	4.102393e+06
-3.990000e+00	-3.920000e+00	1.785519e+07	4.200271e+06	4.200271e+06
-3.920000e+00	-3.850000e+00	7.974461e+06	5.940254e+06	5.940254e+06
-3.850000e+00	-3.780000e+00	2.498127e+07	7.193021e+06	7.193021e+06
-3.780000e+00	-3.710000e+00	3.097123e+07	6.905947e+06	6.905947e+06
-3.710000e+00	-3.640000e+00	2.010920e+07	1.031365e+07	1.031365e+07
-3.640000e+00	-3.570000e+00	3.041584e+07	7.240745e+06	7.240745e+06
-3.570000e+00	-3.500000e+00	6.127179e+07	1.567230e+07	1.567230e+07
-3.500000e+00	-3.430000e+00	4.566007e+07	1.583813e+07	1.583813e+07
-3.430000e+00	-3.360000e+00	7.958294e+07	1.091825e+07	1.091825e+07
-3.360000e+00	-3.290000e+00	1.615557e+08	1.713130e+07	1.713130e+07
-3.290000e+00	-3.220000e+00	2.719206e+08	2.165322e+07	2.165322e+07
-3.220000e+00	-3.150000e+00	3.372306e+08	2.952336e+07	2.952336e+07
-3.150000e+00	-3.080000e+00	4.602759e+08	3.528143e+07	3.528143e+07
-3.080000e+00	-3.010000e+00	5.349357e+08	4.387365e+07	4.387365e+07
-3.010000e+00	-2.940000e+00	3.906200e+08	2.642961e+08	2.642961e+08
-2.940000e+00	-2.870000e+00	8.417111e+08	4.787010e+07	4.787010e+07
-2.870000e+00	-2.800000e+00	6.143539e+08	3.572164e+08	3.572164e+08
-2.800000e+00	-2.730000e+00	1.127606e+09	6.546251e+07	6.546251e+07
-2.730000e+00	-2.660000e+00	1.324600e+09	6.550345e+07	6.550345e+07
-2.660000e+00	-2.590000e+00	1.417470e+09	7.404838e+07	7.404838e+07
-2.590000e+00	-2.520000e+00	1.542397e+09	8.579538e+07	8.579538e+07
-2.520000e+00	-2.450000e+00	1.791226e+09	7.195652e+07	7.195652e+07
-2.450000e+00	-2.380000e+00	1.937496e+09	8.209021e+07	8.209021e+07
-2.380000e+00	-2.310000e+00	1.881370e+09	1.365675e+08	1.365675e+08
-2.310000e+00	-2.240000e+00	2.106450e+09	1.046565e+08	1.046565e+08
-2.240000e+00	-2.170000e+00	2.053357e+09	8.349908e+07	8.349908e+07
-2.170000e+00	-2.100000e+00	2.209820e+09	8.263163e+07	8.263163e+07
-2.100000e+00	-2.030000e+00	2.198853e+09	8.624941e+07	8.624941e+07
-2.030000e+00	-1.960000e+00	2.349413e+09	1.206961e+08	1.206961e+08
-1.960000e+00	-1.890000e+00	2.323191e+09	9.794351e+07	9.794351e+07
-1.890000e+00	-1.820000e+00	2.310680e+09	7.510090e+07	7.510090e+07
-1.820000e+00	-1.750000e+00	2.368686e+09	1.069764e+08	1.069764e+08
-1.750000e+00	-1.680000e+00	2.364589e+09	1.039926e+08	1.039926e+08
-1.680000e+00	-1.610000e+00	2.483984e+09	1.296110e+08	1.296110e+08
-1.610000e+00	-1.540000e+00	2.513919e+09	1.194189e+08	1.194189e+08
-1.540000e+00	-1.470000e+00	2.353547e+09	9.275205e+07	9.275205e+07
-1.470000e+00	-1.400000e+00	2.382456e+09	7.663196e+07	7.663196e+07
-1.400000e+00	-1.330000e+00	2.477210e+09	8.509718e+07	8.509718e+07
-1.330000e+00	-1.260000e+00	2.382714e+09	9.552433e+07	9.552433e+07
-1.260000e+00	-1.190000e+00	2.118343e+09	1.482917e+08	1.482917e+08
-1.190000e+00	-1.120000e+00	2.596770e+09	9.947277e+07	9.947277e+07
-1.120000e+00	-1.050000e+00	2.815041e+09	9.796038e+07	9.796038e+07
-1.050000e+00	-9.800000e-01	2.851653e+09	9.945181e+07	9.945181e+07
-9.800000e-01	-9.100000e-01	2.560593e+09	8.782117e+07	8.782117e+07
-9.100000e-01	-8.400000e-01	2.298119e+09	8.144292e+07	8.144292e+07
-8.400000e-01	-7.700000e-01	2.025764e+09	1.147390e+08	1.147390e+08
-7.700000e-01	-7.000000e-01	1.658911e+09	8.328264e+07	8.328264e+07
-7.000000e-01	-6.300000e-01	1.374585e+09	4.805724e+07	4.805724e+07
-6.300000e-01	-5.600000e-01	8.464597e+08	5.804994e+07	5.804994e+07
-5.600000e-01	-4.900000e-01	2.756149e+08	2.052443e+07	2.052443e+07
-4.900000e-01	-4.200000e-01	9.626244e+07	3.691576e+07	3.691576e+07
-4.200000e-01	-3.500000e-01	4.283277e+06	2.032008e+06	2.032008e+06
-3.500000e-01	-2.800000e-01	3.519307e+04	2.888052e+04	2.888052e+04
-2.800000e-01	-2.100000e-01	0.000000e+00	0.000000e+00	0.000000e+00
-2.100000e-01	-1.400000e-01	0.000000e+00	0.000000e+00	0.000000e+00
-1.400000e-01	-7.000000e-02	0.000000e+00	0.000000e+00	0.000000e+00
-7.000000e-02	0.000000e+00	0.000000e+00	0.000000e+00	0.000000e+00
# END HISTO1D

