# BEGIN PLOT
LegendOnly=/pythia_np_pt50_s1_1e3.yoda/PAPER_FIN_R8/lin_l10_pT_150_186
DrawOnly=/pythia_np_pt50_s1_1e3.yoda/PAPER_FIN_R8/lin_l10_pT_150_186
Legend=1
LogY=1
# END PLOT

# BEGIN HISTO1D /pythia_np_pt50_s1_1e3.yoda/PAPER_FIN_R8/lin_l10_pT_150_186
LineColor=red
LineStyle=solid
Path=/pythia_np_pt50_s1_1e3.yoda/PAPER_FIN_R8/lin_l10_pT_150_186
Title=pythia_np_pt50_s1_1e3
XLabel=~
YLabel=~
# xlow	 xhigh	 val	 errminus	 errplus
0.000000e+00	1.050000e-01	1.257107e+07	1.094187e+04	1.094187e+04
1.050000e-01	1.650000e-01	1.054687e+07	1.325825e+04	1.325825e+04
1.650000e-01	2.300000e-01	5.198508e+06	8.942988e+03	8.942988e+03
2.300000e-01	3.050000e-01	2.729320e+06	6.032490e+03	6.032490e+03
3.050000e-01	3.800000e-01	1.483053e+06	4.446802e+03	4.446802e+03
3.800000e-01	4.600000e-01	7.764875e+05	3.115460e+03	3.115460e+03
4.600000e-01	5.500000e-01	3.267556e+05	1.905418e+03	1.905418e+03
5.500000e-01	1.000000e+00	1.964222e+04	2.089243e+02	2.089243e+02
# END HISTO1D

