# BEGIN PLOT
LegendOnly=/pythia_np_pt50_s1_1e3.yoda/PAPER_FIN_R4/ch_lin_SD_l10_pT_150_186
DrawOnly=/pythia_np_pt50_s1_1e3.yoda/PAPER_FIN_R4/ch_lin_SD_l10_pT_150_186
Legend=1
LogY=1
# END PLOT

# BEGIN HISTO1D /pythia_np_pt50_s1_1e3.yoda/PAPER_FIN_R4/ch_lin_SD_l10_pT_150_186
LineColor=red
LineStyle=solid
Path=/pythia_np_pt50_s1_1e3.yoda/PAPER_FIN_R4/ch_lin_SD_l10_pT_150_186
Title=pythia_np_pt50_s1_1e3
XLabel=~
YLabel=~
# xlow	 xhigh	 val	 errminus	 errplus
0.000000e+00	1.250000e-02	1.358688e+07	3.296893e+04	3.296893e+04
1.250000e-02	2.250000e-02	1.898580e+07	4.357270e+04	4.357270e+04
2.250000e-02	3.500000e-02	2.057592e+07	4.057183e+04	4.057183e+04
3.500000e-02	5.000000e-02	1.694507e+07	3.361058e+04	3.361058e+04
5.000000e-02	7.000000e-02	1.209210e+07	2.458872e+04	2.458872e+04
7.000000e-02	9.500000e-02	8.273800e+06	1.819209e+04	1.819209e+04
9.500000e-02	1.280000e-01	5.685545e+06	1.312590e+04	1.312590e+04
1.280000e-01	1.700000e-01	4.105905e+06	9.887347e+03	9.887347e+03
1.700000e-01	2.250000e-01	2.904600e+06	7.267111e+03	7.267111e+03
2.250000e-01	2.900000e-01	1.878846e+06	5.376367e+03	5.376367e+03
2.900000e-01	3.650000e-01	1.117240e+06	3.859603e+03	3.859603e+03
3.650000e-01	4.500000e-01	5.942588e+05	2.644103e+03	2.644103e+03
4.500000e-01	1.000000e+00	5.515273e+04	3.166665e+02	3.166665e+02
# END HISTO1D

