# BEGIN PLOT
LegendOnly=/pythia_np_pt50_s1_1e3.yoda/PAPER_FIN_R4/ch_lin_l10_pT_150_186
DrawOnly=/pythia_np_pt50_s1_1e3.yoda/PAPER_FIN_R4/ch_lin_l10_pT_150_186
Legend=1
LogY=1
# END PLOT

# BEGIN HISTO1D /pythia_np_pt50_s1_1e3.yoda/PAPER_FIN_R4/ch_lin_l10_pT_150_186
LineColor=red
LineStyle=solid
Path=/pythia_np_pt50_s1_1e3.yoda/PAPER_FIN_R4/ch_lin_l10_pT_150_186
Title=pythia_np_pt50_s1_1e3
XLabel=~
YLabel=~
# xlow	 xhigh	 val	 errminus	 errplus
0.000000e+00	2.250000e-02	1.362533e+06	7.781840e+03	7.781840e+03
2.250000e-02	4.000000e-02	7.150857e+06	2.021436e+04	2.021436e+04
4.000000e-02	5.750000e-02	1.332783e+07	2.759692e+04	2.759692e+04
5.750000e-02	7.750000e-02	1.494215e+07	2.733327e+04	2.733327e+04
7.750000e-02	1.000000e-01	1.297356e+07	2.401255e+04	2.401255e+04
1.000000e-01	1.250000e-01	1.016932e+07	2.016861e+04	2.016861e+04
1.250000e-01	1.520000e-01	7.677481e+06	1.686272e+04	1.686272e+04
1.520000e-01	1.850000e-01	5.607970e+06	1.303605e+04	1.303605e+04
1.850000e-01	2.200000e-01	3.996486e+06	1.068575e+04	1.068575e+04
2.200000e-01	2.600000e-01	2.813800e+06	8.387193e+03	8.387193e+03
2.600000e-01	3.070000e-01	1.902149e+06	6.361702e+03	6.361702e+03
3.070000e-01	3.620000e-01	1.232182e+06	4.733213e+03	4.733213e+03
3.620000e-01	4.250000e-01	7.387460e+05	3.424343e+03	3.424343e+03
4.250000e-01	4.970000e-01	3.855972e+05	2.314199e+03	2.314199e+03
4.970000e-01	1.000000e+00	3.194831e+04	2.520229e+02	2.520229e+02
# END HISTO1D

