# BEGIN PLOT
LegendOnly=/pythia_np_pt50_s1_1e3.yoda/PAPER_FIN_R8/l20_pT_120_150
DrawOnly=/pythia_np_pt50_s1_1e3.yoda/PAPER_FIN_R8/l20_pT_120_150
Legend=1
LogY=1
# END PLOT

# BEGIN HISTO1D /pythia_np_pt50_s1_1e3.yoda/PAPER_FIN_R8/l20_pT_120_150
LineColor=red
LineStyle=solid
Path=/pythia_np_pt50_s1_1e3.yoda/PAPER_FIN_R8/l20_pT_120_150
Title=pythia_np_pt50_s1_1e3
XLabel=~
YLabel=~
# xlow	 xhigh	 val	 errminus	 errplus
-7.000000e+00	-6.930000e+00	0.000000e+00	0.000000e+00	0.000000e+00
-6.930000e+00	-6.860000e+00	1.000000e+02	3.779645e+01	3.779645e+01
-6.860000e+00	-6.790000e+00	0.000000e+00	0.000000e+00	0.000000e+00
-6.790000e+00	-6.720000e+00	0.000000e+00	0.000000e+00	0.000000e+00
-6.720000e+00	-6.650000e+00	0.000000e+00	0.000000e+00	0.000000e+00
-6.650000e+00	-6.580000e+00	0.000000e+00	0.000000e+00	0.000000e+00
-6.580000e+00	-6.510000e+00	0.000000e+00	0.000000e+00	0.000000e+00
-6.510000e+00	-6.440000e+00	0.000000e+00	0.000000e+00	0.000000e+00
-6.440000e+00	-6.370000e+00	0.000000e+00	0.000000e+00	0.000000e+00
-6.370000e+00	-6.300000e+00	0.000000e+00	0.000000e+00	0.000000e+00
-6.300000e+00	-6.230000e+00	0.000000e+00	0.000000e+00	0.000000e+00
-6.230000e+00	-6.160000e+00	0.000000e+00	0.000000e+00	0.000000e+00
-6.160000e+00	-6.090000e+00	0.000000e+00	0.000000e+00	0.000000e+00
-6.090000e+00	-6.020000e+00	0.000000e+00	0.000000e+00	0.000000e+00
-6.020000e+00	-5.950000e+00	0.000000e+00	0.000000e+00	0.000000e+00
-5.950000e+00	-5.880000e+00	0.000000e+00	0.000000e+00	0.000000e+00
-5.880000e+00	-5.810000e+00	0.000000e+00	0.000000e+00	0.000000e+00
-5.810000e+00	-5.740000e+00	0.000000e+00	0.000000e+00	0.000000e+00
-5.740000e+00	-5.670000e+00	0.000000e+00	0.000000e+00	0.000000e+00
-5.670000e+00	-5.600000e+00	0.000000e+00	0.000000e+00	0.000000e+00
-5.600000e+00	-5.530000e+00	0.000000e+00	0.000000e+00	0.000000e+00
-5.530000e+00	-5.460000e+00	0.000000e+00	0.000000e+00	0.000000e+00
-5.460000e+00	-5.390000e+00	0.000000e+00	0.000000e+00	0.000000e+00
-5.390000e+00	-5.320000e+00	0.000000e+00	0.000000e+00	0.000000e+00
-5.320000e+00	-5.250000e+00	0.000000e+00	0.000000e+00	0.000000e+00
-5.250000e+00	-5.180000e+00	0.000000e+00	0.000000e+00	0.000000e+00
-5.180000e+00	-5.110000e+00	0.000000e+00	0.000000e+00	0.000000e+00
-5.110000e+00	-5.040000e+00	0.000000e+00	0.000000e+00	0.000000e+00
-5.040000e+00	-4.970000e+00	0.000000e+00	0.000000e+00	0.000000e+00
-4.970000e+00	-4.900000e+00	0.000000e+00	0.000000e+00	0.000000e+00
-4.900000e+00	-4.830000e+00	0.000000e+00	0.000000e+00	0.000000e+00
-4.830000e+00	-4.760000e+00	0.000000e+00	0.000000e+00	0.000000e+00
-4.760000e+00	-4.690000e+00	0.000000e+00	0.000000e+00	0.000000e+00
-4.690000e+00	-4.620000e+00	0.000000e+00	0.000000e+00	0.000000e+00
-4.620000e+00	-4.550000e+00	1.428571e+01	1.428571e+01	1.428571e+01
-4.550000e+00	-4.480000e+00	0.000000e+00	0.000000e+00	0.000000e+00
-4.480000e+00	-4.410000e+00	0.000000e+00	0.000000e+00	0.000000e+00
-4.410000e+00	-4.340000e+00	1.428571e+01	1.428571e+01	1.428571e+01
-4.340000e+00	-4.270000e+00	0.000000e+00	0.000000e+00	0.000000e+00
-4.270000e+00	-4.200000e+00	0.000000e+00	0.000000e+00	0.000000e+00
-4.200000e+00	-4.130000e+00	0.000000e+00	0.000000e+00	0.000000e+00
-4.130000e+00	-4.060000e+00	0.000000e+00	0.000000e+00	0.000000e+00
-4.060000e+00	-3.990000e+00	0.000000e+00	0.000000e+00	0.000000e+00
-3.990000e+00	-3.920000e+00	2.857143e+01	2.020305e+01	2.020305e+01
-3.920000e+00	-3.850000e+00	0.000000e+00	0.000000e+00	0.000000e+00
-3.850000e+00	-3.780000e+00	1.428571e+01	1.428571e+01	1.428571e+01
-3.780000e+00	-3.710000e+00	2.857143e+01	2.020305e+01	2.020305e+01
-3.710000e+00	-3.640000e+00	4.285714e+01	2.474358e+01	2.474358e+01
-3.640000e+00	-3.570000e+00	7.142857e+01	3.194383e+01	3.194383e+01
-3.570000e+00	-3.500000e+00	5.714286e+01	2.857143e+01	2.857143e+01
-3.500000e+00	-3.430000e+00	2.857143e+01	2.020305e+01	2.020305e+01
-3.430000e+00	-3.360000e+00	1.714286e+02	4.948717e+01	4.948717e+01
-3.360000e+00	-3.290000e+00	2.142857e+02	5.532833e+01	5.532833e+01
-3.290000e+00	-3.220000e+00	3.571429e+02	7.142857e+01	7.142857e+01
-3.220000e+00	-3.150000e+00	5.142857e+02	8.571429e+01	8.571429e+01
-3.150000e+00	-3.080000e+00	5.428571e+02	8.806306e+01	8.806306e+01
-3.080000e+00	-3.010000e+00	6.428571e+02	9.583148e+01	9.583148e+01
-3.010000e+00	-2.940000e+00	1.314286e+03	1.370238e+02	1.370238e+02
-2.940000e+00	-2.870000e+00	1.800000e+03	1.603567e+02	1.603567e+02
-2.870000e+00	-2.800000e+00	2.628571e+03	1.937809e+02	1.937809e+02
-2.800000e+00	-2.730000e+00	4.057143e+03	2.407471e+02	2.407471e+02
-2.730000e+00	-2.660000e+00	6.028571e+03	2.934663e+02	2.934663e+02
-2.660000e+00	-2.590000e+00	1.061429e+04	3.894004e+02	3.894004e+02
-2.590000e+00	-2.520000e+00	1.695714e+04	4.921838e+02	4.921838e+02
-2.520000e+00	-2.450000e+00	2.602857e+04	6.097842e+02	6.097842e+02
-2.450000e+00	-2.380000e+00	4.267143e+04	7.807636e+02	7.807636e+02
-2.380000e+00	-2.310000e+00	7.267143e+04	1.018903e+03	1.018903e+03
-2.310000e+00	-2.240000e+00	1.136714e+05	1.274315e+03	1.274315e+03
-2.240000e+00	-2.170000e+00	1.828286e+05	1.616118e+03	1.616118e+03
-2.170000e+00	-2.100000e+00	2.872571e+05	2.025753e+03	2.025753e+03
-2.100000e+00	-2.030000e+00	4.462286e+05	2.524816e+03	2.524816e+03
-2.030000e+00	-1.960000e+00	6.666857e+05	3.086111e+03	3.086111e+03
-1.960000e+00	-1.890000e+00	9.767571e+05	3.735462e+03	3.735462e+03
-1.890000e+00	-1.820000e+00	1.380986e+06	4.441663e+03	4.441663e+03
-1.820000e+00	-1.750000e+00	1.883229e+06	5.186836e+03	5.186836e+03
-1.750000e+00	-1.680000e+00	2.460000e+06	5.928141e+03	5.928141e+03
-1.680000e+00	-1.610000e+00	3.098757e+06	6.653417e+03	6.653417e+03
-1.610000e+00	-1.540000e+00	3.762771e+06	7.331704e+03	7.331704e+03
-1.540000e+00	-1.470000e+00	4.389471e+06	7.918758e+03	7.918758e+03
-1.470000e+00	-1.400000e+00	4.944414e+06	8.404433e+03	8.404433e+03
-1.400000e+00	-1.330000e+00	5.317757e+06	8.715960e+03	8.715960e+03
-1.330000e+00	-1.260000e+00	5.470957e+06	8.840618e+03	8.840618e+03
-1.260000e+00	-1.190000e+00	5.353200e+06	8.744958e+03	8.744958e+03
-1.190000e+00	-1.120000e+00	5.027457e+06	8.474716e+03	8.474716e+03
-1.120000e+00	-1.050000e+00	4.497757e+06	8.015839e+03	8.015839e+03
-1.050000e+00	-9.800000e-01	3.884143e+06	7.449010e+03	7.449010e+03
-9.800000e-01	-9.100000e-01	3.261071e+06	6.825448e+03	6.825448e+03
-9.100000e-01	-8.400000e-01	2.714729e+06	6.227506e+03	6.227506e+03
-8.400000e-01	-7.700000e-01	2.218257e+06	5.629333e+03	5.629333e+03
-7.700000e-01	-7.000000e-01	1.749029e+06	4.998612e+03	4.998612e+03
-7.000000e-01	-6.300000e-01	1.310971e+06	4.327605e+03	4.327605e+03
-6.300000e-01	-5.600000e-01	8.999143e+05	3.585515e+03	3.585515e+03
-5.600000e-01	-4.900000e-01	4.540714e+05	2.546907e+03	2.546907e+03
-4.900000e-01	-4.200000e-01	1.344286e+05	1.385788e+03	1.385788e+03
-4.200000e-01	-3.500000e-01	2.420000e+04	5.879747e+02	5.879747e+02
-3.500000e-01	-2.800000e-01	1.900000e+03	1.647509e+02	1.647509e+02
-2.800000e-01	-2.100000e-01	1.428571e+01	1.428571e+01	1.428571e+01
-2.100000e-01	-1.400000e-01	0.000000e+00	0.000000e+00	0.000000e+00
-1.400000e-01	-7.000000e-02	0.000000e+00	0.000000e+00	0.000000e+00
-7.000000e-02	0.000000e+00	0.000000e+00	0.000000e+00	0.000000e+00
# END HISTO1D

