# BEGIN PLOT
LegendOnly=/pythia_np_pt50_s1_1e3.yoda/PAPER_FIN_R8/XS_CUTS_pT_all
DrawOnly=/pythia_np_pt50_s1_1e3.yoda/PAPER_FIN_R8/XS_CUTS_pT_all
Legend=1
LogY=1
# END PLOT

# BEGIN HISTO1D /pythia_np_pt50_s1_1e3.yoda/PAPER_FIN_R8/XS_CUTS_pT_all
LineColor=red
LineStyle=solid
Path=/pythia_np_pt50_s1_1e3.yoda/PAPER_FIN_R8/XS_CUTS_pT_all
Title=pythia_np_pt50_s1_1e3
XLabel=~
YLabel=~
# xlow	 xhigh	 val	 errminus	 errplus
-5.000000e-01	5.000000e-01	2.813543e+04	8.897273e+02	8.897273e+02
# END HISTO1D

