# BEGIN PLOT
LegendOnly=/zj_ps_nlo_mer_mur1_muf0.5_R4.yoda/PAPER_FIN_R4/ch_SD_l20_pT_120_150
DrawOnly=/zj_ps_nlo_mer_mur1_muf0.5_R4.yoda/PAPER_FIN_R4/ch_SD_l20_pT_120_150
Legend=1
LogY=1
# END PLOT

# BEGIN HISTO1D /zj_ps_nlo_mer_mur1_muf0.5_R4.yoda/PAPER_FIN_R4/ch_SD_l20_pT_120_150
LineColor=red
LineStyle=solid
Path=/zj_ps_nlo_mer_mur1_muf0.5_R4.yoda/PAPER_FIN_R4/ch_SD_l20_pT_120_150
Title=zj_ps_nlo_mer_mur1_muf0.5_R4
XLabel=~
YLabel=~
# xlow	 xhigh	 val	 errminus	 errplus
-7.000000e+00	-6.930000e+00	-1.229690e+05	1.214909e+05	1.214909e+05
-6.930000e+00	-6.860000e+00	-1.059760e+06	2.792961e+06	2.792961e+06
-6.860000e+00	-6.790000e+00	1.821949e+04	1.473477e+04	1.473477e+04
-6.790000e+00	-6.720000e+00	-3.321040e+02	1.672937e+03	1.672937e+03
-6.720000e+00	-6.650000e+00	1.242835e+04	1.169584e+04	1.169584e+04
-6.650000e+00	-6.580000e+00	2.435731e+04	1.891013e+04	1.891013e+04
-6.580000e+00	-6.510000e+00	1.038419e+02	3.376091e+03	3.376091e+03
-6.510000e+00	-6.440000e+00	2.281293e+04	2.055004e+04	2.055004e+04
-6.440000e+00	-6.370000e+00	3.292110e+04	1.847489e+04	1.847489e+04
-6.370000e+00	-6.300000e+00	-5.674007e+03	7.427889e+03	7.427889e+03
-6.300000e+00	-6.230000e+00	-3.736490e+03	7.106783e+03	7.106783e+03
-6.230000e+00	-6.160000e+00	-1.648874e+04	3.211257e+04	3.211257e+04
-6.160000e+00	-6.090000e+00	4.177411e+04	3.095181e+04	3.095181e+04
-6.090000e+00	-6.020000e+00	1.646577e+04	2.199903e+04	2.199903e+04
-6.020000e+00	-5.950000e+00	2.467120e+04	2.004439e+04	2.004439e+04
-5.950000e+00	-5.880000e+00	-6.812650e+04	4.851272e+04	4.851272e+04
-5.880000e+00	-5.810000e+00	-3.507443e+02	3.458043e+04	3.458043e+04
-5.810000e+00	-5.740000e+00	1.648577e+04	4.187124e+04	4.187124e+04
-5.740000e+00	-5.670000e+00	-7.601836e+04	1.569120e+05	1.569120e+05
-5.670000e+00	-5.600000e+00	-5.035031e+04	4.961470e+04	4.961470e+04
-5.600000e+00	-5.530000e+00	-2.507684e+04	9.325391e+04	9.325391e+04
-5.530000e+00	-5.460000e+00	-3.437484e+04	2.751932e+04	2.751932e+04
-5.460000e+00	-5.390000e+00	-7.193283e+03	1.045248e+05	1.045248e+05
-5.390000e+00	-5.320000e+00	7.365130e+04	4.728466e+04	4.728466e+04
-5.320000e+00	-5.250000e+00	1.932727e+04	7.968480e+04	7.968480e+04
-5.250000e+00	-5.180000e+00	2.381037e+04	1.013445e+05	1.013445e+05
-5.180000e+00	-5.110000e+00	2.419597e+05	9.034838e+04	9.034838e+04
-5.110000e+00	-5.040000e+00	3.440139e+05	1.886479e+05	1.886479e+05
-5.040000e+00	-4.970000e+00	8.245514e+04	1.552948e+05	1.552948e+05
-4.970000e+00	-4.900000e+00	-2.581951e+05	2.545494e+05	2.545494e+05
-4.900000e+00	-4.830000e+00	2.502484e+05	1.816171e+05	1.816171e+05
-4.830000e+00	-4.760000e+00	9.352010e+04	2.016505e+05	2.016505e+05
-4.760000e+00	-4.690000e+00	1.119324e+05	1.438444e+05	1.438444e+05
-4.690000e+00	-4.620000e+00	2.441796e+05	1.770695e+05	1.770695e+05
-4.620000e+00	-4.550000e+00	6.553319e+05	3.009698e+05	3.009698e+05
-4.550000e+00	-4.480000e+00	1.020585e+05	2.381985e+05	2.381985e+05
-4.480000e+00	-4.410000e+00	6.776457e+05	3.502451e+05	3.502451e+05
-4.410000e+00	-4.340000e+00	6.056707e+04	4.960219e+05	4.960219e+05
-4.340000e+00	-4.270000e+00	3.187906e+05	3.558635e+05	3.558635e+05
-4.270000e+00	-4.200000e+00	1.831006e+05	8.977701e+05	8.977701e+05
-4.200000e+00	-4.130000e+00	3.344484e+05	8.873224e+05	8.873224e+05
-4.130000e+00	-4.060000e+00	3.815914e+06	3.013397e+06	3.013397e+06
-4.060000e+00	-3.990000e+00	8.953899e+05	1.162466e+06	1.162466e+06
-3.990000e+00	-3.920000e+00	-1.019012e+05	9.079255e+05	9.079255e+05
-3.920000e+00	-3.850000e+00	1.161323e+05	1.054402e+06	1.054402e+06
-3.850000e+00	-3.780000e+00	-2.697431e+04	1.143468e+06	1.143468e+06
-3.780000e+00	-3.710000e+00	1.527109e+06	6.420018e+05	6.420018e+05
-3.710000e+00	-3.640000e+00	2.732421e+06	1.068870e+06	1.068870e+06
-3.640000e+00	-3.570000e+00	1.708646e+06	1.108240e+06	1.108240e+06
-3.570000e+00	-3.500000e+00	3.752734e+06	1.074703e+06	1.074703e+06
-3.500000e+00	-3.430000e+00	-4.503981e+05	2.715750e+06	2.715750e+06
-3.430000e+00	-3.360000e+00	-4.304811e+05	3.689277e+06	3.689277e+06
-3.360000e+00	-3.290000e+00	1.195316e+06	2.043513e+06	2.043513e+06
-3.290000e+00	-3.220000e+00	5.021311e+06	2.543312e+06	2.543312e+06
-3.220000e+00	-3.150000e+00	6.023881e+06	2.193222e+06	2.193222e+06
-3.150000e+00	-3.080000e+00	4.171136e+06	3.112492e+06	3.112492e+06
-3.080000e+00	-3.010000e+00	7.869337e+06	2.287319e+06	2.287319e+06
-3.010000e+00	-2.940000e+00	1.621406e+06	3.458155e+06	3.458155e+06
-2.940000e+00	-2.870000e+00	6.873443e+06	2.237439e+06	2.237439e+06
-2.870000e+00	-2.800000e+00	-4.944017e+06	8.073231e+06	8.073231e+06
-2.800000e+00	-2.730000e+00	8.916960e+06	2.822880e+06	2.822880e+06
-2.730000e+00	-2.660000e+00	8.059537e+06	3.083835e+06	3.083835e+06
-2.660000e+00	-2.590000e+00	1.393045e+07	2.837355e+06	2.837355e+06
-2.590000e+00	-2.520000e+00	1.323211e+07	5.429081e+06	5.429081e+06
-2.520000e+00	-2.450000e+00	4.943959e+06	3.657127e+06	3.657127e+06
-2.450000e+00	-2.380000e+00	1.190432e+07	3.406571e+06	3.406571e+06
-2.380000e+00	-2.310000e+00	7.695037e+06	3.446215e+06	3.446215e+06
-2.310000e+00	-2.240000e+00	1.753039e+07	4.999675e+06	4.999675e+06
-2.240000e+00	-2.170000e+00	5.475661e+06	6.063247e+06	6.063247e+06
-2.170000e+00	-2.100000e+00	1.386155e+07	4.455142e+06	4.455142e+06
-2.100000e+00	-2.030000e+00	4.852637e+06	5.439712e+06	5.439712e+06
-2.030000e+00	-1.960000e+00	1.522134e+07	3.963872e+06	3.963872e+06
-1.960000e+00	-1.890000e+00	8.469979e+06	3.926863e+06	3.926863e+06
-1.890000e+00	-1.820000e+00	4.723860e+06	3.526253e+06	3.526253e+06
-1.820000e+00	-1.750000e+00	1.248073e+07	6.641493e+06	6.641493e+06
-1.750000e+00	-1.680000e+00	-1.913650e+06	8.627240e+06	8.627240e+06
-1.680000e+00	-1.610000e+00	8.114316e+06	3.475761e+06	3.475761e+06
-1.610000e+00	-1.540000e+00	-1.686689e+07	2.740867e+07	2.740867e+07
-1.540000e+00	-1.470000e+00	1.373187e+07	3.097006e+06	3.097006e+06
-1.470000e+00	-1.400000e+00	7.027726e+06	3.645694e+06	3.645694e+06
-1.400000e+00	-1.330000e+00	-2.878996e+07	2.978812e+07	2.978812e+07
-1.330000e+00	-1.260000e+00	4.437880e+05	1.003342e+07	1.003342e+07
-1.260000e+00	-1.190000e+00	4.838057e+06	9.277304e+06	9.277304e+06
-1.190000e+00	-1.120000e+00	4.159879e+06	1.428814e+07	1.428814e+07
-1.120000e+00	-1.050000e+00	2.082034e+07	8.409811e+06	8.409811e+06
-1.050000e+00	-9.800000e-01	1.045536e+07	4.666756e+06	4.666756e+06
-9.800000e-01	-9.100000e-01	6.816893e+06	3.998452e+06	3.998452e+06
-9.100000e-01	-8.400000e-01	6.698183e+06	5.713721e+06	5.713721e+06
-8.400000e-01	-7.700000e-01	5.058093e+06	3.983924e+06	3.983924e+06
-7.700000e-01	-7.000000e-01	-2.277761e+05	5.269080e+06	5.269080e+06
-7.000000e-01	-6.300000e-01	5.724947e+06	3.116007e+06	3.116007e+06
-6.300000e-01	-5.600000e-01	9.291716e+05	2.132081e+06	2.132081e+06
-5.600000e-01	-4.900000e-01	3.505267e+06	1.377014e+06	1.377014e+06
-4.900000e-01	-4.200000e-01	1.358331e+05	6.730953e+05	6.730953e+05
-4.200000e-01	-3.500000e-01	4.404509e+04	2.376574e+05	2.376574e+05
-3.500000e-01	-2.800000e-01	-8.359033e+03	6.973972e+03	6.973972e+03
-2.800000e-01	-2.100000e-01	0.000000e+00	0.000000e+00	0.000000e+00
-2.100000e-01	-1.400000e-01	0.000000e+00	0.000000e+00	0.000000e+00
-1.400000e-01	-7.000000e-02	0.000000e+00	0.000000e+00	0.000000e+00
-7.000000e-02	0.000000e+00	0.000000e+00	0.000000e+00	0.000000e+00
# END HISTO1D

