# BEGIN PLOT
LegendOnly=/zj_ps_nlo_mer_mur1_muf0.5_R4.yoda/PAPER_FIN_R4/lin_SD_l20_pT_65_88
DrawOnly=/zj_ps_nlo_mer_mur1_muf0.5_R4.yoda/PAPER_FIN_R4/lin_SD_l20_pT_65_88
Legend=1
LogY=1
# END PLOT

# BEGIN HISTO1D /zj_ps_nlo_mer_mur1_muf0.5_R4.yoda/PAPER_FIN_R4/lin_SD_l20_pT_65_88
LineColor=red
LineStyle=solid
Path=/zj_ps_nlo_mer_mur1_muf0.5_R4.yoda/PAPER_FIN_R4/lin_SD_l20_pT_65_88
Title=zj_ps_nlo_mer_mur1_muf0.5_R4
XLabel=~
YLabel=~
# xlow	 xhigh	 val	 errminus	 errplus
0.000000e+00	2.500000e-03	-1.389751e+07	1.248710e+07	1.248710e+07
2.500000e-03	1.000000e-02	-1.097712e+07	4.998126e+06	4.998126e+06
1.000000e-02	2.500000e-02	-8.937233e+06	2.446609e+06	2.446609e+06
2.500000e-02	6.000000e-02	-1.072899e+06	2.178798e+06	2.178798e+06
6.000000e-02	1.200000e-01	-3.092615e+06	1.165969e+06	1.165969e+06
1.200000e-01	1.770000e-01	-4.277237e+06	9.883201e+05	9.883201e+05
1.770000e-01	2.300000e-01	-1.226917e+06	5.757129e+05	5.757129e+05
2.300000e-01	1.000000e+00	-2.684395e+05	1.935901e+05	1.935901e+05
# END HISTO1D

