# BEGIN PLOT
LegendOnly=/zj_ps_nlo_mer_mur2_muf2_R8.yoda/PAPER_FIN_R8/ch_lin_SD_l05_pT_65_88
DrawOnly=/zj_ps_nlo_mer_mur2_muf2_R8.yoda/PAPER_FIN_R8/ch_lin_SD_l05_pT_65_88
Legend=1
LogY=1
# END PLOT

# BEGIN HISTO1D /zj_ps_nlo_mer_mur2_muf2_R8.yoda/PAPER_FIN_R8/ch_lin_SD_l05_pT_65_88
LineColor=red
LineStyle=solid
Path=/zj_ps_nlo_mer_mur2_muf2_R8.yoda/PAPER_FIN_R8/ch_lin_SD_l05_pT_65_88
Title=zj_ps_nlo_mer_mur2_muf2_R8
XLabel=~
YLabel=~
# xlow	 xhigh	 val	 errminus	 errplus
0.000000e+00	6.000000e-02	1.219933e+10	2.550205e+08	2.550205e+08
6.000000e-02	9.000000e-02	2.532574e+10	4.626158e+08	4.626158e+08
9.000000e-02	1.200000e-01	3.404687e+10	9.374328e+08	9.374328e+08
1.200000e-01	1.500000e-01	3.808710e+10	5.499810e+08	5.499810e+08
1.500000e-01	1.900000e-01	3.586815e+10	6.887724e+08	6.887724e+08
1.900000e-01	2.300000e-01	3.118055e+10	6.372920e+08	6.372920e+08
2.300000e-01	2.700000e-01	2.665737e+10	6.134013e+08	6.134013e+08
2.700000e-01	3.200000e-01	2.169424e+10	3.715780e+08	3.715780e+08
3.200000e-01	3.700000e-01	1.746898e+10	2.766163e+08	2.766163e+08
3.700000e-01	4.200000e-01	1.418506e+10	3.028623e+08	3.028623e+08
4.200000e-01	4.800000e-01	1.034757e+10	2.049983e+08	2.049983e+08
4.800000e-01	5.400000e-01	6.145828e+09	3.350674e+08	3.350674e+08
5.400000e-01	6.000000e-01	3.781337e+09	1.087819e+08	1.087819e+08
6.000000e-01	1.000000e+00	3.223760e+08	1.256934e+07	1.256934e+07
# END HISTO1D

