# BEGIN PLOT
LegendOnly=/zj_ps_nlo_mer_mur2_muf1_R4.yoda/PAPER_FIN_R4_CH/lin_l20_pT_326_408
DrawOnly=/zj_ps_nlo_mer_mur2_muf1_R4.yoda/PAPER_FIN_R4_CH/lin_l20_pT_326_408
Legend=1
LogY=1
# END PLOT

# BEGIN HISTO1D /zj_ps_nlo_mer_mur2_muf1_R4.yoda/PAPER_FIN_R4_CH/lin_l20_pT_326_408
LineColor=red
LineStyle=solid
Path=/zj_ps_nlo_mer_mur2_muf1_R4.yoda/PAPER_FIN_R4_CH/lin_l20_pT_326_408
Title=zj_ps_nlo_mer_mur2_muf1_R4
XLabel=~
YLabel=~
# xlow	 xhigh	 val	 errminus	 errplus
0.000000e+00	5.000000e-03	6.870224e+09	9.215493e+07	9.215493e+07
5.000000e-03	1.250000e-02	1.648915e+10	2.079366e+08	2.079366e+08
1.250000e-02	2.250000e-02	1.174071e+10	1.417246e+08	1.417246e+08
2.250000e-02	3.500000e-02	6.402604e+09	6.969068e+07	6.969068e+07
3.500000e-02	5.000000e-02	3.539049e+09	5.319767e+07	5.319767e+07
5.000000e-02	7.000000e-02	2.131899e+09	2.842931e+07	2.842931e+07
7.000000e-02	9.250000e-02	1.278040e+09	2.107158e+07	2.107158e+07
9.250000e-02	1.200000e-01	8.410669e+08	1.677941e+07	1.677941e+07
1.200000e-01	1.520000e-01	5.340541e+08	1.381350e+07	1.381350e+07
1.520000e-01	1.880000e-01	3.375494e+08	9.184045e+06	9.184045e+06
1.880000e-01	2.280000e-01	1.890651e+08	1.391245e+07	1.391245e+07
2.280000e-01	1.000000e+00	8.743759e+06	2.271206e+05	2.271206e+05
# END HISTO1D

