# BEGIN PLOT
LegendOnly=/zj_ps_nlo_mer_mur2_muf1_R4.yoda/PAPER_FIN_R4_CH/lin_l05_pT_254_326
DrawOnly=/zj_ps_nlo_mer_mur2_muf1_R4.yoda/PAPER_FIN_R4_CH/lin_l05_pT_254_326
Legend=1
LogY=1
# END PLOT

# BEGIN HISTO1D /zj_ps_nlo_mer_mur2_muf1_R4.yoda/PAPER_FIN_R4_CH/lin_l05_pT_254_326
LineColor=red
LineStyle=solid
Path=/zj_ps_nlo_mer_mur2_muf1_R4.yoda/PAPER_FIN_R4_CH/lin_l05_pT_254_326
Title=zj_ps_nlo_mer_mur2_muf1_R4
XLabel=~
YLabel=~
# xlow	 xhigh	 val	 errminus	 errplus
0.000000e+00	6.000000e-02	8.317572e+07	7.870299e+06	7.870299e+06
6.000000e-02	1.100000e-01	1.633360e+09	2.521163e+07	2.521163e+07
1.100000e-01	1.500000e-01	5.066963e+09	3.497488e+07	3.497488e+07
1.500000e-01	1.900000e-01	6.274320e+09	3.978932e+07	3.978932e+07
1.900000e-01	2.300000e-01	5.190425e+09	8.748782e+07	8.748782e+07
2.300000e-01	2.700000e-01	3.729500e+09	3.526630e+07	3.526630e+07
2.700000e-01	3.100000e-01	2.778760e+09	3.514747e+07	3.514747e+07
3.100000e-01	3.500000e-01	2.109626e+09	3.665033e+07	3.665033e+07
3.500000e-01	3.900000e-01	1.557211e+09	2.720634e+07	2.720634e+07
3.900000e-01	4.400000e-01	1.142375e+09	1.230554e+07	1.230554e+07
4.400000e-01	4.900000e-01	7.551340e+08	1.622531e+07	1.622531e+07
4.900000e-01	5.400000e-01	4.995790e+08	1.522599e+07	1.522599e+07
5.400000e-01	6.000000e-01	2.840713e+08	8.210339e+06	8.210339e+06
6.000000e-01	1.000000e+00	2.098542e+07	9.510471e+05	9.510471e+05
# END HISTO1D

