# BEGIN PLOT
LegendOnly=/zj_ps_nlo_mer_mur2_muf1_R4.yoda/PAPER_FIN_R4/ch_l05_pT_326_408
DrawOnly=/zj_ps_nlo_mer_mur2_muf1_R4.yoda/PAPER_FIN_R4/ch_l05_pT_326_408
Legend=1
LogY=1
# END PLOT

# BEGIN HISTO1D /zj_ps_nlo_mer_mur2_muf1_R4.yoda/PAPER_FIN_R4/ch_l05_pT_326_408
LineColor=red
LineStyle=solid
Path=/zj_ps_nlo_mer_mur2_muf1_R4.yoda/PAPER_FIN_R4/ch_l05_pT_326_408
Title=zj_ps_nlo_mer_mur2_muf1_R4
XLabel=~
YLabel=~
# xlow	 xhigh	 val	 errminus	 errplus
-7.000000e+00	-6.930000e+00	0.000000e+00	0.000000e+00	0.000000e+00
-6.930000e+00	-6.860000e+00	2.321901e+06	7.346710e+05	7.346710e+05
-6.860000e+00	-6.790000e+00	0.000000e+00	0.000000e+00	0.000000e+00
-6.790000e+00	-6.720000e+00	0.000000e+00	0.000000e+00	0.000000e+00
-6.720000e+00	-6.650000e+00	0.000000e+00	0.000000e+00	0.000000e+00
-6.650000e+00	-6.580000e+00	0.000000e+00	0.000000e+00	0.000000e+00
-6.580000e+00	-6.510000e+00	0.000000e+00	0.000000e+00	0.000000e+00
-6.510000e+00	-6.440000e+00	0.000000e+00	0.000000e+00	0.000000e+00
-6.440000e+00	-6.370000e+00	0.000000e+00	0.000000e+00	0.000000e+00
-6.370000e+00	-6.300000e+00	0.000000e+00	0.000000e+00	0.000000e+00
-6.300000e+00	-6.230000e+00	0.000000e+00	0.000000e+00	0.000000e+00
-6.230000e+00	-6.160000e+00	0.000000e+00	0.000000e+00	0.000000e+00
-6.160000e+00	-6.090000e+00	0.000000e+00	0.000000e+00	0.000000e+00
-6.090000e+00	-6.020000e+00	0.000000e+00	0.000000e+00	0.000000e+00
-6.020000e+00	-5.950000e+00	0.000000e+00	0.000000e+00	0.000000e+00
-5.950000e+00	-5.880000e+00	0.000000e+00	0.000000e+00	0.000000e+00
-5.880000e+00	-5.810000e+00	0.000000e+00	0.000000e+00	0.000000e+00
-5.810000e+00	-5.740000e+00	0.000000e+00	0.000000e+00	0.000000e+00
-5.740000e+00	-5.670000e+00	0.000000e+00	0.000000e+00	0.000000e+00
-5.670000e+00	-5.600000e+00	0.000000e+00	0.000000e+00	0.000000e+00
-5.600000e+00	-5.530000e+00	0.000000e+00	0.000000e+00	0.000000e+00
-5.530000e+00	-5.460000e+00	0.000000e+00	0.000000e+00	0.000000e+00
-5.460000e+00	-5.390000e+00	0.000000e+00	0.000000e+00	0.000000e+00
-5.390000e+00	-5.320000e+00	0.000000e+00	0.000000e+00	0.000000e+00
-5.320000e+00	-5.250000e+00	0.000000e+00	0.000000e+00	0.000000e+00
-5.250000e+00	-5.180000e+00	0.000000e+00	0.000000e+00	0.000000e+00
-5.180000e+00	-5.110000e+00	0.000000e+00	0.000000e+00	0.000000e+00
-5.110000e+00	-5.040000e+00	0.000000e+00	0.000000e+00	0.000000e+00
-5.040000e+00	-4.970000e+00	2.792440e-03	2.792440e-03	2.792440e-03
-4.970000e+00	-4.900000e+00	0.000000e+00	0.000000e+00	0.000000e+00
-4.900000e+00	-4.830000e+00	0.000000e+00	0.000000e+00	0.000000e+00
-4.830000e+00	-4.760000e+00	0.000000e+00	0.000000e+00	0.000000e+00
-4.760000e+00	-4.690000e+00	0.000000e+00	0.000000e+00	0.000000e+00
-4.690000e+00	-4.620000e+00	4.909029e-01	4.909030e-01	4.909030e-01
-4.620000e+00	-4.550000e+00	-7.294793e-14	7.294793e-14	7.294793e-14
-4.550000e+00	-4.480000e+00	5.790906e+00	5.790906e+00	5.790906e+00
-4.480000e+00	-4.410000e+00	4.137987e+02	3.069162e+02	3.069162e+02
-4.410000e+00	-4.340000e+00	2.791967e+00	2.791967e+00	2.791967e+00
-4.340000e+00	-4.270000e+00	2.627163e-02	2.627163e-02	2.627163e-02
-4.270000e+00	-4.200000e+00	3.355699e+01	2.796757e+01	2.796757e+01
-4.200000e+00	-4.130000e+00	2.628457e-04	2.628457e-04	2.628457e-04
-4.130000e+00	-4.060000e+00	1.554840e+01	1.668116e+01	1.668116e+01
-4.060000e+00	-3.990000e+00	-7.077649e+02	7.049196e+02	7.049196e+02
-3.990000e+00	-3.920000e+00	1.019151e+02	2.538167e+02	2.538167e+02
-3.920000e+00	-3.850000e+00	-2.249003e+01	1.985360e+01	1.985360e+01
-3.850000e+00	-3.780000e+00	3.089443e+02	5.967300e+02	5.967300e+02
-3.780000e+00	-3.710000e+00	-1.630991e+02	5.561647e+02	5.561647e+02
-3.710000e+00	-3.640000e+00	8.637819e+03	8.775930e+03	8.775930e+03
-3.640000e+00	-3.570000e+00	5.145240e+03	5.074456e+03	5.074456e+03
-3.570000e+00	-3.500000e+00	9.810657e+03	6.701594e+03	6.701594e+03
-3.500000e+00	-3.430000e+00	2.350013e+04	1.479667e+04	1.479667e+04
-3.430000e+00	-3.360000e+00	5.705899e+04	5.526321e+04	5.526321e+04
-3.360000e+00	-3.290000e+00	1.468566e+04	1.559759e+04	1.559759e+04
-3.290000e+00	-3.220000e+00	-3.116350e+03	9.983138e+03	9.983138e+03
-3.220000e+00	-3.150000e+00	2.360431e+04	1.398258e+04	1.398258e+04
-3.150000e+00	-3.080000e+00	7.268930e+03	1.601921e+04	1.601921e+04
-3.080000e+00	-3.010000e+00	2.558797e+04	9.025748e+03	9.025748e+03
-3.010000e+00	-2.940000e+00	4.507833e+04	2.197465e+04	2.197465e+04
-2.940000e+00	-2.870000e+00	2.435594e+04	1.898380e+04	1.898380e+04
-2.870000e+00	-2.800000e+00	4.941017e+04	3.303868e+04	3.303868e+04
-2.800000e+00	-2.730000e+00	5.922080e+04	2.748002e+04	2.748002e+04
-2.730000e+00	-2.660000e+00	7.431841e+04	3.385075e+04	3.385075e+04
-2.660000e+00	-2.590000e+00	1.476317e+05	3.694232e+04	3.694232e+04
-2.590000e+00	-2.520000e+00	1.943854e+05	7.534609e+04	7.534609e+04
-2.520000e+00	-2.450000e+00	-1.254662e+04	1.650913e+05	1.650913e+05
-2.450000e+00	-2.380000e+00	2.468719e+05	7.207660e+04	7.207660e+04
-2.380000e+00	-2.310000e+00	3.423963e+05	7.525890e+04	7.525890e+04
-2.310000e+00	-2.240000e+00	4.781437e+05	1.235432e+05	1.235432e+05
-2.240000e+00	-2.170000e+00	4.643210e+05	1.167432e+05	1.167432e+05
-2.170000e+00	-2.100000e+00	7.750087e+05	1.161123e+05	1.161123e+05
-2.100000e+00	-2.030000e+00	1.127958e+06	2.771576e+05	2.771576e+05
-2.030000e+00	-1.960000e+00	1.026570e+06	1.612480e+05	1.612480e+05
-1.960000e+00	-1.890000e+00	1.428801e+06	1.902235e+05	1.902235e+05
-1.890000e+00	-1.820000e+00	1.854454e+06	3.323282e+05	3.323282e+05
-1.820000e+00	-1.750000e+00	2.849843e+06	3.304241e+05	3.304241e+05
-1.750000e+00	-1.680000e+00	3.784257e+06	3.732151e+05	3.732151e+05
-1.680000e+00	-1.610000e+00	5.931900e+06	6.116765e+05	6.116765e+05
-1.610000e+00	-1.540000e+00	8.117144e+06	6.379412e+05	6.379412e+05
-1.540000e+00	-1.470000e+00	1.251526e+07	6.713193e+05	6.713193e+05
-1.470000e+00	-1.400000e+00	2.326336e+07	8.776908e+05	8.776908e+05
-1.400000e+00	-1.330000e+00	3.820537e+07	1.074077e+06	1.074077e+06
-1.330000e+00	-1.260000e+00	6.138549e+07	1.712532e+06	1.712532e+06
-1.260000e+00	-1.190000e+00	9.977999e+07	2.498376e+06	2.498376e+06
-1.190000e+00	-1.120000e+00	1.649563e+08	2.499660e+06	2.499660e+06
-1.120000e+00	-1.050000e+00	2.654931e+08	5.976741e+06	5.976741e+06
-1.050000e+00	-9.800000e-01	4.311563e+08	8.757299e+06	8.757299e+06
-9.800000e-01	-9.100000e-01	5.846323e+08	9.394010e+06	9.394010e+06
-9.100000e-01	-8.400000e-01	7.208313e+08	2.103720e+07	2.103720e+07
-8.400000e-01	-7.700000e-01	8.512720e+08	7.765003e+06	7.765003e+06
-7.700000e-01	-7.000000e-01	8.717183e+08	7.565897e+06	7.565897e+06
-7.000000e-01	-6.300000e-01	8.337499e+08	1.710143e+07	1.710143e+07
-6.300000e-01	-5.600000e-01	7.424014e+08	1.198891e+07	1.198891e+07
-5.600000e-01	-4.900000e-01	6.599831e+08	8.484644e+06	8.484644e+06
-4.900000e-01	-4.200000e-01	5.519239e+08	7.731321e+06	7.731321e+06
-4.200000e-01	-3.500000e-01	4.119754e+08	9.796370e+06	9.796370e+06
-3.500000e-01	-2.800000e-01	2.890391e+08	7.070128e+06	7.070128e+06
-2.800000e-01	-2.100000e-01	1.347381e+08	4.944403e+06	4.944403e+06
-2.100000e-01	-1.400000e-01	2.757991e+07	1.526429e+06	1.526429e+06
-1.400000e-01	-7.000000e-02	1.099713e+06	1.380941e+05	1.380941e+05
-7.000000e-02	0.000000e+00	-1.827879e+02	2.286988e+02	2.286988e+02
# END HISTO1D

