# BEGIN PLOT
LegendOnly=/Resum_mult_NLO.yoda/CMS_2018_PAS_SMP_18_QGX_ZPJ/d21-x08-y03
DrawOnly=/Resum_mult_NLO.yoda/CMS_2018_PAS_SMP_18_QGX_ZPJ/d21-x08-y03
Legend=1
LogY=1
# END PLOT

# BEGIN HISTO1D /Resum_mult_NLO.yoda/CMS_2018_PAS_SMP_18_QGX_ZPJ/d21-x08-y03
LineColor=red
LineStyle=solid
Path=/Resum_mult_NLO.yoda/CMS_2018_PAS_SMP_18_QGX_ZPJ/d21-x08-y03
Title=Resum_mult_NLO
# xlow	 xhigh	 val	 errminus	 errplus
0.000000e+00	6.000000e-02	1.011048e+01	9.903513e+00	1.287754e+01
6.000000e-02	1.100000e-01	3.758924e+01	8.718413e+00	8.783020e-01
1.100000e-01	1.500000e-01	3.079082e+01	3.510337e+00	4.127304e+00
1.500000e-01	1.900000e-01	2.386542e+01	3.507462e+00	3.944328e+00
1.900000e-01	2.300000e-01	1.824841e+01	3.096743e+00	3.880847e+00
2.300000e-01	2.700000e-01	1.387984e+01	2.543781e+00	3.467334e+00
2.700000e-01	3.100000e-01	1.051896e+01	2.010085e+00	2.935260e+00
3.100000e-01	3.500000e-01	7.972914e+00	1.550114e+00	2.383532e+00
3.500000e-01	3.900000e-01	5.889515e+00	1.169756e+00	1.877837e+00
3.900000e-01	4.400000e-01	4.086965e+00	8.337691e-01	1.382382e+00
4.400000e-01	4.900000e-01	2.489353e+00	5.494406e-01	9.337918e-01
4.900000e-01	5.400000e-01	1.155719e+00	3.398589e-01	5.820798e-01
5.400000e-01	6.000000e-01	4.245880e-01	1.779710e-01	2.977515e-01
6.000000e-01	1.000000e+00	1.904099e-02	9.626935e-03	1.479883e-02
# END HISTO1D

