# BEGIN PLOT
LegendOnly=/Resum_mult_NLO.yoda/CMS_2018_PAS_SMP_18_QGX_ZPJ/d22-x08-y08
DrawOnly=/Resum_mult_NLO.yoda/CMS_2018_PAS_SMP_18_QGX_ZPJ/d22-x08-y08
Legend=1
LogY=1
# END PLOT

# BEGIN HISTO1D /Resum_mult_NLO.yoda/CMS_2018_PAS_SMP_18_QGX_ZPJ/d22-x08-y08
LineColor=red
LineStyle=solid
Path=/Resum_mult_NLO.yoda/CMS_2018_PAS_SMP_18_QGX_ZPJ/d22-x08-y08
Title=Resum_mult_NLO
# xlow	 xhigh	 val	 errminus	 errplus
0.000000e+00	6.000000e-02	7.804068e-01	3.506905e-01	3.187547e-01
6.000000e-02	9.000000e-02	7.978000e-01	8.648414e-02	1.039456e-01
9.000000e-02	1.200000e-01	7.510897e-01	9.735701e-02	1.068792e-01
1.200000e-01	1.500000e-01	6.337594e-01	8.686352e-02	1.052661e-01
1.500000e-01	1.900000e-01	4.923375e-01	7.257234e-02	9.062276e-02
1.900000e-01	2.300000e-01	3.683801e-01	5.880267e-02	7.250379e-02
2.300000e-01	2.700000e-01	2.796960e-01	4.797253e-02	5.815632e-02
2.700000e-01	3.200000e-01	2.025526e-01	3.719157e-02	4.828525e-02
3.200000e-01	3.700000e-01	1.437998e-01	2.711926e-02	3.753599e-02
3.700000e-01	4.200000e-01	9.604379e-02	1.933659e-02	2.808286e-02
4.200000e-01	4.800000e-01	5.578465e-02	1.288649e-02	1.945700e-02
4.800000e-01	5.400000e-01	2.414416e-02	7.659109e-03	1.193603e-02
5.400000e-01	6.000000e-01	8.773254e-03	4.057576e-03	6.231961e-03
6.000000e-01	1.000000e+00	4.279254e-04	2.263897e-04	3.509857e-04
# END HISTO1D

