# BEGIN PLOT
LegendOnly=/Resum_mult_NLO.yoda/CMS_2018_PAS_SMP_18_QGX_ZPJ/d21-x04-y02
DrawOnly=/Resum_mult_NLO.yoda/CMS_2018_PAS_SMP_18_QGX_ZPJ/d21-x04-y02
Legend=1
LogY=1
# END PLOT

# BEGIN HISTO1D /Resum_mult_NLO.yoda/CMS_2018_PAS_SMP_18_QGX_ZPJ/d21-x04-y02
LineColor=red
LineStyle=solid
Path=/Resum_mult_NLO.yoda/CMS_2018_PAS_SMP_18_QGX_ZPJ/d21-x04-y02
Title=Resum_mult_NLO
# xlow	 xhigh	 val	 errminus	 errplus
0.000000e+00	1.050000e-01	7.175409e+01	8.933715e+00	6.713909e+00
1.050000e-01	1.650000e-01	3.209686e+01	4.560106e+00	5.775578e+00
1.650000e-01	2.300000e-01	1.808182e+01	2.742993e+00	3.500745e+00
2.300000e-01	3.050000e-01	1.023093e+01	1.662744e+00	2.403679e+00
3.050000e-01	3.800000e-01	5.690443e+00	9.673411e-01	1.549415e+00
3.800000e-01	4.600000e-01	2.837325e+00	5.423263e-01	9.526447e-01
4.600000e-01	5.500000e-01	9.106867e-01	2.699590e-01	5.089743e-01
5.500000e-01	1.000000e+00	4.679568e-02	2.325995e-02	4.597128e-02
# END HISTO1D

