# BEGIN PLOT
LegendOnly=/Resum_mult_NLO.yoda/CMS_2018_PAS_SMP_18_QGX_ZPJ/d23-x13-y07
DrawOnly=/Resum_mult_NLO.yoda/CMS_2018_PAS_SMP_18_QGX_ZPJ/d23-x13-y07
Legend=1
LogY=1
# END PLOT

# BEGIN HISTO1D /Resum_mult_NLO.yoda/CMS_2018_PAS_SMP_18_QGX_ZPJ/d23-x13-y07
LineColor=red
LineStyle=solid
Path=/Resum_mult_NLO.yoda/CMS_2018_PAS_SMP_18_QGX_ZPJ/d23-x13-y07
Title=Resum_mult_NLO
# xlow	 xhigh	 val	 errminus	 errplus
-7.000000e+00	-6.930000e+00	0.000000e+00	0.000000e+00	0.000000e+00
-6.929999e+00	-6.860001e+00	0.000000e+00	0.000000e+00	0.000000e+00
-6.860002e+00	-6.790000e+00	0.000000e+00	0.000000e+00	0.000000e+00
-6.790000e+00	-6.720000e+00	0.000000e+00	0.000000e+00	0.000000e+00
-6.720000e+00	-6.650000e+00	0.000000e+00	0.000000e+00	0.000000e+00
-6.650000e+00	-6.580000e+00	0.000000e+00	0.000000e+00	0.000000e+00
-6.580000e+00	-6.510000e+00	0.000000e+00	0.000000e+00	0.000000e+00
-6.510000e+00	-6.440000e+00	0.000000e+00	0.000000e+00	0.000000e+00
-6.440000e+00	-6.370000e+00	0.000000e+00	0.000000e+00	0.000000e+00
-6.370000e+00	-6.300000e+00	0.000000e+00	0.000000e+00	0.000000e+00
-6.300000e+00	-6.230000e+00	0.000000e+00	0.000000e+00	0.000000e+00
-6.230000e+00	-6.160000e+00	0.000000e+00	0.000000e+00	0.000000e+00
-6.160000e+00	-6.090000e+00	0.000000e+00	0.000000e+00	0.000000e+00
-6.090000e+00	-6.020000e+00	0.000000e+00	0.000000e+00	0.000000e+00
-6.020000e+00	-5.950000e+00	0.000000e+00	0.000000e+00	0.000000e+00
-5.949999e+00	-5.879999e+00	0.000000e+00	0.000000e+00	0.000000e+00
-5.879999e+00	-5.809999e+00	0.000000e+00	0.000000e+00	0.000000e+00
-5.809999e+00	-5.740001e+00	0.000000e+00	0.000000e+00	0.000000e+00
-5.740000e+00	-5.670000e+00	0.000000e+00	0.000000e+00	0.000000e+00
-5.670001e+00	-5.599999e+00	0.000000e+00	0.000000e+00	0.000000e+00
-5.600000e+00	-5.530000e+00	0.000000e+00	0.000000e+00	0.000000e+00
-5.530000e+00	-5.460000e+00	0.000000e+00	0.000000e+00	0.000000e+00
-5.460000e+00	-5.390000e+00	0.000000e+00	0.000000e+00	0.000000e+00
-5.390000e+00	-5.320000e+00	0.000000e+00	0.000000e+00	0.000000e+00
-5.320000e+00	-5.250000e+00	0.000000e+00	0.000000e+00	0.000000e+00
-5.250000e+00	-5.180000e+00	0.000000e+00	0.000000e+00	0.000000e+00
-5.180000e+00	-5.110000e+00	0.000000e+00	0.000000e+00	0.000000e+00
-5.110000e+00	-5.040000e+00	0.000000e+00	0.000000e+00	0.000000e+00
-5.040000e+00	-4.970000e+00	0.000000e+00	0.000000e+00	0.000000e+00
-4.970000e+00	-4.899998e+00	0.000000e+00	0.000000e+00	0.000000e+00
-4.899998e+00	-4.830000e+00	0.000000e+00	0.000000e+00	0.000000e+00
-4.830000e+00	-4.760000e+00	0.000000e+00	0.000000e+00	0.000000e+00
-4.760000e+00	-4.690000e+00	0.000000e+00	0.000000e+00	0.000000e+00
-4.690000e+00	-4.620000e+00	0.000000e+00	0.000000e+00	0.000000e+00
-4.620000e+00	-4.550000e+00	0.000000e+00	0.000000e+00	0.000000e+00
-4.550000e+00	-4.480000e+00	0.000000e+00	0.000000e+00	0.000000e+00
-4.480000e+00	-4.410000e+00	0.000000e+00	0.000000e+00	0.000000e+00
-4.410000e+00	-4.340000e+00	0.000000e+00	0.000000e+00	0.000000e+00
-4.340000e+00	-4.270000e+00	0.000000e+00	0.000000e+00	0.000000e+00
-4.270000e+00	-4.200000e+00	0.000000e+00	0.000000e+00	0.000000e+00
-4.200000e+00	-4.130000e+00	0.000000e+00	0.000000e+00	0.000000e+00
-4.130000e+00	-4.060000e+00	0.000000e+00	0.000000e+00	0.000000e+00
-4.060000e+00	-3.990002e+00	0.000000e+00	0.000000e+00	0.000000e+00
-3.990001e+00	-3.920001e+00	0.000000e+00	0.000000e+00	0.000000e+00
-3.920001e+00	-3.849999e+00	0.000000e+00	0.000000e+00	0.000000e+00
-3.849999e+00	-3.779999e+00	0.000000e+00	0.000000e+00	0.000000e+00
-3.779999e+00	-3.710001e+00	0.000000e+00	0.000000e+00	0.000000e+00
-3.710001e+00	-3.639999e+00	0.000000e+00	0.000000e+00	0.000000e+00
-3.639999e+00	-3.570001e+00	0.000000e+00	0.000000e+00	0.000000e+00
-3.570001e+00	-3.499999e+00	0.000000e+00	0.000000e+00	0.000000e+00
-3.500000e+00	-3.430000e+00	0.000000e+00	0.000000e+00	0.000000e+00
-3.430000e+00	-3.360000e+00	0.000000e+00	0.000000e+00	0.000000e+00
-3.360000e+00	-3.290000e+00	0.000000e+00	0.000000e+00	0.000000e+00
-3.290000e+00	-3.220000e+00	0.000000e+00	0.000000e+00	0.000000e+00
-3.220000e+00	-3.150000e+00	0.000000e+00	0.000000e+00	0.000000e+00
-3.150000e+00	-3.080000e+00	0.000000e+00	0.000000e+00	0.000000e+00
-3.080000e+00	-3.010000e+00	0.000000e+00	0.000000e+00	0.000000e+00
-3.010000e+00	-2.940002e+00	0.000000e+00	0.000000e+00	0.000000e+00
-2.940001e+00	-2.870001e+00	0.000000e+00	0.000000e+00	0.000000e+00
-2.870001e+00	-2.800001e+00	0.000000e+00	0.000000e+00	0.000000e+00
-2.800001e+00	-2.729999e+00	0.000000e+00	0.000000e+00	0.000000e+00
-2.729999e+00	-2.660000e+00	0.000000e+00	0.000000e+00	0.000000e+00
-2.660001e+00	-2.589999e+00	0.000000e+00	0.000000e+00	0.000000e+00
-2.590000e+00	-2.520000e+00	0.000000e+00	0.000000e+00	0.000000e+00
-2.520000e+00	-2.450000e+00	0.000000e+00	0.000000e+00	0.000000e+00
-2.450000e+00	-2.380000e+00	0.000000e+00	0.000000e+00	0.000000e+00
-2.380000e+00	-2.310000e+00	0.000000e+00	0.000000e+00	0.000000e+00
-2.310000e+00	-2.240000e+00	0.000000e+00	0.000000e+00	0.000000e+00
-2.240000e+00	-2.170000e+00	0.000000e+00	0.000000e+00	0.000000e+00
-2.170000e+00	-2.100000e+00	0.000000e+00	0.000000e+00	0.000000e+00
-2.100000e+00	-2.030000e+00	0.000000e+00	0.000000e+00	0.000000e+00
-2.030000e+00	-1.960000e+00	0.000000e+00	0.000000e+00	0.000000e+00
-1.960000e+00	-1.890000e+00	0.000000e+00	0.000000e+00	0.000000e+00
-1.890000e+00	-1.820000e+00	0.000000e+00	0.000000e+00	0.000000e+00
-1.820000e+00	-1.750000e+00	0.000000e+00	0.000000e+00	0.000000e+00
-1.750000e+00	-1.680000e+00	0.000000e+00	0.000000e+00	0.000000e+00
-1.680000e+00	-1.610000e+00	0.000000e+00	0.000000e+00	0.000000e+00
-1.610000e+00	-1.540000e+00	0.000000e+00	0.000000e+00	0.000000e+00
-1.540000e+00	-1.470000e+00	0.000000e+00	0.000000e+00	0.000000e+00
-1.470000e+00	-1.400000e+00	0.000000e+00	0.000000e+00	0.000000e+00
-1.400000e+00	-1.330000e+00	0.000000e+00	0.000000e+00	0.000000e+00
-1.330000e+00	-1.260000e+00	3.168511e-01	7.583717e-02	2.172166e-02
-1.260000e+00	-1.190000e+00	3.589652e-01	3.643965e-02	2.700233e-02
-1.190000e+00	-1.120000e+00	3.970668e-01	3.518465e-02	3.874028e-02
-1.120000e+00	-1.050000e+00	4.264174e-01	4.191866e-02	4.729479e-02
-1.050000e+00	-9.799997e-01	4.664725e-01	5.077788e-02	5.817129e-02
-9.799994e-01	-9.099996e-01	4.995675e-01	6.009119e-02	7.064084e-02
-9.099995e-01	-8.399999e-01	5.093739e-01	6.615742e-02	7.953022e-02
-8.399999e-01	-7.700009e-01	5.063844e-01	7.013421e-02	8.645144e-02
-7.700009e-01	-7.000005e-01	4.866498e-01	7.112028e-02	8.873528e-02
-7.000005e-01	-6.299997e-01	4.556101e-01	7.321619e-02	8.799528e-02
-6.299998e-01	-5.599998e-01	4.068214e-01	7.067490e-02	8.850940e-02
-5.599998e-01	-4.899996e-01	3.525795e-01	6.407298e-02	8.575599e-02
-4.899995e-01	-4.200005e-01	2.819636e-01	5.388718e-02	7.678925e-02
-4.200004e-01	-3.499996e-01	2.013739e-01	4.109270e-02	6.184322e-02
-3.499996e-01	-2.800004e-01	1.068457e-01	2.708549e-02	4.236462e-02
-2.800004e-01	-2.100000e-01	3.019456e-02	1.325165e-02	2.072293e-02
-2.100000e-01	-1.400000e-01	3.540357e-03	1.874450e-03	2.910638e-03
-1.400000e-01	-7.000002e-02	0.000000e+00	0.000000e+00	0.000000e+00
-7.000002e-02	0.000000e+00	0.000000e+00	0.000000e+00	0.000000e+00
# END HISTO1D

